metingen laweit/20cm, resfreq1/data_81_213.txt

Channel              :		CH1
Frequency            :		974.9Hz
Period               :		1.026ms
PK-PK                :		216.8mV
Probe attenuation    :		1X
Voltage per ADC value:		0.122070mV
Time interval        :		2.00000us

index		CH1_Voltage(mV)
1		117.187500
2		117.187500
3		113.281250
4		117.187500
5		113.281250
6		117.187500
7		113.281250
8		117.187500
9		113.281250
10		117.187500
11		113.281250
12		115.234375
13		113.281250
14		115.234375
15		111.328125
16		115.234375
17		111.328125
18		115.234375
19		111.328125
20		115.234375
21		111.328125
22		113.281250
23		111.328125
24		113.281250
25		109.375000
26		113.281250
27		109.375000
28		113.281250
29		109.375000
30		111.328125
31		107.421875
32		111.328125
33		107.421875
34		109.375000
35		107.421875
36		109.375000
37		105.468750
38		109.375000
39		105.468750
40		107.421875
41		103.515625
42		107.421875
43		101.562500
44		105.468750
45		101.562500
46		103.515625
47		101.562500
48		103.515625
49		99.609375
50		103.515625
51		97.656250
52		101.562500
53		95.703125
54		99.609375
55		93.750000
56		97.656250
57		93.750000
58		97.656250
59		91.796875
60		95.703125
61		89.843750
62		93.750000
63		89.843750
64		91.796875
65		87.890625
66		91.796875
67		85.937500
68		89.843750
69		83.984375
70		87.890625
71		82.031250
72		87.890625
73		80.078125
74		83.984375
75		78.125000
76		82.031250
77		78.125000
78		82.031250
79		76.171875
80		78.125000
81		72.265625
82		76.171875
83		70.312500
84		76.171875
85		70.312500
86		74.218750
87		68.359375
88		70.312500
89		64.453125
90		68.359375
91		62.500000
92		68.359375
93		60.546875
94		64.453125
95		58.593750
96		62.500000
97		56.640625
98		60.546875
99		52.734375
100		58.593750
101		52.734375
102		56.640625
103		48.828125
104		54.687500
105		46.875000
106		50.781250
107		44.921875
108		48.828125
109		42.968750
110		46.875000
111		41.015625
112		44.921875
113		37.109375
114		41.015625
115		35.156250
116		39.062500
117		33.203125
118		37.109375
119		29.296875
120		35.156250
121		27.343750
122		33.203125
123		25.390625
124		29.296875
125		21.484375
126		27.343750
127		19.531250
128		25.390625
129		17.578125
130		21.484375
131		15.625000
132		19.531250
133		11.718750
134		17.578125
135		9.765625
136		15.625000
137		7.812500
138		11.718750
139		3.906250
140		9.765625
141		3.906250
142		7.812500
143		0.000000
144		5.859375
145		-1.953125
146		3.906250
147		-3.906250
148		0.000000
149		-7.812500
150		-3.906250
151		-9.765625
152		-5.859375
153		-11.718750
154		-7.812500
155		-15.625000
156		-9.765625
157		-17.578125
158		-13.671875
159		-21.484375
160		-15.625000
161		-21.484375
162		-17.578125
163		-25.390625
164		-21.484375
165		-29.296875
166		-23.437500
167		-29.296875
168		-25.390625
169		-31.250000
170		-27.343750
171		-35.156250
172		-29.296875
173		-37.109375
174		-33.203125
175		-39.062500
176		-33.203125
177		-42.968750
178		-37.109375
179		-42.968750
180		-39.062500
181		-44.921875
182		-41.015625
183		-46.875000
184		-42.968750
185		-48.828125
186		-44.921875
187		-52.734375
188		-46.875000
189		-54.687500
190		-50.781250
191		-56.640625
192		-52.734375
193		-56.640625
194		-54.687500
195		-60.546875
196		-54.687500
197		-60.546875
198		-58.593750
199		-64.453125
200		-60.546875
201		-66.406250
202		-60.546875
203		-68.359375
204		-62.500000
205		-68.359375
206		-64.453125
207		-70.312500
208		-66.406250
209		-72.265625
210		-68.359375
211		-74.218750
212		-70.312500
213		-74.218750
214		-72.265625
215		-76.171875
216		-72.265625
217		-78.125000
218		-74.218750
219		-78.125000
220		-76.171875
221		-80.078125
222		-76.171875
223		-82.031250
224		-78.125000
225		-82.031250
226		-78.125000
227		-83.984375
228		-80.078125
229		-83.984375
230		-80.078125
231		-83.984375
232		-82.031250
233		-85.937500
234		-82.031250
235		-85.937500
236		-83.984375
237		-87.890625
238		-83.984375
239		-87.890625
240		-85.937500
241		-87.890625
242		-85.937500
243		-89.843750
244		-85.937500
245		-89.843750
246		-85.937500
247		-89.843750
248		-87.890625
249		-89.843750
250		-87.890625
251		-91.796875
252		-87.890625
253		-91.796875
254		-87.890625
255		-91.796875
256		-87.890625
257		-91.796875
258		-87.890625
259		-91.796875
260		-87.890625
261		-91.796875
262		-87.890625
263		-91.796875
264		-87.890625
265		-89.843750
266		-87.890625
267		-91.796875
268		-87.890625
269		-89.843750
270		-87.890625
271		-89.843750
272		-85.937500
273		-89.843750
274		-85.937500
275		-89.843750
276		-85.937500
277		-89.843750
278		-85.937500
279		-87.890625
280		-83.984375
281		-85.937500
282		-83.984375
283		-87.890625
284		-82.031250
285		-85.937500
286		-82.031250
287		-83.984375
288		-82.031250
289		-83.984375
290		-80.078125
291		-82.031250
292		-80.078125
293		-82.031250
294		-78.125000
295		-80.078125
296		-76.171875
297		-80.078125
298		-76.171875
299		-78.125000
300		-74.218750
301		-78.125000
302		-72.265625
303		-74.218750
304		-72.265625
305		-74.218750
306		-70.312500
307		-72.265625
308		-68.359375
309		-70.312500
310		-66.406250
311		-68.359375
312		-64.453125
313		-68.359375
314		-64.453125
315		-64.453125
316		-62.500000
317		-62.500000
318		-58.593750
319		-62.500000
320		-56.640625
321		-60.546875
322		-56.640625
323		-56.640625
324		-52.734375
325		-56.640625
326		-50.781250
327		-54.687500
328		-50.781250
329		-52.734375
330		-46.875000
331		-48.828125
332		-46.875000
333		-46.875000
334		-42.968750
335		-44.921875
336		-41.015625
337		-44.921875
338		-39.062500
339		-41.015625
340		-37.109375
341		-39.062500
342		-35.156250
343		-37.109375
344		-31.250000
345		-33.203125
346		-29.296875
347		-31.250000
348		-27.343750
349		-29.296875
350		-25.390625
351		-27.343750
352		-23.437500
353		-23.437500
354		-19.531250
355		-21.484375
356		-17.578125
357		-19.531250
358		-15.625000
359		-17.578125
360		-11.718750
361		-15.625000
362		-9.765625
363		-11.718750
364		-7.812500
365		-9.765625
366		-5.859375
367		-7.812500
368		-1.953125
369		-5.859375
370		0.000000
371		-1.953125
372		1.953125
373		0.000000
374		5.859375
375		1.953125
376		7.812500
377		3.906250
378		9.765625
379		7.812500
380		13.671875
381		9.765625
382		13.671875
383		13.671875
384		17.578125
385		15.625000
386		19.531250
387		17.578125
388		21.484375
389		19.531250
390		25.390625
391		23.437500
392		27.343750
393		25.390625
394		31.250000
395		29.296875
396		33.203125
397		29.296875
398		35.156250
399		33.203125
400		37.109375
401		35.156250
402		39.062500
403		37.109375
404		41.015625
405		41.015625
406		44.921875
407		42.968750
408		46.875000
409		44.921875
410		48.828125
411		46.875000
412		52.734375
413		50.781250
414		54.687500
415		50.781250
416		56.640625
417		54.687500
418		58.593750
419		54.687500
420		60.546875
421		58.593750
422		62.500000
423		60.546875
424		64.453125
425		62.500000
426		66.406250
427		64.453125
428		70.312500
429		66.406250
430		70.312500
431		68.359375
432		72.265625
433		72.265625
434		74.218750
435		72.265625
436		76.171875
437		74.218750
438		80.078125
439		76.171875
440		80.078125
441		78.125000
442		82.031250
443		80.078125
444		83.984375
445		82.031250
446		85.937500
447		83.984375
448		87.890625
449		85.937500
450		89.843750
451		85.937500
452		91.796875
453		87.890625
454		91.796875
455		89.843750
456		93.750000
457		91.796875
458		95.703125
459		91.796875
460		95.703125
461		93.750000
462		97.656250
463		95.703125
464		99.609375
465		97.656250
466		99.609375
467		97.656250
468		101.562500
469		99.609375
470		103.515625
471		99.609375
472		103.515625
473		101.562500
474		105.468750
475		103.515625
476		105.468750
477		103.515625
478		107.421875
479		103.515625
480		107.421875
481		105.468750
482		109.375000
483		107.421875
484		109.375000
485		107.421875
486		111.328125
487		107.421875
488		111.328125
489		107.421875
490		113.281250
491		109.375000
492		113.281250
493		109.375000
494		113.281250
495		111.328125
496		113.281250
497		111.328125
498		115.234375
499		111.328125
500		113.281250
501		111.328125
502		115.234375
503		111.328125
504		115.234375
505		111.328125
506		115.234375
507		113.281250
508		115.234375
509		113.281250
510		115.234375
511		113.281250
512		117.187500
513		113.281250
514		117.187500
515		113.281250
516		115.234375
517		113.281250
518		115.234375
519		111.328125
520		115.234375
521		111.328125
522		115.234375
523		113.281250
524		115.234375
525		111.328125
526		115.234375
527		113.281250
528		115.234375
529		111.328125
530		115.234375
531		111.328125
532		115.234375
533		111.328125
534		113.281250
535		109.375000
536		113.281250
537		109.375000
538		115.234375
539		107.421875
540		113.281250
541		109.375000
542		111.328125
543		107.421875
544		111.328125
545		107.421875
546		111.328125
547		105.468750
548		109.375000
549		105.468750
550		109.375000
551		105.468750
552		107.421875
553		101.562500
554		107.421875
555		101.562500
556		107.421875
557		101.562500
558		107.421875
559		101.562500
560		103.515625
561		99.609375
562		103.515625
563		97.656250
564		101.562500
565		97.656250
566		101.562500
567		95.703125
568		99.609375
569		91.796875
570		97.656250
571		91.796875
572		97.656250
573		89.843750
574		97.656250
575		87.890625
576		93.750000
577		87.890625
578		93.750000
579		85.937500
580		89.843750
581		83.984375
582		89.843750
583		83.984375
584		85.937500
585		82.031250
586		85.937500
587		78.125000
588		85.937500
589		76.171875
590		82.031250
591		76.171875
592		82.031250
593		72.265625
594		80.078125
595		72.265625
596		78.125000
597		68.359375
598		74.218750
599		68.359375
600		72.265625
601		66.406250
602		70.312500
603		62.500000
604		68.359375
605		58.593750
606		66.406250
607		58.593750
608		64.453125
609		54.687500
610		62.500000
611		52.734375
612		60.546875
613		52.734375
614		58.593750
615		48.828125
616		56.640625
617		48.828125
618		52.734375
619		44.921875
620		50.781250
621		41.015625
622		48.828125
623		39.062500
624		46.875000
625		37.109375
626		44.921875
627		35.156250
628		42.968750
629		33.203125
630		41.015625
631		31.250000
632		39.062500
633		29.296875
634		33.203125
635		27.343750
636		31.250000
637		21.484375
638		29.296875
639		19.531250
640		27.343750
641		17.578125
642		25.390625
643		15.625000
644		21.484375
645		13.671875
646		19.531250
647		9.765625
648		17.578125
649		7.812500
650		15.625000
651		5.859375
652		9.765625
653		1.953125
654		7.812500
655		0.000000
656		7.812500
657		-1.953125
658		3.906250
659		-5.859375
660		1.953125
661		-7.812500
662		0.000000
663		-11.718750
664		-1.953125
665		-11.718750
666		-5.859375
667		-13.671875
668		-9.765625
669		-15.625000
670		-11.718750
671		-19.531250
672		-13.671875
673		-21.484375
674		-15.625000
675		-25.390625
676		-17.578125
677		-27.343750
678		-19.531250
679		-31.250000
680		-23.437500
681		-31.250000
682		-25.390625
683		-33.203125
684		-27.343750
685		-35.156250
686		-31.250000
687		-39.062500
688		-33.203125
689		-41.015625
690		-35.156250
691		-42.968750
692		-37.109375
693		-44.921875
694		-39.062500
695		-48.828125
696		-41.015625
697		-50.781250
698		-42.968750
699		-50.781250
700		-44.921875
701		-52.734375
702		-48.828125
703		-56.640625
704		-50.781250
705		-58.593750
706		-50.781250
707		-60.546875
708		-52.734375
709		-62.500000
710		-54.687500
711		-64.453125
712		-56.640625
713		-66.406250
714		-58.593750
715		-68.359375
716		-60.546875
717		-68.359375
718		-64.453125
719		-70.312500
720		-66.406250
721		-72.265625
722		-66.406250
723		-74.218750
724		-66.406250
725		-76.171875
726		-68.359375
727		-78.125000
728		-70.312500
729		-78.125000
730		-72.265625
731		-80.078125
732		-72.265625
733		-80.078125
734		-74.218750
735		-80.078125
736		-78.125000
737		-82.031250
738		-78.125000
739		-83.984375
740		-78.125000
741		-85.937500
742		-78.125000
743		-85.937500
744		-80.078125
745		-87.890625
746		-82.031250
747		-87.890625
748		-82.031250
749		-89.843750
750		-82.031250
751		-87.890625
752		-85.937500
753		-87.890625
754		-85.937500
755		-91.796875
756		-85.937500
757		-91.796875
758		-85.937500
759		-91.796875
760		-85.937500
761		-93.750000
762		-85.937500
763		-93.750000
764		-85.937500
765		-93.750000
766		-85.937500
767		-93.750000
768		-87.890625
769		-91.796875
770		-87.890625
771		-93.750000
772		-87.890625
773		-93.750000
774		-87.890625
775		-93.750000
776		-85.937500
777		-93.750000
778		-85.937500
779		-93.750000
780		-85.937500
781		-91.796875
782		-85.937500
783		-91.796875
784		-85.937500
785		-89.843750
786		-87.890625
787		-89.843750
788		-85.937500
789		-91.796875
790		-83.984375
791		-89.843750
792		-83.984375
793		-89.843750
794		-83.984375
795		-89.843750
796		-82.031250
797		-87.890625
798		-82.031250
799		-87.890625
800		-80.078125
801		-83.984375
802		-82.031250
803		-82.031250
804		-80.078125
805		-83.984375
806		-76.171875
807		-83.984375
808		-76.171875
809		-80.078125
810		-74.218750
811		-80.078125
812		-74.218750
813		-78.125000
814		-72.265625
815		-78.125000
816		-70.312500
817		-76.171875
818		-70.312500
819		-72.265625
820		-68.359375
821		-72.265625
822		-66.406250
823		-72.265625
824		-64.453125
825		-70.312500
826		-62.500000
827		-66.406250
828		-60.546875
829		-66.406250
830		-58.593750
831		-64.453125
832		-56.640625
833		-62.500000
834		-54.687500
835		-58.593750
836		-54.687500
837		-56.640625
838		-52.734375
839		-56.640625
840		-48.828125
841		-54.687500
842		-46.875000
843		-52.734375
844		-44.921875
845		-50.781250
846		-42.968750
847		-48.828125
848		-41.015625
849		-44.921875
850		-39.062500
851		-44.921875
852		-37.109375
853		-39.062500
854		-35.156250
855		-37.109375
856		-31.250000
857		-35.156250
858		-29.296875
859		-35.156250
860		-27.343750
861		-31.250000
862		-25.390625
863		-29.296875
864		-21.484375
865		-27.343750
866		-19.531250
867		-23.437500
868		-17.578125
869		-21.484375
870		-15.625000
871		-17.578125
872		-13.671875
873		-15.625000
874		-9.765625
875		-13.671875
876		-7.812500
877		-11.718750
878		-5.859375
879		-9.765625
880		-1.953125
881		-5.859375
882		0.000000
883		-3.906250
884		1.953125
885		0.000000
886		3.906250
887		1.953125
888		5.859375
889		3.906250
890		9.765625
891		3.906250
892		13.671875
893		7.812500
894		13.671875
895		9.765625
896		17.578125
897		13.671875
898		19.531250
899		15.625000
900		23.437500
901		17.578125
902		23.437500
903		21.484375
904		25.390625
905		25.390625
906		29.296875
907		25.390625
908		33.203125
909		27.343750
910		35.156250
911		31.250000
912		39.062500
913		33.203125
914		41.015625
915		35.156250
916		42.968750
917		39.062500
918		44.921875
919		41.015625
920		44.921875
921		44.921875
922		48.828125
923		44.921875
924		52.734375
925		48.828125
926		54.687500
927		48.828125
928		56.640625
929		52.734375
930		58.593750
931		52.734375
932		60.546875
933		56.640625
934		62.500000
935		58.593750
936		64.453125
937		62.500000
938		66.406250
939		64.453125
940		70.312500
941		64.453125
942		72.265625
943		66.406250
944		74.218750
945		68.359375
946		74.218750
947		70.312500
948		78.125000
949		72.265625
950		78.125000
951		74.218750
952		80.078125
953		78.125000
954		80.078125
955		80.078125
956		82.031250
957		80.078125
958		85.937500
959		80.078125
960		87.890625
961		83.984375
962		89.843750
963		83.984375
964		91.796875
965		85.937500
966		91.796875
967		87.890625
968		93.750000
969		89.843750
970		93.750000
971		91.796875
972		95.703125
973		91.796875
974		97.656250
975		93.750000
976		99.609375
977		93.750000
978		101.562500
979		95.703125
980		103.515625
981		95.703125
982		103.515625
983		97.656250
984		105.468750
985		99.609375
986		105.468750
987		101.562500
988		105.468750
989		101.562500
990		107.421875
991		101.562500
992		109.375000
993		103.515625
994		109.375000
995		103.515625
996		109.375000
997		105.468750
998		111.328125
999		105.468750
1000		111.328125
1001		107.421875
1002		113.281250
1003		109.375000
1004		111.328125
1005		109.375000
1006		111.328125
1007		107.421875
1008		115.234375
1009		109.375000
1010		115.234375
1011		109.375000
1012		115.234375
1013		109.375000
1014		115.234375
1015		109.375000
1016		117.187500
1017		109.375000
1018		117.187500
1019		111.328125
1020		115.234375
1021		111.328125
1022		115.234375
1023		111.328125
1024		117.187500
1025		111.328125
1026		117.187500
1027		109.375000
1028		117.187500
1029		111.328125
1030		117.187500
1031		109.375000
1032		117.187500
1033		111.328125
1034		117.187500
1035		111.328125
1036		117.187500
1037		113.281250
1038		115.234375
1039		111.328125
1040		115.234375
1041		109.375000
1042		117.187500
1043		109.375000
1044		115.234375
1045		109.375000
1046		115.234375
1047		107.421875
1048		115.234375
1049		107.421875
1050		115.234375
1051		107.421875
1052		113.281250
1053		107.421875
1054		111.328125
1055		107.421875
1056		111.328125
1057		105.468750
1058		111.328125
1059		105.468750
1060		111.328125
1061		103.515625
1062		109.375000
1063		103.515625
1064		109.375000
1065		101.562500
1066		109.375000
1067		101.562500
1068		107.421875
1069		101.562500
1070		107.421875
1071		101.562500
1072		103.515625
1073		99.609375
1074		103.515625
1075		95.703125
1076		103.515625
1077		95.703125
1078		101.562500
1079		93.750000
1080		101.562500
1081		93.750000
1082		99.609375
1083		91.796875
1084		97.656250
1085		89.843750
1086		97.656250
1087		89.843750
1088		93.750000
1089		87.890625
1090		91.796875
1091		85.937500
1092		91.796875
1093		83.984375
1094		89.843750
1095		82.031250
1096		89.843750
1097		80.078125
1098		87.890625
1099		78.125000
1100		85.937500
1101		76.171875
1102		83.984375
1103		76.171875
1104		82.031250
1105		74.218750
1106		78.125000
1107		70.312500
1108		76.171875
1109		68.359375
1110		76.171875
1111		66.406250
1112		74.218750
1113		64.453125
1114		72.265625
1115		62.500000
1116		70.312500
1117		60.546875
1118		68.359375
1119		58.593750
1120		66.406250
1121		58.593750
1122		62.500000
1123		54.687500
1124		58.593750
1125		52.734375
1126		58.593750
1127		50.781250
1128		56.640625
1129		46.875000
1130		54.687500
1131		44.921875
1132		52.734375
1133		42.968750
1134		50.781250
1135		39.062500
1136		46.875000
1137		39.062500
1138		44.921875
1139		37.109375
1140		41.015625
1141		33.203125
1142		39.062500
1143		31.250000
1144		39.062500
1145		27.343750
1146		35.156250
1147		25.390625
1148		33.203125
1149		23.437500
1150		31.250000
1151		21.484375
1152		29.296875
1153		19.531250
1154		25.390625
1155		17.578125
1156		21.484375
1157		13.671875
1158		19.531250
1159		11.718750
1160		17.578125
1161		7.812500
1162		17.578125
1163		3.906250
1164		13.671875
1165		1.953125
1166		11.718750
1167		0.000000
1168		7.812500
1169		-1.953125
1170		5.859375
1171		-1.953125
1172		1.953125
1173		-5.859375
1174		-1.953125
1175		-9.765625
1176		-3.906250
1177		-11.718750
1178		-3.906250
1179		-15.625000
1180		-5.859375
1181		-17.578125
1182		-9.765625
1183		-19.531250
1184		-11.718750
1185		-21.484375
1186		-13.671875
1187		-23.437500
1188		-17.578125
1189		-25.390625
1190		-21.484375
1191		-27.343750
1192		-23.437500
1193		-31.250000
1194		-23.437500
1195		-33.203125
1196		-25.390625
1197		-37.109375
1198		-29.296875
1199		-39.062500
1200		-31.250000
1201		-41.015625
1202		-33.203125
1203		-42.968750
1204		-35.156250
1205		-42.968750
1206		-39.062500
1207		-44.921875
1208		-42.968750
1209		-48.828125
1210		-42.968750
1211		-52.734375
1212		-44.921875
1213		-54.687500
1214		-46.875000
1215		-56.640625
1216		-48.828125
1217		-58.593750
1218		-50.781250
1219		-60.546875
1220		-52.734375
1221		-60.546875
1222		-56.640625
1223		-62.500000
1224		-58.593750
1225		-66.406250
1226		-60.546875
1227		-68.359375
1228		-60.546875
1229		-70.312500
1230		-62.500000
1231		-70.312500
1232		-64.453125
1233		-72.265625
1234		-66.406250
1235		-74.218750
1236		-66.406250
1237		-74.218750
1238		-68.359375
1239		-74.218750
1240		-72.265625
1241		-78.125000
1242		-74.218750
1243		-80.078125
1244		-72.265625
1245		-82.031250
1246		-74.218750
1247		-82.031250
1248		-76.171875
1249		-83.984375
1250		-76.171875
1251		-85.937500
1252		-78.125000
1253		-85.937500
1254		-78.125000
1255		-83.984375
1256		-82.031250
1257		-85.937500
1258		-83.984375
1259		-89.843750
1260		-82.031250
