metingen laweit/1000Hz, 66,4cm/data_81_m220.txt

Channel              :		CH1
Frequency            :		1.060kHz
Period               :		0.944ms
PK-PK                :		216.8mV
Probe attenuation    :		1X
Voltage per ADC value:		0.122070mV
Time interval        :		2.00000us

index		CH1_Voltage(mV)
1		74.218750
2		74.218750
3		82.031250
4		74.218750
5		80.078125
6		70.312500
7		78.125000
8		68.359375
9		76.171875
10		68.359375
11		74.218750
12		66.406250
13		70.312500
14		64.453125
15		68.359375
16		60.546875
17		66.406250
18		58.593750
19		64.453125
20		56.640625
21		62.500000
22		54.687500
23		60.546875
24		52.734375
25		58.593750
26		48.828125
27		56.640625
28		48.828125
29		52.734375
30		44.921875
31		50.781250
32		41.015625
33		46.875000
34		39.062500
35		46.875000
36		35.156250
37		42.968750
38		33.203125
39		41.015625
40		31.250000
41		39.062500
42		27.343750
43		37.109375
44		25.390625
45		33.203125
46		23.437500
47		29.296875
48		21.484375
49		27.343750
50		17.578125
51		25.390625
52		13.671875
53		23.437500
54		11.718750
55		19.531250
56		9.765625
57		17.578125
58		7.812500
59		13.671875
60		3.906250
61		11.718750
62		1.953125
63		7.812500
64		0.000000
65		3.906250
66		-3.906250
67		1.953125
68		-7.812500
69		0.000000
70		-9.765625
71		-1.953125
72		-13.671875
73		-5.859375
74		-15.625000
75		-7.812500
76		-17.578125
77		-11.718750
78		-19.531250
79		-13.671875
80		-23.437500
81		-17.578125
82		-25.390625
83		-19.531250
84		-29.296875
85		-21.484375
86		-33.203125
87		-25.390625
88		-35.156250
89		-27.343750
90		-37.109375
91		-29.296875
92		-39.062500
93		-31.250000
94		-42.968750
95		-35.156250
96		-42.968750
97		-37.109375
98		-46.875000
99		-41.015625
100		-50.781250
101		-42.968750
102		-52.734375
103		-44.921875
104		-54.687500
105		-46.875000
106		-56.640625
107		-48.828125
108		-58.593750
109		-52.734375
110		-62.500000
111		-54.687500
112		-62.500000
113		-56.640625
114		-64.453125
115		-60.546875
116		-68.359375
117		-62.500000
118		-70.312500
119		-62.500000
120		-72.265625
121		-64.453125
122		-74.218750
123		-66.406250
124		-76.171875
125		-68.359375
126		-78.125000
127		-70.312500
128		-78.125000
129		-72.265625
130		-80.078125
131		-76.171875
132		-80.078125
133		-76.171875
134		-83.984375
135		-78.125000
136		-85.937500
137		-78.125000
138		-87.890625
139		-80.078125
140		-87.890625
141		-82.031250
142		-89.843750
143		-82.031250
144		-91.796875
145		-83.984375
146		-91.796875
147		-85.937500
148		-91.796875
149		-87.890625
150		-93.750000
151		-87.890625
152		-95.703125
153		-87.890625
154		-95.703125
155		-87.890625
156		-97.656250
157		-89.843750
158		-97.656250
159		-89.843750
160		-97.656250
161		-89.843750
162		-97.656250
163		-91.796875
164		-97.656250
165		-93.750000
166		-97.656250
167		-93.750000
168		-97.656250
169		-91.796875
170		-99.609375
171		-93.750000
172		-99.609375
173		-91.796875
174		-99.609375
175		-93.750000
176		-99.609375
177		-93.750000
178		-99.609375
179		-93.750000
180		-99.609375
181		-91.796875
182		-97.656250
183		-93.750000
184		-97.656250
185		-91.796875
186		-97.656250
187		-91.796875
188		-97.656250
189		-89.843750
190		-95.703125
191		-89.843750
192		-95.703125
193		-89.843750
194		-95.703125
195		-87.890625
196		-93.750000
197		-87.890625
198		-91.796875
199		-87.890625
200		-89.843750
201		-83.984375
202		-91.796875
203		-83.984375
204		-89.843750
205		-82.031250
206		-87.890625
207		-82.031250
208		-87.890625
209		-80.078125
210		-85.937500
211		-78.125000
212		-83.984375
213		-76.171875
214		-80.078125
215		-76.171875
216		-80.078125
217		-76.171875
218		-80.078125
219		-72.265625
220		-78.125000
221		-70.312500
222		-76.171875
223		-68.359375
224		-74.218750
225		-66.406250
226		-72.265625
227		-64.453125
228		-68.359375
229		-62.500000
230		-68.359375
231		-60.546875
232		-64.453125
233		-58.593750
234		-62.500000
235		-56.640625
236		-60.546875
237		-52.734375
238		-58.593750
239		-50.781250
240		-56.640625
241		-48.828125
242		-54.687500
243		-46.875000
244		-52.734375
245		-42.968750
246		-48.828125
247		-42.968750
248		-44.921875
249		-41.015625
250		-42.968750
251		-37.109375
252		-41.015625
253		-33.203125
254		-39.062500
255		-31.250000
256		-35.156250
257		-27.343750
258		-35.156250
259		-25.390625
260		-31.250000
261		-23.437500
262		-27.343750
263		-21.484375
264		-25.390625
265		-19.531250
266		-21.484375
267		-15.625000
268		-19.531250
269		-11.718750
270		-17.578125
271		-9.765625
272		-13.671875
273		-7.812500
274		-9.765625
275		-3.906250
276		-9.765625
277		-1.953125
278		-5.859375
279		1.953125
280		-3.906250
281		3.906250
282		1.953125
283		5.859375
284		3.906250
285		9.765625
286		5.859375
287		11.718750
288		7.812500
289		15.625000
290		11.718750
291		19.531250
292		13.671875
293		21.484375
294		15.625000
295		23.437500
296		19.531250
297		25.390625
298		23.437500
299		27.343750
300		25.390625
301		31.250000
302		27.343750
303		35.156250
304		29.296875
305		39.062500
306		33.203125
307		39.062500
308		35.156250
309		42.968750
310		37.109375
311		44.921875
312		39.062500
313		46.875000
314		42.968750
315		48.828125
316		46.875000
317		50.781250
318		48.828125
319		54.687500
320		50.781250
321		56.640625
322		52.734375
323		58.593750
324		54.687500
325		62.500000
326		56.640625
327		64.453125
328		58.593750
329		66.406250
330		60.546875
331		68.359375
332		64.453125
333		70.312500
334		66.406250
335		72.265625
336		68.359375
337		74.218750
338		70.312500
339		76.171875
340		72.265625
341		80.078125
342		74.218750
343		80.078125
344		74.218750
345		83.984375
346		76.171875
347		83.984375
348		80.078125
349		83.984375
350		82.031250
351		85.937500
352		83.984375
353		89.843750
354		83.984375
355		89.843750
356		85.937500
357		93.750000
358		87.890625
359		93.750000
360		89.843750
361		95.703125
362		89.843750
363		97.656250
364		91.796875
365		97.656250
366		95.703125
367		97.656250
368		95.703125
369		101.562500
370		93.750000
371		101.562500
372		95.703125
373		103.515625
374		97.656250
375		105.468750
376		99.609375
377		105.468750
378		97.656250
379		105.468750
380		99.609375
381		107.421875
382		103.515625
383		105.468750
384		103.515625
385		107.421875
386		103.515625
387		109.375000
388		103.515625
389		109.375000
390		103.515625
391		111.328125
392		103.515625
393		111.328125
394		105.468750
395		111.328125
396		103.515625
397		111.328125
398		105.468750
399		111.328125
400		107.421875
401		111.328125
402		107.421875
403		113.281250
404		107.421875
405		113.281250
406		105.468750
407		113.281250
408		105.468750
409		113.281250
410		105.468750
411		113.281250
412		105.468750
413		113.281250
414		105.468750
415		113.281250
416		107.421875
417		111.328125
418		107.421875
419		111.328125
420		105.468750
421		111.328125
422		105.468750
423		111.328125
424		105.468750
425		111.328125
426		103.515625
427		111.328125
428		103.515625
429		111.328125
430		103.515625
431		109.375000
432		103.515625
433		109.375000
434		103.515625
435		107.421875
436		101.562500
437		107.421875
438		99.609375
439		107.421875
440		99.609375
441		105.468750
442		97.656250
443		105.468750
444		97.656250
445		103.515625
446		95.703125
447		103.515625
448		95.703125
449		101.562500
450		95.703125
451		99.609375
452		91.796875
453		97.656250
454		89.843750
455		97.656250
456		89.843750
457		95.703125
458		87.890625
459		95.703125
460		87.890625
461		93.750000
462		85.937500
463		91.796875
464		83.984375
465		89.843750
466		83.984375
467		87.890625
468		82.031250
469		85.937500
470		78.125000
471		83.984375
472		76.171875
473		83.984375
474		74.218750
475		82.031250
476		72.265625
477		80.078125
478		70.312500
479		78.125000
480		68.359375
481		76.171875
482		66.406250
483		72.265625
484		64.453125
485		70.312500
486		62.500000
487		68.359375
488		58.593750
489		66.406250
490		56.640625
491		66.406250
492		54.687500
493		62.500000
494		52.734375
495		58.593750
496		50.781250
497		56.640625
498		48.828125
499		54.687500
500		46.875000
501		50.781250
502		42.968750
503		48.828125
504		41.015625
505		46.875000
506		39.062500
507		44.921875
508		35.156250
509		42.968750
510		31.250000
511		39.062500
512		29.296875
513		39.062500
514		27.343750
515		35.156250
516		25.390625
517		31.250000
518		23.437500
519		27.343750
520		19.531250
521		25.390625
522		17.578125
523		23.437500
524		13.671875
525		21.484375
526		9.765625
527		19.531250
528		7.812500
529		15.625000
530		3.906250
531		13.671875
532		3.906250
533		9.765625
534		1.953125
535		5.859375
536		-3.906250
537		3.906250
538		-5.859375
539		1.953125
540		-7.812500
541		-1.953125
542		-11.718750
543		-3.906250
544		-15.625000
545		-5.859375
546		-17.578125
547		-7.812500
548		-19.531250
549		-11.718750
550		-21.484375
551		-15.625000
552		-23.437500
553		-19.531250
554		-27.343750
555		-21.484375
556		-31.250000
557		-23.437500
558		-33.203125
559		-25.390625
560		-35.156250
561		-29.296875
562		-39.062500
563		-31.250000
564		-41.015625
565		-33.203125
566		-42.968750
567		-35.156250
568		-44.921875
569		-39.062500
570		-50.781250
571		-42.968750
572		-50.781250
573		-42.968750
574		-52.734375
575		-46.875000
576		-54.687500
577		-48.828125
578		-58.593750
579		-50.781250
580		-60.546875
581		-52.734375
582		-62.500000
583		-54.687500
584		-62.500000
585		-58.593750
586		-64.453125
587		-60.546875
588		-70.312500
589		-62.500000
590		-70.312500
591		-64.453125
592		-72.265625
593		-64.453125
594		-76.171875
595		-66.406250
596		-76.171875
597		-70.312500
598		-78.125000
599		-70.312500
600		-78.125000
601		-74.218750
602		-80.078125
603		-76.171875
604		-82.031250
605		-78.125000
606		-83.984375
607		-78.125000
608		-87.890625
609		-80.078125
610		-87.890625
611		-80.078125
612		-89.843750
613		-82.031250
614		-89.843750
615		-83.984375
616		-89.843750
617		-83.984375
618		-89.843750
619		-87.890625
620		-91.796875
621		-87.890625
622		-93.750000
623		-87.890625
624		-93.750000
625		-87.890625
626		-95.703125
627		-89.843750
628		-95.703125
629		-89.843750
630		-97.656250
631		-89.843750
632		-97.656250
633		-91.796875
634		-95.703125
635		-93.750000
636		-97.656250
637		-91.796875
638		-99.609375
639		-91.796875
640		-99.609375
641		-91.796875
642		-99.609375
643		-91.796875
644		-99.609375
645		-91.796875
646		-99.609375
647		-91.796875
648		-99.609375
649		-91.796875
650		-97.656250
651		-91.796875
652		-95.703125
653		-93.750000
654		-97.656250
655		-91.796875
656		-97.656250
657		-89.843750
658		-95.703125
659		-89.843750
660		-97.656250
661		-89.843750
662		-95.703125
663		-89.843750
664		-95.703125
665		-87.890625
666		-93.750000
667		-87.890625
668		-91.796875
669		-87.890625
670		-91.796875
671		-87.890625
672		-89.843750
673		-83.984375
674		-89.843750
675		-82.031250
676		-87.890625
677		-82.031250
678		-87.890625
679		-80.078125
680		-85.937500
681		-78.125000
682		-83.984375
683		-78.125000
684		-82.031250
685		-76.171875
686		-80.078125
687		-76.171875
688		-78.125000
689		-72.265625
690		-78.125000
691		-70.312500
692		-76.171875
693		-68.359375
694		-74.218750
695		-66.406250
696		-72.265625
697		-64.453125
698		-70.312500
699		-62.500000
700		-70.312500
701		-60.546875
702		-64.453125
703		-60.546875
704		-62.500000
705		-58.593750
706		-62.500000
707		-54.687500
708		-58.593750
709		-52.734375
710		-56.640625
711		-48.828125
712		-54.687500
713		-46.875000
714		-52.734375
715		-44.921875
716		-50.781250
717		-42.968750
718		-46.875000
719		-41.015625
720		-42.968750
721		-39.062500
722		-41.015625
723		-35.156250
724		-41.015625
725		-33.203125
726		-37.109375
727		-29.296875
728		-35.156250
729		-25.390625
730		-33.203125
731		-23.437500
732		-29.296875
733		-21.484375
734		-27.343750
735		-19.531250
736		-21.484375
737		-17.578125
738		-21.484375
739		-11.718750
740		-17.578125
741		-9.765625
742		-15.625000
743		-7.812500
744		-13.671875
745		-5.859375
746		-9.765625
747		-3.906250
748		-7.812500
749		0.000000
750		-5.859375
751		1.953125
752		0.000000
753		3.906250
754		1.953125
755		7.812500
756		5.859375
757		11.718750
758		5.859375
759		13.671875
760		9.765625
761		15.625000
762		11.718750
763		19.531250
764		15.625000
765		23.437500
766		17.578125
767		25.390625
768		19.531250
769		27.343750
770		25.390625
771		29.296875
772		27.343750
773		33.203125
774		27.343750
775		37.109375
776		31.250000
777		39.062500
778		33.203125
779		41.015625
780		37.109375
781		42.968750
782		39.062500
783		44.921875
784		41.015625
785		48.828125
786		44.921875
787		50.781250
788		48.828125
789		52.734375
790		46.875000
791		56.640625
792		50.781250
793		58.593750
794		52.734375
795		62.500000
796		56.640625
797		62.500000
798		56.640625
799		66.406250
800		60.546875
801		66.406250
802		62.500000
803		68.359375
804		66.406250
805		70.312500
806		68.359375
807		74.218750
808		68.359375
809		76.171875
810		70.312500
811		78.125000
812		72.265625
813		80.078125
814		74.218750
815		82.031250
816		76.171875
817		83.984375
818		78.125000
819		85.937500
820		82.031250
821		85.937500
822		83.984375
823		87.890625
824		83.984375
825		89.843750
826		85.937500
827		91.796875
828		85.937500
829		93.750000
830		87.890625
831		95.703125
832		89.843750
833		97.656250
834		91.796875
835		97.656250
836		93.750000
837		97.656250
838		95.703125
839		99.609375
840		93.750000
841		101.562500
842		95.703125
843		103.515625
844		97.656250
845		103.515625
846		97.656250
847		105.468750
848		99.609375
849		105.468750
850		101.562500
851		107.421875
852		101.562500
853		107.421875
854		103.515625
855		107.421875
856		103.515625
857		109.375000
858		103.515625
859		109.375000
860		103.515625
861		111.328125
862		105.468750
863		111.328125
864		105.468750
865		111.328125
866		105.468750
867		113.281250
868		105.468750
869		111.328125
870		107.421875
871		111.328125
872		107.421875
873		111.328125
874		107.421875
875		113.281250
876		107.421875
877		113.281250
878		107.421875
879		113.281250
880		107.421875
881		115.234375
882		107.421875
883		113.281250
884		105.468750
885		113.281250
886		107.421875
887		113.281250
888		109.375000
889		111.328125
890		107.421875
891		113.281250
892		105.468750
893		113.281250
894		105.468750
895		113.281250
896		105.468750
897		111.328125
898		105.468750
899		111.328125
900		103.515625
901		111.328125
902		103.515625
903		109.375000
904		103.515625
905		107.421875
906		103.515625
907		107.421875
908		101.562500
909		107.421875
910		99.609375
911		107.421875
912		97.656250
913		105.468750
914		97.656250
915		105.468750
916		97.656250
917		103.515625
918		95.703125
919		103.515625
920		95.703125
921		99.609375
922		95.703125
923		99.609375
924		91.796875
925		97.656250
926		89.843750
927		97.656250
928		87.890625
929		95.703125
930		87.890625
931		93.750000
932		85.937500
933		93.750000
934		83.984375
935		91.796875
936		83.984375
937		89.843750
938		83.984375
939		87.890625
940		80.078125
941		85.937500
942		78.125000
943		83.984375
944		76.171875
945		82.031250
946		74.218750
947		80.078125
948		72.265625
949		80.078125
950		70.312500
951		78.125000
952		68.359375
953		74.218750
954		68.359375
955		72.265625
956		64.453125
957		70.312500
958		62.500000
959		70.312500
960		60.546875
961		66.406250
962		56.640625
963		64.453125
964		54.687500
965		60.546875
966		50.781250
967		60.546875
968		48.828125
969		58.593750
970		48.828125
971		54.687500
972		46.875000
973		50.781250
974		42.968750
975		48.828125
976		41.015625
977		46.875000
978		37.109375
979		44.921875
980		35.156250
981		41.015625
982		33.203125
983		39.062500
984		29.296875
985		37.109375
986		27.343750
987		35.156250
988		25.390625
989		31.250000
990		21.484375
991		27.343750
992		17.578125
993		25.390625
994		15.625000
995		23.437500
996		11.718750
997		21.484375
998		11.718750
999		17.578125
1000		7.812500
1001		15.625000
1002		5.859375
1003		13.671875
1004		3.906250
1005		7.812500
1006		1.953125
1007		5.859375
1008		-3.906250
1009		3.906250
1010		-5.859375
1011		1.953125
1012		-9.765625
1013		0.000000
1014		-11.718750
1015		-3.906250
1016		-15.625000
1017		-7.812500
1018		-15.625000
1019		-9.765625
1020		-19.531250
1021		-11.718750
1022		-21.484375
1023		-15.625000
1024		-25.390625
1025		-19.531250
1026		-27.343750
1027		-21.484375
1028		-31.250000
1029		-23.437500
1030		-33.203125
1031		-25.390625
1032		-35.156250
1033		-29.296875
1034		-39.062500
1035		-31.250000
1036		-41.015625
1037		-33.203125
1038		-42.968750
1039		-37.109375
1040		-44.921875
1041		-39.062500
1042		-48.828125
1043		-41.015625
1044		-50.781250
1045		-42.968750
1046		-54.687500
1047		-46.875000
1048		-56.640625
1049		-48.828125
1050		-58.593750
1051		-50.781250
1052		-60.546875
1053		-52.734375
1054		-60.546875
1055		-54.687500
1056		-62.500000
1057		-58.593750
1058		-66.406250
1059		-60.546875
1060		-68.359375
1061		-62.500000
1062		-72.265625
1063		-62.500000
1064		-72.265625
1065		-64.453125
1066		-74.218750
1067		-66.406250
1068		-76.171875
1069		-70.312500
1070		-76.171875
1071		-70.312500
1072		-78.125000
1073		-74.218750
1074		-80.078125
1075		-76.171875
1076		-83.984375
1077		-76.171875
1078		-83.984375
1079		-76.171875
1080		-85.937500
1081		-78.125000
1082		-87.890625
1083		-80.078125
1084		-89.843750
1085		-82.031250
1086		-89.843750
1087		-82.031250
1088		-87.890625
1089		-85.937500
1090		-89.843750
1091		-85.937500
1092		-91.796875
1093		-85.937500
1094		-93.750000
1095		-85.937500
1096		-95.703125
1097		-87.890625
1098		-95.703125
1099		-87.890625
1100		-95.703125
1101		-89.843750
1102		-95.703125
1103		-89.843750
1104		-95.703125
1105		-89.843750
1106		-95.703125
1107		-91.796875
1108		-97.656250
1109		-91.796875
1110		-97.656250
1111		-91.796875
1112		-97.656250
1113		-91.796875
1114		-97.656250
1115		-91.796875
1116		-97.656250
1117		-91.796875
1118		-97.656250
1119		-91.796875
1120		-97.656250
1121		-91.796875
1122		-95.703125
1123		-91.796875
1124		-95.703125
1125		-91.796875
1126		-95.703125
1127		-89.843750
1128		-95.703125
1129		-89.843750
1130		-95.703125
1131		-89.843750
1132		-95.703125
1133		-87.890625
1134		-93.750000
1135		-87.890625
1136		-93.750000
1137		-85.937500
1138		-91.796875
1139		-87.890625
1140		-89.843750
1141		-85.937500
1142		-89.843750
1143		-83.984375
1144		-89.843750
1145		-83.984375
1146		-87.890625
1147		-82.031250
1148		-87.890625
1149		-80.078125
1150		-85.937500
1151		-78.125000
1152		-83.984375
1153		-76.171875
1154		-83.984375
1155		-76.171875
1156		-80.078125
1157		-76.171875
1158		-78.125000
1159		-74.218750
1160		-78.125000
1161		-70.312500
1162		-76.171875
1163		-68.359375
1164		-74.218750
1165		-68.359375
1166		-72.265625
1167		-64.453125
1168		-70.312500
1169		-64.453125
1170		-68.359375
1171		-60.546875
1172		-64.453125
1173		-60.546875
1174		-62.500000
1175		-58.593750
1176		-62.500000
1177		-54.687500
1178		-60.546875
1179		-52.734375
1180		-56.640625
1181		-48.828125
1182		-54.687500
1183		-46.875000
1184		-52.734375
1185		-44.921875
1186		-50.781250
1187		-42.968750
1188		-48.828125
1189		-41.015625
1190		-44.921875
1191		-39.062500
1192		-41.015625
1193		-35.156250
1194		-41.015625
1195		-33.203125
1196		-39.062500
1197		-29.296875
1198		-35.156250
1199		-27.343750
1200		-33.203125
1201		-25.390625
1202		-29.296875
1203		-23.437500
1204		-27.343750
1205		-21.484375
1206		-23.437500
1207		-17.578125
1208		-19.531250
1209		-15.625000
1210		-17.578125
1211		-11.718750
1212		-15.625000
1213		-7.812500
1214		-13.671875
1215		-5.859375
1216		-11.718750
1217		-1.953125
1218		-7.812500
1219		0.000000
1220		-5.859375
1221		3.906250
1222		-1.953125
1223		3.906250
1224		1.953125
1225		7.812500
1226		3.906250
1227		11.718750
1228		5.859375
1229		13.671875
1230		9.765625
1231		15.625000
1232		11.718750
1233		19.531250
1234		15.625000
1235		21.484375
1236		15.625000
1237		25.390625
1238		19.531250
1239		25.390625
1240		23.437500
1241		29.296875
1242		27.343750
1243		31.250000
1244		27.343750
1245		35.156250
1246		31.250000
1247		37.109375
1248		33.203125
1249		41.015625
1250		37.109375
1251		42.968750
1252		39.062500
1253		44.921875
1254		41.015625
1255		48.828125
1256		44.921875
1257		50.781250
1258		46.875000
1259		52.734375
1260		48.828125
1261		54.687500
