metingen laweit/1000Hz, 66,4cm/data_81_m356.txt

Channel              :		CH1
Frequency            :		1.061kHz
Period               :		0.942ms
PK-PK                :		314.5mV
Probe attenuation    :		1X
Voltage per ADC value:		0.122070mV
Time interval        :		2.00000us

index		CH1_Voltage(mV)
1		93.750000
2		93.750000
3		101.562500
4		89.843750
5		97.656250
6		87.890625
7		95.703125
8		85.937500
9		91.796875
10		82.031250
11		87.890625
12		78.125000
13		83.984375
14		76.171875
15		82.031250
16		72.265625
17		80.078125
18		68.359375
19		78.125000
20		66.406250
21		74.218750
22		62.500000
23		70.312500
24		58.593750
25		66.406250
26		56.640625
27		62.500000
28		52.734375
29		58.593750
30		48.828125
31		54.687500
32		44.921875
33		52.734375
34		39.062500
35		48.828125
36		37.109375
37		44.921875
38		31.250000
39		41.015625
40		29.296875
41		37.109375
42		25.390625
43		33.203125
44		21.484375
45		29.296875
46		17.578125
47		23.437500
48		13.671875
49		21.484375
50		9.765625
51		15.625000
52		5.859375
53		13.671875
54		1.953125
55		9.765625
56		-3.906250
57		5.859375
58		-5.859375
59		1.953125
60		-9.765625
61		-3.906250
62		-13.671875
63		-7.812500
64		-19.531250
65		-11.718750
66		-23.437500
67		-15.625000
68		-27.343750
69		-17.578125
70		-31.250000
71		-23.437500
72		-37.109375
73		-27.343750
74		-41.015625
75		-31.250000
76		-42.968750
77		-35.156250
78		-46.875000
79		-41.015625
80		-52.734375
81		-44.921875
82		-56.640625
83		-48.828125
84		-60.546875
85		-50.781250
86		-64.453125
87		-54.687500
88		-68.359375
89		-58.593750
90		-72.265625
91		-62.500000
92		-74.218750
93		-66.406250
94		-78.125000
95		-72.265625
96		-83.984375
97		-76.171875
98		-87.890625
99		-78.125000
100		-89.843750
101		-82.031250
102		-95.703125
103		-85.937500
104		-97.656250
105		-89.843750
106		-101.562500
107		-93.750000
108		-103.515625
109		-95.703125
110		-105.468750
111		-101.562500
112		-109.375000
113		-103.515625
114		-115.234375
115		-105.468750
116		-117.187500
117		-109.375000
118		-121.093750
119		-111.328125
120		-123.046875
121		-115.234375
122		-126.953125
123		-117.187500
124		-128.906250
125		-121.093750
126		-130.859375
127		-125.000000
128		-132.812500
129		-126.953125
130		-136.718750
131		-130.859375
132		-140.625000
133		-130.859375
134		-142.578125
135		-134.765625
136		-142.578125
137		-136.718750
138		-146.484375
139		-138.671875
140		-148.437500
141		-138.671875
142		-148.437500
143		-142.578125
144		-150.390625
145		-146.484375
146		-152.343750
147		-148.437500
148		-156.250000
149		-146.484375
150		-156.250000
151		-148.437500
152		-158.203125
153		-150.390625
154		-158.203125
155		-152.343750
156		-160.156250
157		-152.343750
158		-160.156250
159		-154.296875
160		-160.156250
161		-156.250000
162		-160.156250
163		-158.203125
164		-162.109375
165		-156.250000
166		-164.062500
167		-158.203125
168		-164.062500
169		-158.203125
170		-166.015625
171		-158.203125
172		-166.015625
173		-158.203125
174		-164.062500
175		-158.203125
176		-164.062500
177		-158.203125
178		-162.109375
179		-158.203125
180		-162.109375
181		-156.250000
182		-164.062500
183		-156.250000
184		-164.062500
185		-156.250000
186		-162.109375
187		-154.296875
188		-160.156250
189		-154.296875
190		-160.156250
191		-154.296875
192		-160.156250
193		-152.343750
194		-156.250000
195		-152.343750
196		-154.296875
197		-150.390625
198		-154.296875
199		-148.437500
200		-154.296875
201		-146.484375
202		-150.390625
203		-144.531250
204		-150.390625
205		-142.578125
206		-148.437500
207		-140.625000
208		-146.484375
209		-138.671875
210		-142.578125
211		-138.671875
212		-140.625000
213		-134.765625
214		-138.671875
215		-132.812500
216		-138.671875
217		-128.906250
218		-134.765625
219		-126.953125
220		-132.812500
221		-125.000000
222		-128.906250
223		-121.093750
224		-125.000000
225		-117.187500
226		-125.000000
227		-115.234375
228		-119.140625
229		-113.281250
230		-115.234375
231		-109.375000
232		-111.328125
233		-105.468750
234		-111.328125
235		-101.562500
236		-107.421875
237		-99.609375
238		-103.515625
239		-93.750000
240		-99.609375
241		-91.796875
242		-95.703125
243		-87.890625
244		-91.796875
245		-83.984375
246		-87.890625
247		-82.031250
248		-83.984375
249		-76.171875
250		-82.031250
251		-72.265625
252		-76.171875
253		-68.359375
254		-74.218750
255		-64.453125
256		-68.359375
257		-60.546875
258		-66.406250
259		-56.640625
260		-60.546875
261		-54.687500
262		-56.640625
263		-48.828125
264		-50.781250
265		-44.921875
266		-50.781250
267		-41.015625
268		-44.921875
269		-37.109375
270		-39.062500
271		-31.250000
272		-37.109375
273		-29.296875
274		-31.250000
275		-23.437500
276		-27.343750
277		-19.531250
278		-21.484375
279		-15.625000
280		-17.578125
281		-11.718750
282		-15.625000
283		-5.859375
284		-11.718750
285		-1.953125
286		-5.859375
287		1.953125
288		-1.953125
289		3.906250
290		1.953125
291		9.765625
292		5.859375
293		13.671875
294		9.765625
295		17.578125
296		13.671875
297		21.484375
298		17.578125
299		25.390625
300		21.484375
301		29.296875
302		25.390625
303		33.203125
304		27.343750
305		37.109375
306		33.203125
307		41.015625
308		37.109375
309		44.921875
310		41.015625
311		46.875000
312		44.921875
313		50.781250
314		48.828125
315		54.687500
316		50.781250
317		60.546875
318		54.687500
319		62.500000
320		56.640625
321		66.406250
322		62.500000
323		70.312500
324		66.406250
325		72.265625
326		68.359375
327		76.171875
328		72.265625
329		78.125000
330		76.171875
331		82.031250
332		78.125000
333		85.937500
334		80.078125
335		87.890625
336		82.031250
337		91.796875
338		85.937500
339		93.750000
340		87.890625
341		95.703125
342		91.796875
343		99.609375
344		95.703125
345		101.562500
346		97.656250
347		103.515625
348		101.562500
349		105.468750
350		101.562500
351		109.375000
352		103.515625
353		111.328125
354		107.421875
355		113.281250
356		109.375000
357		115.234375
358		109.375000
359		119.140625
360		113.281250
361		119.140625
362		115.234375
363		121.093750
364		119.140625
365		123.046875
366		119.140625
367		125.000000
368		121.093750
369		126.953125
370		121.093750
371		128.906250
372		123.046875
373		130.859375
374		123.046875
375		130.859375
376		126.953125
377		132.812500
378		126.953125
379		132.812500
380		130.859375
381		134.765625
382		130.859375
383		134.765625
384		130.859375
385		138.671875
386		130.859375
387		138.671875
388		132.812500
389		138.671875
390		132.812500
391		140.625000
392		134.765625
393		140.625000
394		134.765625
395		140.625000
396		136.718750
397		140.625000
398		136.718750
399		140.625000
400		136.718750
401		142.578125
402		136.718750
403		142.578125
404		136.718750
405		142.578125
406		136.718750
407		144.531250
408		136.718750
409		144.531250
410		136.718750
411		144.531250
412		138.671875
413		140.625000
414		138.671875
415		140.625000
416		136.718750
417		142.578125
418		136.718750
419		142.578125
420		134.765625
421		142.578125
422		134.765625
423		142.578125
424		132.812500
425		140.625000
426		132.812500
427		140.625000
428		134.765625
429		138.671875
430		132.812500
431		136.718750
432		132.812500
433		136.718750
434		130.859375
435		136.718750
436		128.906250
437		136.718750
438		126.953125
439		134.765625
440		126.953125
441		134.765625
442		125.000000
443		132.812500
444		123.046875
445		130.859375
446		123.046875
447		126.953125
448		121.093750
449		126.953125
450		117.187500
451		125.000000
452		117.187500
453		125.000000
454		115.234375
455		123.046875
456		113.281250
457		121.093750
458		109.375000
459		119.140625
460		109.375000
461		117.187500
462		107.421875
463		115.234375
464		105.468750
465		111.328125
466		101.562500
467		107.421875
468		97.656250
469		107.421875
470		97.656250
471		105.468750
472		93.750000
473		101.562500
474		91.796875
475		99.609375
476		89.843750
477		95.703125
478		87.890625
479		93.750000
480		83.984375
481		89.843750
482		82.031250
483		85.937500
484		76.171875
485		83.984375
486		74.218750
487		83.984375
488		70.312500
489		78.125000
490		66.406250
491		74.218750
492		64.453125
493		72.265625
494		60.546875
495		68.359375
496		58.593750
497		64.453125
498		54.687500
499		60.546875
500		48.828125
501		56.640625
502		44.921875
503		54.687500
504		41.015625
505		50.781250
506		39.062500
507		46.875000
508		35.156250
509		42.968750
510		31.250000
511		39.062500
512		29.296875
513		35.156250
514		23.437500
515		29.296875
516		19.531250
517		25.390625
518		15.625000
519		23.437500
520		11.718750
521		19.531250
522		7.812500
523		15.625000
524		1.953125
525		11.718750
526		-1.953125
527		7.812500
528		-3.906250
529		1.953125
530		-7.812500
531		-1.953125
532		-11.718750
533		-5.859375
534		-17.578125
535		-9.765625
536		-21.484375
537		-13.671875
538		-25.390625
539		-17.578125
540		-29.296875
541		-21.484375
542		-35.156250
543		-25.390625
544		-39.062500
545		-29.296875
546		-41.015625
547		-33.203125
548		-44.921875
549		-39.062500
550		-50.781250
551		-42.968750
552		-54.687500
553		-46.875000
554		-58.593750
555		-48.828125
556		-62.500000
557		-54.687500
558		-68.359375
559		-58.593750
560		-70.312500
561		-62.500000
562		-72.265625
563		-64.453125
564		-76.171875
565		-70.312500
566		-80.078125
567		-74.218750
568		-85.937500
569		-78.125000
570		-89.843750
571		-82.031250
572		-93.750000
573		-83.984375
574		-95.703125
575		-89.843750
576		-99.609375
577		-91.796875
578		-105.468750
579		-95.703125
580		-105.468750
581		-99.609375
582		-109.375000
583		-103.515625
584		-111.328125
585		-105.468750
586		-117.187500
587		-109.375000
588		-121.093750
589		-111.328125
590		-123.046875
591		-115.234375
592		-125.000000
593		-117.187500
594		-128.906250
595		-121.093750
596		-130.859375
597		-125.000000
598		-132.812500
599		-126.953125
600		-134.765625
601		-130.859375
602		-138.671875
603		-130.859375
604		-140.625000
605		-134.765625
606		-142.578125
607		-136.718750
608		-146.484375
609		-136.718750
610		-148.437500
611		-140.625000
612		-150.390625
613		-142.578125
614		-150.390625
615		-146.484375
616		-152.343750
617		-148.437500
618		-154.296875
619		-148.437500
620		-156.250000
621		-148.437500
622		-158.203125
623		-150.390625
624		-158.203125
625		-152.343750
626		-160.156250
627		-152.343750
628		-162.109375
629		-154.296875
630		-162.109375
631		-156.250000
632		-162.109375
633		-158.203125
634		-164.062500
635		-158.203125
636		-164.062500
637		-158.203125
638		-164.062500
639		-158.203125
640		-164.062500
641		-160.156250
642		-166.015625
643		-160.156250
644		-164.062500
645		-160.156250
646		-164.062500
647		-160.156250
648		-164.062500
649		-160.156250
650		-162.109375
651		-160.156250
652		-164.062500
653		-158.203125
654		-164.062500
655		-156.250000
656		-164.062500
657		-156.250000
658		-162.109375
659		-156.250000
660		-162.109375
661		-154.296875
662		-160.156250
663		-154.296875
664		-158.203125
665		-152.343750
666		-156.250000
667		-152.343750
668		-156.250000
669		-150.390625
670		-156.250000
671		-146.484375
672		-152.343750
673		-146.484375
674		-150.390625
675		-144.531250
676		-150.390625
677		-142.578125
678		-148.437500
679		-140.625000
680		-146.484375
681		-138.671875
682		-142.578125
683		-136.718750
684		-140.625000
685		-134.765625
686		-138.671875
687		-130.859375
688		-136.718750
689		-128.906250
690		-134.765625
691		-126.953125
692		-130.859375
693		-123.046875
694		-128.906250
695		-121.093750
696		-125.000000
697		-119.140625
698		-121.093750
699		-115.234375
700		-117.187500
701		-111.328125
702		-115.234375
703		-107.421875
704		-113.281250
705		-103.515625
706		-109.375000
707		-101.562500
708		-105.468750
709		-97.656250
710		-101.562500
711		-93.750000
712		-97.656250
713		-89.843750
714		-95.703125
715		-87.890625
716		-89.843750
717		-83.984375
718		-85.937500
719		-78.125000
720		-83.984375
721		-76.171875
722		-80.078125
723		-70.312500
724		-76.171875
725		-68.359375
726		-70.312500
727		-62.500000
728		-68.359375
729		-58.593750
730		-62.500000
731		-56.640625
732		-58.593750
733		-52.734375
734		-54.687500
735		-48.828125
736		-50.781250
737		-42.968750
738		-46.875000
739		-39.062500
740		-42.968750
741		-35.156250
742		-39.062500
743		-31.250000
744		-35.156250
745		-25.390625
746		-31.250000
747		-21.484375
748		-25.390625
749		-17.578125
750		-21.484375
751		-13.671875
752		-15.625000
753		-9.765625
754		-13.671875
755		-3.906250
756		-9.765625
757		-1.953125
758		-5.859375
759		1.953125
760		-1.953125
761		5.859375
762		1.953125
763		11.718750
764		5.859375
765		13.671875
766		11.718750
767		17.578125
768		15.625000
769		21.484375
770		17.578125
771		27.343750
772		21.484375
773		33.203125
774		27.343750
775		35.156250
776		31.250000
777		39.062500
778		35.156250
779		41.015625
780		37.109375
781		44.921875
782		41.015625
783		48.828125
784		46.875000
785		52.734375
786		50.781250
787		56.640625
788		52.734375
789		60.546875
790		56.640625
791		64.453125
792		58.593750
793		68.359375
794		62.500000
795		70.312500
796		66.406250
797		74.218750
798		68.359375
799		76.171875
800		74.218750
801		80.078125
802		76.171875
803		83.984375
804		78.125000
805		85.937500
806		82.031250
807		89.843750
808		83.984375
809		93.750000
810		87.890625
811		93.750000
812		89.843750
813		97.656250
814		93.750000
815		101.562500
816		97.656250
817		101.562500
818		99.609375
819		103.515625
820		101.562500
821		107.421875
822		103.515625
823		111.328125
824		105.468750
825		111.328125
826		107.421875
827		115.234375
828		109.375000
829		117.187500
830		113.281250
831		119.140625
832		113.281250
833		119.140625
834		117.187500
835		121.093750
836		119.140625
837		125.000000
838		119.140625
839		126.953125
840		121.093750
841		126.953125
842		123.046875
843		128.906250
844		125.000000
845		130.859375
846		125.000000
847		132.812500
848		128.906250
849		132.812500
850		128.906250
851		134.765625
852		130.859375
853		134.765625
854		130.859375
855		136.718750
856		130.859375
857		138.671875
858		132.812500
859		140.625000
860		132.812500
861		140.625000
862		134.765625
863		140.625000
864		134.765625
865		142.578125
866		136.718750
867		140.625000
868		136.718750
869		140.625000
870		136.718750
871		142.578125
872		136.718750
873		144.531250
874		136.718750
875		144.531250
876		136.718750
877		144.531250
878		136.718750
879		144.531250
880		136.718750
881		144.531250
882		136.718750
883		144.531250
884		138.671875
885		142.578125
886		138.671875
887		142.578125
888		136.718750
889		144.531250
890		136.718750
891		144.531250
892		136.718750
893		142.578125
894		134.765625
895		142.578125
896		134.765625
897		142.578125
898		134.765625
899		140.625000
900		134.765625
901		138.671875
902		134.765625
903		138.671875
904		130.859375
905		136.718750
906		128.906250
907		136.718750
908		128.906250
909		136.718750
910		128.906250
911		134.765625
912		126.953125
913		134.765625
914		125.000000
915		132.812500
916		125.000000
917		130.859375
918		123.046875
919		128.906250
920		121.093750
921		126.953125
922		119.140625
923		126.953125
924		117.187500
925		125.000000
926		115.234375
927		123.046875
928		113.281250
929		121.093750
930		109.375000
931		119.140625
932		109.375000
933		115.234375
934		109.375000
935		113.281250
936		105.468750
937		111.328125
938		101.562500
939		109.375000
940		99.609375
941		107.421875
942		97.656250
943		105.468750
944		93.750000
945		101.562500
946		91.796875
947		99.609375
948		89.843750
949		97.656250
950		87.890625
951		93.750000
952		83.984375
953		89.843750
954		80.078125
955		85.937500
956		78.125000
957		85.937500
958		74.218750
959		82.031250
960		72.265625
961		78.125000
962		66.406250
963		76.171875
964		62.500000
965		72.265625
966		62.500000
967		68.359375
968		58.593750
969		64.453125
970		54.687500
971		60.546875
972		48.828125
973		58.593750
974		46.875000
975		54.687500
976		42.968750
977		50.781250
978		39.062500
979		46.875000
980		35.156250
981		42.968750
982		31.250000
983		41.015625
984		27.343750
985		35.156250
986		25.390625
987		31.250000
988		19.531250
989		27.343750
990		15.625000
991		23.437500
992		9.765625
993		21.484375
994		7.812500
995		15.625000
996		3.906250
997		11.718750
998		-1.953125
999		7.812500
1000		-3.906250
1001		3.906250
1002		-7.812500
1003		-1.953125
1004		-13.671875
1005		-5.859375
1006		-17.578125
1007		-9.765625
1008		-21.484375
1009		-13.671875
1010		-25.390625
1011		-15.625000
1012		-29.296875
1013		-21.484375
1014		-33.203125
1015		-25.390625
1016		-37.109375
1017		-29.296875
1018		-41.015625
1019		-35.156250
1020		-44.921875
1021		-39.062500
1022		-48.828125
1023		-42.968750
1024		-54.687500
1025		-44.921875
1026		-58.593750
1027		-48.828125
1028		-62.500000
1029		-54.687500
1030		-64.453125
1031		-58.593750
1032		-70.312500
1033		-60.546875
1034		-72.265625
1035		-66.406250
1036		-76.171875
1037		-70.312500
1038		-80.078125
1039		-74.218750
1040		-83.984375
1041		-76.171875
1042		-89.843750
1043		-80.078125
1044		-91.796875
1045		-83.984375
1046		-95.703125
1047		-85.937500
1048		-99.609375
1049		-91.796875
1050		-101.562500
1051		-95.703125
1052		-103.515625
1053		-99.609375
1054		-107.421875
1055		-101.562500
1056		-113.281250
1057		-103.515625
1058		-115.234375
1059		-107.421875
1060		-119.140625
1061		-109.375000
1062		-123.046875
1063		-113.281250
1064		-125.000000
1065		-117.187500
1066		-126.953125
1067		-119.140625
1068		-128.906250
1069		-123.046875
1070		-130.859375
1071		-126.953125
1072		-136.718750
1073		-126.953125
1074		-138.671875
1075		-130.859375
1076		-140.625000
1077		-132.812500
1078		-142.578125
1079		-132.812500
1080		-144.531250
1081		-136.718750
1082		-146.484375
1083		-138.671875
1084		-146.484375
1085		-140.625000
1086		-148.437500
1087		-144.531250
1088		-152.343750
1089		-146.484375
1090		-154.296875
1091		-146.484375
1092		-154.296875
1093		-148.437500
1094		-156.250000
1095		-148.437500
1096		-156.250000
1097		-150.390625
1098		-158.203125
1099		-152.343750
1100		-160.156250
1101		-152.343750
1102		-158.203125
1103		-156.250000
1104		-160.156250
1105		-156.250000
1106		-162.109375
1107		-154.296875
1108		-162.109375
1109		-156.250000
1110		-164.062500
1111		-156.250000
1112		-164.062500
1113		-156.250000
1114		-164.062500
1115		-156.250000
1116		-164.062500
1117		-156.250000
1118		-162.109375
1119		-158.203125
1120		-162.109375
1121		-158.203125
1122		-162.109375
1123		-156.250000
1124		-162.109375
1125		-156.250000
1126		-162.109375
1127		-154.296875
1128		-162.109375
1129		-154.296875
1130		-160.156250
1131		-154.296875
1132		-160.156250
1133		-152.343750
1134		-158.203125
1135		-152.343750
1136		-156.250000
1137		-152.343750
1138		-154.296875
1139		-150.390625
1140		-154.296875
1141		-148.437500
1142		-152.343750
1143		-146.484375
1144		-152.343750
1145		-142.578125
1146		-150.390625
1147		-140.625000
1148		-148.437500
1149		-138.671875
1150		-146.484375
1151		-138.671875
1152		-142.578125
1153		-136.718750
1154		-140.625000
1155		-134.765625
1156		-136.718750
1157		-130.859375
1158		-136.718750
1159		-128.906250
1160		-132.812500
1161		-126.953125
1162		-130.859375
1163		-123.046875
1164		-128.906250
1165		-121.093750
1166		-126.953125
1167		-117.187500
1168		-121.093750
1169		-115.234375
1170		-117.187500
1171		-113.281250
1172		-115.234375
1173		-107.421875
1174		-113.281250
1175		-105.468750
1176		-109.375000
1177		-101.562500
1178		-107.421875
1179		-97.656250
1180		-103.515625
1181		-93.750000
1182		-99.609375
1183		-91.796875
1184		-95.703125
1185		-87.890625
1186		-91.796875
1187		-83.984375
1188		-87.890625
1189		-80.078125
1190		-83.984375
1191		-76.171875
1192		-80.078125
1193		-72.265625
1194		-76.171875
1195		-68.359375
1196		-72.265625
1197		-62.500000
1198		-68.359375
1199		-60.546875
1200		-64.453125
1201		-56.640625
1202		-60.546875
1203		-52.734375
1204		-54.687500
1205		-48.828125
1206		-50.781250
1207		-44.921875
1208		-48.828125
1209		-39.062500
1210		-44.921875
1211		-35.156250
1212		-41.015625
1213		-31.250000
1214		-37.109375
1215		-27.343750
1216		-31.250000
1217		-23.437500
1218		-27.343750
1219		-19.531250
1220		-21.484375
1221		-15.625000
1222		-17.578125
1223		-11.718750
1224		-15.625000
