metingen laweit/1000Hz, 66,4cm/data_81_m394.txt

Channel              :		CH1
Frequency            :		1.061kHz
Period               :		0.942ms
PK-PK                :		154.3mV
Probe attenuation    :		1X
Voltage per ADC value:		0.122070mV
Time interval        :		2.00000us

index		CH1_Voltage(mV)
1		52.734375
2		52.734375
3		56.640625
4		50.781250
5		54.687500
6		48.828125
7		52.734375
8		46.875000
9		50.781250
10		46.875000
11		50.781250
12		44.921875
13		48.828125
14		42.968750
15		46.875000
16		41.015625
17		44.921875
18		39.062500
19		42.968750
20		37.109375
21		42.968750
22		35.156250
23		41.015625
24		35.156250
25		39.062500
26		33.203125
27		37.109375
28		31.250000
29		35.156250
30		29.296875
31		33.203125
32		27.343750
33		31.250000
34		25.390625
35		29.296875
36		23.437500
37		29.296875
38		21.484375
39		25.390625
40		19.531250
41		23.437500
42		17.578125
43		23.437500
44		15.625000
45		19.531250
46		13.671875
47		19.531250
48		11.718750
49		15.625000
50		9.765625
51		13.671875
52		7.812500
53		13.671875
54		5.859375
55		9.765625
56		3.906250
57		9.765625
58		1.953125
59		5.859375
60		0.000000
61		3.906250
62		-1.953125
63		3.906250
64		-3.906250
65		1.953125
66		-5.859375
67		-1.953125
68		-7.812500
69		-3.906250
70		-9.765625
71		-3.906250
72		-11.718750
73		-5.859375
74		-13.671875
75		-7.812500
76		-15.625000
77		-9.765625
78		-17.578125
79		-13.671875
80		-19.531250
81		-13.671875
82		-19.531250
83		-15.625000
84		-21.484375
85		-17.578125
86		-23.437500
87		-19.531250
88		-25.390625
89		-21.484375
90		-27.343750
91		-23.437500
92		-29.296875
93		-25.390625
94		-31.250000
95		-27.343750
96		-33.203125
97		-27.343750
98		-35.156250
99		-31.250000
100		-37.109375
101		-33.203125
102		-39.062500
103		-33.203125
104		-39.062500
105		-35.156250
106		-41.015625
107		-37.109375
108		-42.968750
109		-39.062500
110		-44.921875
111		-41.015625
112		-44.921875
113		-41.015625
114		-46.875000
115		-42.968750
116		-48.828125
117		-44.921875
118		-48.828125
119		-44.921875
120		-50.781250
121		-46.875000
122		-52.734375
123		-48.828125
124		-52.734375
125		-48.828125
126		-54.687500
127		-50.781250
128		-56.640625
129		-52.734375
130		-56.640625
131		-52.734375
132		-56.640625
133		-54.687500
134		-58.593750
135		-54.687500
136		-58.593750
137		-54.687500
138		-60.546875
139		-56.640625
140		-60.546875
141		-56.640625
142		-62.500000
143		-58.593750
144		-62.500000
145		-58.593750
146		-62.500000
147		-58.593750
148		-64.453125
149		-60.546875
150		-64.453125
151		-60.546875
152		-64.453125
153		-60.546875
154		-66.406250
155		-62.500000
156		-66.406250
157		-62.500000
158		-66.406250
159		-62.500000
160		-66.406250
161		-62.500000
162		-66.406250
163		-62.500000
164		-66.406250
165		-62.500000
166		-66.406250
167		-64.453125
168		-66.406250
169		-64.453125
170		-68.359375
171		-62.500000
172		-66.406250
173		-62.500000
174		-66.406250
175		-62.500000
176		-66.406250
177		-62.500000
178		-66.406250
179		-62.500000
180		-66.406250
181		-62.500000
182		-66.406250
183		-60.546875
184		-64.453125
185		-62.500000
186		-64.453125
187		-60.546875
188		-64.453125
189		-60.546875
190		-64.453125
191		-60.546875
192		-62.500000
193		-58.593750
194		-62.500000
195		-58.593750
196		-62.500000
197		-56.640625
198		-60.546875
199		-56.640625
200		-60.546875
201		-56.640625
202		-58.593750
203		-54.687500
204		-58.593750
205		-54.687500
206		-56.640625
207		-52.734375
208		-56.640625
209		-52.734375
210		-54.687500
211		-50.781250
212		-54.687500
213		-48.828125
214		-52.734375
215		-48.828125
216		-50.781250
217		-46.875000
218		-50.781250
219		-46.875000
220		-48.828125
221		-44.921875
222		-48.828125
223		-42.968750
224		-46.875000
225		-41.015625
226		-44.921875
227		-41.015625
228		-42.968750
229		-39.062500
230		-42.968750
231		-39.062500
232		-41.015625
233		-37.109375
234		-39.062500
235		-35.156250
236		-37.109375
237		-33.203125
238		-37.109375
239		-31.250000
240		-33.203125
241		-29.296875
242		-31.250000
243		-27.343750
244		-31.250000
245		-27.343750
246		-29.296875
247		-25.390625
248		-27.343750
249		-23.437500
250		-25.390625
251		-21.484375
252		-23.437500
253		-19.531250
254		-21.484375
255		-17.578125
256		-19.531250
257		-15.625000
258		-17.578125
259		-13.671875
260		-15.625000
261		-11.718750
262		-13.671875
263		-9.765625
264		-13.671875
265		-7.812500
266		-11.718750
267		-5.859375
268		-7.812500
269		-3.906250
270		-5.859375
271		-1.953125
272		-3.906250
273		0.000000
274		-3.906250
275		1.953125
276		0.000000
277		3.906250
278		0.000000
279		5.859375
280		3.906250
281		7.812500
282		5.859375
283		9.765625
284		7.812500
285		11.718750
286		7.812500
287		13.671875
288		9.765625
289		15.625000
290		11.718750
291		17.578125
292		13.671875
293		19.531250
294		15.625000
295		21.484375
296		17.578125
297		23.437500
298		19.531250
299		25.390625
300		21.484375
301		25.390625
302		23.437500
303		27.343750
304		25.390625
305		29.296875
306		27.343750
307		31.250000
308		29.296875
309		33.203125
310		31.250000
311		35.156250
312		33.203125
313		37.109375
314		35.156250
315		39.062500
316		37.109375
317		41.015625
318		37.109375
319		41.015625
320		39.062500
321		44.921875
322		41.015625
323		44.921875
324		42.968750
325		46.875000
326		44.921875
327		48.828125
328		44.921875
329		48.828125
330		46.875000
331		52.734375
332		48.828125
333		52.734375
334		50.781250
335		54.687500
336		52.734375
337		54.687500
338		52.734375
339		56.640625
340		54.687500
341		58.593750
342		56.640625
343		60.546875
344		56.640625
345		60.546875
346		58.593750
347		62.500000
348		60.546875
349		64.453125
350		60.546875
351		64.453125
352		62.500000
353		66.406250
354		62.500000
355		66.406250
356		64.453125
357		68.359375
358		64.453125
359		70.312500
360		66.406250
361		70.312500
362		66.406250
363		72.265625
364		68.359375
365		72.265625
366		68.359375
367		72.265625
368		70.312500
369		74.218750
370		70.312500
371		74.218750
372		70.312500
373		74.218750
374		72.265625
375		76.171875
376		72.265625
377		76.171875
378		72.265625
379		78.125000
380		74.218750
381		78.125000
382		74.218750
383		78.125000
384		74.218750
385		78.125000
386		76.171875
387		78.125000
388		76.171875
389		80.078125
390		76.171875
391		80.078125
392		76.171875
393		80.078125
394		76.171875
395		80.078125
396		76.171875
397		80.078125
398		76.171875
399		80.078125
400		76.171875
401		82.031250
402		78.125000
403		80.078125
404		78.125000
405		82.031250
406		78.125000
407		80.078125
408		78.125000
409		80.078125
410		76.171875
411		80.078125
412		76.171875
413		80.078125
414		76.171875
415		80.078125
416		76.171875
417		80.078125
418		76.171875
419		80.078125
420		76.171875
421		80.078125
422		76.171875
423		80.078125
424		76.171875
425		78.125000
426		74.218750
427		78.125000
428		74.218750
429		78.125000
430		74.218750
431		78.125000
432		74.218750
433		76.171875
434		72.265625
435		76.171875
436		72.265625
437		76.171875
438		70.312500
439		76.171875
440		70.312500
441		74.218750
442		70.312500
443		74.218750
444		68.359375
445		72.265625
446		68.359375
447		72.265625
448		66.406250
449		70.312500
450		66.406250
451		70.312500
452		66.406250
453		68.359375
454		64.453125
455		68.359375
456		62.500000
457		68.359375
458		62.500000
459		66.406250
460		60.546875
461		64.453125
462		58.593750
463		62.500000
464		58.593750
465		62.500000
466		56.640625
467		60.546875
468		56.640625
469		60.546875
470		54.687500
471		58.593750
472		52.734375
473		56.640625
474		50.781250
475		54.687500
476		50.781250
477		54.687500
478		48.828125
479		52.734375
480		46.875000
481		50.781250
482		44.921875
483		48.828125
484		44.921875
485		46.875000
486		42.968750
487		46.875000
488		41.015625
489		44.921875
490		39.062500
491		42.968750
492		37.109375
493		41.015625
494		35.156250
495		39.062500
496		33.203125
497		39.062500
498		31.250000
499		37.109375
500		31.250000
501		35.156250
502		29.296875
503		33.203125
504		27.343750
505		31.250000
506		23.437500
507		29.296875
508		23.437500
509		27.343750
510		21.484375
511		25.390625
512		19.531250
513		23.437500
514		17.578125
515		21.484375
516		15.625000
517		19.531250
518		13.671875
519		17.578125
520		11.718750
521		15.625000
522		9.765625
523		13.671875
524		7.812500
525		11.718750
526		5.859375
527		9.765625
528		3.906250
529		7.812500
530		1.953125
531		5.859375
532		0.000000
533		3.906250
534		-1.953125
535		1.953125
536		-3.906250
537		0.000000
538		-5.859375
539		-1.953125
540		-7.812500
541		-3.906250
542		-9.765625
543		-5.859375
544		-11.718750
545		-7.812500
546		-13.671875
547		-9.765625
548		-15.625000
549		-11.718750
550		-17.578125
551		-11.718750
552		-19.531250
553		-13.671875
554		-21.484375
555		-17.578125
556		-23.437500
557		-19.531250
558		-25.390625
559		-21.484375
560		-27.343750
561		-23.437500
562		-27.343750
563		-23.437500
564		-29.296875
565		-25.390625
566		-31.250000
567		-27.343750
568		-33.203125
569		-29.296875
570		-35.156250
571		-31.250000
572		-37.109375
573		-33.203125
574		-37.109375
575		-33.203125
576		-41.015625
577		-35.156250
578		-41.015625
579		-37.109375
580		-42.968750
581		-39.062500
582		-44.921875
583		-39.062500
584		-46.875000
585		-41.015625
586		-46.875000
587		-42.968750
588		-48.828125
589		-44.921875
590		-48.828125
591		-44.921875
592		-50.781250
593		-46.875000
594		-52.734375
595		-48.828125
596		-52.734375
597		-50.781250
598		-54.687500
599		-50.781250
600		-54.687500
601		-52.734375
602		-56.640625
603		-50.781250
604		-56.640625
605		-54.687500
606		-58.593750
607		-54.687500
608		-58.593750
609		-56.640625
610		-60.546875
611		-56.640625
612		-60.546875
613		-56.640625
614		-62.500000
615		-58.593750
616		-62.500000
617		-58.593750
618		-62.500000
619		-60.546875
620		-64.453125
621		-58.593750
622		-64.453125
623		-60.546875
624		-64.453125
625		-60.546875
626		-66.406250
627		-62.500000
628		-64.453125
629		-62.500000
630		-66.406250
631		-62.500000
632		-66.406250
633		-62.500000
634		-66.406250
635		-62.500000
636		-66.406250
637		-62.500000
638		-66.406250
639		-62.500000
640		-66.406250
641		-62.500000
642		-66.406250
643		-62.500000
644		-66.406250
645		-62.500000
646		-66.406250
647		-62.500000
648		-66.406250
649		-62.500000
650		-66.406250
651		-62.500000
652		-66.406250
653		-62.500000
654		-64.453125
655		-62.500000
656		-64.453125
657		-60.546875
658		-64.453125
659		-60.546875
660		-64.453125
661		-60.546875
662		-64.453125
663		-58.593750
664		-62.500000
665		-58.593750
666		-60.546875
667		-58.593750
668		-60.546875
669		-56.640625
670		-60.546875
671		-56.640625
672		-58.593750
673		-56.640625
674		-58.593750
675		-54.687500
676		-58.593750
677		-54.687500
678		-56.640625
679		-52.734375
680		-56.640625
681		-50.781250
682		-54.687500
683		-50.781250
684		-54.687500
685		-48.828125
686		-52.734375
687		-48.828125
688		-50.781250
689		-46.875000
690		-48.828125
691		-44.921875
692		-48.828125
693		-44.921875
694		-46.875000
695		-42.968750
696		-44.921875
697		-41.015625
698		-44.921875
699		-41.015625
700		-42.968750
701		-39.062500
702		-41.015625
703		-37.109375
704		-39.062500
705		-35.156250
706		-37.109375
707		-33.203125
708		-37.109375
709		-33.203125
710		-35.156250
711		-31.250000
712		-33.203125
713		-29.296875
714		-31.250000
715		-27.343750
716		-29.296875
717		-25.390625
718		-27.343750
719		-23.437500
720		-27.343750
721		-21.484375
722		-25.390625
723		-19.531250
724		-23.437500
725		-17.578125
726		-21.484375
727		-15.625000
728		-19.531250
729		-15.625000
730		-17.578125
731		-13.671875
732		-15.625000
733		-9.765625
734		-13.671875
735		-9.765625
736		-13.671875
737		-7.812500
738		-9.765625
739		-5.859375
740		-7.812500
741		-3.906250
742		-5.859375
743		-1.953125
744		-3.906250
745		0.000000
746		-1.953125
747		1.953125
748		0.000000
749		3.906250
750		1.953125
751		5.859375
752		3.906250
753		9.765625
754		5.859375
755		9.765625
756		7.812500
757		11.718750
758		9.765625
759		13.671875
760		11.718750
761		15.625000
762		13.671875
763		17.578125
764		15.625000
765		19.531250
766		17.578125
767		21.484375
768		19.531250
769		23.437500
770		21.484375
771		25.390625
772		23.437500
773		27.343750
774		23.437500
775		29.296875
776		25.390625
777		31.250000
778		27.343750
779		33.203125
780		29.296875
781		35.156250
782		31.250000
783		37.109375
784		33.203125
785		37.109375
786		35.156250
787		39.062500
788		37.109375
789		41.015625
790		39.062500
791		42.968750
792		39.062500
793		44.921875
794		41.015625
795		46.875000
796		42.968750
797		46.875000
798		44.921875
799		48.828125
800		46.875000
801		50.781250
802		46.875000
803		52.734375
804		48.828125
805		52.734375
806		50.781250
807		54.687500
808		52.734375
809		56.640625
810		54.687500
811		58.593750
812		54.687500
813		58.593750
814		56.640625
815		60.546875
816		58.593750
817		60.546875
818		58.593750
819		62.500000
820		60.546875
821		64.453125
822		62.500000
823		64.453125
824		62.500000
825		66.406250
826		62.500000
827		68.359375
828		64.453125
829		68.359375
830		66.406250
831		70.312500
832		66.406250
833		70.312500
834		68.359375
835		70.312500
836		68.359375
837		72.265625
838		70.312500
839		72.265625
840		70.312500
841		74.218750
842		70.312500
843		74.218750
844		72.265625
845		76.171875
846		72.265625
847		76.171875
848		74.218750
849		76.171875
850		74.218750
851		76.171875
852		74.218750
853		78.125000
854		74.218750
855		78.125000
856		76.171875
857		78.125000
858		76.171875
859		80.078125
860		76.171875
861		80.078125
862		76.171875
863		80.078125
864		76.171875
865		80.078125
866		76.171875
867		80.078125
868		76.171875
869		80.078125
870		76.171875
871		80.078125
872		78.125000
873		80.078125
874		78.125000
875		80.078125
876		78.125000
877		80.078125
878		78.125000
879		80.078125
880		78.125000
881		80.078125
882		78.125000
883		82.031250
884		78.125000
885		80.078125
886		76.171875
887		80.078125
888		76.171875
889		80.078125
890		76.171875
891		80.078125
892		76.171875
893		80.078125
894		76.171875
895		80.078125
896		74.218750
897		80.078125
898		74.218750
899		78.125000
900		74.218750
901		78.125000
902		74.218750
903		78.125000
904		74.218750
905		76.171875
906		72.265625
907		76.171875
908		72.265625
909		76.171875
910		70.312500
911		74.218750
912		70.312500
913		74.218750
914		70.312500
915		74.218750
916		68.359375
917		72.265625
918		68.359375
919		72.265625
920		66.406250
921		70.312500
922		66.406250
923		70.312500
924		64.453125
925		68.359375
926		62.500000
927		68.359375
928		62.500000
929		66.406250
930		62.500000
931		66.406250
932		60.546875
933		64.453125
934		58.593750
935		62.500000
936		58.593750
937		62.500000
938		56.640625
939		60.546875
940		54.687500
941		60.546875
942		54.687500
943		58.593750
944		52.734375
945		56.640625
946		50.781250
947		54.687500
948		48.828125
949		54.687500
950		48.828125
951		52.734375
952		46.875000
953		50.781250
954		44.921875
955		48.828125
956		42.968750
957		46.875000
958		41.015625
959		44.921875
960		41.015625
961		44.921875
962		39.062500
963		42.968750
964		37.109375
965		41.015625
966		35.156250
967		39.062500
968		33.203125
969		37.109375
970		31.250000
971		35.156250
972		29.296875
973		35.156250
974		27.343750
975		33.203125
976		25.390625
977		31.250000
978		23.437500
979		29.296875
980		23.437500
981		27.343750
982		21.484375
983		25.390625
984		19.531250
985		23.437500
986		15.625000
987		21.484375
988		15.625000
989		19.531250
990		13.671875
991		17.578125
992		11.718750
993		15.625000
994		9.765625
995		13.671875
996		5.859375
997		11.718750
998		3.906250
999		9.765625
1000		3.906250
1001		7.812500
1002		1.953125
1003		5.859375
1004		-1.953125
1005		3.906250
1006		-1.953125
1007		1.953125
1008		-3.906250
1009		0.000000
1010		-5.859375
1011		-1.953125
1012		-7.812500
1013		-3.906250
1014		-9.765625
1015		-5.859375
1016		-11.718750
1017		-7.812500
1018		-13.671875
1019		-9.765625
1020		-15.625000
1021		-11.718750
1022		-17.578125
1023		-13.671875
1024		-19.531250
1025		-15.625000
1026		-21.484375
1027		-17.578125
1028		-23.437500
1029		-19.531250
1030		-25.390625
1031		-21.484375
1032		-27.343750
1033		-23.437500
1034		-29.296875
1035		-25.390625
1036		-31.250000
1037		-25.390625
1038		-33.203125
1039		-27.343750
1040		-33.203125
1041		-29.296875
1042		-35.156250
1043		-31.250000
1044		-37.109375
1045		-33.203125
1046		-39.062500
1047		-35.156250
1048		-41.015625
1049		-35.156250
1050		-41.015625
1051		-37.109375
1052		-42.968750
1053		-39.062500
1054		-44.921875
1055		-41.015625
1056		-44.921875
1057		-42.968750
1058		-46.875000
1059		-42.968750
1060		-48.828125
1061		-44.921875
1062		-50.781250
1063		-46.875000
1064		-50.781250
1065		-46.875000
1066		-52.734375
1067		-48.828125
1068		-52.734375
1069		-50.781250
1070		-54.687500
1071		-50.781250
1072		-56.640625
1073		-52.734375
1074		-56.640625
1075		-52.734375
1076		-58.593750
1077		-54.687500
1078		-58.593750
1079		-54.687500
1080		-60.546875
1081		-54.687500
1082		-60.546875
1083		-56.640625
1084		-60.546875
1085		-56.640625
1086		-62.500000
1087		-58.593750
1088		-62.500000
1089		-58.593750
1090		-64.453125
1091		-60.546875
1092		-64.453125
1093		-60.546875
1094		-64.453125
1095		-60.546875
1096		-64.453125
1097		-60.546875
1098		-64.453125
1099		-62.500000
1100		-64.453125
1101		-62.500000
1102		-66.406250
1103		-62.500000
1104		-66.406250
1105		-62.500000
1106		-66.406250
1107		-62.500000
1108		-66.406250
1109		-62.500000
1110		-66.406250
1111		-62.500000
1112		-66.406250
1113		-62.500000
1114		-66.406250
1115		-62.500000
1116		-66.406250
1117		-62.500000
1118		-66.406250
1119		-62.500000
1120		-66.406250
1121		-62.500000
1122		-66.406250
1123		-62.500000
1124		-64.453125
1125		-62.500000
1126		-64.453125
1127		-60.546875
1128		-64.453125
1129		-60.546875
1130		-64.453125
1131		-60.546875
1132		-64.453125
1133		-58.593750
1134		-62.500000
1135		-58.593750
1136		-62.500000
1137		-58.593750
1138		-62.500000
1139		-56.640625
1140		-60.546875
1141		-56.640625
1142		-58.593750
1143		-56.640625
1144		-58.593750
1145		-54.687500
1146		-58.593750
1147		-54.687500
1148		-56.640625
1149		-52.734375
1150		-56.640625
1151		-52.734375
1152		-54.687500
1153		-50.781250
1154		-52.734375
1155		-50.781250
1156		-52.734375
1157		-48.828125
1158		-50.781250
1159		-48.828125
1160		-50.781250
1161		-46.875000
1162		-48.828125
1163		-44.921875
1164		-46.875000
1165		-42.968750
1166		-46.875000
1167		-42.968750
1168		-44.921875
1169		-41.015625
1170		-42.968750
1171		-39.062500
1172		-42.968750
1173		-37.109375
1174		-41.015625
1175		-37.109375
1176		-39.062500
1177		-35.156250
1178		-37.109375
1179		-33.203125
1180		-35.156250
1181		-31.250000
1182		-35.156250
1183		-29.296875
1184		-33.203125
1185		-27.343750
1186		-31.250000
1187		-27.343750
1188		-29.296875
1189		-25.390625
1190		-27.343750
1191		-23.437500
1192		-25.390625
1193		-21.484375
1194		-23.437500
1195		-19.531250
1196		-21.484375
1197		-17.578125
1198		-19.531250
1199		-15.625000
1200		-17.578125
1201		-13.671875
1202		-15.625000
1203		-11.718750
1204		-15.625000
1205		-9.765625
1206		-11.718750
1207		-7.812500
1208		-9.765625
1209		-5.859375
1210		-7.812500
1211		-3.906250
1212		-7.812500
1213		-1.953125
1214		-5.859375
1215		1.953125
1216		-3.906250
1217		1.953125
1218		-1.953125
1219		3.906250
1220		0.000000
1221		5.859375
1222		1.953125
1223		7.812500
1224		3.906250
1225		9.765625
1226		5.859375
1227		11.718750
1228		7.812500
1229		15.625000
1230		7.812500
1231		15.625000
1232		11.718750
1233		17.578125
1234		13.671875
1235		17.578125
1236		15.625000
1237		21.484375
1238		17.578125
1239		23.437500
1240		17.578125
1241		25.390625
1242		21.484375
1243		25.390625
1244		23.437500
1245		27.343750
1246		23.437500
1247		31.250000
1248		25.390625
1249		33.203125
1250		27.343750
1251		33.203125
1252		31.250000
1253		37.109375
1254		33.203125
1255		37.109375
1256		33.203125
1257		39.062500
1258		35.156250
1259		39.062500
1260		37.109375
1261		41.015625
1262		39.062500
1263		42.968750
1264		39.062500
1265		46.875000
1266		41.015625
1267		48.828125
1268		42.968750
1269		50.781250
1270		44.921875
1271		50.781250
1272		46.875000
