Vrije proef/m1-1.txt

Channel              :		CH1
Frequency            :		  ?
Period               :		  ?
PK-PK                :		3.672V
Probe attenuation    :		1X
Voltage per ADC value:		2.441406mV
Time interval        :		1000.00000us

index		CH1_Voltage(mV)
1		312.500000
2		312.500000
3		312.500000
4		312.500000
5		312.500000
6		312.500000
7		312.500000
8		273.437500
9		273.437500
10		273.437500
11		273.437500
12		273.437500
13		273.437500
14		234.375000
15		234.375000
16		234.375000
17		234.375000
18		234.375000
19		195.312500
20		195.312500
21		195.312500
22		195.312500
23		195.312500
24		195.312500
25		156.250000
26		156.250000
27		156.250000
28		156.250000
29		156.250000
30		156.250000
31		117.187500
32		117.187500
33		117.187500
34		117.187500
35		78.125000
36		78.125000
37		78.125000
38		78.125000
39		78.125000
40		78.125000
41		39.062500
42		39.062500
43		39.062500
44		39.062500
45		39.062500
46		0.000000
47		0.000000
48		0.000000
49		0.000000
50		0.000000
51		-39.062500
52		-39.062500
53		-39.062500
54		-39.062500
55		-78.125000
56		-78.125000
57		-78.125000
58		-78.125000
59		-78.125000
60		-78.125000
61		-117.187500
62		-117.187500
63		-117.187500
64		-117.187500
65		-117.187500
66		-156.250000
67		-156.250000
68		-156.250000
69		-156.250000
70		-195.312500
71		-195.312500
72		-195.312500
73		-195.312500
74		-195.312500
75		-234.375000
76		-234.375000
77		-234.375000
78		-234.375000
79		-273.437500
80		-273.437500
81		-273.437500
82		-273.437500
83		-273.437500
84		-273.437500
85		-312.500000
86		-312.500000
87		-312.500000
88		-312.500000
89		-312.500000
90		-351.562500
91		-351.562500
92		-351.562500
93		-351.562500
94		-351.562500
95		-390.625000
96		-351.562500
97		-390.625000
98		-390.625000
99		-429.687500
100		-429.687500
101		-429.687500
102		-429.687500
103		-429.687500
104		-468.750000
105		-468.750000
106		-468.750000
107		-468.750000
108		-468.750000
109		-507.812500
110		-507.812500
111		-507.812500
112		-507.812500
113		-546.875000
114		-546.875000
115		-546.875000
116		-546.875000
117		-546.875000
118		-585.937500
119		-585.937500
120		-585.937500
121		-585.937500
122		-625.000000
123		-625.000000
124		-625.000000
125		-625.000000
126		-625.000000
127		-625.000000
128		-664.062500
129		-664.062500
130		-664.062500
131		-664.062500
132		-703.125000
133		-703.125000
134		-703.125000
135		-703.125000
136		-742.187500
137		-742.187500
138		-742.187500
139		-742.187500
140		-781.250000
141		-781.250000
142		-781.250000
143		-781.250000
144		-781.250000
145		-781.250000
146		-820.312500
147		-820.312500
148		-820.312500
149		-820.312500
150		-820.312500
151		-859.375000
152		-859.375000
153		-859.375000
154		-859.375000
155		-898.437500
156		-898.437500
157		-898.437500
158		-898.437500
159		-937.500000
160		-937.500000
161		-937.500000
162		-937.500000
163		-937.500000
164		-937.500000
165		-937.500000
166		-976.562500
167		-976.562500
168		-976.562500
169		-976.562500
170		-976.562500
171		-1015.625000
172		-1015.625000
173		-1015.625000
174		-1054.687500
175		-1054.687500
176		-1054.687500
177		-1054.687500
178		-1054.687500
179		-1054.687500
180		-1093.750000
181		-1093.750000
182		-1093.750000
183		-1093.750000
184		-1093.750000
185		-1093.750000
186		-1132.812500
187		-1132.812500
188		-1132.812500
189		-1132.812500
190		-1171.875000
191		-1171.875000
192		-1171.875000
193		-1171.875000
194		-1210.937500
195		-1210.937500
196		-1210.937500
197		-1210.937500
198		-1210.937500
199		-1250.000000
200		-1250.000000
201		-1250.000000
202		-1250.000000
203		-1250.000000
204		-1250.000000
205		-1250.000000
206		-1289.062500
207		-1289.062500
208		-1289.062500
209		-1289.062500
210		-1328.125000
211		-1328.125000
212		-1328.125000
213		-1328.125000
214		-1328.125000
215		-1367.187500
216		-1328.125000
217		-1328.125000
218		-1367.187500
219		-1367.187500
220		-1367.187500
221		-1406.250000
222		-1406.250000
223		-1406.250000
224		-1406.250000
225		-1406.250000
226		-1406.250000
227		-1445.312500
228		-1445.312500
229		-1445.312500
230		-1445.312500
231		-1445.312500
232		-1484.375000
233		-1484.375000
234		-1484.375000
235		-1484.375000
236		-1484.375000
237		-1484.375000
238		-1523.437500
239		-1523.437500
240		-1523.437500
241		-1523.437500
242		-1523.437500
243		-1523.437500
244		-1562.500000
245		-1562.500000
246		-1562.500000
247		-1562.500000
248		-1562.500000
249		-1601.562500
250		-1601.562500
251		-1601.562500
252		-1601.562500
253		-1601.562500
254		-1640.625000
255		-1640.625000
256		-1640.625000
257		-1640.625000
258		-1640.625000
259		-1640.625000
260		-1679.687500
261		-1679.687500
262		-1679.687500
263		-1679.687500
264		-1679.687500
265		-1679.687500
266		-1679.687500
267		-1718.750000
268		-1718.750000
269		-1718.750000
270		-1718.750000
271		-1718.750000
272		-1718.750000
273		-1757.812500
274		-1757.812500
275		-1757.812500
276		-1757.812500
277		-1757.812500
278		-1796.875000
279		-1796.875000
280		-1796.875000
281		-1796.875000
282		-1796.875000
283		-1796.875000
284		-1796.875000
285		-1796.875000
286		-1835.937500
287		-1835.937500
288		-1835.937500
289		-1835.937500
290		-1835.937500
291		-1835.937500
292		-1875.000000
293		-1835.937500
294		-1875.000000
295		-1875.000000
296		-1875.000000
297		-1875.000000
298		-1914.062500
299		-1914.062500
300		-1914.062500
301		-1914.062500
302		-1914.062500
303		-1914.062500
304		-1914.062500
305		-1953.125000
306		-1914.062500
307		-1953.125000
308		-1953.125000
309		-1953.125000
310		-1953.125000
311		-1953.125000
312		-1953.125000
313		-1953.125000
314		-1992.187500
315		-1992.187500
316		-1992.187500
317		-1992.187500
318		-1992.187500
319		-2031.250000
320		-2031.250000
321		-2031.250000
322		-2031.250000
323		-2031.250000
324		-2031.250000
325		-2031.250000
326		-2031.250000
327		-2031.250000
328		-2031.250000
329		-2070.312500
330		-2070.312500
331		-2070.312500
332		-2070.312500
333		-2070.312500
334		-2109.375000
335		-2109.375000
336		-2109.375000
337		-2109.375000
338		-2109.375000
339		-2109.375000
340		-2109.375000
341		-2109.375000
342		-2148.437500
343		-2148.437500
344		-2148.437500
345		-2148.437500
346		-2148.437500
347		-2148.437500
348		-2148.437500
349		-2148.437500
350		-2148.437500
351		-2187.500000
352		-2187.500000
353		-2187.500000
354		-2187.500000
355		-2187.500000
356		-2187.500000
357		-2226.562500
358		-2226.562500
359		-2226.562500
360		-2226.562500
361		-2226.562500
362		-2226.562500
363		-2226.562500
364		-2226.562500
365		-2226.562500
366		-2226.562500
367		-2226.562500
368		-2265.625000
369		-2265.625000
370		-2265.625000
371		-2265.625000
372		-2265.625000
373		-2265.625000
374		-2304.687500
375		-2304.687500
376		-2304.687500
377		-2304.687500
378		-2304.687500
379		-2304.687500
380		-2304.687500
381		-2304.687500
382		-2304.687500
383		-2304.687500
384		-2304.687500
385		-2304.687500
386		-2343.750000
387		-2343.750000
388		-2343.750000
389		-2343.750000
390		-2343.750000
391		-2343.750000
392		-2343.750000
393		-2343.750000
394		-2382.812500
395		-2382.812500
396		-2382.812500
397		-2382.812500
398		-2382.812500
399		-2382.812500
400		-2382.812500
401		-2382.812500
402		-2382.812500
403		-2382.812500
404		-2421.875000
405		-2421.875000
406		-2382.812500
407		-2421.875000
408		-2421.875000
409		-2421.875000
410		-2421.875000
411		-2421.875000
412		-2421.875000
413		-2421.875000
414		-2460.937500
415		-2421.875000
416		-2460.937500
417		-2460.937500
418		-2460.937500
419		-2460.937500
420		-2460.937500
421		-2460.937500
422		-2460.937500
423		-2460.937500
424		-2460.937500
425		-2460.937500
426		-2500.000000
427		-2500.000000
428		-2500.000000
429		-2500.000000
430		-2500.000000
431		-2500.000000
432		-2500.000000
433		-2500.000000
434		-2500.000000
435		-2500.000000
436		-2500.000000
437		-2539.062500
438		-2539.062500
439		-2539.062500
440		-2539.062500
441		-2539.062500
442		-2539.062500
443		-2539.062500
444		-2539.062500
445		-2539.062500
446		-2539.062500
447		-2539.062500
448		-2539.062500
449		-2578.125000
450		-2539.062500
451		-2578.125000
452		-2578.125000
453		-2578.125000
454		-2578.125000
455		-2578.125000
456		-2578.125000
457		-2578.125000
458		-2578.125000
459		-2578.125000
460		-2578.125000
461		-2578.125000
462		-2578.125000
463		-2578.125000
464		-2617.187500
465		-2617.187500
466		-2617.187500
467		-2617.187500
468		-2617.187500
469		-2617.187500
470		-2617.187500
471		-2617.187500
472		-2617.187500
473		-2656.250000
474		-2617.187500
475		-2656.250000
476		-2656.250000
477		-2656.250000
478		-2656.250000
479		-2656.250000
480		-2656.250000
481		-2656.250000
482		-2656.250000
483		-2656.250000
484		-2656.250000
485		-2656.250000
486		-2656.250000
487		-2656.250000
488		-2656.250000
489		-2656.250000
490		-2656.250000
491		-2656.250000
492		-2656.250000
493		-2695.312500
494		-2695.312500
495		-2695.312500
496		-2695.312500
497		-2695.312500
498		-2695.312500
499		-2695.312500
500		-2695.312500
501		-2695.312500
502		-2695.312500
503		-2695.312500
504		-2695.312500
505		-2695.312500
506		-2695.312500
507		-2695.312500
508		-2695.312500
509		-2734.375000
510		-2695.312500
511		-2695.312500
512		-2734.375000
513		-2734.375000
514		-2734.375000
515		-2734.375000
516		-2734.375000
517		-2734.375000
518		-2734.375000
519		-2734.375000
520		-2773.437500
521		-2734.375000
522		-2734.375000
523		-2734.375000
524		-2734.375000
525		-2734.375000
526		-2734.375000
527		-2734.375000
528		-2734.375000
529		-2773.437500
530		-2773.437500
531		-2773.437500
532		-2773.437500
533		-2773.437500
534		-2773.437500
535		-2773.437500
536		-2773.437500
537		-2773.437500
538		-2773.437500
539		-2773.437500
540		-2773.437500
541		-2773.437500
542		-2773.437500
543		-2773.437500
544		-2773.437500
545		-2773.437500
546		-2773.437500
547		-2773.437500
548		-2812.500000
549		-2812.500000
550		-2812.500000
551		-2812.500000
552		-2812.500000
553		-2812.500000
554		-2812.500000
555		-2812.500000
556		-2812.500000
557		-2812.500000
558		-2812.500000
559		-2812.500000
560		-2812.500000
561		-2812.500000
562		-2812.500000
563		-2812.500000
564		-2812.500000
565		-2812.500000
566		-2812.500000
567		-2812.500000
568		-2851.562500
569		-2812.500000
570		-2851.562500
571		-2851.562500
572		-2851.562500
573		-2851.562500
574		-2851.562500
575		-2851.562500
576		-2851.562500
577		-2851.562500
578		-2851.562500
579		-2851.562500
580		-2851.562500
581		-2851.562500
582		-2851.562500
583		-2851.562500
584		-2851.562500
585		-2851.562500
586		-2851.562500
587		-2851.562500
588		-2851.562500
589		-2851.562500
590		-2851.562500
591		-2851.562500
592		-2851.562500
593		-2851.562500
594		-2851.562500
595		-2890.625000
596		-2890.625000
597		-2851.562500
598		-2890.625000
599		-2851.562500
600		-2851.562500
601		-2890.625000
602		-2851.562500
603		-2890.625000
604		-2890.625000
605		-2890.625000
606		-2890.625000
607		-2890.625000
608		-2890.625000
609		-2890.625000
610		-2890.625000
611		-2890.625000
612		-2890.625000
613		-2890.625000
614		-2890.625000
615		-2890.625000
616		-2890.625000
617		-2890.625000
618		-2890.625000
619		-2890.625000
620		-2890.625000
621		-2890.625000
622		-2890.625000
623		-2890.625000
624		-2890.625000
625		-2890.625000
626		-2890.625000
627		-2890.625000
628		-2890.625000
629		-2890.625000
630		-2890.625000
631		-2890.625000
632		-2890.625000
633		-2890.625000
634		-2890.625000
635		-2890.625000
636		-2890.625000
637		-2890.625000
638		-2890.625000
639		-2890.625000
640		-2929.687500
641		-2929.687500
642		-2929.687500
643		-2890.625000
644		-2929.687500
645		-2890.625000
646		-2890.625000
647		-2890.625000
648		-2890.625000
649		-2890.625000
650		-2890.625000
651		-2890.625000
652		-2929.687500
653		-2890.625000
654		-2929.687500
655		-2929.687500
656		-2929.687500
657		-2929.687500
658		-2929.687500
659		-2929.687500
660		-2929.687500
661		-2929.687500
662		-2929.687500
663		-2929.687500
664		-2929.687500
665		-2929.687500
666		-2890.625000
667		-2929.687500
668		-2929.687500
669		-2929.687500
670		-2929.687500
671		-2929.687500
672		-2929.687500
673		-2929.687500
674		-2929.687500
675		-2929.687500
676		-2929.687500
677		-2929.687500
678		-2929.687500
679		-2929.687500
680		-2929.687500
681		-2929.687500
682		-2929.687500
683		-2929.687500
684		-2929.687500
685		-2929.687500
686		-2929.687500
687		-2929.687500
688		-2929.687500
689		-2929.687500
690		-2929.687500
691		-2929.687500
692		-2929.687500
693		-2929.687500
694		-2929.687500
695		-2929.687500
696		-2929.687500
697		-2929.687500
698		-2929.687500
699		-2929.687500
700		-2929.687500
701		-2929.687500
702		-2929.687500
703		-2929.687500
704		-2929.687500
705		-2929.687500
706		-2929.687500
707		-2929.687500
708		-2929.687500
709		-2929.687500
710		-2929.687500
711		-2929.687500
712		-2929.687500
713		-2929.687500
714		-2929.687500
715		-2929.687500
716		-2929.687500
717		-2929.687500
718		-2929.687500
719		-2929.687500
720		-2929.687500
721		-2929.687500
722		-2929.687500
723		-2929.687500
724		-2929.687500
725		-2929.687500
726		-2929.687500
727		-2929.687500
728		-2929.687500
729		-2890.625000
730		-2929.687500
731		-2929.687500
732		-2929.687500
733		-2929.687500
734		-2929.687500
735		-2929.687500
736		-2929.687500
737		-2929.687500
738		-2929.687500
739		-2929.687500
740		-2929.687500
741		-2890.625000
742		-2929.687500
743		-2890.625000
744		-2890.625000
745		-2929.687500
746		-2929.687500
747		-2890.625000
748		-2890.625000
749		-2890.625000
750		-2890.625000
751		-2929.687500
752		-2929.687500
753		-2929.687500
754		-2929.687500
755		-2929.687500
756		-2929.687500
757		-2929.687500
758		-2890.625000
759		-2890.625000
760		-2890.625000
761		-2890.625000
762		-2890.625000
763		-2890.625000
764		-2890.625000
765		-2890.625000
766		-2890.625000
767		-2890.625000
768		-2890.625000
769		-2890.625000
770		-2890.625000
771		-2890.625000
772		-2890.625000
773		-2890.625000
774		-2890.625000
775		-2890.625000
776		-2890.625000
777		-2890.625000
778		-2890.625000
779		-2890.625000
780		-2890.625000
781		-2890.625000
782		-2890.625000
783		-2890.625000
784		-2890.625000
785		-2890.625000
786		-2890.625000
787		-2890.625000
788		-2890.625000
789		-2890.625000
790		-2890.625000
791		-2890.625000
792		-2890.625000
793		-2890.625000
794		-2890.625000
795		-2851.562500
796		-2851.562500
797		-2851.562500
798		-2851.562500
799		-2851.562500
800		-2851.562500
801		-2851.562500
802		-2851.562500
803		-2851.562500
804		-2851.562500
805		-2851.562500
806		-2851.562500
807		-2851.562500
808		-2851.562500
809		-2851.562500
810		-2851.562500
811		-2851.562500
812		-2851.562500
813		-2851.562500
814		-2851.562500
815		-2851.562500
816		-2851.562500
817		-2851.562500
818		-2851.562500
819		-2851.562500
820		-2851.562500
821		-2851.562500
822		-2851.562500
823		-2851.562500
824		-2851.562500
825		-2851.562500
826		-2851.562500
827		-2812.500000
828		-2812.500000
829		-2812.500000
830		-2812.500000
831		-2812.500000
832		-2812.500000
833		-2812.500000
834		-2812.500000
835		-2812.500000
836		-2812.500000
837		-2812.500000
838		-2812.500000
839		-2812.500000
840		-2812.500000
841		-2812.500000
842		-2812.500000
843		-2812.500000
844		-2812.500000
845		-2812.500000
846		-2812.500000
847		-2812.500000
848		-2773.437500
849		-2773.437500
850		-2773.437500
851		-2773.437500
852		-2773.437500
853		-2773.437500
854		-2773.437500
855		-2773.437500
856		-2773.437500
857		-2773.437500
858		-2773.437500
859		-2773.437500
860		-2773.437500
861		-2773.437500
862		-2773.437500
863		-2773.437500
864		-2773.437500
865		-2773.437500
866		-2734.375000
867		-2734.375000
868		-2734.375000
869		-2734.375000
870		-2734.375000
871		-2734.375000
872		-2734.375000
873		-2734.375000
874		-2734.375000
875		-2734.375000
876		-2734.375000
877		-2734.375000
878		-2734.375000
879		-2734.375000
880		-2734.375000
881		-2734.375000
882		-2734.375000
883		-2734.375000
884		-2734.375000
885		-2734.375000
886		-2734.375000
887		-2695.312500
888		-2695.312500
889		-2695.312500
890		-2695.312500
891		-2695.312500
892		-2695.312500
893		-2695.312500
894		-2695.312500
895		-2695.312500
896		-2695.312500
897		-2695.312500
898		-2695.312500
899		-2695.312500
900		-2695.312500
901		-2695.312500
902		-2695.312500
903		-2695.312500
904		-2656.250000
905		-2656.250000
906		-2656.250000
907		-2656.250000
908		-2656.250000
909		-2656.250000
910		-2656.250000
911		-2656.250000
912		-2656.250000
913		-2656.250000
914		-2656.250000
915		-2656.250000
916		-2656.250000
917		-2656.250000
918		-2656.250000
919		-2656.250000
920		-2617.187500
921		-2656.250000
922		-2617.187500
923		-2617.187500
924		-2617.187500
925		-2617.187500
926		-2617.187500
927		-2617.187500
928		-2617.187500
929		-2617.187500
930		-2617.187500
931		-2617.187500
932		-2617.187500
933		-2617.187500
934		-2578.125000
935		-2617.187500
936		-2617.187500
937		-2578.125000
938		-2578.125000
939		-2578.125000
940		-2578.125000
941		-2578.125000
942		-2578.125000
943		-2578.125000
944		-2539.062500
945		-2539.062500
946		-2539.062500
947		-2539.062500
948		-2539.062500
949		-2539.062500
950		-2539.062500
951		-2539.062500
952		-2539.062500
953		-2539.062500
954		-2539.062500
955		-2539.062500
956		-2578.125000
957		-2539.062500
958		-2500.000000
959		-2500.000000
960		-2500.000000
961		-2500.000000
962		-2500.000000
963		-2500.000000
964		-2460.937500
965		-2500.000000
966		-2500.000000
967		-2460.937500
968		-2460.937500
969		-2460.937500
970		-2460.937500
971		-2460.937500
972		-2460.937500
973		-2460.937500
974		-2460.937500
975		-2460.937500
976		-2460.937500
977		-2460.937500
978		-2460.937500
979		-2421.875000
980		-2421.875000
981		-2421.875000
982		-2421.875000
983		-2421.875000
984		-2421.875000
985		-2421.875000
986		-2421.875000
987		-2421.875000
988		-2421.875000
989		-2382.812500
990		-2382.812500
991		-2382.812500
992		-2382.812500
993		-2382.812500
994		-2382.812500
995		-2382.812500
996		-2382.812500
997		-2382.812500
998		-2382.812500
999		-2382.812500
1000		-2343.750000
1001		-2343.750000
1002		-2343.750000
1003		-2343.750000
1004		-2343.750000
1005		-2343.750000
1006		-2343.750000
1007		-2343.750000
1008		-2304.687500
1009		-2304.687500
1010		-2304.687500
1011		-2265.625000
1012		-2304.687500
1013		-2304.687500
1014		-2304.687500
1015		-2304.687500
1016		-2304.687500
1017		-2265.625000
1018		-2265.625000
1019		-2265.625000
1020		-2265.625000
1021		-2265.625000
1022		-2265.625000
1023		-2265.625000
1024		-2265.625000
1025		-2265.625000
1026		-2226.562500
1027		-2226.562500
1028		-2226.562500
1029		-2226.562500
1030		-2226.562500
1031		-2226.562500
1032		-2226.562500
1033		-2187.500000
1034		-2187.500000
1035		-2187.500000
1036		-2187.500000
1037		-2187.500000
1038		-2187.500000
1039		-2187.500000
1040		-2187.500000
1041		-2187.500000
1042		-2187.500000
1043		-2148.437500
1044		-2148.437500
1045		-2148.437500
1046		-2148.437500
1047		-2148.437500
1048		-2148.437500
1049		-2109.375000
1050		-2109.375000
1051		-2109.375000
1052		-2109.375000
1053		-2109.375000
1054		-2109.375000
1055		-2109.375000
1056		-2070.312500
1057		-2109.375000
1058		-2070.312500
1059		-2070.312500
1060		-2070.312500
1061		-2070.312500
1062		-2070.312500
1063		-2070.312500
1064		-2031.250000
1065		-2031.250000
1066		-2031.250000
1067		-2031.250000
1068		-2031.250000
1069		-2031.250000
1070		-1992.187500
1071		-1992.187500
1072		-1992.187500
1073		-1992.187500
1074		-1992.187500
1075		-1992.187500
1076		-1992.187500
1077		-1992.187500
1078		-1992.187500
1079		-1953.125000
1080		-1953.125000
1081		-1953.125000
1082		-1953.125000
1083		-1953.125000
1084		-1953.125000
1085		-1914.062500
1086		-1914.062500
1087		-1914.062500
1088		-1914.062500
1089		-1875.000000
1090		-1875.000000
1091		-1875.000000
1092		-1875.000000
1093		-1875.000000
1094		-1875.000000
1095		-1875.000000
1096		-1875.000000
1097		-1835.937500
1098		-1835.937500
1099		-1835.937500
1100		-1835.937500
1101		-1835.937500
1102		-1835.937500
1103		-1796.875000
1104		-1796.875000
1105		-1796.875000
1106		-1796.875000
1107		-1796.875000
1108		-1757.812500
1109		-1757.812500
1110		-1757.812500
1111		-1757.812500
