Vrije proef/m1-2.txt

Channel              :		CH1
Frequency            :		  ?
Period               :		  ?
PK-PK                :		2.383V
Probe attenuation    :		1X
Voltage per ADC value:		2.441406mV
Time interval        :		1000.00000us

index		CH1_Voltage(mV)
1		-2421.875000
2		-2421.875000
3		-2421.875000
4		-2421.875000
5		-2382.812500
6		-2382.812500
7		-2382.812500
8		-2382.812500
9		-2382.812500
10		-2382.812500
11		-2382.812500
12		-2382.812500
13		-2382.812500
14		-2343.750000
15		-2343.750000
16		-2343.750000
17		-2343.750000
18		-2343.750000
19		-2343.750000
20		-2343.750000
21		-2343.750000
22		-2343.750000
23		-2304.687500
24		-2343.750000
25		-2304.687500
26		-2304.687500
27		-2343.750000
28		-2304.687500
29		-2304.687500
30		-2304.687500
31		-2304.687500
32		-2265.625000
33		-2265.625000
34		-2265.625000
35		-2265.625000
36		-2265.625000
37		-2265.625000
38		-2265.625000
39		-2265.625000
40		-2265.625000
41		-2226.562500
42		-2226.562500
43		-2226.562500
44		-2226.562500
45		-2226.562500
46		-2226.562500
47		-2226.562500
48		-2187.500000
49		-2226.562500
50		-2187.500000
51		-2187.500000
52		-2187.500000
53		-2187.500000
54		-2187.500000
55		-2187.500000
56		-2187.500000
57		-2187.500000
58		-2187.500000
59		-2148.437500
60		-2148.437500
61		-2148.437500
62		-2148.437500
63		-2148.437500
64		-2148.437500
65		-2148.437500
66		-2148.437500
67		-2109.375000
68		-2109.375000
69		-2109.375000
70		-2109.375000
71		-2109.375000
72		-2109.375000
73		-2109.375000
74		-2070.312500
75		-2070.312500
76		-2070.312500
77		-2070.312500
78		-2070.312500
79		-2070.312500
80		-2070.312500
81		-2070.312500
82		-2070.312500
83		-2031.250000
84		-2031.250000
85		-2031.250000
86		-2031.250000
87		-2031.250000
88		-2031.250000
89		-2031.250000
90		-1992.187500
91		-1992.187500
92		-1992.187500
93		-1992.187500
94		-1992.187500
95		-1992.187500
96		-1992.187500
97		-1992.187500
98		-1953.125000
99		-1953.125000
100		-1992.187500
101		-1953.125000
102		-1953.125000
103		-1953.125000
104		-1953.125000
105		-1953.125000
106		-1953.125000
107		-1914.062500
108		-1914.062500
109		-1914.062500
110		-1914.062500
111		-1914.062500
112		-1914.062500
113		-1875.000000
114		-1875.000000
115		-1875.000000
116		-1875.000000
117		-1875.000000
118		-1875.000000
119		-1875.000000
120		-1875.000000
121		-1875.000000
122		-1835.937500
123		-1875.000000
124		-1875.000000
125		-1835.937500
126		-1835.937500
127		-1835.937500
128		-1796.875000
129		-1796.875000
130		-1796.875000
131		-1796.875000
132		-1796.875000
133		-1757.812500
134		-1796.875000
135		-1796.875000
136		-1796.875000
137		-1796.875000
138		-1757.812500
139		-1796.875000
140		-1757.812500
141		-1757.812500
142		-1757.812500
143		-1757.812500
144		-1757.812500
145		-1757.812500
146		-1718.750000
147		-1718.750000
148		-1718.750000
149		-1718.750000
150		-1718.750000
151		-1718.750000
152		-1718.750000
153		-1679.687500
154		-1679.687500
155		-1679.687500
156		-1679.687500
157		-1679.687500
158		-1679.687500
159		-1679.687500
160		-1679.687500
161		-1679.687500
162		-1679.687500
163		-1640.625000
164		-1640.625000
165		-1640.625000
166		-1640.625000
167		-1640.625000
168		-1640.625000
169		-1601.562500
170		-1601.562500
171		-1601.562500
172		-1601.562500
173		-1601.562500
174		-1601.562500
175		-1601.562500
176		-1601.562500
177		-1601.562500
178		-1562.500000
179		-1601.562500
180		-1562.500000
181		-1562.500000
182		-1562.500000
183		-1562.500000
184		-1562.500000
185		-1562.500000
186		-1523.437500
187		-1523.437500
188		-1523.437500
189		-1523.437500
190		-1523.437500
191		-1523.437500
192		-1523.437500
193		-1523.437500
194		-1523.437500
195		-1523.437500
196		-1484.375000
197		-1484.375000
198		-1484.375000
199		-1484.375000
200		-1484.375000
201		-1484.375000
202		-1484.375000
203		-1445.312500
204		-1445.312500
205		-1445.312500
206		-1445.312500
207		-1445.312500
208		-1445.312500
209		-1445.312500
210		-1406.250000
211		-1406.250000
212		-1406.250000
213		-1445.312500
214		-1406.250000
215		-1406.250000
216		-1406.250000
217		-1406.250000
218		-1406.250000
219		-1406.250000
220		-1367.187500
221		-1367.187500
222		-1367.187500
223		-1367.187500
224		-1367.187500
225		-1367.187500
226		-1367.187500
227		-1367.187500
228		-1328.125000
229		-1328.125000
230		-1328.125000
231		-1328.125000
232		-1328.125000
233		-1328.125000
234		-1328.125000
235		-1328.125000
236		-1289.062500
237		-1289.062500
238		-1289.062500
239		-1289.062500
240		-1289.062500
241		-1289.062500
242		-1289.062500
243		-1289.062500
244		-1289.062500
245		-1289.062500
246		-1289.062500
247		-1250.000000
248		-1250.000000
249		-1250.000000
250		-1250.000000
251		-1250.000000
252		-1250.000000
253		-1250.000000
254		-1250.000000
255		-1210.937500
256		-1210.937500
257		-1210.937500
258		-1210.937500
259		-1210.937500
260		-1210.937500
261		-1210.937500
262		-1210.937500
263		-1210.937500
264		-1210.937500
265		-1171.875000
266		-1171.875000
267		-1171.875000
268		-1171.875000
269		-1171.875000
270		-1171.875000
271		-1171.875000
272		-1171.875000
273		-1132.812500
274		-1132.812500
275		-1132.812500
276		-1132.812500
277		-1132.812500
278		-1132.812500
279		-1132.812500
280		-1132.812500
281		-1132.812500
282		-1132.812500
283		-1132.812500
284		-1132.812500
285		-1132.812500
286		-1093.750000
287		-1093.750000
288		-1093.750000
289		-1093.750000
290		-1093.750000
291		-1093.750000
292		-1093.750000
293		-1093.750000
294		-1054.687500
295		-1054.687500
296		-1054.687500
297		-1054.687500
298		-1054.687500
299		-1054.687500
300		-1054.687500
301		-1054.687500
302		-1054.687500
303		-1054.687500
304		-1054.687500
305		-1054.687500
306		-1054.687500
307		-1054.687500
308		-1054.687500
309		-1015.625000
310		-1015.625000
311		-1015.625000
312		-1015.625000
313		-1015.625000
314		-1015.625000
315		-1015.625000
316		-1015.625000
317		-1015.625000
318		-1015.625000
319		-1015.625000
320		-1015.625000
321		-1015.625000
322		-1015.625000
323		-1015.625000
324		-976.562500
325		-976.562500
326		-976.562500
327		-976.562500
328		-976.562500
329		-976.562500
330		-976.562500
331		-976.562500
332		-976.562500
333		-937.500000
334		-937.500000
335		-937.500000
336		-937.500000
337		-937.500000
338		-937.500000
339		-937.500000
340		-976.562500
341		-937.500000
342		-937.500000
343		-937.500000
344		-937.500000
345		-937.500000
346		-937.500000
347		-937.500000
348		-937.500000
349		-937.500000
350		-898.437500
351		-898.437500
352		-937.500000
353		-898.437500
354		-937.500000
355		-937.500000
356		-898.437500
357		-937.500000
358		-898.437500
359		-898.437500
360		-898.437500
361		-898.437500
362		-898.437500
363		-898.437500
364		-898.437500
365		-898.437500
366		-898.437500
367		-898.437500
368		-898.437500
369		-898.437500
370		-898.437500
371		-859.375000
372		-898.437500
373		-898.437500
374		-859.375000
375		-898.437500
376		-859.375000
377		-898.437500
378		-898.437500
379		-859.375000
380		-859.375000
381		-859.375000
382		-859.375000
383		-859.375000
384		-859.375000
385		-859.375000
386		-859.375000
387		-859.375000
388		-859.375000
389		-859.375000
390		-859.375000
391		-859.375000
392		-859.375000
393		-859.375000
394		-859.375000
395		-859.375000
396		-859.375000
397		-859.375000
398		-859.375000
399		-859.375000
400		-859.375000
401		-859.375000
402		-859.375000
403		-859.375000
404		-859.375000
405		-859.375000
406		-820.312500
407		-859.375000
408		-859.375000
409		-820.312500
410		-820.312500
411		-859.375000
412		-820.312500
413		-859.375000
414		-859.375000
415		-820.312500
416		-820.312500
417		-859.375000
418		-820.312500
419		-820.312500
420		-859.375000
421		-820.312500
422		-859.375000
423		-859.375000
424		-820.312500
425		-820.312500
426		-859.375000
427		-820.312500
428		-820.312500
429		-859.375000
430		-859.375000
431		-859.375000
432		-859.375000
433		-820.312500
434		-820.312500
435		-859.375000
436		-859.375000
437		-859.375000
438		-859.375000
439		-859.375000
440		-859.375000
441		-859.375000
442		-859.375000
443		-859.375000
444		-859.375000
445		-859.375000
446		-859.375000
447		-859.375000
448		-859.375000
449		-859.375000
450		-859.375000
451		-859.375000
452		-859.375000
453		-859.375000
454		-859.375000
455		-859.375000
456		-859.375000
457		-859.375000
458		-859.375000
459		-859.375000
460		-859.375000
461		-859.375000
462		-859.375000
463		-859.375000
464		-859.375000
465		-859.375000
466		-859.375000
467		-859.375000
468		-859.375000
469		-859.375000
470		-859.375000
471		-859.375000
472		-859.375000
473		-859.375000
474		-859.375000
475		-859.375000
476		-859.375000
477		-898.437500
478		-898.437500
479		-898.437500
480		-898.437500
481		-898.437500
482		-898.437500
483		-898.437500
484		-898.437500
485		-898.437500
486		-898.437500
487		-898.437500
488		-898.437500
489		-898.437500
490		-898.437500
491		-898.437500
492		-898.437500
493		-898.437500
494		-898.437500
495		-898.437500
496		-898.437500
497		-898.437500
498		-937.500000
499		-937.500000
500		-937.500000
501		-937.500000
502		-937.500000
503		-937.500000
504		-937.500000
505		-937.500000
506		-937.500000
507		-937.500000
508		-976.562500
509		-937.500000
510		-937.500000
511		-937.500000
512		-937.500000
513		-937.500000
514		-937.500000
515		-937.500000
516		-937.500000
517		-937.500000
518		-976.562500
519		-976.562500
520		-976.562500
521		-976.562500
522		-976.562500
523		-976.562500
524		-976.562500
525		-976.562500
526		-976.562500
527		-976.562500
528		-976.562500
529		-976.562500
530		-976.562500
531		-976.562500
532		-976.562500
533		-976.562500
534		-1015.625000
535		-1015.625000
536		-1015.625000
537		-1015.625000
538		-1015.625000
539		-1015.625000
540		-1015.625000
541		-1015.625000
542		-1015.625000
543		-1015.625000
544		-1015.625000
545		-1054.687500
546		-1054.687500
547		-1015.625000
548		-1054.687500
549		-1054.687500
550		-1054.687500
551		-1054.687500
552		-1054.687500
553		-1054.687500
554		-1054.687500
555		-1054.687500
556		-1054.687500
557		-1093.750000
558		-1093.750000
559		-1093.750000
560		-1093.750000
561		-1093.750000
562		-1093.750000
563		-1093.750000
564		-1093.750000
565		-1093.750000
566		-1093.750000
567		-1093.750000
568		-1093.750000
569		-1093.750000
570		-1093.750000
571		-1132.812500
572		-1132.812500
573		-1132.812500
574		-1132.812500
575		-1132.812500
576		-1132.812500
577		-1132.812500
578		-1171.875000
579		-1171.875000
580		-1171.875000
581		-1171.875000
582		-1171.875000
583		-1171.875000
584		-1171.875000
585		-1171.875000
586		-1171.875000
587		-1171.875000
588		-1171.875000
589		-1171.875000
590		-1210.937500
591		-1210.937500
592		-1210.937500
593		-1210.937500
594		-1210.937500
595		-1210.937500
596		-1210.937500
597		-1210.937500
598		-1210.937500
599		-1250.000000
600		-1250.000000
601		-1250.000000
602		-1250.000000
603		-1250.000000
604		-1250.000000
605		-1250.000000
606		-1250.000000
607		-1250.000000
608		-1250.000000
609		-1289.062500
610		-1289.062500
611		-1289.062500
612		-1289.062500
613		-1289.062500
614		-1289.062500
615		-1289.062500
616		-1289.062500
617		-1289.062500
618		-1289.062500
619		-1328.125000
620		-1328.125000
621		-1328.125000
622		-1328.125000
623		-1328.125000
624		-1328.125000
625		-1367.187500
626		-1367.187500
627		-1367.187500
628		-1367.187500
629		-1328.125000
630		-1367.187500
631		-1367.187500
632		-1367.187500
633		-1367.187500
634		-1406.250000
635		-1367.187500
636		-1406.250000
637		-1406.250000
638		-1406.250000
639		-1406.250000
640		-1406.250000
641		-1406.250000
642		-1406.250000
643		-1445.312500
644		-1445.312500
645		-1445.312500
646		-1445.312500
647		-1445.312500
648		-1445.312500
649		-1445.312500
650		-1445.312500
651		-1445.312500
652		-1484.375000
653		-1445.312500
654		-1484.375000
655		-1484.375000
656		-1484.375000
657		-1484.375000
658		-1484.375000
659		-1484.375000
660		-1523.437500
661		-1523.437500
662		-1523.437500
663		-1523.437500
664		-1523.437500
665		-1523.437500
666		-1523.437500
667		-1523.437500
668		-1523.437500
669		-1562.500000
670		-1562.500000
671		-1562.500000
672		-1562.500000
673		-1562.500000
674		-1562.500000
675		-1562.500000
676		-1562.500000
677		-1562.500000
678		-1601.562500
679		-1601.562500
680		-1601.562500
681		-1601.562500
682		-1601.562500
683		-1601.562500
684		-1640.625000
685		-1640.625000
686		-1640.625000
687		-1640.625000
688		-1640.625000
689		-1640.625000
690		-1640.625000
691		-1640.625000
692		-1640.625000
693		-1640.625000
694		-1640.625000
695		-1679.687500
696		-1679.687500
697		-1679.687500
698		-1679.687500
699		-1679.687500
700		-1718.750000
701		-1718.750000
702		-1718.750000
703		-1718.750000
704		-1718.750000
705		-1718.750000
706		-1718.750000
707		-1718.750000
708		-1757.812500
709		-1718.750000
710		-1718.750000
711		-1757.812500
712		-1757.812500
713		-1757.812500
714		-1757.812500
715		-1757.812500
716		-1757.812500
717		-1757.812500
718		-1796.875000
719		-1796.875000
720		-1796.875000
721		-1835.937500
722		-1796.875000
723		-1796.875000
724		-1796.875000
725		-1796.875000
726		-1835.937500
727		-1835.937500
728		-1835.937500
729		-1835.937500
730		-1835.937500
731		-1835.937500
732		-1835.937500
733		-1835.937500
734		-1875.000000
735		-1875.000000
736		-1875.000000
737		-1875.000000
738		-1875.000000
739		-1875.000000
740		-1875.000000
741		-1914.062500
742		-1914.062500
743		-1914.062500
744		-1914.062500
745		-1914.062500
746		-1914.062500
747		-1914.062500
748		-1914.062500
749		-1914.062500
750		-1914.062500
751		-1953.125000
752		-1953.125000
753		-1953.125000
754		-1953.125000
755		-1953.125000
756		-1953.125000
757		-1953.125000
758		-1992.187500
759		-1992.187500
760		-1992.187500
761		-1992.187500
762		-1992.187500
763		-1992.187500
764		-1992.187500
765		-1992.187500
766		-1992.187500
767		-1992.187500
768		-2031.250000
769		-2031.250000
770		-2031.250000
771		-2031.250000
772		-2031.250000
773		-2031.250000
774		-2031.250000
775		-2070.312500
776		-2070.312500
777		-2070.312500
778		-2070.312500
779		-2070.312500
780		-2070.312500
781		-2070.312500
782		-2109.375000
783		-2109.375000
784		-2070.312500
785		-2109.375000
786		-2109.375000
787		-2109.375000
788		-2109.375000
789		-2109.375000
790		-2109.375000
791		-2109.375000
792		-2148.437500
793		-2148.437500
794		-2148.437500
795		-2148.437500
796		-2148.437500
797		-2148.437500
798		-2148.437500
799		-2148.437500
800		-2148.437500
801		-2148.437500
802		-2187.500000
803		-2187.500000
804		-2187.500000
805		-2187.500000
806		-2187.500000
807		-2187.500000
808		-2187.500000
809		-2226.562500
810		-2187.500000
811		-2226.562500
812		-2226.562500
813		-2226.562500
814		-2226.562500
815		-2226.562500
816		-2226.562500
817		-2226.562500
818		-2265.625000
819		-2265.625000
820		-2265.625000
821		-2265.625000
822		-2265.625000
823		-2265.625000
824		-2265.625000
825		-2265.625000
826		-2265.625000
827		-2304.687500
828		-2304.687500
829		-2304.687500
830		-2304.687500
831		-2304.687500
832		-2304.687500
833		-2304.687500
834		-2304.687500
835		-2304.687500
836		-2304.687500
837		-2304.687500
838		-2343.750000
839		-2343.750000
840		-2343.750000
841		-2343.750000
842		-2343.750000
843		-2343.750000
844		-2343.750000
845		-2382.812500
846		-2382.812500
847		-2382.812500
848		-2382.812500
849		-2382.812500
850		-2382.812500
851		-2382.812500
852		-2382.812500
853		-2382.812500
854		-2382.812500
855		-2382.812500
856		-2382.812500
857		-2421.875000
858		-2421.875000
859		-2421.875000
860		-2421.875000
861		-2421.875000
862		-2421.875000
863		-2460.937500
864		-2421.875000
865		-2460.937500
866		-2460.937500
867		-2460.937500
868		-2460.937500
869		-2460.937500
870		-2460.937500
871		-2460.937500
872		-2421.875000
873		-2460.937500
874		-2460.937500
875		-2460.937500
876		-2460.937500
877		-2500.000000
878		-2500.000000
879		-2500.000000
880		-2500.000000
881		-2500.000000
882		-2500.000000
883		-2500.000000
884		-2539.062500
885		-2500.000000
886		-2539.062500
887		-2539.062500
888		-2539.062500
889		-2539.062500
890		-2539.062500
891		-2539.062500
892		-2539.062500
893		-2539.062500
894		-2539.062500
895		-2539.062500
896		-2539.062500
897		-2539.062500
898		-2578.125000
899		-2578.125000
900		-2578.125000
901		-2578.125000
902		-2578.125000
903		-2578.125000
904		-2578.125000
905		-2578.125000
906		-2578.125000
907		-2578.125000
908		-2578.125000
909		-2578.125000
910		-2617.187500
911		-2617.187500
912		-2578.125000
913		-2617.187500
914		-2617.187500
915		-2617.187500
916		-2617.187500
917		-2617.187500
918		-2617.187500
919		-2656.250000
920		-2656.250000
921		-2656.250000
922		-2656.250000
923		-2656.250000
924		-2656.250000
925		-2656.250000
926		-2656.250000
927		-2656.250000
928		-2656.250000
929		-2656.250000
930		-2656.250000
931		-2656.250000
932		-2656.250000
933		-2656.250000
934		-2695.312500
935		-2695.312500
936		-2695.312500
937		-2695.312500
938		-2695.312500
939		-2695.312500
940		-2695.312500
941		-2695.312500
942		-2695.312500
943		-2695.312500
944		-2734.375000
945		-2695.312500
946		-2695.312500
947		-2695.312500
948		-2695.312500
949		-2734.375000
950		-2734.375000
951		-2734.375000
952		-2734.375000
953		-2734.375000
954		-2734.375000
955		-2734.375000
956		-2734.375000
957		-2773.437500
958		-2734.375000
959		-2734.375000
960		-2734.375000
961		-2773.437500
962		-2773.437500
963		-2773.437500
964		-2773.437500
965		-2773.437500
966		-2773.437500
967		-2773.437500
968		-2773.437500
969		-2773.437500
970		-2773.437500
971		-2773.437500
972		-2773.437500
973		-2812.500000
974		-2812.500000
975		-2812.500000
976		-2812.500000
977		-2812.500000
978		-2812.500000
979		-2812.500000
980		-2812.500000
981		-2812.500000
982		-2812.500000
983		-2812.500000
984		-2812.500000
985		-2812.500000
986		-2812.500000
987		-2812.500000
988		-2812.500000
989		-2812.500000
990		-2851.562500
991		-2851.562500
992		-2851.562500
993		-2851.562500
994		-2851.562500
995		-2851.562500
996		-2851.562500
997		-2851.562500
998		-2851.562500
999		-2851.562500
1000		-2851.562500
1001		-2851.562500
1002		-2890.625000
1003		-2851.562500
1004		-2851.562500
1005		-2890.625000
1006		-2890.625000
1007		-2890.625000
1008		-2929.687500
1009		-2890.625000
1010		-2890.625000
1011		-2890.625000
1012		-2890.625000
1013		-2890.625000
1014		-2890.625000
1015		-2890.625000
1016		-2890.625000
1017		-2890.625000
1018		-2890.625000
1019		-2890.625000
1020		-2890.625000
1021		-2890.625000
1022		-2929.687500
1023		-2929.687500
1024		-2929.687500
1025		-2929.687500
1026		-2929.687500
1027		-2929.687500
1028		-2929.687500
1029		-2929.687500
1030		-2929.687500
1031		-2929.687500
1032		-2929.687500
1033		-2929.687500
1034		-2929.687500
1035		-2929.687500
1036		-2929.687500
1037		-2929.687500
1038		-2968.750000
1039		-2929.687500
1040		-2968.750000
1041		-2968.750000
1042		-2968.750000
1043		-2968.750000
1044		-2968.750000
1045		-2968.750000
1046		-2968.750000
1047		-2968.750000
1048		-2968.750000
1049		-2968.750000
1050		-2968.750000
1051		-2968.750000
1052		-2968.750000
1053		-2968.750000
1054		-2968.750000
1055		-2968.750000
1056		-2968.750000
1057		-2968.750000
1058		-2968.750000
1059		-3007.812500
1060		-2968.750000
1061		-3007.812500
1062		-3007.812500
1063		-3007.812500
1064		-3007.812500
1065		-3007.812500
1066		-3007.812500
1067		-3007.812500
1068		-3007.812500
1069		-3007.812500
1070		-3007.812500
1071		-3007.812500
1072		-3007.812500
1073		-3007.812500
1074		-3007.812500
1075		-3007.812500
1076		-3007.812500
1077		-3007.812500
1078		-3007.812500
1079		-3007.812500
1080		-3046.875000
1081		-3007.812500
1082		-3046.875000
1083		-3046.875000
1084		-3046.875000
1085		-3046.875000
1086		-3046.875000
1087		-3007.812500
1088		-3007.812500
1089		-3007.812500
1090		-3007.812500
1091		-3046.875000
1092		-3046.875000
1093		-3046.875000
1094		-3046.875000
1095		-3046.875000
1096		-3046.875000
1097		-3046.875000
1098		-3046.875000
1099		-3046.875000
1100		-3046.875000
1101		-3046.875000
1102		-3046.875000
1103		-3046.875000
1104		-3046.875000
1105		-3046.875000
1106		-3046.875000
1107		-3046.875000
1108		-3046.875000
1109		-3046.875000
