Vrije proef/m1-3.txt

Channel              :		CH1
Frequency            :		  ?
Period               :		  ?
PK-PK                :		2.188V
Probe attenuation    :		1X
Voltage per ADC value:		2.441406mV
Time interval        :		1000.00000us

index		CH1_Voltage(mV)
1		-1718.750000
2		-1718.750000
3		-1679.687500
4		-1718.750000
5		-1679.687500
6		-1679.687500
7		-1679.687500
8		-1679.687500
9		-1679.687500
10		-1679.687500
11		-1679.687500
12		-1640.625000
13		-1679.687500
14		-1640.625000
15		-1640.625000
16		-1640.625000
17		-1640.625000
18		-1640.625000
19		-1640.625000
20		-1640.625000
21		-1640.625000
22		-1640.625000
23		-1601.562500
24		-1601.562500
25		-1601.562500
26		-1601.562500
27		-1601.562500
28		-1601.562500
29		-1601.562500
30		-1601.562500
31		-1562.500000
32		-1562.500000
33		-1562.500000
34		-1562.500000
35		-1562.500000
36		-1562.500000
37		-1562.500000
38		-1562.500000
39		-1562.500000
40		-1562.500000
41		-1523.437500
42		-1523.437500
43		-1523.437500
44		-1523.437500
45		-1523.437500
46		-1523.437500
47		-1523.437500
48		-1484.375000
49		-1484.375000
50		-1484.375000
51		-1484.375000
52		-1484.375000
53		-1484.375000
54		-1484.375000
55		-1484.375000
56		-1484.375000
57		-1445.312500
58		-1445.312500
59		-1445.312500
60		-1445.312500
61		-1445.312500
62		-1445.312500
63		-1445.312500
64		-1445.312500
65		-1445.312500
66		-1445.312500
67		-1406.250000
68		-1406.250000
69		-1406.250000
70		-1406.250000
71		-1406.250000
72		-1406.250000
73		-1406.250000
74		-1367.187500
75		-1367.187500
76		-1367.187500
77		-1367.187500
78		-1367.187500
79		-1367.187500
80		-1367.187500
81		-1367.187500
82		-1367.187500
83		-1367.187500
84		-1328.125000
85		-1328.125000
86		-1328.125000
87		-1328.125000
88		-1328.125000
89		-1328.125000
90		-1328.125000
91		-1328.125000
92		-1289.062500
93		-1289.062500
94		-1289.062500
95		-1289.062500
96		-1289.062500
97		-1289.062500
98		-1289.062500
99		-1289.062500
100		-1289.062500
101		-1250.000000
102		-1250.000000
103		-1250.000000
104		-1250.000000
105		-1250.000000
106		-1250.000000
107		-1250.000000
108		-1210.937500
109		-1210.937500
110		-1210.937500
111		-1210.937500
112		-1210.937500
113		-1210.937500
114		-1210.937500
115		-1171.875000
116		-1171.875000
117		-1171.875000
118		-1171.875000
119		-1171.875000
120		-1171.875000
121		-1171.875000
122		-1171.875000
123		-1171.875000
124		-1171.875000
125		-1132.812500
126		-1132.812500
127		-1132.812500
128		-1132.812500
129		-1132.812500
130		-1132.812500
131		-1093.750000
132		-1093.750000
133		-1093.750000
134		-1093.750000
135		-1093.750000
136		-1093.750000
137		-1093.750000
138		-1093.750000
139		-1093.750000
140		-1093.750000
141		-1054.687500
142		-1054.687500
143		-1054.687500
144		-1054.687500
145		-1054.687500
146		-1054.687500
147		-1015.625000
148		-1015.625000
149		-1015.625000
150		-1015.625000
151		-1015.625000
152		-1015.625000
153		-1015.625000
154		-1015.625000
155		-1015.625000
156		-1015.625000
157		-976.562500
158		-976.562500
159		-976.562500
160		-976.562500
161		-976.562500
162		-976.562500
163		-976.562500
164		-976.562500
165		-937.500000
166		-937.500000
167		-937.500000
168		-937.500000
169		-937.500000
170		-898.437500
171		-898.437500
172		-898.437500
173		-898.437500
174		-898.437500
175		-898.437500
176		-898.437500
177		-898.437500
178		-898.437500
179		-898.437500
180		-898.437500
181		-898.437500
182		-898.437500
183		-859.375000
184		-859.375000
185		-859.375000
186		-859.375000
187		-859.375000
188		-859.375000
189		-820.312500
190		-820.312500
191		-820.312500
192		-820.312500
193		-820.312500
194		-820.312500
195		-820.312500
196		-820.312500
197		-820.312500
198		-820.312500
199		-820.312500
200		-781.250000
201		-781.250000
202		-781.250000
203		-781.250000
204		-781.250000
205		-781.250000
206		-781.250000
207		-742.187500
208		-742.187500
209		-742.187500
210		-742.187500
211		-742.187500
212		-742.187500
213		-742.187500
214		-742.187500
215		-742.187500
216		-742.187500
217		-703.125000
218		-703.125000
219		-703.125000
220		-703.125000
221		-703.125000
222		-703.125000
223		-703.125000
224		-703.125000
225		-703.125000
226		-664.062500
227		-664.062500
228		-664.062500
229		-664.062500
230		-664.062500
231		-664.062500
232		-664.062500
233		-664.062500
234		-664.062500
235		-664.062500
236		-664.062500
237		-625.000000
238		-625.000000
239		-625.000000
240		-625.000000
241		-625.000000
242		-625.000000
243		-625.000000
244		-625.000000
245		-625.000000
246		-585.937500
247		-585.937500
248		-585.937500
249		-585.937500
250		-585.937500
251		-585.937500
252		-585.937500
253		-585.937500
254		-585.937500
255		-546.875000
256		-546.875000
257		-546.875000
258		-546.875000
259		-546.875000
260		-546.875000
261		-546.875000
262		-546.875000
263		-546.875000
264		-546.875000
265		-546.875000
266		-546.875000
267		-507.812500
268		-507.812500
269		-507.812500
270		-507.812500
271		-507.812500
272		-507.812500
273		-507.812500
274		-507.812500
275		-507.812500
276		-468.750000
277		-507.812500
278		-507.812500
279		-468.750000
280		-468.750000
281		-468.750000
282		-468.750000
283		-468.750000
284		-468.750000
285		-468.750000
286		-468.750000
287		-468.750000
288		-468.750000
289		-468.750000
290		-468.750000
291		-429.687500
292		-429.687500
293		-429.687500
294		-429.687500
295		-429.687500
296		-429.687500
297		-429.687500
298		-429.687500
299		-429.687500
300		-429.687500
301		-429.687500
302		-429.687500
303		-429.687500
304		-429.687500
305		-429.687500
306		-390.625000
307		-390.625000
308		-390.625000
309		-390.625000
310		-390.625000
311		-390.625000
312		-390.625000
313		-390.625000
314		-390.625000
315		-390.625000
316		-390.625000
317		-390.625000
318		-390.625000
319		-390.625000
320		-351.562500
321		-351.562500
322		-351.562500
323		-351.562500
324		-351.562500
325		-351.562500
326		-351.562500
327		-351.562500
328		-351.562500
329		-351.562500
330		-351.562500
331		-351.562500
332		-312.500000
333		-312.500000
334		-312.500000
335		-312.500000
336		-312.500000
337		-312.500000
338		-312.500000
339		-351.562500
340		-312.500000
341		-312.500000
342		-312.500000
343		-312.500000
344		-312.500000
345		-312.500000
346		-312.500000
347		-312.500000
348		-312.500000
349		-273.437500
350		-273.437500
351		-273.437500
352		-273.437500
353		-273.437500
354		-273.437500
355		-273.437500
356		-273.437500
357		-273.437500
358		-273.437500
359		-273.437500
360		-273.437500
361		-273.437500
362		-273.437500
363		-273.437500
364		-273.437500
365		-273.437500
366		-273.437500
367		-273.437500
368		-273.437500
369		-273.437500
370		-273.437500
371		-273.437500
372		-273.437500
373		-273.437500
374		-273.437500
375		-273.437500
376		-273.437500
377		-273.437500
378		-273.437500
379		-273.437500
380		-273.437500
381		-273.437500
382		-273.437500
383		-273.437500
384		-234.375000
385		-234.375000
386		-234.375000
387		-234.375000
388		-234.375000
389		-234.375000
390		-234.375000
391		-234.375000
392		-234.375000
393		-234.375000
394		-234.375000
395		-234.375000
396		-234.375000
397		-234.375000
398		-234.375000
399		-234.375000
400		-234.375000
401		-234.375000
402		-234.375000
403		-234.375000
404		-234.375000
405		-234.375000
406		-234.375000
407		-234.375000
408		-234.375000
409		-234.375000
410		-234.375000
411		-234.375000
412		-234.375000
413		-234.375000
414		-234.375000
415		-234.375000
416		-234.375000
417		-234.375000
418		-234.375000
419		-234.375000
420		-234.375000
421		-234.375000
422		-234.375000
423		-234.375000
424		-234.375000
425		-234.375000
426		-234.375000
427		-234.375000
428		-234.375000
429		-234.375000
430		-234.375000
431		-234.375000
432		-234.375000
433		-234.375000
434		-234.375000
435		-234.375000
436		-234.375000
437		-234.375000
438		-234.375000
439		-234.375000
440		-234.375000
441		-234.375000
442		-234.375000
443		-234.375000
444		-234.375000
445		-234.375000
446		-234.375000
447		-234.375000
448		-234.375000
449		-234.375000
450		-234.375000
451		-234.375000
452		-234.375000
453		-234.375000
454		-234.375000
455		-234.375000
456		-234.375000
457		-234.375000
458		-273.437500
459		-234.375000
460		-273.437500
461		-273.437500
462		-273.437500
463		-273.437500
464		-273.437500
465		-273.437500
466		-273.437500
467		-273.437500
468		-273.437500
469		-273.437500
470		-273.437500
471		-273.437500
472		-273.437500
473		-273.437500
474		-273.437500
475		-273.437500
476		-273.437500
477		-273.437500
478		-273.437500
479		-273.437500
480		-273.437500
481		-273.437500
482		-273.437500
483		-273.437500
484		-273.437500
485		-273.437500
486		-273.437500
487		-273.437500
488		-273.437500
489		-273.437500
490		-273.437500
491		-273.437500
492		-273.437500
493		-273.437500
494		-273.437500
495		-273.437500
496		-312.500000
497		-312.500000
498		-312.500000
499		-312.500000
500		-312.500000
501		-312.500000
502		-312.500000
503		-312.500000
504		-312.500000
505		-312.500000
506		-312.500000
507		-312.500000
508		-312.500000
509		-312.500000
510		-312.500000
511		-312.500000
512		-312.500000
513		-312.500000
514		-351.562500
515		-351.562500
516		-351.562500
517		-351.562500
518		-351.562500
519		-351.562500
520		-351.562500
521		-351.562500
522		-390.625000
523		-390.625000
524		-351.562500
525		-351.562500
526		-390.625000
527		-351.562500
528		-390.625000
529		-390.625000
530		-390.625000
531		-390.625000
532		-390.625000
533		-390.625000
534		-390.625000
535		-390.625000
536		-390.625000
537		-390.625000
538		-390.625000
539		-390.625000
540		-429.687500
541		-429.687500
542		-429.687500
543		-429.687500
544		-429.687500
545		-429.687500
546		-429.687500
547		-429.687500
548		-429.687500
549		-429.687500
550		-429.687500
551		-429.687500
552		-429.687500
553		-429.687500
554		-468.750000
555		-468.750000
556		-468.750000
557		-468.750000
558		-468.750000
559		-468.750000
560		-468.750000
561		-468.750000
562		-468.750000
563		-468.750000
564		-468.750000
565		-468.750000
566		-468.750000
567		-468.750000
568		-468.750000
569		-468.750000
570		-507.812500
571		-507.812500
572		-507.812500
573		-507.812500
574		-507.812500
575		-507.812500
576		-507.812500
577		-507.812500
578		-546.875000
579		-546.875000
580		-546.875000
581		-546.875000
582		-546.875000
583		-546.875000
584		-546.875000
585		-546.875000
586		-546.875000
587		-546.875000
588		-546.875000
589		-546.875000
590		-546.875000
591		-585.937500
592		-585.937500
593		-585.937500
594		-585.937500
595		-585.937500
596		-585.937500
597		-585.937500
598		-585.937500
599		-585.937500
600		-625.000000
601		-625.000000
602		-625.000000
603		-585.937500
604		-625.000000
605		-625.000000
606		-625.000000
607		-625.000000
608		-625.000000
609		-625.000000
610		-625.000000
611		-625.000000
612		-625.000000
613		-664.062500
614		-664.062500
615		-664.062500
616		-664.062500
617		-664.062500
618		-664.062500
619		-664.062500
620		-664.062500
621		-664.062500
622		-703.125000
623		-703.125000
624		-703.125000
625		-703.125000
626		-703.125000
627		-703.125000
628		-703.125000
629		-703.125000
630		-703.125000
631		-703.125000
632		-742.187500
633		-742.187500
634		-742.187500
635		-742.187500
636		-742.187500
637		-742.187500
638		-742.187500
639		-742.187500
640		-742.187500
641		-781.250000
642		-742.187500
643		-781.250000
644		-781.250000
645		-781.250000
646		-781.250000
647		-781.250000
648		-781.250000
649		-781.250000
650		-781.250000
651		-781.250000
652		-781.250000
653		-820.312500
654		-820.312500
655		-820.312500
656		-820.312500
657		-820.312500
658		-820.312500
659		-820.312500
660		-820.312500
661		-859.375000
662		-859.375000
663		-859.375000
664		-859.375000
665		-859.375000
666		-859.375000
667		-859.375000
668		-898.437500
669		-859.375000
670		-859.375000
671		-898.437500
672		-898.437500
673		-898.437500
674		-898.437500
675		-898.437500
676		-898.437500
677		-898.437500
678		-898.437500
679		-937.500000
680		-937.500000
681		-937.500000
682		-937.500000
683		-937.500000
684		-937.500000
685		-937.500000
686		-937.500000
687		-937.500000
688		-976.562500
689		-976.562500
690		-976.562500
691		-976.562500
692		-976.562500
693		-976.562500
694		-976.562500
695		-976.562500
696		-1015.625000
697		-1015.625000
698		-1015.625000
699		-1015.625000
700		-1015.625000
701		-1015.625000
702		-1015.625000
703		-1015.625000
704		-1054.687500
705		-1054.687500
706		-1054.687500
707		-1054.687500
708		-1054.687500
709		-1054.687500
710		-1054.687500
711		-1054.687500
712		-1054.687500
713		-1054.687500
714		-1054.687500
715		-1093.750000
716		-1093.750000
717		-1093.750000
718		-1093.750000
719		-1093.750000
720		-1093.750000
721		-1132.812500
722		-1132.812500
723		-1132.812500
724		-1132.812500
725		-1132.812500
726		-1132.812500
727		-1132.812500
728		-1132.812500
729		-1132.812500
730		-1132.812500
731		-1132.812500
732		-1132.812500
733		-1132.812500
734		-1171.875000
735		-1171.875000
736		-1171.875000
737		-1171.875000
738		-1171.875000
739		-1171.875000
740		-1210.937500
741		-1210.937500
742		-1210.937500
743		-1210.937500
744		-1210.937500
745		-1210.937500
746		-1210.937500
747		-1210.937500
748		-1210.937500
749		-1210.937500
750		-1210.937500
751		-1210.937500
752		-1250.000000
753		-1250.000000
754		-1250.000000
755		-1250.000000
756		-1250.000000
757		-1250.000000
758		-1289.062500
759		-1289.062500
760		-1289.062500
761		-1289.062500
762		-1289.062500
763		-1289.062500
764		-1289.062500
765		-1289.062500
766		-1289.062500
767		-1289.062500
768		-1289.062500
769		-1328.125000
770		-1328.125000
771		-1328.125000
772		-1328.125000
773		-1328.125000
774		-1328.125000
775		-1328.125000
776		-1328.125000
777		-1367.187500
778		-1367.187500
779		-1367.187500
780		-1367.187500
781		-1367.187500
782		-1367.187500
783		-1367.187500
784		-1367.187500
785		-1367.187500
786		-1367.187500
787		-1367.187500
788		-1367.187500
789		-1406.250000
790		-1406.250000
791		-1406.250000
792		-1406.250000
793		-1406.250000
794		-1406.250000
795		-1406.250000
796		-1406.250000
797		-1445.312500
798		-1445.312500
799		-1445.312500
800		-1445.312500
801		-1445.312500
802		-1445.312500
803		-1445.312500
804		-1445.312500
805		-1445.312500
806		-1445.312500
807		-1484.375000
808		-1484.375000
809		-1484.375000
810		-1484.375000
811		-1484.375000
812		-1484.375000
813		-1484.375000
814		-1484.375000
815		-1484.375000
816		-1523.437500
817		-1484.375000
818		-1523.437500
819		-1523.437500
820		-1523.437500
821		-1523.437500
822		-1523.437500
823		-1523.437500
824		-1523.437500
825		-1523.437500
826		-1562.500000
827		-1562.500000
828		-1562.500000
829		-1562.500000
830		-1562.500000
831		-1562.500000
832		-1562.500000
833		-1562.500000
834		-1562.500000
835		-1562.500000
836		-1601.562500
837		-1601.562500
838		-1601.562500
839		-1601.562500
840		-1601.562500
841		-1601.562500
842		-1601.562500
843		-1601.562500
844		-1601.562500
845		-1601.562500
846		-1640.625000
847		-1640.625000
848		-1640.625000
849		-1640.625000
850		-1640.625000
851		-1640.625000
852		-1640.625000
853		-1640.625000
854		-1640.625000
855		-1640.625000
856		-1640.625000
857		-1640.625000
858		-1679.687500
859		-1679.687500
860		-1679.687500
861		-1679.687500
862		-1679.687500
863		-1679.687500
864		-1679.687500
865		-1679.687500
866		-1679.687500
867		-1718.750000
868		-1718.750000
869		-1718.750000
870		-1718.750000
871		-1718.750000
872		-1718.750000
873		-1718.750000
874		-1718.750000
875		-1718.750000
876		-1718.750000
877		-1718.750000
878		-1757.812500
879		-1757.812500
880		-1757.812500
881		-1757.812500
882		-1757.812500
883		-1757.812500
884		-1757.812500
885		-1757.812500
886		-1757.812500
887		-1757.812500
888		-1757.812500
889		-1757.812500
890		-1757.812500
891		-1757.812500
892		-1796.875000
893		-1796.875000
894		-1796.875000
895		-1796.875000
896		-1796.875000
897		-1796.875000
898		-1796.875000
899		-1796.875000
900		-1835.937500
901		-1835.937500
902		-1835.937500
903		-1835.937500
904		-1835.937500
905		-1835.937500
906		-1835.937500
907		-1835.937500
908		-1835.937500
909		-1835.937500
910		-1835.937500
911		-1835.937500
912		-1835.937500
913		-1835.937500
914		-1875.000000
915		-1875.000000
916		-1875.000000
917		-1875.000000
918		-1875.000000
919		-1875.000000
920		-1875.000000
921		-1875.000000
922		-1875.000000
923		-1875.000000
924		-1914.062500
925		-1914.062500
926		-1914.062500
927		-1875.000000
928		-1914.062500
929		-1914.062500
930		-1914.062500
931		-1914.062500
932		-1914.062500
933		-1914.062500
934		-1914.062500
935		-1914.062500
936		-1914.062500
937		-1953.125000
938		-1953.125000
939		-1953.125000
940		-1953.125000
941		-1953.125000
942		-1953.125000
943		-1953.125000
944		-1953.125000
945		-1953.125000
946		-1953.125000
947		-1953.125000
948		-1953.125000
949		-1953.125000
950		-1953.125000
951		-1953.125000
952		-1953.125000
953		-1992.187500
954		-1992.187500
955		-1992.187500
956		-1992.187500
957		-1992.187500
958		-1992.187500
959		-1992.187500
960		-1992.187500
961		-1992.187500
962		-1992.187500
963		-1992.187500
964		-1992.187500
965		-1992.187500
966		-1992.187500
967		-2031.250000
968		-1992.187500
969		-2031.250000
970		-2031.250000
971		-2031.250000
972		-2031.250000
973		-2031.250000
974		-2031.250000
975		-2031.250000
976		-2031.250000
977		-2031.250000
978		-2070.312500
979		-2070.312500
980		-2070.312500
981		-2070.312500
982		-2070.312500
983		-2070.312500
984		-2070.312500
985		-2070.312500
986		-2070.312500
987		-2070.312500
988		-2070.312500
989		-2070.312500
990		-2070.312500
991		-2070.312500
992		-2070.312500
993		-2070.312500
994		-2070.312500
995		-2070.312500
996		-2109.375000
997		-2070.312500
998		-2109.375000
999		-2109.375000
1000		-2109.375000
1001		-2109.375000
1002		-2109.375000
1003		-2109.375000
1004		-2109.375000
1005		-2109.375000
1006		-2109.375000
1007		-2109.375000
1008		-2109.375000
1009		-2109.375000
1010		-2109.375000
1011		-2109.375000
1012		-2109.375000
1013		-2109.375000
1014		-2109.375000
1015		-2148.437500
1016		-2109.375000
1017		-2148.437500
1018		-2148.437500
1019		-2148.437500
1020		-2148.437500
1021		-2148.437500
1022		-2148.437500
1023		-2148.437500
1024		-2148.437500
1025		-2148.437500
1026		-2148.437500
1027		-2148.437500
1028		-2148.437500
1029		-2148.437500
1030		-2148.437500
1031		-2148.437500
1032		-2148.437500
1033		-2148.437500
1034		-2187.500000
1035		-2187.500000
1036		-2187.500000
1037		-2187.500000
1038		-2187.500000
1039		-2187.500000
1040		-2187.500000
1041		-2187.500000
1042		-2187.500000
1043		-2187.500000
1044		-2187.500000
1045		-2187.500000
1046		-2187.500000
1047		-2187.500000
1048		-2187.500000
1049		-2187.500000
1050		-2226.562500
1051		-2187.500000
1052		-2187.500000
1053		-2187.500000
1054		-2187.500000
1055		-2187.500000
1056		-2187.500000
1057		-2226.562500
1058		-2226.562500
1059		-2226.562500
1060		-2226.562500
1061		-2226.562500
1062		-2226.562500
1063		-2226.562500
1064		-2226.562500
1065		-2226.562500
1066		-2226.562500
1067		-2226.562500
1068		-2226.562500
1069		-2226.562500
1070		-2226.562500
1071		-2265.625000
1072		-2226.562500
1073		-2226.562500
1074		-2226.562500
1075		-2226.562500
1076		-2226.562500
1077		-2265.625000
1078		-2265.625000
1079		-2265.625000
1080		-2265.625000
1081		-2265.625000
1082		-2265.625000
1083		-2265.625000
1084		-2265.625000
1085		-2265.625000
1086		-2265.625000
1087		-2265.625000
1088		-2265.625000
1089		-2265.625000
1090		-2265.625000
1091		-2265.625000
1092		-2265.625000
1093		-2265.625000
1094		-2265.625000
1095		-2265.625000
1096		-2265.625000
1097		-2265.625000
1098		-2265.625000
1099		-2265.625000
1100		-2304.687500
1101		-2304.687500
1102		-2304.687500
1103		-2304.687500
1104		-2265.625000
1105		-2304.687500
1106		-2304.687500
1107		-2265.625000
1108		-2304.687500
1109		-2304.687500
1110		-2265.625000
1111		-2304.687500
1112		-2304.687500
1113		-2265.625000
1114		-2304.687500
1115		-2304.687500
1116		-2304.687500
1117		-2304.687500
1118		-2304.687500
1119		-2343.750000
1120		-2304.687500
1121		-2304.687500
1122		-2304.687500
1123		-2304.687500
1124		-2304.687500
1125		-2304.687500
1126		-2304.687500
