Vrije proef/m2-1.txt

Channel              :		CH1
Frequency            :		  ?
Period               :		  ?
PK-PK                :		2.852V
Probe attenuation    :		1X
Voltage per ADC value:		2.441406mV
Time interval        :		1000.00000us

index		CH1_Voltage(mV)
1		-507.812500
2		-507.812500
3		-507.812500
4		-507.812500
5		-546.875000
6		-507.812500
7		-507.812500
8		-546.875000
9		-546.875000
10		-546.875000
11		-546.875000
12		-546.875000
13		-546.875000
14		-546.875000
15		-546.875000
16		-585.937500
17		-585.937500
18		-585.937500
19		-585.937500
20		-585.937500
21		-585.937500
22		-585.937500
23		-625.000000
24		-625.000000
25		-625.000000
26		-625.000000
27		-625.000000
28		-625.000000
29		-625.000000
30		-625.000000
31		-625.000000
32		-625.000000
33		-664.062500
34		-664.062500
35		-664.062500
36		-664.062500
37		-664.062500
38		-664.062500
39		-664.062500
40		-664.062500
41		-664.062500
42		-703.125000
43		-703.125000
44		-703.125000
45		-703.125000
46		-703.125000
47		-703.125000
48		-703.125000
49		-703.125000
50		-703.125000
51		-703.125000
52		-742.187500
53		-742.187500
54		-742.187500
55		-742.187500
56		-742.187500
57		-742.187500
58		-742.187500
59		-742.187500
60		-781.250000
61		-781.250000
62		-781.250000
63		-781.250000
64		-781.250000
65		-781.250000
66		-781.250000
67		-781.250000
68		-781.250000
69		-781.250000
70		-820.312500
71		-820.312500
72		-820.312500
73		-820.312500
74		-820.312500
75		-820.312500
76		-820.312500
77		-820.312500
78		-820.312500
79		-820.312500
80		-859.375000
81		-859.375000
82		-859.375000
83		-859.375000
84		-859.375000
85		-859.375000
86		-859.375000
87		-859.375000
88		-859.375000
89		-859.375000
90		-898.437500
91		-898.437500
92		-898.437500
93		-898.437500
94		-898.437500
95		-898.437500
96		-898.437500
97		-898.437500
98		-898.437500
99		-898.437500
100		-898.437500
101		-937.500000
102		-898.437500
103		-937.500000
104		-937.500000
105		-937.500000
106		-937.500000
107		-937.500000
108		-937.500000
109		-937.500000
110		-937.500000
111		-937.500000
112		-937.500000
113		-937.500000
114		-937.500000
115		-937.500000
116		-937.500000
117		-937.500000
118		-976.562500
119		-976.562500
120		-976.562500
121		-976.562500
122		-976.562500
123		-976.562500
124		-976.562500
125		-976.562500
126		-1015.625000
127		-1015.625000
128		-1015.625000
129		-1015.625000
130		-1015.625000
131		-1015.625000
132		-1015.625000
133		-1015.625000
134		-1015.625000
135		-1015.625000
136		-1015.625000
137		-1015.625000
138		-1015.625000
139		-1015.625000
140		-1015.625000
141		-1015.625000
142		-1015.625000
143		-1054.687500
144		-1054.687500
145		-1054.687500
146		-1054.687500
147		-1054.687500
148		-1054.687500
149		-1054.687500
150		-1054.687500
151		-1054.687500
152		-1054.687500
153		-1054.687500
154		-1054.687500
155		-1054.687500
156		-1054.687500
157		-1054.687500
158		-1054.687500
159		-1054.687500
160		-1093.750000
161		-1093.750000
162		-1093.750000
163		-1093.750000
164		-1093.750000
165		-1093.750000
166		-1093.750000
167		-1093.750000
168		-1093.750000
169		-1093.750000
170		-1093.750000
171		-1093.750000
172		-1093.750000
173		-1093.750000
174		-1093.750000
175		-1093.750000
176		-1093.750000
177		-1132.812500
178		-1093.750000
179		-1132.812500
180		-1132.812500
181		-1132.812500
182		-1132.812500
183		-1132.812500
184		-1132.812500
185		-1132.812500
186		-1132.812500
187		-1132.812500
188		-1132.812500
189		-1132.812500
190		-1132.812500
191		-1132.812500
192		-1132.812500
193		-1132.812500
194		-1132.812500
195		-1171.875000
196		-1132.812500
197		-1132.812500
198		-1171.875000
199		-1171.875000
200		-1171.875000
201		-1171.875000
202		-1171.875000
203		-1171.875000
204		-1171.875000
205		-1171.875000
206		-1171.875000
207		-1171.875000
208		-1171.875000
209		-1171.875000
210		-1171.875000
211		-1171.875000
212		-1171.875000
213		-1171.875000
214		-1171.875000
215		-1171.875000
216		-1171.875000
217		-1171.875000
218		-1210.937500
219		-1210.937500
220		-1210.937500
221		-1210.937500
222		-1210.937500
223		-1210.937500
224		-1210.937500
225		-1210.937500
226		-1210.937500
227		-1210.937500
228		-1210.937500
229		-1210.937500
230		-1210.937500
231		-1210.937500
232		-1210.937500
233		-1210.937500
234		-1210.937500
235		-1210.937500
236		-1210.937500
237		-1210.937500
238		-1210.937500
239		-1210.937500
240		-1210.937500
241		-1210.937500
242		-1210.937500
243		-1210.937500
244		-1210.937500
245		-1210.937500
246		-1210.937500
247		-1250.000000
248		-1250.000000
249		-1250.000000
250		-1250.000000
251		-1250.000000
252		-1250.000000
253		-1250.000000
254		-1250.000000
255		-1250.000000
256		-1250.000000
257		-1250.000000
258		-1250.000000
259		-1250.000000
260		-1250.000000
261		-1250.000000
262		-1250.000000
263		-1250.000000
264		-1250.000000
265		-1250.000000
266		-1250.000000
267		-1250.000000
268		-1250.000000
269		-1250.000000
270		-1250.000000
271		-1250.000000
272		-1250.000000
273		-1250.000000
274		-1250.000000
275		-1250.000000
276		-1250.000000
277		-1250.000000
278		-1250.000000
279		-1250.000000
280		-1250.000000
281		-1250.000000
282		-1250.000000
283		-1250.000000
284		-1250.000000
285		-1250.000000
286		-1289.062500
287		-1289.062500
288		-1289.062500
289		-1289.062500
290		-1289.062500
291		-1250.000000
292		-1289.062500
293		-1289.062500
294		-1289.062500
295		-1289.062500
296		-1289.062500
297		-1250.000000
298		-1289.062500
299		-1289.062500
300		-1289.062500
301		-1289.062500
302		-1289.062500
303		-1289.062500
304		-1289.062500
305		-1289.062500
306		-1289.062500
307		-1289.062500
308		-1289.062500
309		-1289.062500
310		-1289.062500
311		-1289.062500
312		-1289.062500
313		-1289.062500
314		-1289.062500
315		-1289.062500
316		-1289.062500
317		-1289.062500
318		-1289.062500
319		-1289.062500
320		-1289.062500
321		-1289.062500
322		-1289.062500
323		-1289.062500
324		-1289.062500
325		-1289.062500
326		-1289.062500
327		-1289.062500
328		-1289.062500
329		-1289.062500
330		-1289.062500
331		-1289.062500
332		-1289.062500
333		-1289.062500
334		-1289.062500
335		-1289.062500
336		-1289.062500
337		-1289.062500
338		-1289.062500
339		-1289.062500
340		-1289.062500
341		-1289.062500
342		-1289.062500
343		-1289.062500
344		-1289.062500
345		-1289.062500
346		-1289.062500
347		-1289.062500
348		-1289.062500
349		-1289.062500
350		-1289.062500
351		-1289.062500
352		-1289.062500
353		-1289.062500
354		-1289.062500
355		-1289.062500
356		-1289.062500
357		-1289.062500
358		-1289.062500
359		-1289.062500
360		-1289.062500
361		-1289.062500
362		-1289.062500
363		-1289.062500
364		-1289.062500
365		-1289.062500
366		-1289.062500
367		-1289.062500
368		-1289.062500
369		-1289.062500
370		-1289.062500
371		-1289.062500
372		-1289.062500
373		-1289.062500
374		-1289.062500
375		-1289.062500
376		-1289.062500
377		-1289.062500
378		-1289.062500
379		-1289.062500
380		-1289.062500
381		-1289.062500
382		-1289.062500
383		-1289.062500
384		-1289.062500
385		-1289.062500
386		-1289.062500
387		-1289.062500
388		-1289.062500
389		-1289.062500
390		-1289.062500
391		-1289.062500
392		-1289.062500
393		-1289.062500
394		-1289.062500
395		-1289.062500
396		-1289.062500
397		-1289.062500
398		-1289.062500
399		-1289.062500
400		-1289.062500
401		-1289.062500
402		-1289.062500
403		-1289.062500
404		-1289.062500
405		-1289.062500
406		-1289.062500
407		-1289.062500
408		-1289.062500
409		-1289.062500
410		-1289.062500
411		-1289.062500
412		-1289.062500
413		-1289.062500
414		-1289.062500
415		-1289.062500
416		-1289.062500
417		-1289.062500
418		-1289.062500
419		-1289.062500
420		-1289.062500
421		-1289.062500
422		-1289.062500
423		-1289.062500
424		-1289.062500
425		-1289.062500
426		-1289.062500
427		-1289.062500
428		-1289.062500
429		-1250.000000
430		-1289.062500
431		-1250.000000
432		-1289.062500
433		-1289.062500
434		-1250.000000
435		-1250.000000
436		-1289.062500
437		-1250.000000
438		-1250.000000
439		-1250.000000
440		-1250.000000
441		-1250.000000
442		-1250.000000
443		-1250.000000
444		-1250.000000
445		-1250.000000
446		-1250.000000
447		-1250.000000
448		-1250.000000
449		-1250.000000
450		-1250.000000
451		-1250.000000
452		-1250.000000
453		-1250.000000
454		-1250.000000
455		-1250.000000
456		-1250.000000
457		-1250.000000
458		-1250.000000
459		-1250.000000
460		-1250.000000
461		-1250.000000
462		-1250.000000
463		-1250.000000
464		-1250.000000
465		-1250.000000
466		-1250.000000
467		-1250.000000
468		-1250.000000
469		-1250.000000
470		-1250.000000
471		-1250.000000
472		-1210.937500
473		-1210.937500
474		-1210.937500
475		-1210.937500
476		-1210.937500
477		-1210.937500
478		-1210.937500
479		-1210.937500
480		-1210.937500
481		-1210.937500
482		-1210.937500
483		-1210.937500
484		-1210.937500
485		-1210.937500
486		-1210.937500
487		-1210.937500
488		-1210.937500
489		-1210.937500
490		-1210.937500
491		-1210.937500
492		-1210.937500
493		-1210.937500
494		-1171.875000
495		-1171.875000
496		-1171.875000
497		-1171.875000
498		-1171.875000
499		-1171.875000
500		-1171.875000
501		-1171.875000
502		-1171.875000
503		-1171.875000
504		-1171.875000
505		-1171.875000
506		-1171.875000
507		-1171.875000
508		-1171.875000
509		-1171.875000
510		-1171.875000
511		-1171.875000
512		-1171.875000
513		-1171.875000
514		-1171.875000
515		-1171.875000
516		-1132.812500
517		-1171.875000
518		-1171.875000
519		-1171.875000
520		-1171.875000
521		-1171.875000
522		-1171.875000
523		-1171.875000
524		-1171.875000
525		-1171.875000
526		-1171.875000
527		-1171.875000
528		-1132.812500
529		-1132.812500
530		-1132.812500
531		-1132.812500
532		-1132.812500
533		-1132.812500
534		-1132.812500
535		-1132.812500
536		-1132.812500
537		-1132.812500
538		-1132.812500
539		-1132.812500
540		-1132.812500
541		-1132.812500
542		-1132.812500
543		-1132.812500
544		-1093.750000
545		-1132.812500
546		-1132.812500
547		-1132.812500
548		-1132.812500
549		-1093.750000
550		-1093.750000
551		-1093.750000
552		-1093.750000
553		-1093.750000
554		-1093.750000
555		-1093.750000
556		-1093.750000
557		-1093.750000
558		-1093.750000
559		-1093.750000
560		-1093.750000
561		-1093.750000
562		-1093.750000
563		-1093.750000
564		-1093.750000
565		-1093.750000
566		-1093.750000
567		-1093.750000
568		-1054.687500
569		-1054.687500
570		-1054.687500
571		-1054.687500
572		-1054.687500
573		-1054.687500
574		-1054.687500
575		-1054.687500
576		-1054.687500
577		-1054.687500
578		-1054.687500
579		-1054.687500
580		-1054.687500
581		-1054.687500
582		-1054.687500
583		-1054.687500
584		-1054.687500
585		-1054.687500
586		-1054.687500
587		-1015.625000
588		-1015.625000
589		-1015.625000
590		-1015.625000
591		-1015.625000
592		-1015.625000
593		-1015.625000
594		-1015.625000
595		-1015.625000
596		-1015.625000
597		-1015.625000
598		-1015.625000
599		-1015.625000
600		-1015.625000
601		-1015.625000
602		-1015.625000
603		-1015.625000
604		-976.562500
605		-976.562500
606		-976.562500
607		-976.562500
608		-976.562500
609		-976.562500
610		-976.562500
611		-976.562500
612		-976.562500
613		-976.562500
614		-976.562500
615		-976.562500
616		-976.562500
617		-976.562500
618		-976.562500
619		-976.562500
620		-976.562500
621		-937.500000
622		-937.500000
623		-937.500000
624		-937.500000
625		-937.500000
626		-937.500000
627		-937.500000
628		-937.500000
629		-937.500000
630		-937.500000
631		-937.500000
632		-937.500000
633		-937.500000
634		-898.437500
635		-937.500000
636		-898.437500
637		-898.437500
638		-898.437500
639		-898.437500
640		-898.437500
641		-898.437500
642		-898.437500
643		-898.437500
644		-898.437500
645		-898.437500
646		-898.437500
647		-898.437500
648		-898.437500
649		-898.437500
650		-898.437500
651		-859.375000
652		-859.375000
653		-859.375000
654		-859.375000
655		-859.375000
656		-859.375000
657		-859.375000
658		-859.375000
659		-859.375000
660		-859.375000
661		-859.375000
662		-820.312500
663		-859.375000
664		-820.312500
665		-820.312500
666		-820.312500
667		-820.312500
668		-820.312500
669		-820.312500
670		-820.312500
671		-820.312500
672		-820.312500
673		-820.312500
674		-820.312500
675		-781.250000
676		-781.250000
677		-781.250000
678		-820.312500
679		-781.250000
680		-781.250000
681		-781.250000
682		-781.250000
683		-781.250000
684		-781.250000
685		-781.250000
686		-781.250000
687		-781.250000
688		-781.250000
689		-742.187500
690		-742.187500
691		-742.187500
692		-742.187500
693		-742.187500
694		-742.187500
695		-742.187500
696		-742.187500
697		-703.125000
698		-703.125000
699		-742.187500
700		-703.125000
701		-703.125000
702		-703.125000
703		-703.125000
704		-703.125000
705		-703.125000
706		-703.125000
707		-664.062500
708		-703.125000
709		-703.125000
710		-664.062500
711		-664.062500
712		-664.062500
713		-664.062500
714		-664.062500
715		-664.062500
716		-664.062500
717		-664.062500
718		-664.062500
719		-664.062500
720		-664.062500
721		-664.062500
722		-664.062500
723		-664.062500
724		-625.000000
725		-625.000000
726		-625.000000
727		-625.000000
728		-625.000000
729		-625.000000
730		-625.000000
731		-585.937500
732		-625.000000
733		-585.937500
734		-585.937500
735		-585.937500
736		-585.937500
737		-585.937500
738		-585.937500
739		-585.937500
740		-585.937500
741		-585.937500
742		-585.937500
743		-546.875000
744		-546.875000
745		-546.875000
746		-546.875000
747		-546.875000
748		-546.875000
749		-546.875000
750		-546.875000
751		-507.812500
752		-507.812500
753		-507.812500
754		-507.812500
755		-507.812500
756		-507.812500
757		-507.812500
758		-507.812500
759		-507.812500
760		-507.812500
761		-507.812500
762		-468.750000
763		-468.750000
764		-468.750000
765		-468.750000
766		-468.750000
767		-468.750000
768		-468.750000
769		-429.687500
770		-429.687500
771		-429.687500
772		-429.687500
773		-429.687500
774		-429.687500
775		-429.687500
776		-429.687500
777		-429.687500
778		-390.625000
779		-390.625000
780		-390.625000
781		-390.625000
782		-390.625000
783		-390.625000
784		-390.625000
785		-390.625000
786		-390.625000
787		-351.562500
788		-351.562500
789		-351.562500
790		-351.562500
791		-351.562500
792		-351.562500
793		-273.437500
794		-351.562500
795		-312.500000
796		-312.500000
797		-312.500000
798		-312.500000
799		-312.500000
800		-312.500000
801		-312.500000
802		-273.437500
803		-273.437500
804		-273.437500
805		-273.437500
806		-273.437500
807		-273.437500
808		-273.437500
809		-273.437500
810		-234.375000
811		-234.375000
812		-234.375000
813		-234.375000
814		-234.375000
815		-234.375000
816		-234.375000
817		-234.375000
818		-195.312500
819		-195.312500
820		-195.312500
821		-195.312500
822		-195.312500
823		-195.312500
824		-195.312500
825		-156.250000
826		-156.250000
827		-156.250000
828		-156.250000
829		-156.250000
830		-156.250000
831		-156.250000
832		-156.250000
833		-117.187500
834		-117.187500
835		-117.187500
836		-117.187500
837		-117.187500
838		-78.125000
839		-78.125000
840		-78.125000
841		-78.125000
842		-78.125000
843		-78.125000
844		-78.125000
845		-78.125000
846		-78.125000
847		-39.062500
848		-39.062500
849		-39.062500
850		-39.062500
851		-39.062500
852		0.000000
853		0.000000
854		0.000000
855		0.000000
856		0.000000
857		0.000000
858		39.062500
859		39.062500
860		39.062500
861		39.062500
862		39.062500
863		39.062500
864		39.062500
865		78.125000
866		78.125000
867		78.125000
868		78.125000
869		78.125000
870		78.125000
871		78.125000
872		117.187500
873		117.187500
874		117.187500
875		117.187500
876		156.250000
877		156.250000
878		117.187500
879		156.250000
880		156.250000
881		156.250000
882		156.250000
883		156.250000
884		195.312500
885		195.312500
886		195.312500
887		195.312500
888		195.312500
889		195.312500
890		195.312500
891		234.375000
892		234.375000
893		234.375000
894		234.375000
895		273.437500
896		273.437500
897		273.437500
898		273.437500
899		273.437500
900		273.437500
901		273.437500
902		312.500000
903		312.500000
904		312.500000
905		312.500000
906		312.500000
907		312.500000
908		351.562500
909		351.562500
910		351.562500
911		351.562500
912		351.562500
913		390.625000
914		390.625000
915		390.625000
916		390.625000
917		390.625000
918		390.625000
919		390.625000
920		429.687500
921		429.687500
922		429.687500
923		429.687500
924		429.687500
925		429.687500
926		429.687500
927		468.750000
928		468.750000
929		468.750000
930		507.812500
931		507.812500
932		507.812500
933		507.812500
934		507.812500
935		507.812500
936		546.875000
937		546.875000
938		546.875000
939		546.875000
940		546.875000
941		546.875000
942		546.875000
943		546.875000
944		585.937500
945		585.937500
946		585.937500
947		585.937500
948		625.000000
949		625.000000
950		625.000000
951		625.000000
952		625.000000
953		664.062500
954		664.062500
955		664.062500
956		664.062500
957		664.062500
958		664.062500
959		703.125000
960		703.125000
961		703.125000
962		703.125000
963		703.125000
964		703.125000
965		742.187500
966		742.187500
967		742.187500
968		742.187500
969		781.250000
970		781.250000
971		781.250000
972		781.250000
973		781.250000
974		781.250000
975		781.250000
976		781.250000
977		820.312500
978		820.312500
979		820.312500
980		820.312500
981		820.312500
982		820.312500
983		859.375000
984		859.375000
985		859.375000
986		859.375000
987		859.375000
988		898.437500
989		898.437500
990		898.437500
991		898.437500
992		898.437500
993		898.437500
994		937.500000
995		937.500000
996		937.500000
997		937.500000
998		937.500000
999		937.500000
1000		976.562500
1001		976.562500
1002		976.562500
1003		976.562500
1004		976.562500
1005		976.562500
1006		1015.625000
1007		1015.625000
1008		1015.625000
1009		1015.625000
1010		1015.625000
1011		1015.625000
1012		1054.687500
1013		1054.687500
1014		1054.687500
1015		1054.687500
1016		1054.687500
1017		1054.687500
1018		1093.750000
1019		1093.750000
1020		1093.750000
1021		1054.687500
1022		1093.750000
1023		1093.750000
1024		1132.812500
1025		1132.812500
1026		1132.812500
1027		1132.812500
1028		1132.812500
1029		1132.812500
1030		1132.812500
1031		1132.812500
1032		1171.875000
1033		1171.875000
1034		1171.875000
1035		1171.875000
1036		1171.875000
1037		1210.937500
1038		1210.937500
1039		1210.937500
1040		1210.937500
1041		1210.937500
1042		1210.937500
1043		1210.937500
1044		1250.000000
1045		1250.000000
1046		1250.000000
1047		1250.000000
1048		1250.000000
1049		1250.000000
1050		1250.000000
1051		1289.062500
1052		1289.062500
1053		1289.062500
1054		1289.062500
1055		1289.062500
1056		1289.062500
1057		1328.125000
1058		1328.125000
1059		1328.125000
1060		1328.125000
1061		1328.125000
1062		1328.125000
1063		1328.125000
1064		1328.125000
1065		1367.187500
1066		1367.187500
1067		1367.187500
1068		1367.187500
1069		1367.187500
1070		1367.187500
1071		1367.187500
1072		1406.250000
1073		1406.250000
1074		1406.250000
1075		1406.250000
1076		1406.250000
1077		1445.312500
1078		1445.312500
1079		1445.312500
1080		1445.312500
1081		1445.312500
1082		1445.312500
1083		1445.312500
1084		1445.312500
1085		1445.312500
1086		1445.312500
1087		1484.375000
1088		1445.312500
1089		1484.375000
1090		1484.375000
1091		1484.375000
1092		1484.375000
1093		1484.375000
1094		1523.437500
1095		1523.437500
1096		1523.437500
1097		1523.437500
1098		1523.437500
1099		1523.437500
1100		1523.437500
1101		1523.437500
1102		1523.437500
1103		1523.437500
1104		1523.437500
1105		1562.500000
1106		1562.500000
1107		1562.500000
1108		1562.500000
1109		1562.500000
1110		1562.500000
1111		1601.562500
1112		1601.562500
1113		1601.562500
1114		1601.562500
1115		1601.562500
1116		1601.562500
1117		1601.562500
1118		1601.562500
1119		1601.562500
1120		1601.562500
1121		1601.562500
1122		1601.562500
1123		1601.562500
1124		1601.562500
1125		1640.625000
1126		1640.625000
1127		1640.625000
1128		1640.625000
1129		1640.625000
1130		1640.625000
1131		1640.625000
1132		1679.687500
1133		1679.687500
1134		1679.687500
1135		1679.687500
1136		1679.687500
1137		1679.687500
1138		1679.687500
1139		1679.687500
1140		1679.687500
1141		1679.687500
1142		1679.687500
1143		1679.687500
