Vrije proef/m2-2.txt

Channel              :		CH1
Frequency            :		  ?
Period               :		  ?
PK-PK                :		3.359V
Probe attenuation    :		1X
Voltage per ADC value:		2.441406mV
Time interval        :		1000.00000us

index		CH1_Voltage(mV)
1		-1367.187500
2		-1367.187500
3		-1367.187500
4		-1367.187500
5		-1367.187500
6		-1367.187500
7		-1328.125000
8		-1328.125000
9		-1328.125000
10		-1328.125000
11		-1328.125000
12		-1328.125000
13		-1289.062500
14		-1289.062500
15		-1289.062500
16		-1289.062500
17		-1289.062500
18		-1289.062500
19		-1289.062500
20		-1328.125000
21		-1289.062500
22		-1289.062500
23		-1250.000000
24		-1289.062500
25		-1289.062500
26		-1289.062500
27		-1289.062500
28		-1210.937500
29		-1250.000000
30		-1250.000000
31		-1250.000000
32		-1250.000000
33		-1250.000000
34		-1250.000000
35		-1250.000000
36		-1250.000000
37		-1210.937500
38		-1250.000000
39		-1250.000000
40		-1210.937500
41		-1250.000000
42		-1210.937500
43		-1210.937500
44		-1210.937500
45		-1210.937500
46		-1210.937500
47		-1210.937500
48		-1210.937500
49		-1210.937500
50		-1210.937500
51		-1210.937500
52		-1171.875000
53		-1171.875000
54		-1171.875000
55		-1171.875000
56		-1171.875000
57		-1171.875000
58		-1171.875000
59		-1171.875000
60		-1171.875000
61		-1171.875000
62		-1171.875000
63		-1171.875000
64		-1171.875000
65		-1132.812500
66		-1132.812500
67		-1132.812500
68		-1132.812500
69		-1132.812500
70		-1132.812500
71		-1132.812500
72		-1132.812500
73		-1132.812500
74		-1132.812500
75		-1132.812500
76		-1132.812500
77		-1093.750000
78		-1093.750000
79		-1093.750000
80		-1093.750000
81		-1093.750000
82		-1093.750000
83		-1093.750000
84		-1093.750000
85		-1093.750000
86		-1093.750000
87		-1093.750000
88		-1093.750000
89		-1093.750000
90		-1093.750000
91		-1093.750000
92		-1054.687500
93		-1054.687500
94		-1054.687500
95		-1054.687500
96		-1054.687500
97		-1054.687500
98		-1054.687500
99		-1054.687500
100		-1054.687500
101		-1054.687500
102		-1054.687500
103		-1054.687500
104		-1054.687500
105		-1054.687500
106		-1054.687500
107		-1015.625000
108		-1054.687500
109		-1015.625000
110		-1015.625000
111		-1015.625000
112		-1015.625000
113		-1015.625000
114		-1015.625000
115		-1015.625000
116		-1015.625000
117		-1015.625000
118		-1015.625000
119		-1015.625000
120		-1015.625000
121		-1015.625000
122		-1015.625000
123		-1015.625000
124		-1015.625000
125		-1015.625000
126		-1015.625000
127		-976.562500
128		-976.562500
129		-976.562500
130		-976.562500
131		-976.562500
132		-976.562500
133		-976.562500
134		-976.562500
135		-976.562500
136		-976.562500
137		-976.562500
138		-937.500000
139		-937.500000
140		-937.500000
141		-937.500000
142		-937.500000
143		-937.500000
144		-937.500000
145		-937.500000
146		-937.500000
147		-937.500000
148		-937.500000
149		-937.500000
150		-937.500000
151		-937.500000
152		-937.500000
153		-937.500000
154		-937.500000
155		-937.500000
156		-898.437500
157		-937.500000
158		-898.437500
159		-898.437500
160		-898.437500
161		-898.437500
162		-898.437500
163		-898.437500
164		-898.437500
165		-898.437500
166		-898.437500
167		-898.437500
168		-898.437500
169		-898.437500
170		-898.437500
171		-898.437500
172		-898.437500
173		-859.375000
174		-898.437500
175		-859.375000
176		-859.375000
177		-859.375000
178		-859.375000
179		-859.375000
180		-859.375000
181		-859.375000
182		-859.375000
183		-859.375000
184		-859.375000
185		-859.375000
186		-859.375000
187		-859.375000
188		-859.375000
189		-859.375000
190		-859.375000
191		-859.375000
192		-859.375000
193		-820.312500
194		-820.312500
195		-820.312500
196		-820.312500
197		-820.312500
198		-820.312500
199		-820.312500
200		-820.312500
201		-820.312500
202		-820.312500
203		-820.312500
204		-820.312500
205		-820.312500
206		-820.312500
207		-820.312500
208		-820.312500
209		-820.312500
210		-820.312500
211		-820.312500
212		-820.312500
213		-781.250000
214		-781.250000
215		-781.250000
216		-781.250000
217		-781.250000
218		-820.312500
219		-781.250000
220		-781.250000
221		-781.250000
222		-781.250000
223		-781.250000
224		-781.250000
225		-781.250000
226		-781.250000
227		-781.250000
228		-781.250000
229		-781.250000
230		-781.250000
231		-781.250000
232		-781.250000
233		-742.187500
234		-742.187500
235		-742.187500
236		-742.187500
237		-742.187500
238		-742.187500
239		-742.187500
240		-742.187500
241		-742.187500
242		-742.187500
243		-742.187500
244		-742.187500
245		-742.187500
246		-742.187500
247		-742.187500
248		-742.187500
249		-742.187500
250		-742.187500
251		-742.187500
252		-703.125000
253		-703.125000
254		-703.125000
255		-703.125000
256		-742.187500
257		-703.125000
258		-703.125000
259		-703.125000
260		-703.125000
261		-703.125000
262		-703.125000
263		-703.125000
264		-703.125000
265		-703.125000
266		-703.125000
267		-703.125000
268		-703.125000
269		-703.125000
270		-703.125000
271		-703.125000
272		-703.125000
273		-703.125000
274		-703.125000
275		-664.062500
276		-664.062500
277		-664.062500
278		-664.062500
279		-664.062500
280		-664.062500
281		-664.062500
282		-664.062500
283		-664.062500
284		-664.062500
285		-664.062500
286		-664.062500
287		-664.062500
288		-664.062500
289		-664.062500
290		-664.062500
291		-664.062500
292		-625.000000
293		-625.000000
294		-625.000000
295		-625.000000
296		-625.000000
297		-625.000000
298		-625.000000
299		-625.000000
300		-625.000000
301		-625.000000
302		-625.000000
303		-625.000000
304		-625.000000
305		-625.000000
306		-625.000000
307		-625.000000
308		-625.000000
309		-625.000000
310		-625.000000
311		-625.000000
312		-585.937500
313		-585.937500
314		-585.937500
315		-585.937500
316		-585.937500
317		-585.937500
318		-585.937500
319		-585.937500
320		-585.937500
321		-546.875000
322		-585.937500
323		-585.937500
324		-585.937500
325		-585.937500
326		-585.937500
327		-585.937500
328		-585.937500
329		-585.937500
330		-546.875000
331		-546.875000
332		-546.875000
333		-546.875000
334		-546.875000
335		-546.875000
336		-546.875000
337		-546.875000
338		-546.875000
339		-546.875000
340		-546.875000
341		-546.875000
342		-546.875000
343		-507.812500
344		-546.875000
345		-546.875000
346		-507.812500
347		-546.875000
348		-507.812500
349		-507.812500
350		-507.812500
351		-507.812500
352		-507.812500
353		-507.812500
354		-507.812500
355		-507.812500
356		-507.812500
357		-468.750000
358		-468.750000
359		-468.750000
360		-468.750000
361		-468.750000
362		-468.750000
363		-468.750000
364		-468.750000
365		-468.750000
366		-468.750000
367		-468.750000
368		-468.750000
369		-468.750000
370		-468.750000
371		-468.750000
372		-429.687500
373		-429.687500
374		-429.687500
375		-429.687500
376		-429.687500
377		-429.687500
378		-429.687500
379		-429.687500
380		-429.687500
381		-429.687500
382		-429.687500
383		-429.687500
384		-429.687500
385		-429.687500
386		-429.687500
387		-429.687500
388		-429.687500
389		-429.687500
390		-390.625000
391		-390.625000
392		-390.625000
393		-390.625000
394		-390.625000
395		-390.625000
396		-390.625000
397		-390.625000
398		-390.625000
399		-390.625000
400		-390.625000
401		-390.625000
402		-351.562500
403		-390.625000
404		-351.562500
405		-351.562500
406		-351.562500
407		-351.562500
408		-351.562500
409		-351.562500
410		-351.562500
411		-351.562500
412		-351.562500
413		-312.500000
414		-312.500000
415		-351.562500
416		-312.500000
417		-312.500000
418		-312.500000
419		-312.500000
420		-312.500000
421		-312.500000
422		-312.500000
423		-312.500000
424		-312.500000
425		-312.500000
426		-273.437500
427		-273.437500
428		-273.437500
429		-273.437500
430		-273.437500
431		-273.437500
432		-273.437500
433		-273.437500
434		-273.437500
435		-234.375000
436		-273.437500
437		-234.375000
438		-234.375000
439		-273.437500
440		-234.375000
441		-234.375000
442		-234.375000
443		-234.375000
444		-234.375000
445		-234.375000
446		-234.375000
447		-195.312500
448		-195.312500
449		-195.312500
450		-195.312500
451		-195.312500
452		-195.312500
453		-195.312500
454		-195.312500
455		-195.312500
456		-195.312500
457		-195.312500
458		-156.250000
459		-156.250000
460		-156.250000
461		-156.250000
462		-156.250000
463		-156.250000
464		-156.250000
465		-156.250000
466		-156.250000
467		-117.187500
468		-117.187500
469		-117.187500
470		-117.187500
471		-117.187500
472		-117.187500
473		-117.187500
474		-117.187500
475		-117.187500
476		-117.187500
477		-117.187500
478		-78.125000
479		-78.125000
480		-78.125000
481		-78.125000
482		-78.125000
483		-78.125000
484		-78.125000
485		-39.062500
486		-78.125000
487		-78.125000
488		-39.062500
489		-39.062500
490		-39.062500
491		-39.062500
492		-39.062500
493		-39.062500
494		-39.062500
495		0.000000
496		0.000000
497		0.000000
498		0.000000
499		0.000000
500		0.000000
501		0.000000
502		0.000000
503		39.062500
504		39.062500
505		39.062500
506		39.062500
507		39.062500
508		39.062500
509		39.062500
510		39.062500
511		39.062500
512		78.125000
513		78.125000
514		78.125000
515		78.125000
516		78.125000
517		78.125000
518		117.187500
519		117.187500
520		117.187500
521		117.187500
522		117.187500
523		117.187500
524		117.187500
525		117.187500
526		117.187500
527		156.250000
528		156.250000
529		156.250000
530		156.250000
531		156.250000
532		156.250000
533		195.312500
534		195.312500
535		195.312500
536		195.312500
537		195.312500
538		195.312500
539		195.312500
540		195.312500
541		234.375000
542		234.375000
543		234.375000
544		234.375000
545		234.375000
546		234.375000
547		234.375000
548		273.437500
549		273.437500
550		273.437500
551		273.437500
552		273.437500
553		273.437500
554		312.500000
555		312.500000
556		312.500000
557		312.500000
558		312.500000
559		312.500000
560		312.500000
561		312.500000
562		351.562500
563		351.562500
564		351.562500
565		351.562500
566		351.562500
567		351.562500
568		390.625000
569		390.625000
570		390.625000
571		390.625000
572		390.625000
573		390.625000
574		429.687500
575		429.687500
576		429.687500
577		429.687500
578		429.687500
579		468.750000
580		468.750000
581		468.750000
582		468.750000
583		468.750000
584		468.750000
585		468.750000
586		507.812500
587		507.812500
588		507.812500
589		507.812500
590		507.812500
591		546.875000
592		546.875000
593		546.875000
594		546.875000
595		546.875000
596		585.937500
597		585.937500
598		585.937500
599		585.937500
600		585.937500
601		585.937500
602		585.937500
603		625.000000
604		625.000000
605		625.000000
606		625.000000
607		625.000000
608		664.062500
609		664.062500
610		664.062500
611		664.062500
612		664.062500
613		703.125000
614		703.125000
615		703.125000
616		703.125000
617		703.125000
618		703.125000
619		742.187500
620		742.187500
621		742.187500
622		742.187500
623		742.187500
624		742.187500
625		781.250000
626		781.250000
627		781.250000
628		781.250000
629		820.312500
630		820.312500
631		820.312500
632		820.312500
633		820.312500
634		859.375000
635		859.375000
636		859.375000
637		859.375000
638		859.375000
639		898.437500
640		898.437500
641		898.437500
642		898.437500
643		898.437500
644		898.437500
645		937.500000
646		937.500000
647		937.500000
648		976.562500
649		976.562500
650		976.562500
651		976.562500
652		976.562500
653		976.562500
654		1015.625000
655		1015.625000
656		1015.625000
657		1015.625000
658		1054.687500
659		1015.625000
660		1054.687500
661		1054.687500
662		1054.687500
663		1054.687500
664		1093.750000
665		1093.750000
666		1093.750000
667		1093.750000
668		1093.750000
669		1132.812500
670		1132.812500
671		1132.812500
672		1132.812500
673		1171.875000
674		1171.875000
675		1171.875000
676		1171.875000
677		1171.875000
678		1210.937500
679		1210.937500
680		1210.937500
681		1210.937500
682		1210.937500
683		1250.000000
684		1250.000000
685		1250.000000
686		1250.000000
687		1289.062500
688		1289.062500
689		1289.062500
690		1289.062500
691		1289.062500
692		1328.125000
693		1328.125000
694		1328.125000
695		1328.125000
696		1367.187500
697		1367.187500
698		1367.187500
699		1367.187500
700		1406.250000
701		1406.250000
702		1406.250000
703		1406.250000
704		1406.250000
705		1406.250000
706		1406.250000
707		1445.312500
708		1445.312500
709		1445.312500
710		1445.312500
711		1484.375000
712		1484.375000
713		1484.375000
714		1523.437500
715		1523.437500
716		1523.437500
717		1523.437500
718		1523.437500
719		1562.500000
720		1562.500000
721		1562.500000
722		1562.500000
723		1562.500000
724		1562.500000
725		1601.562500
726		1601.562500
727		1601.562500
728		1601.562500
729		1640.625000
730		1640.625000
731		1640.625000
732		1640.625000
733		1679.687500
734		1679.687500
735		1679.687500
736		1679.687500
737		1718.750000
738		1718.750000
739		1718.750000
740		1718.750000
741		1718.750000
742		1718.750000
743		1757.812500
744		1757.812500
745		1757.812500
746		1757.812500
747		1757.812500
748		1757.812500
749		1796.875000
750		1796.875000
751		1796.875000
752		1835.937500
753		1835.937500
754		1835.937500
755		1835.937500
756		1835.937500
757		1875.000000
758		1875.000000
759		1875.000000
760		1875.000000
761		1875.000000
762		1914.062500
763		1914.062500
764		1914.062500
765		1914.062500
766		1914.062500
767		1953.125000
768		1953.125000
769		1953.125000
770		1953.125000
771		1992.187500
772		1992.187500
773		1992.187500
774		1992.187500
775		1992.187500
776		2031.250000
777		2031.250000
778		2031.250000
779		2031.250000
780		2031.250000
781		2031.250000
782		2070.312500
783		2070.312500
784		2070.312500
785		2070.312500
786		2070.312500
787		2070.312500
788		2109.375000
789		2109.375000
790		2109.375000
791		2148.437500
792		2148.437500
793		2148.437500
794		2148.437500
795		2148.437500
796		2148.437500
797		2187.500000
798		2187.500000
799		2187.500000
800		2187.500000
801		2187.500000
802		2187.500000
803		2187.500000
804		2226.562500
805		2226.562500
806		2226.562500
807		2226.562500
808		2226.562500
809		2265.625000
810		2265.625000
811		2265.625000
812		2265.625000
813		2265.625000
814		2304.687500
815		2304.687500
816		2304.687500
817		2304.687500
818		2304.687500
819		2304.687500
820		2343.750000
821		2343.750000
822		2343.750000
823		2343.750000
824		2343.750000
825		2343.750000
826		2343.750000
827		2382.812500
828		2382.812500
829		2382.812500
830		2382.812500
831		2382.812500
832		2421.875000
833		2421.875000
834		2421.875000
835		2421.875000
836		2421.875000
837		2421.875000
838		2421.875000
839		2460.937500
840		2460.937500
841		2460.937500
842		2460.937500
843		2460.937500
844		2460.937500
845		2500.000000
846		2500.000000
847		2500.000000
848		2500.000000
849		2500.000000
850		2500.000000
851		2539.062500
852		2539.062500
853		2539.062500
854		2539.062500
855		2539.062500
856		2539.062500
857		2539.062500
858		2539.062500
859		2578.125000
860		2578.125000
861		2578.125000
862		2578.125000
863		2578.125000
864		2578.125000
865		2578.125000
866		2617.187500
867		2617.187500
868		2617.187500
869		2617.187500
870		2617.187500
871		2617.187500
872		2617.187500
873		2617.187500
874		2656.250000
875		2656.250000
876		2656.250000
877		2656.250000
878		2656.250000
879		2656.250000
880		2656.250000
881		2695.312500
882		2656.250000
883		2656.250000
884		2695.312500
885		2695.312500
886		2695.312500
887		2695.312500
888		2695.312500
889		2695.312500
890		2695.312500
891		2695.312500
892		2695.312500
893		2695.312500
894		2734.375000
895		2734.375000
896		2734.375000
897		2734.375000
898		2734.375000
899		2734.375000
900		2734.375000
901		2734.375000
902		2734.375000
903		2734.375000
904		2734.375000
905		2734.375000
906		2734.375000
907		2734.375000
908		2734.375000
909		2773.437500
910		2773.437500
911		2773.437500
912		2773.437500
913		2773.437500
914		2773.437500
915		2812.500000
916		2773.437500
917		2773.437500
918		2773.437500
919		2812.500000
920		2773.437500
921		2812.500000
922		2812.500000
923		2773.437500
924		2773.437500
925		2812.500000
926		2773.437500
927		2812.500000
928		2812.500000
929		2812.500000
930		2812.500000
931		2812.500000
932		2812.500000
933		2812.500000
934		2812.500000
935		2812.500000
936		2851.562500
937		2851.562500
938		2812.500000
939		2812.500000
940		2812.500000
941		2812.500000
942		2812.500000
943		2812.500000
944		2812.500000
945		2812.500000
946		2851.562500
947		2812.500000
948		2851.562500
949		2851.562500
950		2851.562500
951		2851.562500
952		2851.562500
953		2851.562500
954		2851.562500
955		2851.562500
956		2851.562500
957		2851.562500
958		2851.562500
959		2851.562500
960		2851.562500
961		2851.562500
962		2851.562500
963		2851.562500
964		2851.562500
965		2851.562500
966		2851.562500
967		2851.562500
968		2851.562500
969		2851.562500
970		2851.562500
971		2851.562500
972		2851.562500
973		2851.562500
974		2851.562500
975		2851.562500
976		2851.562500
977		2851.562500
978		2851.562500
979		2851.562500
980		2851.562500
981		2851.562500
982		2851.562500
983		2851.562500
984		2851.562500
985		2851.562500
986		2851.562500
987		2851.562500
988		2851.562500
989		2851.562500
990		2851.562500
991		2851.562500
992		2851.562500
993		2851.562500
994		2851.562500
995		2851.562500
996		2851.562500
997		2851.562500
998		2812.500000
999		2812.500000
1000		2812.500000
1001		2812.500000
1002		2812.500000
1003		2812.500000
1004		2812.500000
1005		2812.500000
1006		2812.500000
1007		2812.500000
1008		2812.500000
1009		2812.500000
1010		2812.500000
1011		2812.500000
1012		2812.500000
1013		2812.500000
1014		2812.500000
1015		2812.500000
1016		2812.500000
1017		2812.500000
1018		2773.437500
1019		2773.437500
1020		2773.437500
1021		2773.437500
1022		2773.437500
1023		2773.437500
1024		2773.437500
1025		2773.437500
1026		2773.437500
1027		2773.437500
1028		2773.437500
1029		2773.437500
1030		2773.437500
1031		2773.437500
1032		2734.375000
1033		2734.375000
1034		2734.375000
1035		2734.375000
1036		2734.375000
1037		2734.375000
1038		2734.375000
1039		2734.375000
1040		2734.375000
1041		2734.375000
1042		2695.312500
1043		2695.312500
1044		2695.312500
1045		2695.312500
1046		2695.312500
1047		2695.312500
1048		2695.312500
1049		2695.312500
1050		2695.312500
1051		2695.312500
1052		2656.250000
1053		2656.250000
1054		2656.250000
1055		2656.250000
1056		2656.250000
1057		2656.250000
1058		2656.250000
1059		2656.250000
1060		2656.250000
1061		2656.250000
1062		2617.187500
1063		2617.187500
1064		2617.187500
1065		2617.187500
1066		2617.187500
1067		2617.187500
1068		2617.187500
1069		2617.187500
1070		2578.125000
1071		2578.125000
1072		2578.125000
1073		2578.125000
1074		2578.125000
1075		2578.125000
1076		2578.125000
1077		2578.125000
1078		2578.125000
1079		2539.062500
1080		2539.062500
1081		2539.062500
1082		2539.062500
1083		2539.062500
1084		2539.062500
1085		2500.000000
1086		2500.000000
1087		2500.000000
1088		2500.000000
1089		2500.000000
1090		2500.000000
1091		2500.000000
1092		2460.937500
1093		2460.937500
1094		2460.937500
1095		2460.937500
1096		2460.937500
1097		2460.937500
1098		2460.937500
1099		2460.937500
1100		2421.875000
1101		2421.875000
1102		2421.875000
1103		2421.875000
1104		2421.875000
1105		2382.812500
1106		2382.812500
1107		2382.812500
1108		2382.812500
1109		2382.812500
1110		2382.812500
1111		2382.812500
1112		2382.812500
1113		2343.750000
1114		2343.750000
1115		2343.750000
1116		2343.750000
1117		2343.750000
1118		2343.750000
1119		2304.687500
1120		2304.687500
1121		2304.687500
1122		2304.687500
1123		2265.625000
1124		2265.625000
1125		2265.625000
1126		2265.625000
1127		2265.625000
1128		2226.562500
1129		2226.562500
1130		2226.562500
1131		2226.562500
1132		2226.562500
1133		2226.562500
1134		2226.562500
1135		2226.562500
1136		2187.500000
1137		2187.500000
1138		2187.500000
1139		2187.500000
1140		2187.500000
1141		2148.437500
1142		2148.437500
1143		2148.437500
1144		2148.437500
1145		2148.437500
1146		2109.375000
1147		2109.375000
1148		2109.375000
1149		2109.375000
1150		2109.375000
1151		2109.375000
1152		2070.312500
1153		2070.312500
1154		2070.312500
1155		2070.312500
1156		2070.312500
1157		2070.312500
1158		2031.250000
1159		2031.250000
1160		2031.250000
1161		1992.187500
1162		1992.187500
1163		1992.187500
