Vrije proef/m3-1.txt

Channel              :		CH1
Frequency            :		  ?
Period               :		  ?
PK-PK                :		937.5mV
Probe attenuation    :		1X
Voltage per ADC value:		2.441406mV
Time interval        :		1000.00000us

index		CH1_Voltage(mV)
1		-1679.687500
2		-1679.687500
3		-1679.687500
4		-1679.687500
5		-1679.687500
6		-1679.687500
7		-1679.687500
8		-1679.687500
9		-1679.687500
10		-1679.687500
11		-1679.687500
12		-1679.687500
13		-1679.687500
14		-1679.687500
15		-1679.687500
16		-1640.625000
17		-1640.625000
18		-1679.687500
19		-1640.625000
20		-1679.687500
21		-1679.687500
22		-1640.625000
23		-1679.687500
24		-1679.687500
25		-1679.687500
26		-1679.687500
27		-1679.687500
28		-1679.687500
29		-1679.687500
30		-1679.687500
31		-1640.625000
32		-1640.625000
33		-1640.625000
34		-1640.625000
35		-1640.625000
36		-1640.625000
37		-1640.625000
38		-1640.625000
39		-1640.625000
40		-1640.625000
41		-1640.625000
42		-1640.625000
43		-1640.625000
44		-1640.625000
45		-1640.625000
46		-1640.625000
47		-1640.625000
48		-1640.625000
49		-1679.687500
50		-1640.625000
51		-1640.625000
52		-1640.625000
53		-1640.625000
54		-1640.625000
55		-1640.625000
56		-1640.625000
57		-1640.625000
58		-1640.625000
59		-1640.625000
60		-1640.625000
61		-1640.625000
62		-1640.625000
63		-1640.625000
64		-1640.625000
65		-1640.625000
66		-1640.625000
67		-1640.625000
68		-1640.625000
69		-1640.625000
70		-1640.625000
71		-1640.625000
72		-1640.625000
73		-1601.562500
74		-1640.625000
75		-1640.625000
76		-1640.625000
77		-1640.625000
78		-1640.625000
79		-1640.625000
80		-1640.625000
81		-1640.625000
82		-1640.625000
83		-1640.625000
84		-1640.625000
85		-1640.625000
86		-1640.625000
87		-1640.625000
88		-1640.625000
89		-1640.625000
90		-1601.562500
91		-1601.562500
92		-1601.562500
93		-1601.562500
94		-1601.562500
95		-1601.562500
96		-1601.562500
97		-1601.562500
98		-1601.562500
99		-1601.562500
100		-1601.562500
101		-1601.562500
102		-1601.562500
103		-1601.562500
104		-1601.562500
105		-1601.562500
106		-1601.562500
107		-1601.562500
108		-1601.562500
109		-1601.562500
110		-1601.562500
111		-1601.562500
112		-1601.562500
113		-1601.562500
114		-1601.562500
115		-1601.562500
116		-1601.562500
117		-1601.562500
118		-1601.562500
119		-1601.562500
120		-1601.562500
121		-1601.562500
122		-1601.562500
123		-1601.562500
124		-1601.562500
125		-1601.562500
126		-1601.562500
127		-1562.500000
128		-1562.500000
129		-1562.500000
130		-1562.500000
131		-1562.500000
132		-1562.500000
133		-1562.500000
134		-1562.500000
135		-1562.500000
136		-1562.500000
137		-1562.500000
138		-1562.500000
139		-1523.437500
140		-1562.500000
141		-1562.500000
142		-1562.500000
143		-1562.500000
144		-1562.500000
145		-1562.500000
146		-1562.500000
147		-1562.500000
148		-1562.500000
149		-1562.500000
150		-1562.500000
151		-1562.500000
152		-1562.500000
153		-1562.500000
154		-1562.500000
155		-1562.500000
156		-1562.500000
157		-1562.500000
158		-1562.500000
159		-1562.500000
160		-1562.500000
161		-1562.500000
162		-1562.500000
163		-1562.500000
164		-1562.500000
165		-1562.500000
166		-1562.500000
167		-1562.500000
168		-1523.437500
169		-1562.500000
170		-1523.437500
171		-1562.500000
172		-1562.500000
173		-1523.437500
174		-1523.437500
175		-1523.437500
176		-1523.437500
177		-1523.437500
178		-1523.437500
179		-1523.437500
180		-1523.437500
181		-1523.437500
182		-1523.437500
183		-1523.437500
184		-1523.437500
185		-1523.437500
186		-1523.437500
187		-1523.437500
188		-1523.437500
189		-1523.437500
190		-1523.437500
191		-1523.437500
192		-1523.437500
193		-1523.437500
194		-1523.437500
195		-1523.437500
196		-1523.437500
197		-1523.437500
198		-1523.437500
199		-1523.437500
200		-1484.375000
201		-1523.437500
202		-1523.437500
203		-1484.375000
204		-1523.437500
205		-1523.437500
206		-1523.437500
207		-1523.437500
208		-1523.437500
209		-1484.375000
210		-1523.437500
211		-1523.437500
212		-1484.375000
213		-1484.375000
214		-1484.375000
215		-1484.375000
216		-1484.375000
217		-1484.375000
218		-1484.375000
219		-1484.375000
220		-1484.375000
221		-1484.375000
222		-1484.375000
223		-1484.375000
224		-1484.375000
225		-1484.375000
226		-1484.375000
227		-1484.375000
228		-1484.375000
229		-1484.375000
230		-1484.375000
231		-1484.375000
232		-1484.375000
233		-1445.312500
234		-1445.312500
235		-1484.375000
236		-1445.312500
237		-1445.312500
238		-1445.312500
239		-1445.312500
240		-1445.312500
241		-1445.312500
242		-1445.312500
243		-1445.312500
244		-1484.375000
245		-1445.312500
246		-1445.312500
247		-1445.312500
248		-1445.312500
249		-1445.312500
250		-1445.312500
251		-1445.312500
252		-1445.312500
253		-1445.312500
254		-1445.312500
255		-1406.250000
256		-1445.312500
257		-1406.250000
258		-1445.312500
259		-1445.312500
260		-1445.312500
261		-1445.312500
262		-1445.312500
263		-1445.312500
264		-1484.375000
265		-1445.312500
266		-1445.312500
267		-1406.250000
268		-1445.312500
269		-1406.250000
270		-1406.250000
271		-1406.250000
272		-1406.250000
273		-1406.250000
274		-1406.250000
275		-1406.250000
276		-1406.250000
277		-1406.250000
278		-1406.250000
279		-1406.250000
280		-1406.250000
281		-1406.250000
282		-1406.250000
283		-1406.250000
284		-1406.250000
285		-1406.250000
286		-1406.250000
287		-1406.250000
288		-1406.250000
289		-1367.187500
290		-1406.250000
291		-1367.187500
292		-1367.187500
293		-1367.187500
294		-1367.187500
295		-1367.187500
296		-1367.187500
297		-1367.187500
298		-1367.187500
299		-1367.187500
300		-1367.187500
301		-1367.187500
302		-1367.187500
303		-1367.187500
304		-1367.187500
305		-1367.187500
306		-1367.187500
307		-1367.187500
308		-1367.187500
309		-1367.187500
310		-1367.187500
311		-1367.187500
312		-1367.187500
313		-1367.187500
314		-1367.187500
315		-1367.187500
316		-1367.187500
317		-1328.125000
318		-1328.125000
319		-1328.125000
320		-1367.187500
321		-1367.187500
322		-1328.125000
323		-1328.125000
324		-1328.125000
325		-1328.125000
326		-1328.125000
327		-1328.125000
328		-1328.125000
329		-1328.125000
330		-1328.125000
331		-1328.125000
332		-1328.125000
333		-1328.125000
334		-1328.125000
335		-1328.125000
336		-1328.125000
337		-1328.125000
338		-1328.125000
339		-1328.125000
340		-1289.062500
341		-1289.062500
342		-1289.062500
343		-1289.062500
344		-1289.062500
345		-1289.062500
346		-1289.062500
347		-1289.062500
348		-1289.062500
349		-1289.062500
350		-1289.062500
351		-1289.062500
352		-1289.062500
353		-1289.062500
354		-1289.062500
355		-1289.062500
356		-1289.062500
357		-1289.062500
358		-1289.062500
359		-1250.000000
360		-1250.000000
361		-1250.000000
362		-1289.062500
363		-1250.000000
364		-1250.000000
365		-1250.000000
366		-1250.000000
367		-1250.000000
368		-1250.000000
369		-1250.000000
370		-1250.000000
371		-1250.000000
372		-1250.000000
373		-1250.000000
374		-1250.000000
375		-1250.000000
376		-1250.000000
377		-1250.000000
378		-1250.000000
379		-1250.000000
380		-1250.000000
381		-1250.000000
382		-1210.937500
383		-1210.937500
384		-1210.937500
385		-1210.937500
386		-1210.937500
387		-1210.937500
388		-1210.937500
389		-1210.937500
390		-1210.937500
391		-1210.937500
392		-1210.937500
393		-1210.937500
394		-1210.937500
395		-1210.937500
396		-1210.937500
397		-1210.937500
398		-1210.937500
399		-1210.937500
400		-1171.875000
401		-1210.937500
402		-1171.875000
403		-1171.875000
404		-1171.875000
405		-1171.875000
406		-1171.875000
407		-1171.875000
408		-1171.875000
409		-1171.875000
410		-1171.875000
411		-1171.875000
412		-1171.875000
413		-1171.875000
414		-1171.875000
415		-1171.875000
416		-1171.875000
417		-1171.875000
418		-1171.875000
419		-1171.875000
420		-1171.875000
421		-1171.875000
422		-1171.875000
423		-1171.875000
424		-1171.875000
425		-1171.875000
426		-1132.812500
427		-1132.812500
428		-1132.812500
429		-1132.812500
430		-1132.812500
431		-1132.812500
432		-1132.812500
433		-1132.812500
434		-1132.812500
435		-1132.812500
436		-1132.812500
437		-1132.812500
438		-1132.812500
439		-1132.812500
440		-1132.812500
441		-1132.812500
442		-1132.812500
443		-1132.812500
444		-1132.812500
445		-1093.750000
446		-1132.812500
447		-1093.750000
448		-1132.812500
449		-1093.750000
450		-1093.750000
451		-1093.750000
452		-1093.750000
453		-1093.750000
454		-1054.687500
455		-1093.750000
456		-1093.750000
457		-1093.750000
458		-1093.750000
459		-1093.750000
460		-1093.750000
461		-1093.750000
462		-1093.750000
463		-1093.750000
464		-1093.750000
465		-1093.750000
466		-1093.750000
467		-1093.750000
468		-1054.687500
469		-1054.687500
470		-1054.687500
471		-1054.687500
472		-1054.687500
473		-1054.687500
474		-1054.687500
475		-1054.687500
476		-1054.687500
477		-1054.687500
478		-1054.687500
479		-1054.687500
480		-1054.687500
481		-1054.687500
482		-1054.687500
483		-1054.687500
484		-1015.625000
485		-1054.687500
486		-1054.687500
487		-1054.687500
488		-1054.687500
489		-1015.625000
490		-1015.625000
491		-1015.625000
492		-1015.625000
493		-1015.625000
494		-1015.625000
495		-1015.625000
496		-1015.625000
497		-1015.625000
498		-1015.625000
499		-1015.625000
500		-1015.625000
501		-1015.625000
502		-1015.625000
503		-1015.625000
504		-1015.625000
505		-1015.625000
506		-1015.625000
507		-1015.625000
508		-976.562500
509		-976.562500
510		-976.562500
511		-976.562500
512		-976.562500
513		-976.562500
514		-976.562500
515		-976.562500
516		-976.562500
517		-976.562500
518		-976.562500
519		-976.562500
520		-976.562500
521		-976.562500
522		-976.562500
523		-976.562500
524		-976.562500
525		-976.562500
526		-976.562500
527		-976.562500
528		-976.562500
529		-976.562500
530		-976.562500
531		-976.562500
532		-976.562500
533		-937.500000
534		-937.500000
535		-937.500000
536		-937.500000
537		-937.500000
538		-937.500000
539		-937.500000
540		-937.500000
541		-937.500000
542		-937.500000
543		-937.500000
544		-937.500000
545		-937.500000
546		-937.500000
547		-937.500000
548		-937.500000
549		-937.500000
550		-937.500000
551		-937.500000
552		-937.500000
553		-937.500000
554		-937.500000
555		-937.500000
556		-937.500000
557		-898.437500
558		-898.437500
559		-898.437500
560		-898.437500
561		-898.437500
562		-898.437500
563		-898.437500
564		-898.437500
565		-898.437500
566		-898.437500
567		-898.437500
568		-898.437500
569		-898.437500
570		-898.437500
571		-898.437500
572		-898.437500
573		-898.437500
574		-898.437500
575		-898.437500
576		-898.437500
577		-859.375000
578		-898.437500
579		-898.437500
580		-898.437500
581		-898.437500
582		-898.437500
583		-898.437500
584		-898.437500
585		-898.437500
586		-898.437500
587		-898.437500
588		-898.437500
589		-859.375000
590		-898.437500
591		-898.437500
592		-859.375000
593		-859.375000
594		-859.375000
595		-859.375000
596		-859.375000
597		-859.375000
598		-859.375000
599		-859.375000
600		-859.375000
601		-859.375000
602		-859.375000
603		-859.375000
604		-859.375000
605		-859.375000
606		-859.375000
607		-859.375000
608		-859.375000
609		-859.375000
610		-859.375000
611		-859.375000
612		-859.375000
613		-859.375000
614		-859.375000
615		-859.375000
616		-859.375000
617		-859.375000
618		-859.375000
619		-859.375000
620		-859.375000
621		-859.375000
622		-859.375000
623		-859.375000
624		-859.375000
625		-820.312500
626		-859.375000
627		-859.375000
628		-859.375000
629		-859.375000
630		-859.375000
631		-859.375000
632		-859.375000
633		-820.312500
634		-820.312500
635		-820.312500
636		-820.312500
637		-820.312500
638		-820.312500
639		-820.312500
640		-820.312500
641		-859.375000
642		-859.375000
643		-820.312500
644		-859.375000
645		-859.375000
646		-820.312500
647		-859.375000
648		-820.312500
649		-820.312500
650		-820.312500
651		-820.312500
652		-820.312500
653		-820.312500
654		-820.312500
655		-820.312500
656		-820.312500
657		-820.312500
658		-820.312500
659		-820.312500
660		-820.312500
661		-820.312500
662		-820.312500
663		-820.312500
664		-820.312500
665		-820.312500
666		-820.312500
667		-820.312500
668		-820.312500
669		-820.312500
670		-820.312500
671		-820.312500
672		-820.312500
673		-820.312500
674		-820.312500
675		-820.312500
676		-820.312500
677		-820.312500
678		-820.312500
679		-820.312500
680		-820.312500
681		-820.312500
682		-820.312500
683		-820.312500
684		-820.312500
685		-820.312500
686		-820.312500
687		-820.312500
688		-820.312500
689		-820.312500
690		-820.312500
691		-820.312500
692		-820.312500
693		-820.312500
694		-820.312500
695		-820.312500
696		-820.312500
697		-820.312500
698		-820.312500
699		-820.312500
700		-820.312500
701		-820.312500
702		-820.312500
703		-820.312500
704		-820.312500
705		-820.312500
706		-820.312500
707		-820.312500
708		-820.312500
709		-820.312500
710		-820.312500
711		-820.312500
712		-820.312500
713		-820.312500
714		-820.312500
715		-820.312500
716		-820.312500
717		-820.312500
718		-820.312500
719		-820.312500
720		-820.312500
721		-820.312500
722		-820.312500
723		-820.312500
724		-820.312500
725		-820.312500
726		-820.312500
727		-820.312500
728		-820.312500
729		-820.312500
730		-820.312500
731		-820.312500
732		-820.312500
733		-820.312500
734		-820.312500
735		-859.375000
736		-820.312500
737		-820.312500
738		-820.312500
739		-820.312500
740		-820.312500
741		-820.312500
742		-820.312500
743		-820.312500
744		-820.312500
745		-820.312500
746		-820.312500
747		-820.312500
748		-820.312500
749		-820.312500
750		-820.312500
751		-859.375000
752		-820.312500
753		-820.312500
754		-820.312500
755		-820.312500
756		-820.312500
757		-820.312500
758		-820.312500
759		-820.312500
760		-859.375000
761		-820.312500
762		-859.375000
763		-859.375000
764		-859.375000
765		-859.375000
766		-859.375000
767		-859.375000
768		-859.375000
769		-859.375000
770		-859.375000
771		-859.375000
772		-859.375000
773		-859.375000
774		-859.375000
775		-859.375000
776		-859.375000
777		-859.375000
778		-859.375000
779		-859.375000
780		-859.375000
781		-859.375000
782		-859.375000
783		-859.375000
784		-859.375000
785		-859.375000
786		-859.375000
787		-859.375000
788		-859.375000
789		-859.375000
790		-859.375000
791		-859.375000
792		-859.375000
793		-898.437500
794		-859.375000
795		-859.375000
796		-859.375000
797		-859.375000
798		-859.375000
799		-898.437500
800		-859.375000
801		-859.375000
802		-898.437500
803		-898.437500
804		-898.437500
805		-898.437500
806		-898.437500
807		-898.437500
808		-898.437500
809		-898.437500
810		-898.437500
811		-898.437500
812		-898.437500
813		-898.437500
814		-898.437500
815		-898.437500
816		-898.437500
817		-898.437500
818		-898.437500
819		-898.437500
820		-898.437500
821		-898.437500
822		-898.437500
823		-937.500000
824		-898.437500
825		-898.437500
826		-898.437500
827		-898.437500
828		-898.437500
829		-898.437500
830		-898.437500
831		-898.437500
832		-898.437500
833		-898.437500
834		-898.437500
835		-898.437500
836		-898.437500
837		-898.437500
838		-937.500000
839		-937.500000
840		-937.500000
841		-937.500000
842		-937.500000
843		-937.500000
844		-937.500000
845		-937.500000
846		-937.500000
847		-937.500000
848		-937.500000
849		-937.500000
850		-937.500000
851		-937.500000
852		-937.500000
853		-937.500000
854		-937.500000
855		-937.500000
856		-937.500000
857		-937.500000
858		-937.500000
859		-976.562500
860		-976.562500
861		-976.562500
862		-976.562500
863		-976.562500
864		-976.562500
865		-976.562500
866		-976.562500
867		-976.562500
868		-976.562500
869		-976.562500
870		-976.562500
871		-976.562500
872		-976.562500
873		-976.562500
874		-976.562500
875		-976.562500
876		-976.562500
877		-976.562500
878		-976.562500
879		-976.562500
880		-976.562500
881		-976.562500
882		-976.562500
883		-976.562500
884		-976.562500
885		-976.562500
886		-1015.625000
887		-976.562500
888		-976.562500
889		-976.562500
890		-976.562500
891		-976.562500
892		-976.562500
893		-1015.625000
894		-1015.625000
895		-1015.625000
896		-1015.625000
897		-1015.625000
898		-1015.625000
899		-1015.625000
900		-1015.625000
901		-1015.625000
902		-1015.625000
903		-1015.625000
904		-1015.625000
905		-1015.625000
906		-1015.625000
907		-1015.625000
908		-1015.625000
909		-1015.625000
910		-1015.625000
911		-1015.625000
912		-1015.625000
913		-1054.687500
914		-1054.687500
915		-1054.687500
916		-1054.687500
917		-1054.687500
918		-1054.687500
919		-1054.687500
920		-1054.687500
921		-1054.687500
922		-1054.687500
923		-1054.687500
924		-1054.687500
925		-1054.687500
926		-1054.687500
927		-1054.687500
928		-1054.687500
929		-1054.687500
930		-1054.687500
931		-1054.687500
932		-1054.687500
933		-1054.687500
934		-1093.750000
935		-1093.750000
936		-1093.750000
937		-1093.750000
938		-1093.750000
939		-1093.750000
940		-1093.750000
941		-1093.750000
942		-1093.750000
943		-1093.750000
944		-1093.750000
945		-1093.750000
946		-1093.750000
947		-1093.750000
948		-1093.750000
949		-1093.750000
950		-1093.750000
951		-1093.750000
952		-1093.750000
953		-1093.750000
954		-1093.750000
955		-1093.750000
956		-1132.812500
957		-1093.750000
958		-1132.812500
959		-1132.812500
960		-1132.812500
961		-1132.812500
962		-1132.812500
963		-1132.812500
964		-1132.812500
965		-1132.812500
966		-1132.812500
967		-1132.812500
968		-1132.812500
969		-1132.812500
970		-1132.812500
971		-1132.812500
972		-1132.812500
973		-1132.812500
974		-1171.875000
975		-1132.812500
976		-1132.812500
977		-1132.812500
978		-1132.812500
979		-1171.875000
980		-1171.875000
981		-1171.875000
982		-1171.875000
983		-1171.875000
984		-1171.875000
985		-1171.875000
986		-1171.875000
987		-1171.875000
988		-1171.875000
989		-1171.875000
990		-1171.875000
991		-1171.875000
992		-1171.875000
993		-1171.875000
994		-1171.875000
995		-1171.875000
996		-1171.875000
997		-1171.875000
998		-1210.937500
999		-1210.937500
1000		-1210.937500
1001		-1210.937500
1002		-1210.937500
1003		-1210.937500
1004		-1210.937500
1005		-1210.937500
1006		-1210.937500
1007		-1210.937500
1008		-1210.937500
1009		-1210.937500
1010		-1210.937500
1011		-1210.937500
1012		-1210.937500
1013		-1210.937500
1014		-1210.937500
1015		-1210.937500
1016		-1210.937500
1017		-1210.937500
1018		-1210.937500
1019		-1250.000000
1020		-1250.000000
1021		-1250.000000
1022		-1250.000000
1023		-1250.000000
1024		-1250.000000
1025		-1250.000000
1026		-1250.000000
1027		-1250.000000
1028		-1250.000000
1029		-1250.000000
1030		-1250.000000
1031		-1250.000000
1032		-1250.000000
1033		-1250.000000
1034		-1250.000000
1035		-1250.000000
1036		-1250.000000
1037		-1250.000000
1038		-1250.000000
1039		-1289.062500
1040		-1289.062500
1041		-1289.062500
1042		-1289.062500
1043		-1289.062500
1044		-1289.062500
1045		-1289.062500
1046		-1289.062500
1047		-1328.125000
1048		-1289.062500
1049		-1289.062500
1050		-1289.062500
1051		-1289.062500
1052		-1289.062500
1053		-1289.062500
1054		-1289.062500
1055		-1289.062500
1056		-1289.062500
1057		-1289.062500
1058		-1328.125000
1059		-1328.125000
1060		-1328.125000
1061		-1328.125000
1062		-1328.125000
1063		-1328.125000
1064		-1328.125000
1065		-1328.125000
1066		-1328.125000
1067		-1328.125000
1068		-1328.125000
1069		-1328.125000
1070		-1328.125000
1071		-1328.125000
1072		-1328.125000
1073		-1328.125000
1074		-1328.125000
1075		-1328.125000
1076		-1328.125000
1077		-1328.125000
1078		-1328.125000
1079		-1328.125000
1080		-1328.125000
1081		-1328.125000
1082		-1328.125000
1083		-1367.187500
1084		-1328.125000
1085		-1367.187500
1086		-1328.125000
1087		-1367.187500
1088		-1367.187500
1089		-1367.187500
1090		-1328.125000
1091		-1367.187500
1092		-1367.187500
1093		-1367.187500
1094		-1367.187500
1095		-1367.187500
1096		-1367.187500
1097		-1367.187500
1098		-1367.187500
1099		-1367.187500
1100		-1367.187500
1101		-1367.187500
1102		-1367.187500
1103		-1367.187500
1104		-1367.187500
1105		-1367.187500
1106		-1367.187500
1107		-1367.187500
1108		-1367.187500
1109		-1367.187500
1110		-1406.250000
1111		-1406.250000
1112		-1406.250000
1113		-1406.250000
1114		-1406.250000
1115		-1406.250000
1116		-1406.250000
1117		-1406.250000
1118		-1406.250000
