Vrije proef/m3-2.txt

Channel              :		CH1
Frequency            :		  ?
Period               :		  ?
PK-PK                :		1.328V
Probe attenuation    :		1X
Voltage per ADC value:		2.441406mV
Time interval        :		1000.00000us

index		CH1_Voltage(mV)
1		-1835.937500
2		-1835.937500
3		-1835.937500
4		-1835.937500
5		-1835.937500
6		-1835.937500
7		-1835.937500
8		-1835.937500
9		-1835.937500
10		-1835.937500
11		-1835.937500
12		-1835.937500
13		-1835.937500
14		-1835.937500
15		-1835.937500
16		-1835.937500
17		-1835.937500
18		-1835.937500
19		-1835.937500
20		-1796.875000
21		-1835.937500
22		-1835.937500
23		-1835.937500
24		-1835.937500
25		-1835.937500
26		-1835.937500
27		-1835.937500
28		-1835.937500
29		-1835.937500
30		-1796.875000
31		-1835.937500
32		-1875.000000
33		-1796.875000
34		-1796.875000
35		-1796.875000
36		-1796.875000
37		-1796.875000
38		-1796.875000
39		-1796.875000
40		-1796.875000
41		-1796.875000
42		-1796.875000
43		-1796.875000
44		-1796.875000
45		-1796.875000
46		-1796.875000
47		-1835.937500
48		-1796.875000
49		-1796.875000
50		-1796.875000
51		-1796.875000
52		-1796.875000
53		-1796.875000
54		-1796.875000
55		-1796.875000
56		-1796.875000
57		-1796.875000
58		-1796.875000
59		-1757.812500
60		-1796.875000
61		-1796.875000
62		-1796.875000
63		-1796.875000
64		-1796.875000
65		-1796.875000
66		-1796.875000
67		-1757.812500
68		-1796.875000
69		-1796.875000
70		-1796.875000
71		-1757.812500
72		-1757.812500
73		-1757.812500
74		-1757.812500
75		-1757.812500
76		-1757.812500
77		-1757.812500
78		-1757.812500
79		-1757.812500
80		-1757.812500
81		-1757.812500
82		-1757.812500
83		-1757.812500
84		-1757.812500
85		-1757.812500
86		-1757.812500
87		-1757.812500
88		-1757.812500
89		-1757.812500
90		-1757.812500
91		-1757.812500
92		-1757.812500
93		-1757.812500
94		-1757.812500
95		-1718.750000
96		-1718.750000
97		-1718.750000
98		-1718.750000
99		-1757.812500
100		-1718.750000
101		-1718.750000
102		-1718.750000
103		-1718.750000
104		-1718.750000
105		-1718.750000
106		-1718.750000
107		-1718.750000
108		-1718.750000
109		-1718.750000
110		-1718.750000
111		-1718.750000
112		-1718.750000
113		-1718.750000
114		-1718.750000
115		-1718.750000
116		-1718.750000
117		-1718.750000
118		-1718.750000
119		-1718.750000
120		-1718.750000
121		-1718.750000
122		-1718.750000
123		-1718.750000
124		-1679.687500
125		-1718.750000
126		-1718.750000
127		-1718.750000
128		-1718.750000
129		-1679.687500
130		-1679.687500
131		-1679.687500
132		-1679.687500
133		-1679.687500
134		-1679.687500
135		-1679.687500
136		-1679.687500
137		-1679.687500
138		-1679.687500
139		-1679.687500
140		-1679.687500
141		-1679.687500
142		-1679.687500
143		-1679.687500
144		-1679.687500
145		-1679.687500
146		-1679.687500
147		-1679.687500
148		-1679.687500
149		-1679.687500
150		-1679.687500
151		-1679.687500
152		-1679.687500
153		-1679.687500
154		-1679.687500
155		-1640.625000
156		-1640.625000
157		-1679.687500
158		-1640.625000
159		-1640.625000
160		-1640.625000
161		-1640.625000
162		-1640.625000
163		-1640.625000
164		-1640.625000
165		-1640.625000
166		-1640.625000
167		-1640.625000
168		-1640.625000
169		-1640.625000
170		-1640.625000
171		-1640.625000
172		-1640.625000
173		-1640.625000
174		-1640.625000
175		-1601.562500
176		-1601.562500
177		-1601.562500
178		-1601.562500
179		-1601.562500
180		-1601.562500
181		-1601.562500
182		-1601.562500
183		-1601.562500
184		-1601.562500
185		-1601.562500
186		-1601.562500
187		-1601.562500
188		-1601.562500
189		-1601.562500
190		-1601.562500
191		-1601.562500
192		-1601.562500
193		-1601.562500
194		-1601.562500
195		-1562.500000
196		-1562.500000
197		-1562.500000
198		-1562.500000
199		-1562.500000
200		-1562.500000
201		-1562.500000
202		-1562.500000
203		-1562.500000
204		-1562.500000
205		-1562.500000
206		-1562.500000
207		-1562.500000
208		-1562.500000
209		-1562.500000
210		-1562.500000
211		-1562.500000
212		-1562.500000
213		-1523.437500
214		-1523.437500
215		-1523.437500
216		-1523.437500
217		-1523.437500
218		-1523.437500
219		-1523.437500
220		-1523.437500
221		-1523.437500
222		-1523.437500
223		-1523.437500
224		-1523.437500
225		-1523.437500
226		-1523.437500
227		-1523.437500
228		-1523.437500
229		-1523.437500
230		-1523.437500
231		-1484.375000
232		-1523.437500
233		-1484.375000
234		-1484.375000
235		-1484.375000
236		-1484.375000
237		-1484.375000
238		-1484.375000
239		-1445.312500
240		-1484.375000
241		-1484.375000
242		-1484.375000
243		-1484.375000
244		-1484.375000
245		-1484.375000
246		-1484.375000
247		-1445.312500
248		-1445.312500
249		-1445.312500
250		-1445.312500
251		-1445.312500
252		-1445.312500
253		-1445.312500
254		-1445.312500
255		-1445.312500
256		-1445.312500
257		-1406.250000
258		-1406.250000
259		-1406.250000
260		-1406.250000
261		-1406.250000
262		-1406.250000
263		-1406.250000
264		-1406.250000
265		-1406.250000
266		-1406.250000
267		-1406.250000
268		-1406.250000
269		-1406.250000
270		-1406.250000
271		-1406.250000
272		-1406.250000
273		-1406.250000
274		-1367.187500
275		-1367.187500
276		-1367.187500
277		-1367.187500
278		-1367.187500
279		-1367.187500
280		-1367.187500
281		-1367.187500
282		-1367.187500
283		-1367.187500
284		-1367.187500
285		-1367.187500
286		-1367.187500
287		-1367.187500
288		-1367.187500
289		-1367.187500
290		-1328.125000
291		-1328.125000
292		-1328.125000
293		-1328.125000
294		-1328.125000
295		-1328.125000
296		-1328.125000
297		-1328.125000
298		-1328.125000
299		-1328.125000
300		-1328.125000
301		-1328.125000
302		-1328.125000
303		-1328.125000
304		-1328.125000
305		-1289.062500
306		-1289.062500
307		-1289.062500
308		-1289.062500
309		-1289.062500
310		-1289.062500
311		-1289.062500
312		-1289.062500
313		-1289.062500
314		-1289.062500
315		-1289.062500
316		-1250.000000
317		-1250.000000
318		-1250.000000
319		-1250.000000
320		-1250.000000
321		-1250.000000
322		-1250.000000
323		-1250.000000
324		-1250.000000
325		-1250.000000
326		-1250.000000
327		-1250.000000
328		-1250.000000
329		-1210.937500
330		-1210.937500
331		-1210.937500
332		-1210.937500
333		-1210.937500
334		-1210.937500
335		-1210.937500
336		-1210.937500
337		-1210.937500
338		-1210.937500
339		-1210.937500
340		-1210.937500
341		-1210.937500
342		-1171.875000
343		-1171.875000
344		-1171.875000
345		-1171.875000
346		-1171.875000
347		-1171.875000
348		-1171.875000
349		-1171.875000
350		-1171.875000
351		-1171.875000
352		-1171.875000
353		-1171.875000
354		-1171.875000
355		-1132.812500
356		-1132.812500
357		-1132.812500
358		-1132.812500
359		-1132.812500
360		-1132.812500
361		-1132.812500
362		-1132.812500
363		-1132.812500
364		-1132.812500
365		-1093.750000
366		-1132.812500
367		-1132.812500
368		-1132.812500
369		-1093.750000
370		-1093.750000
371		-1093.750000
372		-1093.750000
373		-1093.750000
374		-1093.750000
375		-1093.750000
376		-1093.750000
377		-1093.750000
378		-1093.750000
379		-1054.687500
380		-1054.687500
381		-1054.687500
382		-1054.687500
383		-1054.687500
384		-1054.687500
385		-1054.687500
386		-1054.687500
387		-1054.687500
388		-1054.687500
389		-1054.687500
390		-1054.687500
391		-1054.687500
392		-1054.687500
393		-1054.687500
394		-1054.687500
395		-1015.625000
396		-1015.625000
397		-1015.625000
398		-1015.625000
399		-1015.625000
400		-1015.625000
401		-1015.625000
402		-1015.625000
403		-1015.625000
404		-1015.625000
405		-1015.625000
406		-1015.625000
407		-1015.625000
408		-1015.625000
409		-1015.625000
410		-1015.625000
411		-976.562500
412		-976.562500
413		-976.562500
414		-976.562500
415		-976.562500
416		-976.562500
417		-976.562500
418		-976.562500
419		-976.562500
420		-937.500000
421		-937.500000
422		-937.500000
423		-937.500000
424		-937.500000
425		-937.500000
426		-937.500000
427		-937.500000
428		-937.500000
429		-937.500000
430		-937.500000
431		-937.500000
432		-937.500000
433		-937.500000
434		-937.500000
435		-898.437500
436		-937.500000
437		-898.437500
438		-898.437500
439		-898.437500
440		-898.437500
441		-898.437500
442		-937.500000
443		-898.437500
444		-898.437500
445		-898.437500
446		-898.437500
447		-898.437500
448		-898.437500
449		-898.437500
450		-859.375000
451		-859.375000
452		-859.375000
453		-859.375000
454		-859.375000
455		-859.375000
456		-859.375000
457		-859.375000
458		-859.375000
459		-859.375000
460		-859.375000
461		-859.375000
462		-859.375000
463		-859.375000
464		-859.375000
465		-859.375000
466		-859.375000
467		-859.375000
468		-820.312500
469		-820.312500
470		-820.312500
471		-820.312500
472		-820.312500
473		-820.312500
474		-820.312500
475		-820.312500
476		-820.312500
477		-820.312500
478		-820.312500
479		-820.312500
480		-820.312500
481		-820.312500
482		-820.312500
483		-781.250000
484		-781.250000
485		-781.250000
486		-781.250000
487		-781.250000
488		-781.250000
489		-781.250000
490		-781.250000
491		-781.250000
492		-781.250000
493		-781.250000
494		-781.250000
495		-781.250000
496		-781.250000
497		-781.250000
498		-742.187500
499		-742.187500
500		-742.187500
501		-742.187500
502		-742.187500
503		-742.187500
504		-742.187500
505		-742.187500
506		-742.187500
507		-742.187500
508		-742.187500
509		-742.187500
510		-742.187500
511		-742.187500
512		-742.187500
513		-742.187500
514		-742.187500
515		-742.187500
516		-703.125000
517		-703.125000
518		-703.125000
519		-703.125000
520		-703.125000
521		-703.125000
522		-703.125000
523		-703.125000
524		-703.125000
525		-703.125000
526		-703.125000
527		-703.125000
528		-703.125000
529		-703.125000
530		-703.125000
531		-703.125000
532		-703.125000
533		-703.125000
534		-703.125000
535		-703.125000
536		-703.125000
537		-664.062500
538		-664.062500
539		-664.062500
540		-664.062500
541		-664.062500
542		-664.062500
543		-664.062500
544		-664.062500
545		-664.062500
546		-664.062500
547		-664.062500
548		-664.062500
549		-664.062500
550		-664.062500
551		-664.062500
552		-664.062500
553		-664.062500
554		-664.062500
555		-664.062500
556		-664.062500
557		-664.062500
558		-625.000000
559		-664.062500
560		-664.062500
561		-625.000000
562		-664.062500
563		-625.000000
564		-664.062500
565		-664.062500
566		-664.062500
567		-664.062500
568		-664.062500
569		-664.062500
570		-664.062500
571		-625.000000
572		-625.000000
573		-625.000000
574		-625.000000
575		-625.000000
576		-625.000000
577		-625.000000
578		-625.000000
579		-625.000000
580		-625.000000
581		-625.000000
582		-625.000000
583		-625.000000
584		-625.000000
585		-625.000000
586		-625.000000
587		-625.000000
588		-625.000000
589		-625.000000
590		-625.000000
591		-625.000000
592		-625.000000
593		-625.000000
594		-625.000000
595		-625.000000
596		-625.000000
597		-625.000000
598		-585.937500
599		-625.000000
600		-625.000000
601		-625.000000
602		-625.000000
603		-625.000000
604		-625.000000
605		-625.000000
606		-625.000000
607		-625.000000
608		-585.937500
609		-625.000000
610		-625.000000
611		-625.000000
612		-625.000000
613		-625.000000
614		-625.000000
615		-585.937500
616		-585.937500
617		-625.000000
618		-585.937500
619		-585.937500
620		-585.937500
621		-625.000000
622		-625.000000
623		-625.000000
624		-625.000000
625		-625.000000
626		-625.000000
627		-625.000000
628		-625.000000
629		-625.000000
630		-625.000000
631		-585.937500
632		-585.937500
633		-585.937500
634		-585.937500
635		-585.937500
636		-585.937500
637		-585.937500
638		-585.937500
639		-585.937500
640		-585.937500
641		-585.937500
642		-585.937500
643		-625.000000
644		-625.000000
645		-625.000000
646		-625.000000
647		-625.000000
648		-625.000000
649		-625.000000
650		-625.000000
651		-625.000000
652		-585.937500
653		-585.937500
654		-585.937500
655		-585.937500
656		-585.937500
657		-625.000000
658		-585.937500
659		-625.000000
660		-625.000000
661		-625.000000
662		-625.000000
663		-625.000000
664		-625.000000
665		-625.000000
666		-625.000000
667		-625.000000
668		-625.000000
669		-625.000000
670		-625.000000
671		-625.000000
672		-625.000000
673		-625.000000
674		-625.000000
675		-625.000000
676		-625.000000
677		-625.000000
678		-625.000000
679		-625.000000
680		-625.000000
681		-625.000000
682		-625.000000
683		-625.000000
684		-625.000000
685		-625.000000
686		-625.000000
687		-625.000000
688		-625.000000
689		-625.000000
690		-625.000000
691		-625.000000
692		-625.000000
693		-625.000000
694		-625.000000
695		-625.000000
696		-625.000000
697		-625.000000
698		-625.000000
699		-625.000000
700		-625.000000
701		-625.000000
702		-625.000000
703		-625.000000
704		-625.000000
705		-664.062500
706		-625.000000
707		-664.062500
708		-664.062500
709		-664.062500
710		-664.062500
711		-664.062500
712		-664.062500
713		-664.062500
714		-664.062500
715		-664.062500
716		-664.062500
717		-664.062500
718		-664.062500
719		-664.062500
720		-664.062500
721		-664.062500
722		-664.062500
723		-664.062500
724		-664.062500
725		-664.062500
726		-664.062500
727		-664.062500
728		-664.062500
729		-703.125000
730		-703.125000
731		-703.125000
732		-703.125000
733		-703.125000
734		-703.125000
735		-703.125000
736		-703.125000
737		-703.125000
738		-703.125000
739		-703.125000
740		-703.125000
741		-703.125000
742		-703.125000
743		-703.125000
744		-703.125000
745		-703.125000
746		-703.125000
747		-703.125000
748		-703.125000
749		-703.125000
750		-703.125000
751		-742.187500
752		-703.125000
753		-703.125000
754		-703.125000
755		-703.125000
756		-703.125000
757		-742.187500
758		-703.125000
759		-703.125000
760		-742.187500
761		-742.187500
762		-742.187500
763		-742.187500
764		-742.187500
765		-742.187500
766		-742.187500
767		-742.187500
768		-742.187500
769		-742.187500
770		-742.187500
771		-742.187500
772		-742.187500
773		-742.187500
774		-742.187500
775		-742.187500
776		-742.187500
777		-781.250000
778		-781.250000
779		-781.250000
780		-781.250000
781		-781.250000
782		-781.250000
783		-781.250000
784		-781.250000
785		-781.250000
786		-781.250000
787		-781.250000
788		-781.250000
789		-781.250000
790		-820.312500
791		-781.250000
792		-781.250000
793		-820.312500
794		-781.250000
795		-781.250000
796		-781.250000
797		-820.312500
798		-820.312500
799		-820.312500
800		-820.312500
801		-820.312500
802		-820.312500
803		-820.312500
804		-820.312500
805		-820.312500
806		-820.312500
807		-820.312500
808		-859.375000
809		-859.375000
810		-859.375000
811		-859.375000
812		-859.375000
813		-859.375000
814		-859.375000
815		-859.375000
816		-859.375000
817		-859.375000
818		-859.375000
819		-859.375000
820		-859.375000
821		-859.375000
822		-859.375000
823		-898.437500
824		-898.437500
825		-898.437500
826		-898.437500
827		-898.437500
828		-898.437500
829		-898.437500
830		-898.437500
831		-898.437500
832		-898.437500
833		-898.437500
834		-898.437500
835		-898.437500
836		-898.437500
837		-898.437500
838		-898.437500
839		-898.437500
840		-937.500000
841		-937.500000
842		-937.500000
843		-937.500000
844		-937.500000
845		-937.500000
846		-937.500000
847		-937.500000
848		-937.500000
849		-937.500000
850		-937.500000
851		-937.500000
852		-937.500000
853		-937.500000
854		-976.562500
855		-976.562500
856		-976.562500
857		-976.562500
858		-976.562500
859		-976.562500
860		-976.562500
861		-976.562500
862		-976.562500
863		-976.562500
864		-976.562500
865		-976.562500
866		-976.562500
867		-976.562500
868		-976.562500
869		-1015.625000
870		-1015.625000
871		-1015.625000
872		-1015.625000
873		-1015.625000
874		-1015.625000
875		-1015.625000
876		-1015.625000
877		-1015.625000
878		-1015.625000
879		-1015.625000
880		-1015.625000
881		-1015.625000
882		-1054.687500
883		-1054.687500
884		-1054.687500
885		-1054.687500
886		-1054.687500
887		-1054.687500
888		-1054.687500
889		-1054.687500
890		-1054.687500
891		-1054.687500
892		-1054.687500
893		-1054.687500
894		-1054.687500
895		-1054.687500
896		-1054.687500
897		-1054.687500
898		-1093.750000
899		-1093.750000
900		-1093.750000
901		-1093.750000
902		-1093.750000
903		-1093.750000
904		-1093.750000
905		-1093.750000
906		-1093.750000
907		-1093.750000
908		-1093.750000
909		-1093.750000
910		-1093.750000
911		-1132.812500
912		-1132.812500
913		-1132.812500
914		-1132.812500
915		-1132.812500
916		-1132.812500
917		-1132.812500
918		-1132.812500
919		-1132.812500
920		-1132.812500
921		-1132.812500
922		-1132.812500
923		-1132.812500
924		-1132.812500
925		-1132.812500
926		-1171.875000
927		-1171.875000
928		-1171.875000
929		-1171.875000
930		-1171.875000
931		-1171.875000
932		-1171.875000
933		-1171.875000
934		-1171.875000
935		-1171.875000
936		-1171.875000
937		-1171.875000
938		-1171.875000
939		-1171.875000
940		-1210.937500
941		-1210.937500
942		-1210.937500
943		-1210.937500
944		-1210.937500
945		-1210.937500
946		-1210.937500
947		-1210.937500
948		-1210.937500
949		-1210.937500
950		-1250.000000
951		-1210.937500
952		-1250.000000
953		-1250.000000
954		-1210.937500
955		-1250.000000
956		-1250.000000
957		-1250.000000
958		-1250.000000
959		-1250.000000
960		-1250.000000
961		-1250.000000
962		-1250.000000
963		-1250.000000
964		-1250.000000
965		-1250.000000
966		-1289.062500
967		-1289.062500
968		-1289.062500
969		-1289.062500
970		-1289.062500
971		-1289.062500
972		-1289.062500
973		-1289.062500
974		-1289.062500
975		-1289.062500
976		-1289.062500
977		-1289.062500
978		-1289.062500
979		-1289.062500
980		-1289.062500
981		-1289.062500
982		-1289.062500
983		-1328.125000
984		-1328.125000
985		-1328.125000
986		-1328.125000
987		-1328.125000
988		-1328.125000
989		-1328.125000
990		-1328.125000
991		-1328.125000
992		-1328.125000
993		-1328.125000
994		-1328.125000
995		-1328.125000
996		-1328.125000
997		-1328.125000
998		-1328.125000
999		-1328.125000
1000		-1367.187500
1001		-1367.187500
1002		-1367.187500
1003		-1367.187500
1004		-1367.187500
1005		-1367.187500
1006		-1367.187500
1007		-1367.187500
1008		-1367.187500
1009		-1367.187500
1010		-1367.187500
1011		-1367.187500
1012		-1367.187500
1013		-1367.187500
1014		-1367.187500
1015		-1367.187500
1016		-1406.250000
1017		-1367.187500
1018		-1406.250000
1019		-1406.250000
1020		-1406.250000
1021		-1406.250000
1022		-1367.187500
1023		-1406.250000
1024		-1406.250000
1025		-1406.250000
1026		-1406.250000
1027		-1445.312500
1028		-1406.250000
1029		-1406.250000
1030		-1406.250000
1031		-1406.250000
1032		-1406.250000
1033		-1445.312500
1034		-1445.312500
1035		-1445.312500
1036		-1445.312500
1037		-1445.312500
1038		-1445.312500
1039		-1445.312500
1040		-1445.312500
1041		-1445.312500
1042		-1445.312500
1043		-1445.312500
1044		-1445.312500
1045		-1445.312500
1046		-1484.375000
1047		-1445.312500
1048		-1484.375000
1049		-1445.312500
1050		-1484.375000
1051		-1445.312500
1052		-1484.375000
1053		-1445.312500
1054		-1484.375000
1055		-1484.375000
1056		-1484.375000
1057		-1484.375000
1058		-1484.375000
1059		-1484.375000
1060		-1484.375000
1061		-1484.375000
1062		-1484.375000
1063		-1484.375000
1064		-1523.437500
1065		-1484.375000
1066		-1484.375000
1067		-1523.437500
1068		-1523.437500
1069		-1523.437500
1070		-1523.437500
1071		-1523.437500
1072		-1523.437500
1073		-1523.437500
1074		-1523.437500
1075		-1523.437500
1076		-1523.437500
1077		-1523.437500
1078		-1523.437500
1079		-1523.437500
1080		-1523.437500
1081		-1523.437500
1082		-1562.500000
1083		-1523.437500
1084		-1523.437500
1085		-1523.437500
1086		-1523.437500
1087		-1562.500000
1088		-1562.500000
1089		-1562.500000
1090		-1562.500000
1091		-1562.500000
1092		-1562.500000
1093		-1562.500000
1094		-1562.500000
1095		-1562.500000
1096		-1562.500000
1097		-1562.500000
1098		-1562.500000
1099		-1562.500000
1100		-1562.500000
1101		-1562.500000
1102		-1562.500000
1103		-1562.500000
1104		-1562.500000
1105		-1562.500000
1106		-1562.500000
1107		-1562.500000
1108		-1562.500000
1109		-1562.500000
1110		-1601.562500
1111		-1601.562500
1112		-1601.562500
1113		-1601.562500
1114		-1601.562500
1115		-1601.562500
1116		-1601.562500
1117		-1601.562500
1118		-1601.562500
1119		-1601.562500
1120		-1601.562500
1121		-1601.562500
1122		-1601.562500
