Vrije proef/m3-3.txt

Channel              :		CH1
Frequency            :		  ?
Period               :		  ?
PK-PK                :		820.3mV
Probe attenuation    :		1X
Voltage per ADC value:		2.441406mV
Time interval        :		1000.00000us

index		CH1_Voltage(mV)
1		-859.375000
2		-859.375000
3		-859.375000
4		-859.375000
5		-859.375000
6		-859.375000
7		-859.375000
8		-859.375000
9		-859.375000
10		-859.375000
11		-859.375000
12		-859.375000
13		-859.375000
14		-859.375000
15		-859.375000
16		-859.375000
17		-898.437500
18		-859.375000
19		-898.437500
20		-898.437500
21		-898.437500
22		-898.437500
23		-898.437500
24		-898.437500
25		-898.437500
26		-898.437500
27		-898.437500
28		-898.437500
29		-898.437500
30		-898.437500
31		-898.437500
32		-898.437500
33		-898.437500
34		-898.437500
35		-898.437500
36		-898.437500
37		-898.437500
38		-898.437500
39		-898.437500
40		-898.437500
41		-898.437500
42		-898.437500
43		-898.437500
44		-898.437500
45		-898.437500
46		-898.437500
47		-898.437500
48		-898.437500
49		-898.437500
50		-898.437500
51		-898.437500
52		-898.437500
53		-898.437500
54		-898.437500
55		-898.437500
56		-898.437500
57		-898.437500
58		-898.437500
59		-898.437500
60		-937.500000
61		-898.437500
62		-898.437500
63		-937.500000
64		-937.500000
65		-937.500000
66		-937.500000
67		-937.500000
68		-937.500000
69		-937.500000
70		-937.500000
71		-937.500000
72		-937.500000
73		-937.500000
74		-937.500000
75		-937.500000
76		-937.500000
77		-937.500000
78		-937.500000
79		-937.500000
80		-937.500000
81		-937.500000
82		-937.500000
83		-937.500000
84		-937.500000
85		-937.500000
86		-937.500000
87		-937.500000
88		-976.562500
89		-976.562500
90		-937.500000
91		-976.562500
92		-976.562500
93		-976.562500
94		-976.562500
95		-976.562500
96		-976.562500
97		-976.562500
98		-937.500000
99		-937.500000
100		-976.562500
101		-976.562500
102		-976.562500
103		-976.562500
104		-976.562500
105		-976.562500
106		-976.562500
107		-976.562500
108		-976.562500
109		-976.562500
110		-976.562500
111		-976.562500
112		-976.562500
113		-976.562500
114		-976.562500
115		-976.562500
116		-976.562500
117		-976.562500
118		-1015.625000
119		-976.562500
120		-976.562500
121		-976.562500
122		-976.562500
123		-1015.625000
124		-1015.625000
125		-1015.625000
126		-1015.625000
127		-1015.625000
128		-1015.625000
129		-1015.625000
130		-1015.625000
131		-1015.625000
132		-1015.625000
133		-1015.625000
134		-1015.625000
135		-1015.625000
136		-1015.625000
137		-1015.625000
138		-1015.625000
139		-1015.625000
140		-1015.625000
141		-1015.625000
142		-1015.625000
143		-1015.625000
144		-1015.625000
145		-1054.687500
146		-1015.625000
147		-1054.687500
148		-1054.687500
149		-1054.687500
150		-1054.687500
151		-1054.687500
152		-1015.625000
153		-1054.687500
154		-1054.687500
155		-1054.687500
156		-1054.687500
157		-1054.687500
158		-1054.687500
159		-1054.687500
160		-1054.687500
161		-1054.687500
162		-1054.687500
163		-1054.687500
164		-1054.687500
165		-1054.687500
166		-1054.687500
167		-1093.750000
168		-1054.687500
169		-1054.687500
170		-1054.687500
171		-1054.687500
172		-1054.687500
173		-1054.687500
174		-1054.687500
175		-1054.687500
176		-1054.687500
177		-1093.750000
178		-1054.687500
179		-1093.750000
180		-1093.750000
181		-1093.750000
182		-1093.750000
183		-1093.750000
184		-1093.750000
185		-1093.750000
186		-1093.750000
187		-1093.750000
188		-1093.750000
189		-1093.750000
190		-1093.750000
191		-1093.750000
192		-1093.750000
193		-1093.750000
194		-1093.750000
195		-1093.750000
196		-1093.750000
197		-1093.750000
198		-1093.750000
199		-1093.750000
200		-1093.750000
201		-1132.812500
202		-1132.812500
203		-1132.812500
204		-1132.812500
205		-1093.750000
206		-1132.812500
207		-1132.812500
208		-1132.812500
209		-1132.812500
210		-1132.812500
211		-1132.812500
212		-1132.812500
213		-1132.812500
214		-1132.812500
215		-1132.812500
216		-1132.812500
217		-1132.812500
218		-1132.812500
219		-1132.812500
220		-1132.812500
221		-1132.812500
222		-1132.812500
223		-1132.812500
224		-1132.812500
225		-1132.812500
226		-1132.812500
227		-1132.812500
228		-1132.812500
229		-1132.812500
230		-1171.875000
231		-1171.875000
232		-1171.875000
233		-1171.875000
234		-1171.875000
235		-1171.875000
236		-1171.875000
237		-1171.875000
238		-1171.875000
239		-1171.875000
240		-1171.875000
241		-1171.875000
242		-1171.875000
243		-1171.875000
244		-1171.875000
245		-1171.875000
246		-1171.875000
247		-1171.875000
248		-1171.875000
249		-1171.875000
250		-1171.875000
251		-1171.875000
252		-1171.875000
253		-1171.875000
254		-1171.875000
255		-1171.875000
256		-1210.937500
257		-1171.875000
258		-1171.875000
259		-1171.875000
260		-1210.937500
261		-1210.937500
262		-1171.875000
263		-1210.937500
264		-1210.937500
265		-1210.937500
266		-1210.937500
267		-1210.937500
268		-1210.937500
269		-1210.937500
270		-1210.937500
271		-1210.937500
272		-1210.937500
273		-1210.937500
274		-1210.937500
275		-1210.937500
276		-1210.937500
277		-1210.937500
278		-1210.937500
279		-1250.000000
280		-1210.937500
281		-1210.937500
282		-1210.937500
283		-1250.000000
284		-1250.000000
285		-1250.000000
286		-1250.000000
287		-1250.000000
288		-1250.000000
289		-1250.000000
290		-1250.000000
291		-1250.000000
292		-1250.000000
293		-1250.000000
294		-1250.000000
295		-1250.000000
296		-1250.000000
297		-1250.000000
298		-1250.000000
299		-1250.000000
300		-1250.000000
301		-1250.000000
302		-1250.000000
303		-1250.000000
304		-1250.000000
305		-1250.000000
306		-1289.062500
307		-1289.062500
308		-1289.062500
309		-1289.062500
310		-1289.062500
311		-1289.062500
312		-1289.062500
313		-1289.062500
314		-1289.062500
315		-1289.062500
316		-1289.062500
317		-1289.062500
318		-1289.062500
319		-1289.062500
320		-1289.062500
321		-1289.062500
322		-1289.062500
323		-1289.062500
324		-1289.062500
325		-1289.062500
326		-1289.062500
327		-1289.062500
328		-1289.062500
329		-1289.062500
330		-1289.062500
331		-1289.062500
332		-1289.062500
333		-1289.062500
334		-1289.062500
335		-1289.062500
336		-1289.062500
337		-1289.062500
338		-1289.062500
339		-1328.125000
340		-1289.062500
341		-1289.062500
342		-1289.062500
343		-1328.125000
344		-1328.125000
345		-1328.125000
346		-1328.125000
347		-1328.125000
348		-1328.125000
349		-1328.125000
350		-1328.125000
351		-1328.125000
352		-1328.125000
353		-1328.125000
354		-1328.125000
355		-1328.125000
356		-1328.125000
357		-1328.125000
358		-1328.125000
359		-1328.125000
360		-1328.125000
361		-1328.125000
362		-1328.125000
363		-1328.125000
364		-1328.125000
365		-1328.125000
366		-1328.125000
367		-1367.187500
368		-1328.125000
369		-1328.125000
370		-1328.125000
371		-1328.125000
372		-1328.125000
373		-1367.187500
374		-1367.187500
375		-1328.125000
376		-1367.187500
377		-1367.187500
378		-1367.187500
379		-1367.187500
380		-1367.187500
381		-1367.187500
382		-1367.187500
383		-1367.187500
384		-1367.187500
385		-1367.187500
386		-1367.187500
387		-1367.187500
388		-1367.187500
389		-1367.187500
390		-1367.187500
391		-1367.187500
392		-1367.187500
393		-1367.187500
394		-1367.187500
395		-1367.187500
396		-1367.187500
397		-1367.187500
398		-1367.187500
399		-1367.187500
400		-1367.187500
401		-1367.187500
402		-1367.187500
403		-1367.187500
404		-1367.187500
405		-1367.187500
406		-1367.187500
407		-1406.250000
408		-1367.187500
409		-1367.187500
410		-1406.250000
411		-1406.250000
412		-1406.250000
413		-1406.250000
414		-1406.250000
415		-1406.250000
416		-1406.250000
417		-1406.250000
418		-1406.250000
419		-1406.250000
420		-1406.250000
421		-1406.250000
422		-1406.250000
423		-1406.250000
424		-1406.250000
425		-1406.250000
426		-1406.250000
427		-1406.250000
428		-1406.250000
429		-1406.250000
430		-1406.250000
431		-1406.250000
432		-1406.250000
433		-1406.250000
434		-1406.250000
435		-1406.250000
436		-1406.250000
437		-1406.250000
438		-1406.250000
439		-1406.250000
440		-1406.250000
441		-1406.250000
442		-1406.250000
443		-1406.250000
444		-1406.250000
445		-1406.250000
446		-1445.312500
447		-1406.250000
448		-1406.250000
449		-1445.312500
450		-1445.312500
451		-1445.312500
452		-1445.312500
453		-1445.312500
454		-1445.312500
455		-1445.312500
456		-1406.250000
457		-1445.312500
458		-1406.250000
459		-1406.250000
460		-1445.312500
461		-1445.312500
462		-1445.312500
463		-1445.312500
464		-1445.312500
465		-1445.312500
466		-1445.312500
467		-1445.312500
468		-1445.312500
469		-1445.312500
470		-1445.312500
471		-1445.312500
472		-1445.312500
473		-1445.312500
474		-1445.312500
475		-1445.312500
476		-1445.312500
477		-1445.312500
478		-1445.312500
479		-1445.312500
480		-1445.312500
481		-1445.312500
482		-1445.312500
483		-1445.312500
484		-1445.312500
485		-1445.312500
486		-1484.375000
487		-1484.375000
488		-1484.375000
489		-1484.375000
490		-1484.375000
491		-1445.312500
492		-1445.312500
493		-1445.312500
494		-1445.312500
495		-1445.312500
496		-1445.312500
497		-1445.312500
498		-1445.312500
499		-1445.312500
500		-1445.312500
501		-1445.312500
502		-1484.375000
503		-1484.375000
504		-1484.375000
505		-1484.375000
506		-1484.375000
507		-1484.375000
508		-1484.375000
509		-1484.375000
510		-1484.375000
511		-1484.375000
512		-1484.375000
513		-1484.375000
514		-1484.375000
515		-1484.375000
516		-1484.375000
517		-1484.375000
518		-1484.375000
519		-1484.375000
520		-1484.375000
521		-1484.375000
522		-1484.375000
523		-1484.375000
524		-1484.375000
525		-1484.375000
526		-1484.375000
527		-1484.375000
528		-1484.375000
529		-1484.375000
530		-1484.375000
531		-1484.375000
532		-1484.375000
533		-1484.375000
534		-1484.375000
535		-1484.375000
536		-1484.375000
537		-1484.375000
538		-1484.375000
539		-1484.375000
540		-1484.375000
541		-1484.375000
542		-1484.375000
543		-1484.375000
544		-1484.375000
545		-1484.375000
546		-1484.375000
547		-1484.375000
548		-1484.375000
549		-1523.437500
550		-1484.375000
551		-1484.375000
552		-1484.375000
553		-1484.375000
554		-1484.375000
555		-1484.375000
556		-1484.375000
557		-1484.375000
558		-1523.437500
559		-1484.375000
560		-1484.375000
561		-1523.437500
562		-1523.437500
563		-1523.437500
564		-1523.437500
565		-1523.437500
566		-1484.375000
567		-1523.437500
568		-1484.375000
569		-1523.437500
570		-1523.437500
571		-1484.375000
572		-1484.375000
573		-1523.437500
574		-1523.437500
575		-1523.437500
576		-1523.437500
577		-1523.437500
578		-1523.437500
579		-1523.437500
580		-1523.437500
581		-1484.375000
582		-1523.437500
583		-1523.437500
584		-1523.437500
585		-1523.437500
586		-1523.437500
587		-1523.437500
588		-1523.437500
589		-1523.437500
590		-1523.437500
591		-1523.437500
592		-1523.437500
593		-1523.437500
594		-1523.437500
595		-1523.437500
596		-1523.437500
597		-1523.437500
598		-1523.437500
599		-1523.437500
600		-1523.437500
601		-1523.437500
602		-1523.437500
603		-1523.437500
604		-1523.437500
605		-1523.437500
606		-1523.437500
607		-1523.437500
608		-1523.437500
609		-1523.437500
610		-1523.437500
611		-1523.437500
612		-1523.437500
613		-1523.437500
614		-1523.437500
615		-1523.437500
616		-1523.437500
617		-1523.437500
618		-1523.437500
619		-1523.437500
620		-1523.437500
621		-1523.437500
622		-1523.437500
623		-1523.437500
624		-1523.437500
625		-1523.437500
626		-1562.500000
627		-1523.437500
628		-1523.437500
629		-1523.437500
630		-1523.437500
631		-1523.437500
632		-1523.437500
633		-1523.437500
634		-1523.437500
635		-1523.437500
636		-1523.437500
637		-1523.437500
638		-1523.437500
639		-1523.437500
640		-1523.437500
641		-1523.437500
642		-1562.500000
643		-1523.437500
644		-1523.437500
645		-1523.437500
646		-1523.437500
647		-1562.500000
648		-1523.437500
649		-1523.437500
650		-1523.437500
651		-1562.500000
652		-1523.437500
653		-1523.437500
654		-1523.437500
655		-1523.437500
656		-1523.437500
657		-1523.437500
658		-1523.437500
659		-1523.437500
660		-1523.437500
661		-1523.437500
662		-1523.437500
663		-1562.500000
664		-1523.437500
665		-1562.500000
666		-1562.500000
667		-1523.437500
668		-1562.500000
669		-1562.500000
670		-1562.500000
671		-1562.500000
672		-1523.437500
673		-1523.437500
674		-1523.437500
675		-1523.437500
676		-1523.437500
677		-1523.437500
678		-1523.437500
679		-1523.437500
680		-1523.437500
681		-1523.437500
682		-1523.437500
683		-1562.500000
684		-1562.500000
685		-1562.500000
686		-1562.500000
687		-1562.500000
688		-1562.500000
689		-1562.500000
690		-1562.500000
691		-1562.500000
692		-1523.437500
693		-1523.437500
694		-1523.437500
695		-1523.437500
696		-1523.437500
697		-1523.437500
698		-1523.437500
699		-1523.437500
700		-1562.500000
701		-1562.500000
702		-1523.437500
703		-1562.500000
704		-1562.500000
705		-1562.500000
706		-1562.500000
707		-1562.500000
708		-1562.500000
709		-1562.500000
710		-1562.500000
711		-1562.500000
712		-1562.500000
713		-1562.500000
714		-1523.437500
715		-1523.437500
716		-1523.437500
717		-1523.437500
718		-1562.500000
719		-1562.500000
720		-1562.500000
721		-1562.500000
722		-1562.500000
723		-1562.500000
724		-1562.500000
725		-1562.500000
726		-1562.500000
727		-1562.500000
728		-1562.500000
729		-1562.500000
730		-1562.500000
731		-1562.500000
732		-1523.437500
733		-1523.437500
734		-1523.437500
735		-1523.437500
736		-1562.500000
737		-1562.500000
738		-1523.437500
739		-1562.500000
740		-1562.500000
741		-1562.500000
742		-1562.500000
743		-1562.500000
744		-1562.500000
745		-1562.500000
746		-1562.500000
747		-1562.500000
748		-1562.500000
749		-1562.500000
750		-1523.437500
751		-1562.500000
752		-1562.500000
753		-1562.500000
754		-1562.500000
755		-1562.500000
756		-1562.500000
757		-1562.500000
758		-1562.500000
759		-1562.500000
760		-1562.500000
761		-1562.500000
762		-1562.500000
763		-1562.500000
764		-1562.500000
765		-1562.500000
766		-1562.500000
767		-1562.500000
768		-1562.500000
769		-1562.500000
770		-1523.437500
771		-1523.437500
772		-1562.500000
773		-1562.500000
774		-1562.500000
775		-1523.437500
776		-1523.437500
777		-1523.437500
778		-1562.500000
779		-1523.437500
780		-1523.437500
781		-1523.437500
782		-1523.437500
783		-1562.500000
784		-1562.500000
785		-1523.437500
786		-1523.437500
787		-1523.437500
788		-1562.500000
789		-1523.437500
790		-1562.500000
791		-1523.437500
792		-1523.437500
793		-1523.437500
794		-1562.500000
795		-1562.500000
796		-1562.500000
797		-1523.437500
798		-1523.437500
799		-1523.437500
800		-1523.437500
801		-1523.437500
802		-1562.500000
803		-1523.437500
804		-1523.437500
805		-1523.437500
806		-1523.437500
807		-1523.437500
808		-1523.437500
809		-1523.437500
810		-1523.437500
811		-1523.437500
812		-1523.437500
813		-1523.437500
814		-1523.437500
815		-1523.437500
816		-1523.437500
817		-1523.437500
818		-1523.437500
819		-1523.437500
820		-1523.437500
821		-1523.437500
822		-1523.437500
823		-1523.437500
824		-1523.437500
825		-1523.437500
826		-1523.437500
827		-1523.437500
828		-1523.437500
829		-1523.437500
830		-1523.437500
831		-1523.437500
832		-1523.437500
833		-1523.437500
834		-1523.437500
835		-1523.437500
836		-1523.437500
837		-1523.437500
838		-1562.500000
839		-1523.437500
840		-1523.437500
841		-1523.437500
842		-1523.437500
843		-1523.437500
844		-1523.437500
845		-1523.437500
846		-1523.437500
847		-1523.437500
848		-1523.437500
849		-1523.437500
850		-1523.437500
851		-1523.437500
852		-1523.437500
853		-1523.437500
854		-1523.437500
855		-1523.437500
856		-1523.437500
857		-1523.437500
858		-1523.437500
859		-1523.437500
860		-1523.437500
861		-1523.437500
862		-1523.437500
863		-1523.437500
864		-1523.437500
865		-1523.437500
866		-1523.437500
867		-1523.437500
868		-1523.437500
869		-1523.437500
870		-1523.437500
871		-1523.437500
872		-1523.437500
873		-1523.437500
874		-1523.437500
875		-1523.437500
876		-1523.437500
877		-1523.437500
878		-1523.437500
879		-1523.437500
880		-1523.437500
881		-1523.437500
882		-1523.437500
883		-1523.437500
884		-1523.437500
885		-1523.437500
886		-1523.437500
887		-1523.437500
888		-1523.437500
889		-1523.437500
890		-1523.437500
891		-1523.437500
892		-1523.437500
893		-1523.437500
894		-1523.437500
895		-1484.375000
896		-1484.375000
897		-1523.437500
898		-1484.375000
899		-1484.375000
900		-1523.437500
901		-1523.437500
902		-1523.437500
903		-1523.437500
904		-1523.437500
905		-1523.437500
906		-1523.437500
907		-1523.437500
908		-1523.437500
909		-1523.437500
910		-1484.375000
911		-1484.375000
912		-1484.375000
913		-1484.375000
914		-1484.375000
915		-1484.375000
916		-1484.375000
917		-1484.375000
918		-1484.375000
919		-1484.375000
920		-1484.375000
921		-1484.375000
922		-1484.375000
923		-1484.375000
924		-1484.375000
925		-1484.375000
926		-1484.375000
927		-1523.437500
928		-1484.375000
929		-1484.375000
930		-1484.375000
931		-1484.375000
932		-1484.375000
933		-1484.375000
934		-1484.375000
935		-1484.375000
936		-1484.375000
937		-1484.375000
938		-1484.375000
939		-1484.375000
940		-1484.375000
941		-1484.375000
942		-1484.375000
943		-1484.375000
944		-1484.375000
945		-1484.375000
946		-1484.375000
947		-1484.375000
948		-1484.375000
949		-1484.375000
950		-1484.375000
951		-1484.375000
952		-1484.375000
953		-1484.375000
954		-1484.375000
955		-1484.375000
956		-1484.375000
957		-1484.375000
958		-1484.375000
959		-1484.375000
960		-1484.375000
961		-1484.375000
962		-1484.375000
963		-1484.375000
964		-1445.312500
965		-1484.375000
966		-1484.375000
967		-1484.375000
968		-1484.375000
969		-1445.312500
970		-1445.312500
971		-1445.312500
972		-1445.312500
973		-1484.375000
974		-1445.312500
975		-1445.312500
976		-1445.312500
977		-1445.312500
978		-1445.312500
979		-1445.312500
980		-1445.312500
981		-1445.312500
982		-1445.312500
983		-1445.312500
984		-1445.312500
985		-1445.312500
986		-1445.312500
987		-1445.312500
988		-1445.312500
989		-1445.312500
990		-1445.312500
991		-1445.312500
992		-1445.312500
993		-1445.312500
994		-1445.312500
995		-1445.312500
996		-1445.312500
997		-1445.312500
998		-1445.312500
999		-1445.312500
1000		-1445.312500
1001		-1445.312500
1002		-1445.312500
1003		-1445.312500
1004		-1445.312500
1005		-1445.312500
1006		-1445.312500
1007		-1484.375000
1008		-1445.312500
1009		-1445.312500
1010		-1445.312500
1011		-1445.312500
1012		-1445.312500
1013		-1445.312500
1014		-1406.250000
1015		-1406.250000
1016		-1406.250000
1017		-1406.250000
1018		-1406.250000
1019		-1406.250000
1020		-1406.250000
1021		-1406.250000
1022		-1406.250000
1023		-1406.250000
1024		-1406.250000
1025		-1406.250000
1026		-1406.250000
1027		-1406.250000
1028		-1406.250000
1029		-1406.250000
1030		-1406.250000
1031		-1406.250000
1032		-1406.250000
1033		-1406.250000
1034		-1406.250000
1035		-1406.250000
1036		-1406.250000
1037		-1406.250000
1038		-1406.250000
1039		-1406.250000
1040		-1406.250000
1041		-1406.250000
1042		-1406.250000
1043		-1406.250000
1044		-1406.250000
1045		-1406.250000
1046		-1406.250000
1047		-1406.250000
1048		-1406.250000
1049		-1406.250000
1050		-1406.250000
1051		-1406.250000
1052		-1406.250000
1053		-1367.187500
1054		-1367.187500
1055		-1367.187500
1056		-1367.187500
1057		-1367.187500
1058		-1367.187500
1059		-1367.187500
1060		-1367.187500
1061		-1367.187500
1062		-1367.187500
1063		-1367.187500
1064		-1367.187500
1065		-1367.187500
1066		-1367.187500
1067		-1367.187500
1068		-1367.187500
1069		-1367.187500
1070		-1367.187500
1071		-1367.187500
1072		-1367.187500
1073		-1367.187500
1074		-1367.187500
1075		-1367.187500
1076		-1367.187500
1077		-1367.187500
1078		-1367.187500
1079		-1367.187500
1080		-1367.187500
1081		-1367.187500
1082		-1367.187500
1083		-1367.187500
1084		-1367.187500
1085		-1367.187500
1086		-1367.187500
1087		-1367.187500
1088		-1367.187500
1089		-1367.187500
1090		-1328.125000
1091		-1328.125000
1092		-1328.125000
1093		-1328.125000
1094		-1328.125000
1095		-1328.125000
1096		-1328.125000
1097		-1328.125000
1098		-1328.125000
1099		-1328.125000
1100		-1328.125000
1101		-1328.125000
1102		-1328.125000
1103		-1328.125000
1104		-1328.125000
