Vrije proef/m4-ster.txt

Channel              :		CH1
Frequency            :		  ?
Period               :		  ?
PK-PK                :		2.148V
Probe attenuation    :		1X
Voltage per ADC value:		2.441406mV
Time interval        :		1000.00000us

index		CH1_Voltage(mV)
1		1757.812500
2		1757.812500
3		1718.750000
4		1718.750000
5		1718.750000
6		1757.812500
7		1757.812500
8		1757.812500
9		1718.750000
10		1718.750000
11		1757.812500
12		1757.812500
13		1718.750000
14		1757.812500
15		1718.750000
16		1757.812500
17		1757.812500
18		1757.812500
19		1718.750000
20		1718.750000
21		1718.750000
22		1757.812500
23		1757.812500
24		1718.750000
25		1757.812500
26		1718.750000
27		1718.750000
28		1757.812500
29		1757.812500
30		1757.812500
31		1718.750000
32		1718.750000
33		1757.812500
34		1757.812500
35		1757.812500
36		1718.750000
37		1757.812500
38		1718.750000
39		1757.812500
40		1718.750000
41		1757.812500
42		1718.750000
43		1757.812500
44		1757.812500
45		1757.812500
46		1757.812500
47		1718.750000
48		1718.750000
49		1718.750000
50		1757.812500
51		1757.812500
52		1757.812500
53		1718.750000
54		1718.750000
55		1757.812500
56		1757.812500
57		1757.812500
58		1718.750000
59		1718.750000
60		1718.750000
61		1757.812500
62		1757.812500
63		1757.812500
64		1757.812500
65		1718.750000
66		1718.750000
67		1757.812500
68		1757.812500
69		1718.750000
70		1718.750000
71		1757.812500
72		1757.812500
73		1757.812500
74		1757.812500
75		1718.750000
76		1718.750000
77		1757.812500
78		1757.812500
79		1757.812500
80		1757.812500
81		1718.750000
82		1718.750000
83		1757.812500
84		1718.750000
85		1757.812500
86		1757.812500
87		1718.750000
88		1718.750000
89		1757.812500
90		1757.812500
91		1757.812500
92		1718.750000
93		1718.750000
94		1757.812500
95		1757.812500
96		1757.812500
97		1718.750000
98		1718.750000
99		1757.812500
100		1757.812500
101		1757.812500
102		1757.812500
103		1718.750000
104		1718.750000
105		1757.812500
106		1757.812500
107		1757.812500
108		1757.812500
109		1757.812500
110		1718.750000
111		1757.812500
112		1757.812500
113		1718.750000
114		1718.750000
115		1718.750000
116		1757.812500
117		1757.812500
118		1757.812500
119		1718.750000
120		1718.750000
121		1718.750000
122		1757.812500
123		1757.812500
124		1757.812500
125		1718.750000
126		1718.750000
127		1757.812500
128		1757.812500
129		1757.812500
130		1718.750000
131		1718.750000
132		1718.750000
133		1757.812500
134		1757.812500
135		1757.812500
136		1757.812500
137		1718.750000
138		1718.750000
139		1757.812500
140		1757.812500
141		1718.750000
142		1718.750000
143		1718.750000
144		1757.812500
145		1757.812500
146		1718.750000
147		1718.750000
148		1718.750000
149		1718.750000
150		1757.812500
151		1757.812500
152		1757.812500
153		1718.750000
154		1718.750000
155		1757.812500
156		1757.812500
157		1757.812500
158		1718.750000
159		1718.750000
160		1718.750000
161		1757.812500
162		1757.812500
163		1757.812500
164		1718.750000
165		1718.750000
166		1757.812500
167		1757.812500
168		1757.812500
169		1718.750000
170		1718.750000
171		1718.750000
172		1757.812500
173		1757.812500
174		1757.812500
175		1718.750000
176		1718.750000
177		1718.750000
178		1757.812500
179		1757.812500
180		1757.812500
181		1718.750000
182		1718.750000
183		1757.812500
184		1757.812500
185		1757.812500
186		1718.750000
187		1718.750000
188		1757.812500
189		1757.812500
190		1757.812500
191		1718.750000
192		1718.750000
193		1718.750000
194		1757.812500
195		1757.812500
196		1757.812500
197		1718.750000
198		1757.812500
199		1718.750000
200		1757.812500
201		1757.812500
202		1757.812500
203		1718.750000
204		1718.750000
205		1757.812500
206		1757.812500
207		1757.812500
208		1757.812500
209		1718.750000
210		1757.812500
211		1757.812500
212		1757.812500
213		1718.750000
214		1718.750000
215		1757.812500
216		1757.812500
217		1757.812500
218		1757.812500
219		1757.812500
220		1718.750000
221		1718.750000
222		1757.812500
223		1757.812500
224		1757.812500
225		1718.750000
226		1718.750000
227		1757.812500
228		1757.812500
229		1757.812500
230		1718.750000
231		1718.750000
232		1718.750000
233		1757.812500
234		1757.812500
235		1757.812500
236		1718.750000
237		1718.750000
238		1718.750000
239		1757.812500
240		1718.750000
241		1757.812500
242		1757.812500
243		1757.812500
244		1757.812500
245		1757.812500
246		1757.812500
247		1718.750000
248		1718.750000
249		1718.750000
250		1757.812500
251		1757.812500
252		1757.812500
253		1718.750000
254		1718.750000
255		1757.812500
256		1757.812500
257		1718.750000
258		1718.750000
259		1718.750000
260		1718.750000
261		1757.812500
262		1757.812500
263		1757.812500
264		1718.750000
265		1718.750000
266		1757.812500
267		1757.812500
268		1757.812500
269		1718.750000
270		1718.750000
271		1718.750000
272		1757.812500
273		1757.812500
274		1757.812500
275		1718.750000
276		1718.750000
277		1757.812500
278		1757.812500
279		1757.812500
280		1718.750000
281		1757.812500
282		1718.750000
283		1757.812500
284		1718.750000
285		1757.812500
286		1718.750000
287		1718.750000
288		1757.812500
289		1757.812500
290		1757.812500
291		1757.812500
292		1718.750000
293		1718.750000
294		1757.812500
295		1757.812500
296		1718.750000
297		1757.812500
298		1718.750000
299		1757.812500
300		1757.812500
301		1757.812500
302		1718.750000
303		1718.750000
304		1718.750000
305		1757.812500
306		1757.812500
307		1757.812500
308		1718.750000
309		1757.812500
310		1718.750000
311		1757.812500
312		1757.812500
313		1718.750000
314		1718.750000
315		1718.750000
316		1757.812500
317		1757.812500
318		1757.812500
319		1718.750000
320		1718.750000
321		1718.750000
322		1757.812500
323		1757.812500
324		1757.812500
325		1757.812500
326		1718.750000
327		1757.812500
328		1757.812500
329		1757.812500
330		1718.750000
331		1718.750000
332		1718.750000
333		1757.812500
334		1757.812500
335		1757.812500
336		1757.812500
337		1718.750000
338		1757.812500
339		1757.812500
340		1718.750000
341		1718.750000
342		1718.750000
343		1757.812500
344		1757.812500
345		1757.812500
346		1757.812500
347		1718.750000
348		1718.750000
349		1757.812500
350		1757.812500
351		1757.812500
352		1718.750000
353		1718.750000
354		1718.750000
355		1718.750000
356		1757.812500
357		1757.812500
358		1718.750000
359		1718.750000
360		1718.750000
361		1757.812500
362		1757.812500
363		1718.750000
364		1718.750000
365		1718.750000
366		1757.812500
367		1757.812500
368		1757.812500
369		1718.750000
370		1757.812500
371		1757.812500
372		1757.812500
373		1757.812500
374		1757.812500
375		1718.750000
376		1718.750000
377		1757.812500
378		1757.812500
379		1757.812500
380		1718.750000
381		1718.750000
382		1718.750000
383		1757.812500
384		1757.812500
385		1718.750000
386		1718.750000
387		1718.750000
388		1757.812500
389		1757.812500
390		1757.812500
391		1718.750000
392		1718.750000
393		1718.750000
394		1757.812500
395		1757.812500
396		1757.812500
397		1718.750000
398		1718.750000
399		1757.812500
400		1718.750000
401		1757.812500
402		1757.812500
403		1718.750000
404		1718.750000
405		1757.812500
406		1757.812500
407		1757.812500
408		1796.875000
409		1718.750000
410		1718.750000
411		1757.812500
412		1757.812500
413		1718.750000
414		1718.750000
415		1757.812500
416		1757.812500
417		1757.812500
418		1757.812500
419		1718.750000
420		1718.750000
421		1718.750000
422		1757.812500
423		1757.812500
424		1757.812500
425		1718.750000
426		1718.750000
427		1757.812500
428		1757.812500
429		1757.812500
430		1718.750000
431		1718.750000
432		1757.812500
433		1757.812500
434		1757.812500
435		1757.812500
436		1718.750000
437		1718.750000
438		1757.812500
439		1757.812500
440		1757.812500
441		1757.812500
442		1757.812500
443		1718.750000
444		1757.812500
445		1757.812500
446		1757.812500
447		1718.750000
448		1718.750000
449		1757.812500
450		1757.812500
451		1757.812500
452		1757.812500
453		1718.750000
454		1757.812500
455		1757.812500
456		1757.812500
457		1757.812500
458		1718.750000
459		1757.812500
460		1757.812500
461		1757.812500
462		1757.812500
463		1757.812500
464		1718.750000
465		1718.750000
466		1757.812500
467		1757.812500
468		1757.812500
469		1718.750000
470		1718.750000
471		1718.750000
472		1757.812500
473		1757.812500
474		1718.750000
475		1718.750000
476		1718.750000
477		1757.812500
478		1757.812500
479		1757.812500
480		1718.750000
481		1718.750000
482		1757.812500
483		1757.812500
484		1757.812500
485		1757.812500
486		1718.750000
487		1718.750000
488		1757.812500
489		1757.812500
490		1757.812500
491		1718.750000
492		1718.750000
493		1718.750000
494		1757.812500
495		1757.812500
496		1757.812500
497		1718.750000
498		1757.812500
499		1757.812500
500		1757.812500
501		1718.750000
502		1718.750000
503		1718.750000
504		1718.750000
505		1757.812500
506		1757.812500
507		1757.812500
508		1718.750000
509		1718.750000
510		1757.812500
511		1757.812500
512		1757.812500
513		1757.812500
514		1757.812500
515		1718.750000
516		1757.812500
517		1757.812500
518		1718.750000
519		1718.750000
520		1718.750000
521		1757.812500
522		1757.812500
523		1757.812500
524		1718.750000
525		1718.750000
526		1757.812500
527		1757.812500
528		1757.812500
529		1757.812500
530		1718.750000
531		1718.750000
532		1757.812500
533		1757.812500
534		1757.812500
535		1757.812500
536		1718.750000
537		1718.750000
538		1757.812500
539		1757.812500
540		1757.812500
541		1718.750000
542		1757.812500
543		1757.812500
544		1757.812500
545		1757.812500
546		1718.750000
547		1718.750000
548		1718.750000
549		1757.812500
550		1757.812500
551		1757.812500
552		1757.812500
553		1718.750000
554		1718.750000
555		1757.812500
556		1757.812500
557		1757.812500
558		1718.750000
559		1718.750000
560		1757.812500
561		1757.812500
562		1757.812500
563		1718.750000
564		1757.812500
565		1757.812500
566		1757.812500
567		1757.812500
568		1718.750000
569		1757.812500
570		1718.750000
571		1757.812500
572		1757.812500
573		1757.812500
574		1718.750000
575		1718.750000
576		1718.750000
577		1757.812500
578		1757.812500
579		1757.812500
580		1718.750000
581		1718.750000
582		1757.812500
583		1757.812500
584		1757.812500
585		1718.750000
586		1718.750000
587		1757.812500
588		1757.812500
589		1757.812500
590		1757.812500
591		1718.750000
592		1718.750000
593		1757.812500
594		1757.812500
595		1757.812500
596		1757.812500
597		1718.750000
598		1718.750000
599		1757.812500
600		1757.812500
601		1757.812500
602		1718.750000
603		1718.750000
604		1757.812500
605		1757.812500
606		1757.812500
607		1718.750000
608		1718.750000
609		1718.750000
610		1757.812500
611		1757.812500
612		1718.750000
613		1718.750000
614		1718.750000
615		1757.812500
616		1757.812500
617		1757.812500
618		1757.812500
619		1718.750000
620		1718.750000
621		1757.812500
622		1757.812500
623		1757.812500
624		1718.750000
625		1718.750000
626		1718.750000
627		1757.812500
628		1757.812500
629		1718.750000
630		1718.750000
631		1718.750000
632		1757.812500
633		1757.812500
634		1757.812500
635		1718.750000
636		1718.750000
637		1718.750000
638		1718.750000
639		1718.750000
640		1757.812500
641		1718.750000
642		1718.750000
643		1757.812500
644		1757.812500
645		1757.812500
646		1757.812500
647		1718.750000
648		1718.750000
649		1757.812500
650		1757.812500
651		1757.812500
652		1718.750000
653		1718.750000
654		1757.812500
655		1757.812500
656		1718.750000
657		1718.750000
658		1757.812500
659		1718.750000
660		1757.812500
661		1757.812500
662		1757.812500
663		1718.750000
664		1718.750000
665		1718.750000
666		1718.750000
667		1757.812500
668		1718.750000
669		1718.750000
670		1718.750000
671		1757.812500
672		1757.812500
673		1718.750000
674		1718.750000
675		1718.750000
676		1718.750000
677		1757.812500
678		1757.812500
679		1718.750000
680		1718.750000
681		1718.750000
682		1757.812500
683		1757.812500
684		1718.750000
685		1757.812500
686		1757.812500
687		1718.750000
688		1757.812500
689		1757.812500
690		1757.812500
691		1718.750000
692		1718.750000
693		1757.812500
694		1757.812500
695		1757.812500
696		1718.750000
697		1718.750000
698		1757.812500
699		1757.812500
700		1757.812500
701		1718.750000
702		1718.750000
703		1718.750000
704		1757.812500
705		1757.812500
706		1757.812500
707		1718.750000
708		1718.750000
709		1718.750000
710		1718.750000
711		1757.812500
712		1757.812500
713		1757.812500
714		1718.750000
715		1757.812500
716		1757.812500
717		1757.812500
718		1718.750000
719		1718.750000
720		1718.750000
721		1757.812500
722		1757.812500
723		1718.750000
724		1718.750000
725		1718.750000
726		1718.750000
727		1757.812500
728		1757.812500
729		1718.750000
730		1718.750000
731		1718.750000
732		1757.812500
733		1757.812500
734		1757.812500
735		1718.750000
736		1718.750000
737		1718.750000
738		1757.812500
739		1757.812500
740		1757.812500
741		1718.750000
742		1718.750000
743		1757.812500
744		1757.812500
745		1757.812500
746		1718.750000
747		1757.812500
748		1757.812500
749		1757.812500
750		1757.812500
751		1757.812500
752		1757.812500
753		1718.750000
754		1757.812500
755		1718.750000
756		1757.812500
757		1757.812500
758		1718.750000
759		1718.750000
760		1757.812500
761		1757.812500
762		1757.812500
763		1718.750000
764		1718.750000
765		1757.812500
766		1757.812500
767		1757.812500
768		1718.750000
769		1757.812500
770		1718.750000
771		1757.812500
772		1757.812500
773		1718.750000
774		1757.812500
775		1757.812500
776		1718.750000
777		1757.812500
778		1757.812500
779		1757.812500
780		1718.750000
781		1718.750000
782		1757.812500
783		1757.812500
784		1757.812500
785		1718.750000
786		1757.812500
787		1757.812500
788		1718.750000
789		1718.750000
790		1718.750000
791		1718.750000
792		1718.750000
793		1679.687500
794		1679.687500
795		1679.687500
796		1679.687500
797		1679.687500
798		1640.625000
799		1640.625000
800		1640.625000
801		1601.562500
802		1601.562500
803		1601.562500
804		1562.500000
805		1523.437500
806		1523.437500
807		1523.437500
808		1484.375000
809		1484.375000
810		1445.312500
811		1445.312500
812		1445.312500
813		1406.250000
814		1406.250000
815		1406.250000
816		1367.187500
817		1367.187500
818		1367.187500
819		1328.125000
820		1328.125000
821		1289.062500
822		1289.062500
823		1289.062500
824		1250.000000
825		1250.000000
826		1210.937500
827		1210.937500
828		1171.875000
829		1171.875000
830		1171.875000
831		1132.812500
832		1132.812500
833		1132.812500
834		1093.750000
835		1093.750000
836		1093.750000
837		1054.687500
838		1054.687500
839		1054.687500
840		1015.625000
841		1015.625000
842		1015.625000
843		976.562500
844		976.562500
845		976.562500
846		937.500000
847		937.500000
848		937.500000
849		898.437500
850		898.437500
851		898.437500
852		859.375000
853		859.375000
854		859.375000
855		820.312500
856		820.312500
857		820.312500
858		820.312500
859		781.250000
860		781.250000
861		742.187500
862		742.187500
863		742.187500
864		742.187500
865		703.125000
866		703.125000
867		703.125000
868		703.125000
869		664.062500
870		664.062500
871		664.062500
872		625.000000
873		625.000000
874		625.000000
875		625.000000
876		585.937500
877		585.937500
878		585.937500
879		546.875000
880		546.875000
881		546.875000
882		507.812500
883		507.812500
884		507.812500
885		507.812500
886		507.812500
887		468.750000
888		468.750000
889		468.750000
890		429.687500
891		429.687500
892		429.687500
893		429.687500
894		390.625000
895		390.625000
896		390.625000
897		390.625000
898		390.625000
899		351.562500
900		351.562500
901		351.562500
902		351.562500
903		351.562500
904		312.500000
905		312.500000
906		312.500000
907		312.500000
908		273.437500
909		273.437500
910		273.437500
911		273.437500
912		234.375000
913		234.375000
914		234.375000
915		234.375000
916		234.375000
917		195.312500
918		195.312500
919		195.312500
920		195.312500
921		195.312500
922		195.312500
923		156.250000
924		156.250000
925		156.250000
926		156.250000
927		156.250000
928		117.187500
929		117.187500
930		117.187500
931		117.187500
932		78.125000
933		78.125000
934		78.125000
935		78.125000
936		78.125000
937		78.125000
938		78.125000
939		78.125000
940		39.062500
941		39.062500
942		39.062500
943		39.062500
944		39.062500
945		39.062500
946		0.000000
947		0.000000
948		0.000000
949		0.000000
950		0.000000
951		0.000000
952		-39.062500
953		-39.062500
954		-39.062500
955		-39.062500
956		-39.062500
957		-39.062500
958		-39.062500
959		-39.062500
960		-39.062500
961		-78.125000
962		-78.125000
963		-78.125000
964		-78.125000
965		-78.125000
966		-78.125000
967		-78.125000
968		-117.187500
969		-117.187500
970		-117.187500
971		-117.187500
972		-117.187500
973		-117.187500
974		-117.187500
975		-117.187500
976		-117.187500
977		-156.250000
978		-156.250000
979		-156.250000
980		-156.250000
981		-156.250000
982		-156.250000
983		-156.250000
984		-156.250000
985		-156.250000
986		-156.250000
987		-195.312500
988		-195.312500
989		-195.312500
990		-195.312500
991		-195.312500
992		-195.312500
993		-195.312500
994		-195.312500
995		-195.312500
996		-195.312500
997		-195.312500
998		-195.312500
999		-195.312500
1000		-234.375000
1001		-234.375000
1002		-234.375000
1003		-234.375000
1004		-234.375000
1005		-234.375000
1006		-234.375000
1007		-234.375000
1008		-234.375000
1009		-273.437500
1010		-273.437500
1011		-273.437500
1012		-273.437500
1013		-273.437500
1014		-273.437500
1015		-273.437500
1016		-234.375000
1017		-273.437500
1018		-273.437500
1019		-273.437500
1020		-273.437500
1021		-273.437500
1022		-273.437500
1023		-273.437500
1024		-273.437500
1025		-273.437500
1026		-273.437500
1027		-273.437500
1028		-273.437500
1029		-312.500000
1030		-273.437500
1031		-273.437500
1032		-273.437500
1033		-273.437500
1034		-273.437500
1035		-273.437500
1036		-273.437500
1037		-273.437500
1038		-273.437500
1039		-312.500000
1040		-312.500000
1041		-312.500000
1042		-312.500000
1043		-312.500000
1044		-312.500000
1045		-312.500000
1046		-312.500000
1047		-312.500000
1048		-312.500000
1049		-312.500000
1050		-312.500000
1051		-312.500000
1052		-312.500000
1053		-312.500000
1054		-312.500000
1055		-312.500000
1056		-312.500000
1057		-312.500000
1058		-312.500000
1059		-312.500000
1060		-312.500000
1061		-312.500000
1062		-312.500000
1063		-312.500000
1064		-312.500000
1065		-312.500000
1066		-312.500000
1067		-312.500000
1068		-312.500000
1069		-312.500000
1070		-312.500000
1071		-312.500000
1072		-312.500000
1073		-312.500000
1074		-312.500000
1075		-312.500000
1076		-273.437500
1077		-312.500000
1078		-312.500000
1079		-273.437500
1080		-273.437500
1081		-273.437500
1082		-273.437500
1083		-273.437500
1084		-273.437500
1085		-273.437500
1086		-273.437500
1087		-273.437500
1088		-273.437500
1089		-273.437500
1090		-273.437500
1091		-273.437500
1092		-273.437500
1093		-273.437500
1094		-273.437500
1095		-273.437500
1096		-273.437500
1097		-273.437500
1098		-273.437500
1099		-273.437500
1100		-234.375000
1101		-234.375000
1102		-234.375000
1103		-234.375000
1104		-234.375000
1105		-234.375000
1106		-234.375000
1107		-234.375000
1108		-234.375000
1109		-234.375000
1110		-234.375000
1111		-234.375000
1112		-234.375000
1113		-234.375000
1114		-234.375000
1115		-195.312500
1116		-234.375000
1117		-234.375000
1118		-195.312500
1119		-195.312500
1120		-195.312500
1121		-195.312500
1122		-195.312500
1123		-195.312500
1124		-195.312500
1125		-156.250000
1126		-195.312500
1127		-156.250000
1128		-156.250000
1129		-156.250000
1130		-156.250000
1131		-156.250000
1132		-156.250000
1133		-156.250000
1134		-156.250000
1135		-156.250000
1136		-117.187500
1137		-117.187500
1138		-117.187500
1139		-117.187500
1140		-117.187500
1141		-117.187500
1142		-117.187500
1143		-78.125000
1144		-78.125000
1145		-78.125000
1146		-78.125000
1147		-78.125000
1148		-78.125000
1149		-78.125000
1150		-78.125000
1151		-78.125000
1152		-78.125000
1153		-39.062500
1154		-39.062500
1155		-39.062500
1156		-39.062500
1157		-39.062500
1158		0.000000
1159		0.000000
1160		0.000000
1161		0.000000
1162		0.000000
1163		0.000000
1164		0.000000
1165		39.062500
1166		39.062500
1167		39.062500
1168		0.000000
1169		39.062500
1170		39.062500
