Vrije proef/m4-ster2.txt

Channel              :		CH1
Frequency            :		  ?
Period               :		  ?
PK-PK                :		6.328V
Probe attenuation    :		1X
Voltage per ADC value:		2.441406mV
Time interval        :		1000.00000us

index		CH1_Voltage(mV)
1		664.062500
2		664.062500
3		664.062500
4		703.125000
5		742.187500
6		742.187500
7		781.250000
8		820.312500
9		859.375000
10		859.375000
11		898.437500
12		937.500000
13		937.500000
14		976.562500
15		1015.625000
16		1054.687500
17		1054.687500
18		1093.750000
19		1132.812500
20		1132.812500
21		1171.875000
22		1210.937500
23		1210.937500
24		1250.000000
25		1289.062500
26		1289.062500
27		1328.125000
28		1367.187500
29		1367.187500
30		1445.312500
31		1445.312500
32		1484.375000
33		1523.437500
34		1523.437500
35		1562.500000
36		1601.562500
37		1601.562500
38		1640.625000
39		1679.687500
40		1718.750000
41		1718.750000
42		1757.812500
43		1796.875000
44		1796.875000
45		1835.937500
46		1875.000000
47		1914.062500
48		1953.125000
49		1953.125000
50		1992.187500
51		2031.250000
52		2070.312500
53		2070.312500
54		2109.375000
55		2148.437500
56		2187.500000
57		2226.562500
58		2226.562500
59		2265.625000
60		2304.687500
61		2343.750000
62		2343.750000
63		2382.812500
64		2421.875000
65		2421.875000
66		2460.937500
67		2500.000000
68		2539.062500
69		2578.125000
70		2617.187500
71		2617.187500
72		2656.250000
73		2695.312500
74		2734.375000
75		2773.437500
76		2773.437500
77		2812.500000
78		2851.562500
79		2890.625000
80		2929.687500
81		2929.687500
82		2968.750000
83		3007.812500
84		3046.875000
85		3046.875000
86		3085.937500
87		3085.937500
88		3085.937500
89		3085.937500
90		3085.937500
91		3085.937500
92		3085.937500
93		3085.937500
94		3085.937500
95		3085.937500
96		3085.937500
97		3085.937500
98		3085.937500
99		3085.937500
100		3085.937500
101		3085.937500
102		3085.937500
103		3085.937500
104		3085.937500
105		3085.937500
106		3085.937500
107		3085.937500
108		3085.937500
109		3085.937500
110		3125.000000
111		3085.937500
112		3085.937500
113		3085.937500
114		3085.937500
115		3085.937500
116		3085.937500
117		3085.937500
118		3085.937500
119		3085.937500
120		3085.937500
121		3085.937500
122		3085.937500
123		3085.937500
124		3085.937500
125		3085.937500
126		3085.937500
127		3085.937500
128		3085.937500
129		3085.937500
130		3085.937500
131		3085.937500
132		3085.937500
133		3085.937500
134		3085.937500
135		3085.937500
136		3085.937500
137		3085.937500
138		3085.937500
139		3085.937500
140		3085.937500
141		3085.937500
142		3085.937500
143		3085.937500
144		3085.937500
145		3085.937500
146		3085.937500
147		3085.937500
148		3085.937500
149		3085.937500
150		3085.937500
151		3085.937500
152		3085.937500
153		3085.937500
154		3085.937500
155		3085.937500
156		3125.000000
157		3085.937500
158		3085.937500
159		3085.937500
160		3085.937500
161		3125.000000
162		3085.937500
163		3085.937500
164		3085.937500
165		3085.937500
166		3085.937500
167		3085.937500
168		3085.937500
169		3085.937500
170		3085.937500
171		3085.937500
172		3085.937500
173		3085.937500
174		3085.937500
175		3085.937500
176		3085.937500
177		3085.937500
178		3085.937500
179		3085.937500
180		3085.937500
181		3085.937500
182		3085.937500
183		3085.937500
184		3085.937500
185		3085.937500
186		3085.937500
187		3085.937500
188		3085.937500
189		3085.937500
190		3085.937500
191		3085.937500
192		3085.937500
193		3085.937500
194		3085.937500
195		3085.937500
196		3085.937500
197		3085.937500
198		3085.937500
199		3085.937500
200		3085.937500
201		3085.937500
202		3085.937500
203		3085.937500
204		3085.937500
205		3085.937500
206		3085.937500
207		3085.937500
208		3085.937500
209		3085.937500
210		3125.000000
211		3085.937500
212		3085.937500
213		3085.937500
214		3085.937500
215		3085.937500
216		3085.937500
217		3085.937500
218		3085.937500
219		3085.937500
220		3085.937500
221		3085.937500
222		3085.937500
223		3085.937500
224		3085.937500
225		3085.937500
226		3085.937500
227		3085.937500
228		3085.937500
229		3085.937500
230		3085.937500
231		3085.937500
232		3085.937500
233		3085.937500
234		3085.937500
235		3085.937500
236		3085.937500
237		3085.937500
238		3085.937500
239		3085.937500
240		3085.937500
241		3085.937500
242		3085.937500
243		3085.937500
244		3085.937500
245		3085.937500
246		3085.937500
247		3085.937500
248		3085.937500
249		3085.937500
250		3085.937500
251		3085.937500
252		3085.937500
253		3085.937500
254		3085.937500
255		3085.937500
256		3085.937500
257		3085.937500
258		3085.937500
259		3085.937500
260		3085.937500
261		3085.937500
262		3085.937500
263		3085.937500
264		3085.937500
265		3085.937500
266		3085.937500
267		3085.937500
268		3085.937500
269		3085.937500
270		3085.937500
271		3085.937500
272		3125.000000
273		3085.937500
274		3085.937500
275		3085.937500
276		3085.937500
277		3085.937500
278		3085.937500
279		3085.937500
280		3085.937500
281		3085.937500
282		3085.937500
283		3085.937500
284		3085.937500
285		3085.937500
286		3085.937500
287		3085.937500
288		3085.937500
289		3085.937500
290		3085.937500
291		3085.937500
292		3085.937500
293		3085.937500
294		3085.937500
295		3085.937500
296		3085.937500
297		3085.937500
298		3085.937500
299		3085.937500
300		3085.937500
301		3085.937500
302		3085.937500
303		3085.937500
304		3085.937500
305		3085.937500
306		3085.937500
307		3085.937500
308		3085.937500
309		3085.937500
310		3085.937500
311		3085.937500
312		3085.937500
313		3085.937500
314		3085.937500
315		3125.000000
316		3085.937500
317		3085.937500
318		3085.937500
319		3125.000000
320		3085.937500
321		3085.937500
322		3085.937500
323		3085.937500
324		3125.000000
325		3085.937500
326		3085.937500
327		3085.937500
328		3085.937500
329		3085.937500
330		3085.937500
331		3085.937500
332		3085.937500
333		3085.937500
334		3085.937500
335		3085.937500
336		3085.937500
337		3085.937500
338		3085.937500
339		3085.937500
340		3085.937500
341		3085.937500
342		3085.937500
343		3085.937500
344		3085.937500
345		3085.937500
346		3085.937500
347		3085.937500
348		3085.937500
349		3085.937500
350		3085.937500
351		3125.000000
352		3085.937500
353		3085.937500
354		3085.937500
355		3085.937500
356		3085.937500
357		3085.937500
358		3085.937500
359		3085.937500
360		3085.937500
361		3085.937500
362		3085.937500
363		3085.937500
364		3085.937500
365		3085.937500
366		3085.937500
367		3085.937500
368		3125.000000
369		3125.000000
370		3085.937500
371		3085.937500
372		3085.937500
373		3085.937500
374		3085.937500
375		3125.000000
376		3085.937500
377		3085.937500
378		3125.000000
379		3085.937500
380		3085.937500
381		3085.937500
382		3085.937500
383		3085.937500
384		3085.937500
385		3085.937500
386		3085.937500
387		3125.000000
388		3085.937500
389		3085.937500
390		3085.937500
391		3085.937500
392		3085.937500
393		3085.937500
394		3085.937500
395		3085.937500
396		3085.937500
397		3085.937500
398		3085.937500
399		3085.937500
400		3085.937500
401		3085.937500
402		3085.937500
403		3085.937500
404		3085.937500
405		3085.937500
406		3085.937500
407		3085.937500
408		3085.937500
409		3085.937500
410		3085.937500
411		3085.937500
412		3085.937500
413		3085.937500
414		3085.937500
415		3085.937500
416		3085.937500
417		3085.937500
418		3085.937500
419		3085.937500
420		3085.937500
421		3085.937500
422		3085.937500
423		3085.937500
424		3085.937500
425		3085.937500
426		3085.937500
427		3085.937500
428		3085.937500
429		3085.937500
430		3085.937500
431		3085.937500
432		3085.937500
433		3085.937500
434		3125.000000
435		3085.937500
436		3085.937500
437		3085.937500
438		3085.937500
439		3085.937500
440		3085.937500
441		3085.937500
442		3085.937500
443		3085.937500
444		3085.937500
445		3085.937500
446		3085.937500
447		3085.937500
448		3125.000000
449		3085.937500
450		3085.937500
451		3085.937500
452		3085.937500
453		3085.937500
454		3085.937500
455		3085.937500
456		3085.937500
457		3085.937500
458		3085.937500
459		3085.937500
460		3085.937500
461		3085.937500
462		3085.937500
463		3085.937500
464		3085.937500
465		3085.937500
466		3125.000000
467		3085.937500
468		3085.937500
469		3085.937500
470		3085.937500
471		3085.937500
472		3085.937500
473		3085.937500
474		3085.937500
475		3085.937500
476		3085.937500
477		3085.937500
478		3085.937500
479		3085.937500
480		3085.937500
481		3085.937500
482		3085.937500
483		3085.937500
484		3085.937500
485		3085.937500
486		3085.937500
487		3085.937500
488		3085.937500
489		3085.937500
490		3085.937500
491		3085.937500
492		3085.937500
493		3085.937500
494		3085.937500
495		3085.937500
496		3085.937500
497		3085.937500
498		3085.937500
499		3085.937500
500		3085.937500
501		3085.937500
502		3085.937500
503		3085.937500
504		3085.937500
505		3085.937500
506		3085.937500
507		3085.937500
508		3085.937500
509		3085.937500
510		3085.937500
511		3085.937500
512		3085.937500
513		3085.937500
514		3085.937500
515		3085.937500
516		3085.937500
517		3085.937500
518		3085.937500
519		3085.937500
520		3085.937500
521		3085.937500
522		3085.937500
523		3085.937500
524		3085.937500
525		3085.937500
526		3085.937500
527		3085.937500
528		3085.937500
529		3085.937500
530		3085.937500
531		3085.937500
532		3085.937500
533		3085.937500
534		3085.937500
535		3085.937500
536		3085.937500
537		3085.937500
538		3085.937500
539		3085.937500
540		3085.937500
541		3085.937500
542		3085.937500
543		3085.937500
544		3085.937500
545		3085.937500
546		3085.937500
547		3085.937500
548		3085.937500
549		3085.937500
550		3085.937500
551		3085.937500
552		3085.937500
553		3085.937500
554		3085.937500
555		3085.937500
556		3085.937500
557		3085.937500
558		3085.937500
559		3085.937500
560		3085.937500
561		3085.937500
562		3085.937500
563		3085.937500
564		3085.937500
565		3085.937500
566		3085.937500
567		3085.937500
568		3085.937500
569		3085.937500
570		3085.937500
571		3085.937500
572		3085.937500
573		3085.937500
574		3085.937500
575		3085.937500
576		3085.937500
577		3085.937500
578		3085.937500
579		3085.937500
580		3085.937500
581		3085.937500
582		3085.937500
583		3085.937500
584		3085.937500
585		3085.937500
586		3125.000000
587		3085.937500
588		3085.937500
589		3085.937500
590		3085.937500
591		3085.937500
592		3085.937500
593		3085.937500
594		3085.937500
595		3085.937500
596		3085.937500
597		3085.937500
598		3085.937500
599		3085.937500
600		3085.937500
601		3085.937500
602		3085.937500
603		3085.937500
604		3085.937500
605		3085.937500
606		3085.937500
607		3085.937500
608		3085.937500
609		3085.937500
610		3085.937500
611		3085.937500
612		3125.000000
613		3125.000000
614		3085.937500
615		3085.937500
616		3085.937500
617		3085.937500
618		3085.937500
619		3085.937500
620		3085.937500
621		3085.937500
622		3085.937500
623		3085.937500
624		3085.937500
625		3085.937500
626		3085.937500
627		3085.937500
628		3085.937500
629		3085.937500
630		3085.937500
631		3085.937500
632		3085.937500
633		3085.937500
634		3125.000000
635		3085.937500
636		3085.937500
637		3085.937500
638		3085.937500
639		3085.937500
640		3085.937500
641		3085.937500
642		3085.937500
643		3085.937500
644		3085.937500
645		3085.937500
646		3085.937500
647		3085.937500
648		3085.937500
649		3085.937500
650		3085.937500
651		3085.937500
652		3085.937500
653		3085.937500
654		3085.937500
655		3085.937500
656		3085.937500
657		3085.937500
658		3085.937500
659		3085.937500
660		3085.937500
661		3085.937500
662		3085.937500
663		3085.937500
664		3085.937500
665		3085.937500
666		3085.937500
667		3085.937500
668		3085.937500
669		3085.937500
670		3085.937500
671		3085.937500
672		3085.937500
673		3085.937500
674		3085.937500
675		3085.937500
676		3085.937500
677		3085.937500
678		3085.937500
679		3125.000000
680		3085.937500
681		3085.937500
682		3085.937500
683		3085.937500
684		3085.937500
685		3085.937500
686		3085.937500
687		3085.937500
688		3085.937500
689		3085.937500
690		3085.937500
691		3085.937500
692		3085.937500
693		3085.937500
694		3085.937500
695		3085.937500
696		3085.937500
697		3085.937500
698		3085.937500
699		3085.937500
700		3085.937500
701		3085.937500
702		3085.937500
703		3085.937500
704		3085.937500
705		3085.937500
706		3085.937500
707		3085.937500
708		3085.937500
709		3085.937500
710		3125.000000
711		3085.937500
712		3085.937500
713		3085.937500
714		3085.937500
715		3085.937500
716		3085.937500
717		3085.937500
718		3085.937500
719		3085.937500
720		3085.937500
721		3085.937500
722		3085.937500
723		3085.937500
724		3085.937500
725		3085.937500
726		3085.937500
727		3085.937500
728		3085.937500
729		3085.937500
730		3085.937500
731		3085.937500
732		3125.000000
733		3085.937500
734		3085.937500
735		3085.937500
736		3085.937500
737		3085.937500
738		3085.937500
739		3085.937500
740		3085.937500
741		3085.937500
742		3085.937500
743		3085.937500
744		3085.937500
745		3085.937500
746		3085.937500
747		3085.937500
748		3085.937500
749		3125.000000
750		3085.937500
751		3085.937500
752		3085.937500
753		3085.937500
754		3085.937500
755		3085.937500
756		3085.937500
757		3085.937500
758		3085.937500
759		3125.000000
760		3085.937500
761		3085.937500
762		3085.937500
763		3085.937500
764		3085.937500
765		3085.937500
766		3085.937500
767		3085.937500
768		3085.937500
769		3085.937500
770		3125.000000
771		3085.937500
772		3085.937500
773		3085.937500
774		3085.937500
775		3085.937500
776		3046.875000
777		3046.875000
778		3007.812500
779		3007.812500
780		2968.750000
781		2968.750000
782		2929.687500
783		2890.625000
784		2890.625000
785		2851.562500
786		2812.500000
787		2812.500000
788		2773.437500
789		2734.375000
790		2734.375000
791		2695.312500
792		2656.250000
793		2656.250000
794		2617.187500
795		2578.125000
796		2539.062500
797		2539.062500
798		2500.000000
799		2460.937500
800		2421.875000
801		2421.875000
802		2382.812500
803		2343.750000
804		2304.687500
805		2265.625000
806		2265.625000
807		2226.562500
808		2187.500000
809		2187.500000
810		2148.437500
811		2109.375000
812		2109.375000
813		2070.312500
814		2031.250000
815		1992.187500
816		1992.187500
817		1953.125000
818		1914.062500
819		1875.000000
820		1875.000000
821		1835.937500
822		1796.875000
823		1796.875000
824		1757.812500
825		1718.750000
826		1679.687500
827		1679.687500
828		1640.625000
829		1601.562500
830		1601.562500
831		1562.500000
832		1523.437500
833		1523.437500
834		1484.375000
835		1445.312500
836		1445.312500
837		1406.250000
838		1367.187500
839		1367.187500
840		1328.125000
841		1289.062500
842		1250.000000
843		1250.000000
844		1210.937500
845		1210.937500
846		1171.875000
847		1132.812500
848		1093.750000
849		1093.750000
850		1054.687500
851		1054.687500
852		1015.625000
853		976.562500
854		976.562500
855		937.500000
856		898.437500
857		898.437500
858		859.375000
859		820.312500
860		820.312500
861		781.250000
862		781.250000
863		742.187500
864		703.125000
865		703.125000
866		664.062500
867		625.000000
868		625.000000
869		585.937500
870		546.875000
871		546.875000
872		507.812500
873		507.812500
874		468.750000
875		468.750000
876		429.687500
877		390.625000
878		390.625000
879		351.562500
880		351.562500
881		312.500000
882		273.437500
883		273.437500
884		234.375000
885		195.312500
886		195.312500
887		156.250000
888		156.250000
889		117.187500
890		117.187500
891		78.125000
892		39.062500
893		39.062500
894		39.062500
895		0.000000
896		0.000000
897		-39.062500
898		-39.062500
899		-78.125000
900		-117.187500
901		-117.187500
902		-156.250000
903		-156.250000
904		-195.312500
905		-234.375000
906		-234.375000
907		-273.437500
908		-273.437500
909		-312.500000
910		-312.500000
911		-351.562500
912		-351.562500
913		-390.625000
914		-390.625000
915		-390.625000
916		-429.687500
917		-429.687500
918		-468.750000
919		-507.812500
920		-507.812500
921		-546.875000
922		-546.875000
923		-585.937500
924		-585.937500
925		-625.000000
926		-625.000000
927		-664.062500
928		-664.062500
929		-703.125000
930		-703.125000
931		-742.187500
932		-742.187500
933		-742.187500
934		-781.250000
935		-781.250000
936		-820.312500
937		-820.312500
938		-859.375000
939		-859.375000
940		-898.437500
941		-898.437500
942		-937.500000
943		-937.500000
944		-976.562500
945		-976.562500
946		-1015.625000
947		-1015.625000
948		-1015.625000
949		-1054.687500
950		-1054.687500
951		-1054.687500
952		-1093.750000
953		-1093.750000
954		-1132.812500
955		-1132.812500
956		-1171.875000
957		-1171.875000
958		-1171.875000
959		-1210.937500
960		-1210.937500
961		-1250.000000
962		-1250.000000
963		-1289.062500
964		-1289.062500
965		-1328.125000
966		-1328.125000
967		-1328.125000
968		-1367.187500
969		-1367.187500
970		-1367.187500
971		-1406.250000
972		-1406.250000
973		-1445.312500
974		-1445.312500
975		-1445.312500
976		-1484.375000
977		-1484.375000
978		-1523.437500
979		-1523.437500
980		-1523.437500
981		-1562.500000
982		-1562.500000
983		-1601.562500
984		-1601.562500
985		-1601.562500
986		-1601.562500
987		-1640.625000
988		-1640.625000
989		-1679.687500
990		-1679.687500
991		-1679.687500
992		-1718.750000
993		-1718.750000
994		-1718.750000
995		-1757.812500
996		-1757.812500
997		-1796.875000
998		-1796.875000
999		-1796.875000
1000		-1835.937500
1001		-1835.937500
1002		-1835.937500
1003		-1875.000000
1004		-1875.000000
1005		-1875.000000
1006		-1914.062500
1007		-1914.062500
1008		-1914.062500
1009		-1914.062500
1010		-1953.125000
1011		-1953.125000
1012		-1953.125000
1013		-1992.187500
1014		-1992.187500
1015		-1992.187500
1016		-2031.250000
1017		-2031.250000
1018		-2031.250000
1019		-2070.312500
1020		-2070.312500
1021		-2070.312500
1022		-2109.375000
1023		-2109.375000
1024		-2109.375000
1025		-2148.437500
1026		-2148.437500
1027		-2148.437500
1028		-2148.437500
1029		-2187.500000
1030		-2187.500000
1031		-2187.500000
1032		-2226.562500
1033		-2226.562500
1034		-2265.625000
1035		-2226.562500
1036		-2265.625000
1037		-2265.625000
1038		-2265.625000
1039		-2304.687500
1040		-2304.687500
1041		-2304.687500
1042		-2304.687500
1043		-2343.750000
1044		-2343.750000
1045		-2343.750000
1046		-2382.812500
1047		-2382.812500
1048		-2382.812500
1049		-2382.812500
1050		-2421.875000
1051		-2421.875000
1052		-2421.875000
1053		-2421.875000
1054		-2460.937500
1055		-2460.937500
1056		-2460.937500
1057		-2460.937500
1058		-2460.937500
1059		-2500.000000
1060		-2500.000000
1061		-2500.000000
1062		-2500.000000
1063		-2539.062500
1064		-2539.062500
1065		-2539.062500
1066		-2578.125000
1067		-2578.125000
1068		-2578.125000
1069		-2617.187500
1070		-2578.125000
1071		-2617.187500
1072		-2617.187500
1073		-2617.187500
1074		-2617.187500
1075		-2656.250000
1076		-2656.250000
1077		-2656.250000
1078		-2656.250000
1079		-2656.250000
1080		-2656.250000
1081		-2695.312500
1082		-2695.312500
1083		-2695.312500
1084		-2734.375000
1085		-2734.375000
1086		-2734.375000
1087		-2734.375000
1088		-2734.375000
1089		-2734.375000
1090		-2773.437500
1091		-2773.437500
1092		-2773.437500
1093		-2773.437500
1094		-2773.437500
1095		-2773.437500
1096		-2812.500000
1097		-2812.500000
1098		-2812.500000
1099		-2812.500000
1100		-2851.562500
1101		-2851.562500
1102		-2851.562500
1103		-2851.562500
1104		-2851.562500
1105		-2890.625000
1106		-2890.625000
1107		-2890.625000
1108		-2890.625000
1109		-2890.625000
1110		-2890.625000
1111		-2890.625000
1112		-2929.687500
1113		-2929.687500
1114		-2929.687500
1115		-2929.687500
1116		-2929.687500
1117		-2929.687500
1118		-2968.750000
1119		-2968.750000
1120		-2968.750000
1121		-2968.750000
1122		-2968.750000
1123		-3007.812500
1124		-3007.812500
1125		-3007.812500
1126		-3007.812500
1127		-3007.812500
1128		-3007.812500
1129		-3046.875000
1130		-3007.812500
1131		-3046.875000
1132		-3046.875000
1133		-3046.875000
1134		-3046.875000
1135		-3046.875000
1136		-3046.875000
1137		-3046.875000
1138		-3085.937500
1139		-3085.937500
1140		-3085.937500
1141		-3085.937500
1142		-3085.937500
1143		-3085.937500
1144		-3125.000000
1145		-3125.000000
1146		-3125.000000
1147		-3125.000000
1148		-3125.000000
1149		-3125.000000
1150		-3125.000000
1151		-3125.000000
