Vrije proef/m5-1.txt

Channel              :		CH1
Frequency            :		  ?
Period               :		  ?
PK-PK                :		2.656V
Probe attenuation    :		1X
Voltage per ADC value:		2.441406mV
Time interval        :		1000.00000us

index		CH1_Voltage(mV)
1		2890.625000
2		2890.625000
3		2890.625000
4		2890.625000
5		2890.625000
6		2890.625000
7		2890.625000
8		2890.625000
9		2890.625000
10		2890.625000
11		2890.625000
12		2890.625000
13		2890.625000
14		2890.625000
15		2890.625000
16		2890.625000
17		2890.625000
18		2890.625000
19		2890.625000
20		2890.625000
21		2890.625000
22		2890.625000
23		2890.625000
24		2890.625000
25		2890.625000
26		2890.625000
27		2890.625000
28		2890.625000
29		2890.625000
30		2890.625000
31		2890.625000
32		2890.625000
33		2890.625000
34		2929.687500
35		2890.625000
36		2890.625000
37		2890.625000
38		2890.625000
39		2890.625000
40		2929.687500
41		2890.625000
42		2890.625000
43		2890.625000
44		2890.625000
45		2890.625000
46		2890.625000
47		2890.625000
48		2890.625000
49		2929.687500
50		2890.625000
51		2929.687500
52		2929.687500
53		2929.687500
54		2929.687500
55		2929.687500
56		2929.687500
57		2929.687500
58		2929.687500
59		2890.625000
60		2890.625000
61		2890.625000
62		2890.625000
63		2890.625000
64		2890.625000
65		2890.625000
66		2890.625000
67		2929.687500
68		2890.625000
69		2890.625000
70		2929.687500
71		2929.687500
72		2890.625000
73		2929.687500
74		2890.625000
75		2890.625000
76		2890.625000
77		2890.625000
78		2890.625000
79		2890.625000
80		2890.625000
81		2890.625000
82		2890.625000
83		2890.625000
84		2890.625000
85		2890.625000
86		2890.625000
87		2890.625000
88		2890.625000
89		2890.625000
90		2890.625000
91		2890.625000
92		2890.625000
93		2890.625000
94		2890.625000
95		2890.625000
96		2890.625000
97		2890.625000
98		2890.625000
99		2890.625000
100		2851.562500
101		2851.562500
102		2851.562500
103		2890.625000
104		2851.562500
105		2890.625000
106		2851.562500
107		2890.625000
108		2851.562500
109		2851.562500
110		2851.562500
111		2851.562500
112		2851.562500
113		2851.562500
114		2851.562500
115		2851.562500
116		2851.562500
117		2851.562500
118		2851.562500
119		2851.562500
120		2851.562500
121		2851.562500
122		2851.562500
123		2851.562500
124		2851.562500
125		2851.562500
126		2851.562500
127		2851.562500
128		2851.562500
129		2851.562500
130		2851.562500
131		2851.562500
132		2812.500000
133		2812.500000
134		2812.500000
135		2812.500000
136		2812.500000
137		2812.500000
138		2812.500000
139		2812.500000
140		2773.437500
141		2812.500000
142		2812.500000
143		2773.437500
144		2812.500000
145		2773.437500
146		2812.500000
147		2773.437500
148		2773.437500
149		2773.437500
150		2773.437500
151		2773.437500
152		2773.437500
153		2773.437500
154		2773.437500
155		2773.437500
156		2773.437500
157		2734.375000
158		2734.375000
159		2734.375000
160		2734.375000
161		2734.375000
162		2734.375000
163		2734.375000
164		2734.375000
165		2734.375000
166		2734.375000
167		2734.375000
168		2734.375000
169		2734.375000
170		2734.375000
171		2734.375000
172		2695.312500
173		2695.312500
174		2695.312500
175		2695.312500
176		2695.312500
177		2695.312500
178		2695.312500
179		2695.312500
180		2695.312500
181		2695.312500
182		2695.312500
183		2656.250000
184		2656.250000
185		2656.250000
186		2656.250000
187		2656.250000
188		2656.250000
189		2656.250000
190		2656.250000
191		2656.250000
192		2656.250000
193		2656.250000
194		2656.250000
195		2617.187500
196		2617.187500
197		2617.187500
198		2617.187500
199		2617.187500
200		2617.187500
201		2617.187500
202		2617.187500
203		2617.187500
204		2617.187500
205		2617.187500
206		2617.187500
207		2578.125000
208		2578.125000
209		2578.125000
210		2578.125000
211		2578.125000
212		2578.125000
213		2578.125000
214		2578.125000
215		2539.062500
216		2578.125000
217		2539.062500
218		2539.062500
219		2539.062500
220		2539.062500
221		2539.062500
222		2539.062500
223		2539.062500
224		2539.062500
225		2539.062500
226		2500.000000
227		2539.062500
228		2500.000000
229		2500.000000
230		2500.000000
231		2500.000000
232		2500.000000
233		2500.000000
234		2500.000000
235		2460.937500
236		2460.937500
237		2460.937500
238		2460.937500
239		2460.937500
240		2460.937500
241		2460.937500
242		2460.937500
243		2421.875000
244		2421.875000
245		2421.875000
246		2421.875000
247		2421.875000
248		2421.875000
249		2421.875000
250		2421.875000
251		2421.875000
252		2421.875000
253		2382.812500
254		2421.875000
255		2382.812500
256		2382.812500
257		2382.812500
258		2382.812500
259		2343.750000
260		2382.812500
261		2343.750000
262		2343.750000
263		2343.750000
264		2343.750000
265		2343.750000
266		2343.750000
267		2343.750000
268		2343.750000
269		2343.750000
270		2343.750000
271		2304.687500
272		2304.687500
273		2304.687500
274		2304.687500
275		2304.687500
276		2304.687500
277		2265.625000
278		2265.625000
279		2265.625000
280		2265.625000
281		2265.625000
282		2265.625000
283		2226.562500
284		2265.625000
285		2265.625000
286		2226.562500
287		2226.562500
288		2226.562500
289		2226.562500
290		2226.562500
291		2226.562500
292		2226.562500
293		2226.562500
294		2187.500000
295		2187.500000
296		2187.500000
297		2187.500000
298		2187.500000
299		2148.437500
300		2148.437500
301		2148.437500
302		2148.437500
303		2148.437500
304		2148.437500
305		2148.437500
306		2148.437500
307		2148.437500
308		2148.437500
309		2109.375000
310		2109.375000
311		2109.375000
312		2109.375000
313		2109.375000
314		2109.375000
315		2109.375000
316		2070.312500
317		2070.312500
318		2070.312500
319		2070.312500
320		2070.312500
321		2070.312500
322		2031.250000
323		2070.312500
324		2031.250000
325		2031.250000
326		2031.250000
327		2031.250000
328		2031.250000
329		2031.250000
330		2031.250000
331		2031.250000
332		2031.250000
333		1992.187500
334		1992.187500
335		1992.187500
336		1992.187500
337		1992.187500
338		1953.125000
339		1953.125000
340		1953.125000
341		1953.125000
342		1953.125000
343		1953.125000
344		1953.125000
345		1953.125000
346		1953.125000
347		1953.125000
348		1914.062500
349		1914.062500
350		1914.062500
351		1914.062500
352		1914.062500
353		1875.000000
354		1914.062500
355		1875.000000
356		1875.000000
357		1875.000000
358		1875.000000
359		1875.000000
360		1875.000000
361		1835.937500
362		1835.937500
363		1835.937500
364		1835.937500
365		1835.937500
366		1835.937500
367		1835.937500
368		1835.937500
369		1796.875000
370		1796.875000
371		1796.875000
372		1796.875000
373		1796.875000
374		1796.875000
375		1757.812500
376		1796.875000
377		1757.812500
378		1757.812500
379		1757.812500
380		1757.812500
381		1757.812500
382		1757.812500
383		1757.812500
384		1757.812500
385		1718.750000
386		1718.750000
387		1718.750000
388		1718.750000
389		1718.750000
390		1718.750000
391		1718.750000
392		1679.687500
393		1679.687500
394		1679.687500
395		1679.687500
396		1679.687500
397		1679.687500
398		1679.687500
399		1679.687500
400		1640.625000
401		1640.625000
402		1640.625000
403		1640.625000
404		1640.625000
405		1640.625000
406		1640.625000
407		1601.562500
408		1601.562500
409		1601.562500
410		1601.562500
411		1601.562500
412		1601.562500
413		1601.562500
414		1601.562500
415		1601.562500
416		1601.562500
417		1562.500000
418		1562.500000
419		1562.500000
420		1562.500000
421		1562.500000
422		1523.437500
423		1523.437500
424		1523.437500
425		1523.437500
426		1523.437500
427		1523.437500
428		1523.437500
429		1523.437500
430		1523.437500
431		1484.375000
432		1523.437500
433		1484.375000
434		1484.375000
435		1484.375000
436		1484.375000
437		1484.375000
438		1484.375000
439		1445.312500
440		1445.312500
441		1445.312500
442		1445.312500
443		1445.312500
444		1445.312500
445		1445.312500
446		1406.250000
447		1445.312500
448		1406.250000
449		1406.250000
450		1406.250000
451		1406.250000
452		1406.250000
453		1406.250000
454		1406.250000
455		1367.187500
456		1367.187500
457		1367.187500
458		1367.187500
459		1367.187500
460		1367.187500
461		1328.125000
462		1328.125000
463		1328.125000
464		1328.125000
465		1328.125000
466		1328.125000
467		1328.125000
468		1328.125000
469		1328.125000
470		1328.125000
471		1328.125000
472		1289.062500
473		1289.062500
474		1289.062500
475		1289.062500
476		1289.062500
477		1289.062500
478		1289.062500
479		1250.000000
480		1250.000000
481		1250.000000
482		1250.000000
483		1250.000000
484		1250.000000
485		1250.000000
486		1250.000000
487		1250.000000
488		1250.000000
489		1250.000000
490		1210.937500
491		1210.937500
492		1210.937500
493		1210.937500
494		1210.937500
495		1210.937500
496		1171.875000
497		1171.875000
498		1171.875000
499		1171.875000
500		1171.875000
501		1171.875000
502		1171.875000
503		1171.875000
504		1171.875000
505		1171.875000
506		1132.812500
507		1171.875000
508		1132.812500
509		1132.812500
510		1132.812500
511		1132.812500
512		1132.812500
513		1132.812500
514		1132.812500
515		1093.750000
516		1093.750000
517		1093.750000
518		1093.750000
519		1093.750000
520		1093.750000
521		1093.750000
522		1093.750000
523		1015.625000
524		1054.687500
525		1054.687500
526		1054.687500
527		1054.687500
528		1054.687500
529		1054.687500
530		1054.687500
531		1054.687500
532		1054.687500
533		1015.625000
534		1015.625000
535		1015.625000
536		1015.625000
537		1015.625000
538		1015.625000
539		1015.625000
540		1015.625000
541		1015.625000
542		1015.625000
543		1015.625000
544		976.562500
545		976.562500
546		976.562500
547		976.562500
548		976.562500
549		976.562500
550		976.562500
551		976.562500
552		976.562500
553		937.500000
554		937.500000
555		937.500000
556		937.500000
557		937.500000
558		937.500000
559		937.500000
560		937.500000
561		937.500000
562		937.500000
563		898.437500
564		898.437500
565		898.437500
566		898.437500
567		898.437500
568		898.437500
569		898.437500
570		898.437500
571		898.437500
572		898.437500
573		859.375000
574		859.375000
575		859.375000
576		859.375000
577		859.375000
578		859.375000
579		820.312500
580		898.437500
581		859.375000
582		859.375000
583		820.312500
584		859.375000
585		820.312500
586		820.312500
587		820.312500
588		820.312500
589		820.312500
590		820.312500
591		820.312500
592		820.312500
593		820.312500
594		742.187500
595		781.250000
596		781.250000
597		781.250000
598		781.250000
599		781.250000
600		781.250000
601		781.250000
602		781.250000
603		781.250000
604		781.250000
605		742.187500
606		742.187500
607		742.187500
608		742.187500
609		742.187500
610		742.187500
611		742.187500
612		742.187500
613		742.187500
614		742.187500
615		742.187500
616		742.187500
617		703.125000
618		703.125000
619		703.125000
620		703.125000
621		703.125000
622		703.125000
623		703.125000
624		703.125000
625		703.125000
626		703.125000
627		703.125000
628		703.125000
629		703.125000
630		664.062500
631		664.062500
632		664.062500
633		664.062500
634		664.062500
635		664.062500
636		664.062500
637		664.062500
638		664.062500
639		664.062500
640		664.062500
641		664.062500
642		625.000000
643		625.000000
644		625.000000
645		625.000000
646		625.000000
647		625.000000
648		625.000000
649		625.000000
650		625.000000
651		625.000000
652		625.000000
653		625.000000
654		625.000000
655		625.000000
656		625.000000
657		585.937500
658		585.937500
659		585.937500
660		585.937500
661		585.937500
662		585.937500
663		585.937500
664		585.937500
665		585.937500
666		585.937500
667		585.937500
668		585.937500
669		585.937500
670		585.937500
671		585.937500
672		546.875000
673		585.937500
674		585.937500
675		546.875000
676		546.875000
677		546.875000
678		546.875000
679		546.875000
680		546.875000
681		546.875000
682		546.875000
683		546.875000
684		546.875000
685		546.875000
686		507.812500
687		546.875000
688		546.875000
689		507.812500
690		507.812500
691		507.812500
692		507.812500
693		507.812500
694		507.812500
695		507.812500
696		507.812500
697		507.812500
698		507.812500
699		507.812500
700		507.812500
701		468.750000
702		507.812500
703		507.812500
704		507.812500
705		468.750000
706		507.812500
707		468.750000
708		468.750000
709		468.750000
710		468.750000
711		468.750000
712		468.750000
713		468.750000
714		468.750000
715		468.750000
716		468.750000
717		468.750000
718		468.750000
719		468.750000
720		429.687500
721		429.687500
722		429.687500
723		429.687500
724		429.687500
725		468.750000
726		429.687500
727		429.687500
728		429.687500
729		429.687500
730		429.687500
731		429.687500
732		429.687500
733		429.687500
734		429.687500
735		429.687500
736		429.687500
737		429.687500
738		390.625000
739		390.625000
740		390.625000
741		390.625000
742		429.687500
743		390.625000
744		390.625000
745		390.625000
746		390.625000
747		390.625000
748		390.625000
749		390.625000
750		390.625000
751		390.625000
752		390.625000
753		390.625000
754		390.625000
755		390.625000
756		390.625000
757		390.625000
758		390.625000
759		390.625000
760		390.625000
761		390.625000
762		390.625000
763		390.625000
764		390.625000
765		351.562500
766		351.562500
767		351.562500
768		390.625000
769		351.562500
770		351.562500
771		390.625000
772		351.562500
773		351.562500
774		351.562500
775		351.562500
776		351.562500
777		351.562500
778		351.562500
779		351.562500
780		351.562500
781		351.562500
782		351.562500
783		351.562500
784		351.562500
785		351.562500
786		351.562500
787		351.562500
788		351.562500
789		351.562500
790		351.562500
791		351.562500
792		312.500000
793		351.562500
794		351.562500
795		351.562500
796		312.500000
797		312.500000
798		312.500000
799		312.500000
800		312.500000
801		312.500000
802		312.500000
803		312.500000
804		312.500000
805		312.500000
806		312.500000
807		312.500000
808		312.500000
809		312.500000
810		312.500000
811		312.500000
812		312.500000
813		312.500000
814		312.500000
815		312.500000
816		312.500000
817		312.500000
818		312.500000
819		312.500000
820		312.500000
821		312.500000
822		312.500000
823		312.500000
824		312.500000
825		312.500000
826		312.500000
827		312.500000
828		312.500000
829		312.500000
830		312.500000
831		312.500000
832		312.500000
833		312.500000
834		312.500000
835		312.500000
836		312.500000
837		312.500000
838		312.500000
839		273.437500
840		273.437500
841		273.437500
842		273.437500
843		273.437500
844		273.437500
845		312.500000
846		312.500000
847		312.500000
848		312.500000
849		312.500000
850		312.500000
851		312.500000
852		312.500000
853		312.500000
854		312.500000
855		312.500000
856		273.437500
857		273.437500
858		273.437500
859		273.437500
860		273.437500
861		273.437500
862		273.437500
863		273.437500
864		273.437500
865		273.437500
866		273.437500
867		273.437500
868		312.500000
869		312.500000
870		312.500000
871		312.500000
872		273.437500
873		273.437500
874		273.437500
875		273.437500
876		273.437500
877		273.437500
878		273.437500
879		273.437500
880		273.437500
881		273.437500
882		273.437500
883		273.437500
884		273.437500
885		273.437500
886		273.437500
887		273.437500
888		273.437500
889		273.437500
890		312.500000
891		312.500000
892		273.437500
893		273.437500
894		273.437500
895		273.437500
896		273.437500
897		273.437500
898		273.437500
899		273.437500
900		273.437500
901		273.437500
902		273.437500
903		273.437500
904		273.437500
905		273.437500
906		312.500000
907		273.437500
908		312.500000
909		273.437500
910		273.437500
911		312.500000
912		273.437500
913		273.437500
914		273.437500
915		273.437500
916		273.437500
917		273.437500
918		273.437500
919		273.437500
920		273.437500
921		273.437500
922		273.437500
923		312.500000
924		312.500000
925		273.437500
926		312.500000
927		312.500000
928		312.500000
929		312.500000
930		273.437500
931		312.500000
932		273.437500
933		312.500000
934		273.437500
935		312.500000
936		312.500000
937		312.500000
938		312.500000
939		312.500000
940		312.500000
941		312.500000
942		312.500000
943		312.500000
944		312.500000
945		312.500000
946		312.500000
947		312.500000
948		312.500000
949		312.500000
950		312.500000
951		312.500000
952		312.500000
953		312.500000
954		312.500000
955		312.500000
956		312.500000
957		312.500000
958		312.500000
959		312.500000
960		312.500000
961		312.500000
962		312.500000
963		312.500000
964		312.500000
965		312.500000
966		312.500000
967		312.500000
968		312.500000
969		312.500000
970		312.500000
971		351.562500
972		351.562500
973		351.562500
974		351.562500
975		351.562500
976		351.562500
977		351.562500
978		351.562500
979		351.562500
980		351.562500
981		351.562500
982		351.562500
983		351.562500
984		351.562500
985		351.562500
986		351.562500
987		351.562500
988		351.562500
989		351.562500
990		351.562500
991		351.562500
992		351.562500
993		351.562500
994		351.562500
995		351.562500
996		351.562500
997		351.562500
998		351.562500
999		351.562500
1000		351.562500
1001		351.562500
1002		351.562500
1003		351.562500
1004		390.625000
1005		351.562500
1006		390.625000
1007		351.562500
1008		390.625000
1009		390.625000
1010		390.625000
1011		390.625000
1012		390.625000
1013		390.625000
1014		390.625000
1015		390.625000
1016		390.625000
1017		390.625000
1018		390.625000
1019		390.625000
1020		390.625000
1021		390.625000
1022		390.625000
1023		390.625000
1024		390.625000
1025		390.625000
1026		390.625000
1027		390.625000
1028		429.687500
1029		429.687500
1030		429.687500
1031		429.687500
1032		429.687500
1033		429.687500
1034		429.687500
1035		429.687500
1036		429.687500
1037		429.687500
1038		429.687500
1039		429.687500
1040		429.687500
1041		429.687500
1042		429.687500
1043		429.687500
1044		429.687500
1045		429.687500
1046		429.687500
1047		429.687500
1048		468.750000
1049		468.750000
1050		468.750000
1051		468.750000
1052		468.750000
1053		468.750000
1054		468.750000
1055		468.750000
1056		468.750000
1057		468.750000
1058		468.750000
1059		468.750000
1060		468.750000
1061		468.750000
1062		468.750000
1063		468.750000
1064		468.750000
1065		468.750000
1066		468.750000
1067		507.812500
1068		507.812500
1069		507.812500
1070		507.812500
1071		507.812500
1072		507.812500
1073		507.812500
1074		507.812500
1075		507.812500
1076		507.812500
1077		507.812500
1078		507.812500
1079		507.812500
1080		507.812500
1081		507.812500
1082		507.812500
1083		507.812500
1084		546.875000
1085		507.812500
1086		546.875000
1087		546.875000
1088		546.875000
1089		546.875000
1090		546.875000
1091		546.875000
1092		546.875000
1093		546.875000
1094		546.875000
1095		546.875000
1096		546.875000
1097		546.875000
1098		546.875000
1099		546.875000
1100		546.875000
1101		546.875000
1102		585.937500
1103		585.937500
1104		585.937500
1105		585.937500
1106		585.937500
1107		585.937500
1108		585.937500
1109		585.937500
1110		585.937500
1111		585.937500
1112		585.937500
1113		585.937500
1114		585.937500
1115		585.937500
1116		585.937500
1117		625.000000
1118		585.937500
1119		625.000000
1120		625.000000
1121		625.000000
1122		625.000000
1123		625.000000
1124		625.000000
1125		625.000000
1126		625.000000
1127		625.000000
1128		664.062500
1129		664.062500
1130		664.062500
1131		664.062500
1132		664.062500
1133		664.062500
1134		664.062500
1135		664.062500
1136		664.062500
1137		664.062500
1138		664.062500
1139		664.062500
1140		664.062500
1141		703.125000
1142		703.125000
1143		703.125000
1144		703.125000
1145		703.125000
1146		703.125000
1147		703.125000
1148		703.125000
1149		703.125000
1150		703.125000
1151		703.125000
1152		703.125000
1153		742.187500
1154		742.187500
1155		742.187500
1156		742.187500
1157		742.187500
1158		742.187500
1159		742.187500
1160		742.187500
1161		742.187500
1162		742.187500
1163		742.187500
1164		742.187500
1165		742.187500
1166		781.250000
1167		781.250000
1168		781.250000
1169		781.250000
1170		781.250000
1171		781.250000
1172		781.250000
1173		781.250000
1174		781.250000
1175		781.250000
1176		820.312500
1177		820.312500
1178		820.312500
1179		820.312500
1180		820.312500
1181		820.312500
1182		820.312500
1183		820.312500
1184		820.312500
1185		820.312500
1186		859.375000
1187		820.312500
1188		859.375000
1189		820.312500
1190		859.375000
1191		859.375000
1192		859.375000
1193		898.437500
1194		859.375000
1195		859.375000
