Vrije proef/m5-2.txt

Channel              :		CH1
Frequency            :		  ?
Period               :		  ?
PK-PK                :		1.641V
Probe attenuation    :		1X
Voltage per ADC value:		4.882813mV
Time interval        :		1000.00000us

index		CH1_Voltage(mV)
1		2421.875000
2		2421.875000
3		2421.875000
4		2421.875000
5		2421.875000
6		2421.875000
7		2421.875000
8		2421.875000
9		2421.875000
10		2421.875000
11		2421.875000
12		2421.875000
13		2421.875000
14		2421.875000
15		2421.875000
16		2421.875000
17		2421.875000
18		2421.875000
19		2421.875000
20		2421.875000
21		2343.750000
22		2343.750000
23		2343.750000
24		2343.750000
25		2343.750000
26		2343.750000
27		2343.750000
28		2343.750000
29		2343.750000
30		2343.750000
31		2343.750000
32		2343.750000
33		2343.750000
34		2343.750000
35		2343.750000
36		2343.750000
37		2343.750000
38		2343.750000
39		2343.750000
40		2343.750000
41		2343.750000
42		2343.750000
43		2343.750000
44		2343.750000
45		2343.750000
46		2343.750000
47		2343.750000
48		2343.750000
49		2343.750000
50		2343.750000
51		2343.750000
52		2343.750000
53		2343.750000
54		2343.750000
55		2343.750000
56		2343.750000
57		2343.750000
58		2343.750000
59		2265.625000
60		2343.750000
61		2265.625000
62		2265.625000
63		2265.625000
64		2265.625000
65		2265.625000
66		2265.625000
67		2265.625000
68		2265.625000
69		2265.625000
70		2265.625000
71		2265.625000
72		2265.625000
73		2265.625000
74		2265.625000
75		2265.625000
76		2265.625000
77		2265.625000
78		2265.625000
79		2265.625000
80		2265.625000
81		2265.625000
82		2265.625000
83		2265.625000
84		2265.625000
85		2265.625000
86		2265.625000
87		2265.625000
88		2265.625000
89		2265.625000
90		2265.625000
91		2265.625000
92		2265.625000
93		2265.625000
94		2265.625000
95		2265.625000
96		2265.625000
97		2265.625000
98		2265.625000
99		2265.625000
100		2265.625000
101		2265.625000
102		2265.625000
103		2265.625000
104		2265.625000
105		2265.625000
106		2265.625000
107		2187.500000
108		2265.625000
109		2265.625000
110		2187.500000
111		2265.625000
112		2265.625000
113		2187.500000
114		2187.500000
115		2187.500000
116		2187.500000
117		2187.500000
118		2187.500000
119		2187.500000
120		2187.500000
121		2187.500000
122		2187.500000
123		2187.500000
124		2187.500000
125		2187.500000
126		2187.500000
127		2187.500000
128		2187.500000
129		2187.500000
130		2187.500000
131		2187.500000
132		2187.500000
133		2187.500000
134		2187.500000
135		2187.500000
136		2187.500000
137		2187.500000
138		2187.500000
139		2187.500000
140		2187.500000
141		2187.500000
142		2187.500000
143		2187.500000
144		2187.500000
145		2187.500000
146		2187.500000
147		2187.500000
148		2187.500000
149		2187.500000
150		2187.500000
151		2187.500000
152		2187.500000
153		2187.500000
154		2187.500000
155		2187.500000
156		2187.500000
157		2187.500000
158		2187.500000
159		2187.500000
160		2187.500000
161		2187.500000
162		2187.500000
163		2187.500000
164		2187.500000
165		2187.500000
166		2187.500000
167		2109.375000
168		2187.500000
169		2187.500000
170		2187.500000
171		2187.500000
172		2187.500000
173		2187.500000
174		2187.500000
175		2187.500000
176		2109.375000
177		2187.500000
178		2187.500000
179		2109.375000
180		2187.500000
181		2109.375000
182		2109.375000
183		2109.375000
184		2109.375000
185		2109.375000
186		2109.375000
187		2109.375000
188		2109.375000
189		2109.375000
190		2109.375000
191		2109.375000
192		2109.375000
193		2109.375000
194		2109.375000
195		2109.375000
196		2109.375000
197		2109.375000
198		2109.375000
199		2109.375000
200		2109.375000
201		2109.375000
202		2109.375000
203		2109.375000
204		2109.375000
205		2109.375000
206		2109.375000
207		2109.375000
208		2109.375000
209		2109.375000
210		2109.375000
211		2109.375000
212		2109.375000
213		2109.375000
214		2109.375000
215		2109.375000
216		2109.375000
217		2109.375000
218		2109.375000
219		2109.375000
220		2109.375000
221		2109.375000
222		2109.375000
223		2109.375000
224		2109.375000
225		2109.375000
226		2109.375000
227		2109.375000
228		2109.375000
229		2109.375000
230		2109.375000
231		2109.375000
232		2109.375000
233		2109.375000
234		2109.375000
235		2109.375000
236		2109.375000
237		2109.375000
238		2109.375000
239		2109.375000
240		2109.375000
241		2109.375000
242		2109.375000
243		2109.375000
244		2109.375000
245		2109.375000
246		2109.375000
247		2109.375000
248		2109.375000
249		2109.375000
250		2109.375000
251		2109.375000
252		2109.375000
253		2109.375000
254		2109.375000
255		2109.375000
256		2109.375000
257		2109.375000
258		2109.375000
259		2109.375000
260		2109.375000
261		2109.375000
262		2109.375000
263		2109.375000
264		2109.375000
265		2109.375000
266		2109.375000
267		2109.375000
268		2109.375000
269		2109.375000
270		2109.375000
271		2109.375000
272		2109.375000
273		2109.375000
274		2109.375000
275		2109.375000
276		2109.375000
277		2109.375000
278		2109.375000
279		2109.375000
280		2109.375000
281		2109.375000
282		2031.250000
283		2109.375000
284		2109.375000
285		2109.375000
286		2109.375000
287		2031.250000
288		2109.375000
289		2109.375000
290		2109.375000
291		2109.375000
292		2109.375000
293		2109.375000
294		2109.375000
295		2109.375000
296		2109.375000
297		2031.250000
298		2109.375000
299		2109.375000
300		2031.250000
301		2031.250000
302		2109.375000
303		2031.250000
304		2031.250000
305		2109.375000
306		2031.250000
307		2109.375000
308		2031.250000
309		2031.250000
310		2031.250000
311		2031.250000
312		2031.250000
313		2031.250000
314		2031.250000
315		2031.250000
316		2109.375000
317		2031.250000
318		2031.250000
319		2031.250000
320		2031.250000
321		2031.250000
322		2109.375000
323		2031.250000
324		2031.250000
325		2031.250000
326		2031.250000
327		2031.250000
328		2031.250000
329		2031.250000
330		2031.250000
331		2031.250000
332		2031.250000
333		2031.250000
334		2109.375000
335		2031.250000
336		2031.250000
337		2031.250000
338		2109.375000
339		2031.250000
340		2031.250000
341		2031.250000
342		2031.250000
343		2031.250000
344		2031.250000
345		2031.250000
346		2031.250000
347		2031.250000
348		2031.250000
349		2031.250000
350		2031.250000
351		2031.250000
352		2031.250000
353		2031.250000
354		2031.250000
355		2031.250000
356		2031.250000
357		2031.250000
358		2109.375000
359		2109.375000
360		2031.250000
361		2109.375000
362		2031.250000
363		2031.250000
364		2031.250000
365		2031.250000
366		2031.250000
367		2031.250000
368		2031.250000
369		2031.250000
370		2031.250000
371		2031.250000
372		2031.250000
373		2109.375000
374		2109.375000
375		2031.250000
376		2109.375000
377		2109.375000
378		2109.375000
379		2109.375000
380		2109.375000
381		2031.250000
382		2031.250000
383		2031.250000
384		2031.250000
385		2031.250000
386		2031.250000
387		2031.250000
388		2031.250000
389		2031.250000
390		2031.250000
391		2109.375000
392		2109.375000
393		2109.375000
394		2109.375000
395		2109.375000
396		2109.375000
397		2109.375000
398		2109.375000
399		2109.375000
400		2109.375000
401		2109.375000
402		2109.375000
403		2031.250000
404		2031.250000
405		2109.375000
406		2109.375000
407		2109.375000
408		2109.375000
409		2109.375000
410		2109.375000
411		2109.375000
412		2109.375000
413		2109.375000
414		2109.375000
415		2109.375000
416		2109.375000
417		2109.375000
418		2109.375000
419		2109.375000
420		2109.375000
421		2109.375000
422		2109.375000
423		2109.375000
424		2109.375000
425		2109.375000
426		2109.375000
427		2109.375000
428		2109.375000
429		2109.375000
430		2109.375000
431		2109.375000
432		2109.375000
433		2109.375000
434		2109.375000
435		2109.375000
436		2109.375000
437		2109.375000
438		2109.375000
439		2109.375000
440		2109.375000
441		2109.375000
442		2109.375000
443		2109.375000
444		2109.375000
445		2109.375000
446		2109.375000
447		2109.375000
448		2109.375000
449		2109.375000
450		2109.375000
451		2109.375000
452		2109.375000
453		2109.375000
454		2109.375000
455		2109.375000
456		2109.375000
457		2109.375000
458		2109.375000
459		2109.375000
460		2109.375000
461		2109.375000
462		2109.375000
463		2109.375000
464		2109.375000
465		2109.375000
466		2109.375000
467		2109.375000
468		2109.375000
469		2109.375000
470		2109.375000
471		2109.375000
472		2109.375000
473		2109.375000
474		2109.375000
475		2109.375000
476		2109.375000
477		2109.375000
478		2109.375000
479		2109.375000
480		2109.375000
481		2109.375000
482		2109.375000
483		2109.375000
484		2109.375000
485		2109.375000
486		2109.375000
487		2109.375000
488		2109.375000
489		2109.375000
490		2109.375000
491		2109.375000
492		2109.375000
493		2109.375000
494		2109.375000
495		2109.375000
496		2109.375000
497		2109.375000
498		2109.375000
499		2109.375000
500		2109.375000
501		2109.375000
502		2109.375000
503		2187.500000
504		2109.375000
505		2109.375000
506		2187.500000
507		2187.500000
508		2109.375000
509		2187.500000
510		2109.375000
511		2187.500000
512		2109.375000
513		2187.500000
514		2187.500000
515		2187.500000
516		2187.500000
517		2187.500000
518		2187.500000
519		2187.500000
520		2187.500000
521		2187.500000
522		2187.500000
523		2187.500000
524		2187.500000
525		2187.500000
526		2187.500000
527		2187.500000
528		2187.500000
529		2187.500000
530		2187.500000
531		2187.500000
532		2187.500000
533		2187.500000
534		2187.500000
535		2187.500000
536		2187.500000
537		2187.500000
538		2187.500000
539		2187.500000
540		2187.500000
541		2187.500000
542		2187.500000
543		2187.500000
544		2187.500000
545		2187.500000
546		2187.500000
547		2187.500000
548		2187.500000
549		2187.500000
550		2187.500000
551		2187.500000
552		2187.500000
553		2187.500000
554		2187.500000
555		2187.500000
556		2187.500000
557		2187.500000
558		2187.500000
559		2187.500000
560		2187.500000
561		2187.500000
562		2187.500000
563		2187.500000
564		2187.500000
565		2187.500000
566		2187.500000
567		2187.500000
568		2187.500000
569		2187.500000
570		2187.500000
571		2265.625000
572		2265.625000
573		2265.625000
574		2265.625000
575		2265.625000
576		2265.625000
577		2265.625000
578		2265.625000
579		2265.625000
580		2265.625000
581		2265.625000
582		2265.625000
583		2265.625000
584		2265.625000
585		2265.625000
586		2265.625000
587		2265.625000
588		2265.625000
589		2265.625000
590		2265.625000
591		2265.625000
592		2265.625000
593		2265.625000
594		2265.625000
595		2265.625000
596		2265.625000
597		2265.625000
598		2265.625000
599		2265.625000
600		2265.625000
601		2265.625000
602		2265.625000
603		2265.625000
604		2265.625000
605		2265.625000
606		2265.625000
607		2265.625000
608		2265.625000
609		2265.625000
610		2265.625000
611		2265.625000
612		2265.625000
613		2265.625000
614		2265.625000
615		2343.750000
616		2265.625000
617		2265.625000
618		2343.750000
619		2343.750000
620		2265.625000
621		2265.625000
622		2265.625000
623		2343.750000
624		2343.750000
625		2343.750000
626		2343.750000
627		2343.750000
628		2343.750000
629		2343.750000
630		2343.750000
631		2343.750000
632		2343.750000
633		2343.750000
634		2343.750000
635		2343.750000
636		2343.750000
637		2343.750000
638		2343.750000
639		2343.750000
640		2343.750000
641		2343.750000
642		2343.750000
643		2343.750000
644		2343.750000
645		2343.750000
646		2343.750000
647		2343.750000
648		2343.750000
649		2343.750000
650		2343.750000
651		2343.750000
652		2343.750000
653		2343.750000
654		2421.875000
655		2421.875000
656		2421.875000
657		2343.750000
658		2421.875000
659		2421.875000
660		2421.875000
661		2421.875000
662		2421.875000
663		2421.875000
664		2421.875000
665		2421.875000
666		2421.875000
667		2421.875000
668		2421.875000
669		2421.875000
670		2421.875000
671		2421.875000
672		2421.875000
673		2421.875000
674		2421.875000
675		2421.875000
676		2421.875000
677		2421.875000
678		2421.875000
679		2421.875000
680		2421.875000
681		2421.875000
682		2421.875000
683		2421.875000
684		2421.875000
685		2421.875000
686		2421.875000
687		2421.875000
688		2421.875000
689		2421.875000
690		2421.875000
691		2500.000000
692		2500.000000
693		2500.000000
694		2500.000000
695		2500.000000
696		2500.000000
697		2500.000000
698		2500.000000
699		2500.000000
700		2500.000000
701		2500.000000
702		2500.000000
703		2500.000000
704		2500.000000
705		2500.000000
706		2500.000000
707		2500.000000
708		2500.000000
709		2500.000000
710		2500.000000
711		2500.000000
712		2500.000000
713		2500.000000
714		2500.000000
715		2500.000000
716		2500.000000
717		2500.000000
718		2578.125000
719		2578.125000
720		2578.125000
721		2578.125000
722		2500.000000
723		2578.125000
724		2578.125000
725		2578.125000
726		2578.125000
727		2578.125000
728		2578.125000
729		2578.125000
730		2578.125000
731		2578.125000
732		2578.125000
733		2578.125000
734		2578.125000
735		2578.125000
736		2578.125000
737		2578.125000
738		2578.125000
739		2578.125000
740		2578.125000
741		2578.125000
742		2578.125000
743		2578.125000
744		2578.125000
745		2578.125000
746		2578.125000
747		2578.125000
748		2578.125000
749		2578.125000
750		2656.250000
751		2656.250000
752		2656.250000
753		2656.250000
754		2656.250000
755		2656.250000
756		2656.250000
757		2656.250000
758		2656.250000
759		2656.250000
760		2656.250000
761		2656.250000
762		2656.250000
763		2656.250000
764		2656.250000
765		2656.250000
766		2656.250000
767		2656.250000
768		2656.250000
769		2656.250000
770		2656.250000
771		2656.250000
772		2656.250000
773		2734.375000
774		2734.375000
775		2734.375000
776		2734.375000
777		2734.375000
778		2734.375000
779		2734.375000
780		2734.375000
781		2734.375000
782		2734.375000
783		2734.375000
784		2734.375000
785		2734.375000
786		2734.375000
787		2734.375000
788		2734.375000
789		2734.375000
790		2734.375000
791		2734.375000
792		2734.375000
793		2734.375000
794		2734.375000
795		2734.375000
796		2734.375000
797		2812.500000
798		2812.500000
799		2812.500000
800		2734.375000
801		2812.500000
802		2812.500000
803		2812.500000
804		2812.500000
805		2812.500000
806		2812.500000
807		2812.500000
808		2812.500000
809		2812.500000
810		2812.500000
811		2812.500000
812		2812.500000
813		2812.500000
814		2812.500000
815		2812.500000
816		2812.500000
817		2812.500000
818		2812.500000
819		2812.500000
820		2812.500000
821		2812.500000
822		2812.500000
823		2812.500000
824		2890.625000
825		2890.625000
826		2890.625000
827		2890.625000
828		2890.625000
829		2890.625000
830		2890.625000
831		2890.625000
832		2890.625000
833		2890.625000
834		2890.625000
835		2890.625000
836		2890.625000
837		2890.625000
838		2890.625000
839		2890.625000
840		2890.625000
841		2890.625000
842		2890.625000
843		2890.625000
844		2890.625000
845		2968.750000
846		2968.750000
847		2968.750000
848		2968.750000
849		2968.750000
850		2968.750000
851		2968.750000
852		2968.750000
853		2968.750000
854		2968.750000
855		2968.750000
856		2968.750000
857		2968.750000
858		2968.750000
859		2968.750000
860		2968.750000
861		2968.750000
862		2968.750000
863		2968.750000
864		2968.750000
865		2968.750000
866		2968.750000
867		2968.750000
868		3046.875000
869		3046.875000
870		2968.750000
871		3046.875000
872		3046.875000
873		3046.875000
874		3046.875000
875		3046.875000
876		3046.875000
877		3046.875000
878		3046.875000
879		3046.875000
880		3046.875000
881		3046.875000
882		3046.875000
883		3046.875000
884		3046.875000
885		3046.875000
886		3046.875000
887		3046.875000
888		3046.875000
889		3046.875000
890		3046.875000
891		3046.875000
892		3125.000000
893		3125.000000
894		3125.000000
895		3125.000000
896		3125.000000
897		3125.000000
898		3125.000000
899		3125.000000
900		3125.000000
901		3125.000000
902		3125.000000
903		3125.000000
904		3125.000000
905		3125.000000
906		3125.000000
907		3125.000000
908		3125.000000
909		3125.000000
910		3125.000000
911		3125.000000
912		3125.000000
913		3125.000000
914		3203.125000
915		3203.125000
916		3203.125000
917		3203.125000
918		3203.125000
919		3203.125000
920		3203.125000
921		3203.125000
922		3203.125000
923		3203.125000
924		3203.125000
925		3203.125000
926		3203.125000
927		3203.125000
928		3203.125000
929		3203.125000
930		3203.125000
931		3203.125000
932		3203.125000
933		3203.125000
934		3203.125000
935		3203.125000
936		3281.250000
937		3281.250000
938		3281.250000
939		3281.250000
940		3281.250000
941		3281.250000
942		3281.250000
943		3281.250000
944		3281.250000
945		3281.250000
946		3281.250000
947		3281.250000
948		3281.250000
949		3281.250000
950		3281.250000
951		3281.250000
952		3281.250000
953		3281.250000
954		3281.250000
955		3281.250000
956		3281.250000
957		3281.250000
958		3281.250000
959		3281.250000
960		3281.250000
961		3281.250000
962		3281.250000
963		3281.250000
964		3281.250000
965		3281.250000
966		3281.250000
967		3359.375000
968		3359.375000
969		3359.375000
970		3359.375000
971		3359.375000
972		3359.375000
973		3359.375000
974		3359.375000
975		3359.375000
976		3359.375000
977		3359.375000
978		3359.375000
979		3359.375000
980		3359.375000
981		3359.375000
982		3359.375000
983		3359.375000
984		3359.375000
985		3359.375000
986		3359.375000
987		3359.375000
988		3437.500000
989		3437.500000
990		3437.500000
991		3437.500000
992		3437.500000
993		3437.500000
994		3437.500000
995		3437.500000
996		3437.500000
997		3437.500000
998		3437.500000
999		3437.500000
1000		3437.500000
1001		3437.500000
1002		3437.500000
1003		3437.500000
1004		3437.500000
1005		3437.500000
1006		3437.500000
1007		3437.500000
1008		3437.500000
1009		3437.500000
1010		3437.500000
1011		3437.500000
1012		3437.500000
1013		3437.500000
1014		3437.500000
1015		3437.500000
1016		3437.500000
1017		3437.500000
1018		3437.500000
1019		3437.500000
1020		3437.500000
1021		3515.625000
1022		3515.625000
1023		3515.625000
1024		3515.625000
1025		3515.625000
1026		3515.625000
1027		3515.625000
1028		3515.625000
1029		3515.625000
1030		3515.625000
1031		3515.625000
1032		3515.625000
1033		3515.625000
1034		3515.625000
1035		3515.625000
1036		3515.625000
1037		3515.625000
1038		3515.625000
1039		3515.625000
1040		3515.625000
1041		3515.625000
1042		3515.625000
1043		3515.625000
1044		3515.625000
1045		3515.625000
1046		3515.625000
1047		3515.625000
1048		3515.625000
1049		3515.625000
1050		3515.625000
1051		3515.625000
1052		3515.625000
1053		3515.625000
1054		3593.750000
1055		3593.750000
1056		3593.750000
1057		3593.750000
1058		3593.750000
1059		3593.750000
1060		3593.750000
1061		3593.750000
1062		3593.750000
1063		3593.750000
1064		3593.750000
1065		3593.750000
1066		3593.750000
1067		3593.750000
1068		3593.750000
1069		3593.750000
1070		3593.750000
1071		3593.750000
1072		3593.750000
1073		3593.750000
1074		3593.750000
1075		3593.750000
1076		3593.750000
1077		3593.750000
1078		3593.750000
1079		3593.750000
1080		3593.750000
1081		3593.750000
1082		3593.750000
1083		3593.750000
1084		3593.750000
1085		3593.750000
1086		3593.750000
1087		3593.750000
1088		3593.750000
1089		3593.750000
1090		3593.750000
1091		3593.750000
1092		3593.750000
1093		3593.750000
1094		3593.750000
1095		3593.750000
1096		3593.750000
1097		3593.750000
1098		3593.750000
1099		3593.750000
1100		3593.750000
1101		3671.875000
1102		3593.750000
1103		3671.875000
1104		3593.750000
1105		3671.875000
1106		3593.750000
1107		3593.750000
1108		3593.750000
1109		3671.875000
1110		3671.875000
1111		3671.875000
1112		3671.875000
1113		3671.875000
1114		3671.875000
1115		3671.875000
1116		3671.875000
1117		3671.875000
1118		3671.875000
1119		3671.875000
1120		3671.875000
1121		3671.875000
1122		3671.875000
1123		3671.875000
1124		3671.875000
1125		3671.875000
1126		3671.875000
1127		3671.875000
1128		3671.875000
1129		3671.875000
1130		3671.875000
1131		3671.875000
1132		3671.875000
1133		3671.875000
1134		3671.875000
1135		3671.875000
1136		3671.875000
1137		3671.875000
1138		3671.875000
1139		3671.875000
1140		3671.875000
1141		3671.875000
1142		3671.875000
1143		3671.875000
1144		3671.875000
1145		3671.875000
1146		3671.875000
1147		3671.875000
1148		3671.875000
1149		3671.875000
1150		3671.875000
1151		3671.875000
1152		3671.875000
1153		3671.875000
1154		3671.875000
1155		3671.875000
1156		3671.875000
1157		3671.875000
1158		3671.875000
1159		3671.875000
