Vrije proef/m5-ster.txt

Channel              :		CH1
Frequency            :		  ?
Period               :		  ?
PK-PK                :		2.773V
Probe attenuation    :		1X
Voltage per ADC value:		2.441406mV
Time interval        :		1000.00000us

index		CH1_Voltage(mV)
1		3085.937500
2		3085.937500
3		3085.937500
4		3085.937500
5		3085.937500
6		3085.937500
7		3085.937500
8		3085.937500
9		3085.937500
10		3085.937500
11		3085.937500
12		3085.937500
13		3085.937500
14		3085.937500
15		3085.937500
16		3085.937500
17		3085.937500
18		3085.937500
19		3085.937500
20		3085.937500
21		3085.937500
22		3085.937500
23		3085.937500
24		3085.937500
25		3085.937500
26		3085.937500
27		3085.937500
28		3085.937500
29		3125.000000
30		3085.937500
31		3085.937500
32		3085.937500
33		3085.937500
34		3085.937500
35		3085.937500
36		3085.937500
37		3085.937500
38		3085.937500
39		3085.937500
40		3085.937500
41		3085.937500
42		3085.937500
43		3085.937500
44		3085.937500
45		3085.937500
46		3085.937500
47		3085.937500
48		3085.937500
49		3085.937500
50		3085.937500
51		3085.937500
52		3085.937500
53		3085.937500
54		3085.937500
55		3085.937500
56		3085.937500
57		3085.937500
58		3085.937500
59		3085.937500
60		3085.937500
61		3085.937500
62		3085.937500
63		3085.937500
64		3085.937500
65		3085.937500
66		3085.937500
67		3085.937500
68		3085.937500
69		3085.937500
70		3085.937500
71		3085.937500
72		3085.937500
73		3125.000000
74		3085.937500
75		3085.937500
76		3085.937500
77		3085.937500
78		3085.937500
79		3085.937500
80		3085.937500
81		3085.937500
82		3085.937500
83		3125.000000
84		3085.937500
85		3085.937500
86		3085.937500
87		3085.937500
88		3085.937500
89		3085.937500
90		3085.937500
91		3085.937500
92		3085.937500
93		3085.937500
94		3085.937500
95		3085.937500
96		3085.937500
97		3085.937500
98		3085.937500
99		3085.937500
100		3085.937500
101		3085.937500
102		3085.937500
103		3085.937500
104		3085.937500
105		3085.937500
106		3085.937500
107		3085.937500
108		3085.937500
109		3085.937500
110		3085.937500
111		3085.937500
112		3085.937500
113		3085.937500
114		3085.937500
115		3085.937500
116		3085.937500
117		3085.937500
118		3085.937500
119		3085.937500
120		3085.937500
121		3085.937500
122		3085.937500
123		3085.937500
124		3085.937500
125		3085.937500
126		3085.937500
127		3085.937500
128		3085.937500
129		3085.937500
130		3085.937500
131		3085.937500
132		3085.937500
133		3085.937500
134		3085.937500
135		3085.937500
136		3085.937500
137		3085.937500
138		3085.937500
139		3085.937500
140		3085.937500
141		3085.937500
142		3085.937500
143		3085.937500
144		3085.937500
145		3085.937500
146		3085.937500
147		3085.937500
148		3085.937500
149		3085.937500
150		3085.937500
151		3085.937500
152		3085.937500
153		3085.937500
154		3125.000000
155		3085.937500
156		3085.937500
157		3085.937500
158		3085.937500
159		3085.937500
160		3085.937500
161		3085.937500
162		3085.937500
163		3085.937500
164		3085.937500
165		3085.937500
166		3085.937500
167		3085.937500
168		3085.937500
169		3085.937500
170		3125.000000
171		3085.937500
172		3085.937500
173		3085.937500
174		3085.937500
175		3085.937500
176		3085.937500
177		3085.937500
178		3085.937500
179		3085.937500
180		3085.937500
181		3085.937500
182		3085.937500
183		3085.937500
184		3085.937500
185		3085.937500
186		3085.937500
187		3085.937500
188		3085.937500
189		3085.937500
190		3085.937500
191		3125.000000
192		3125.000000
193		3085.937500
194		3085.937500
195		3085.937500
196		3085.937500
197		3085.937500
198		3085.937500
199		3085.937500
200		3085.937500
201		3085.937500
202		3085.937500
203		3085.937500
204		3085.937500
205		3085.937500
206		3085.937500
207		3085.937500
208		3085.937500
209		3085.937500
210		3085.937500
211		3085.937500
212		3085.937500
213		3085.937500
214		3085.937500
215		3085.937500
216		3085.937500
217		3085.937500
218		3085.937500
219		3085.937500
220		3085.937500
221		3085.937500
222		3085.937500
223		3085.937500
224		3085.937500
225		3085.937500
226		3085.937500
227		3085.937500
228		3085.937500
229		3085.937500
230		3085.937500
231		3085.937500
232		3085.937500
233		3085.937500
234		3085.937500
235		3085.937500
236		3085.937500
237		3085.937500
238		3085.937500
239		3085.937500
240		3085.937500
241		3085.937500
242		3085.937500
243		3085.937500
244		3085.937500
245		3085.937500
246		3085.937500
247		3085.937500
248		3085.937500
249		3085.937500
250		3085.937500
251		3085.937500
252		3085.937500
253		3085.937500
254		3085.937500
255		3125.000000
256		3085.937500
257		3085.937500
258		3085.937500
259		3085.937500
260		3085.937500
261		3085.937500
262		3085.937500
263		3085.937500
264		3085.937500
265		3085.937500
266		3085.937500
267		3085.937500
268		3085.937500
269		3085.937500
270		3085.937500
271		3085.937500
272		3125.000000
273		3085.937500
274		3085.937500
275		3085.937500
276		3085.937500
277		3085.937500
278		3085.937500
279		3085.937500
280		3085.937500
281		3085.937500
282		3125.000000
283		3125.000000
284		3085.937500
285		3085.937500
286		3085.937500
287		3085.937500
288		3085.937500
289		3085.937500
290		3085.937500
291		3085.937500
292		3085.937500
293		3085.937500
294		3085.937500
295		3085.937500
296		3085.937500
297		3085.937500
298		3085.937500
299		3085.937500
300		3085.937500
301		3085.937500
302		3085.937500
303		3085.937500
304		3085.937500
305		3085.937500
306		3085.937500
307		3085.937500
308		3085.937500
309		3125.000000
310		3085.937500
311		3085.937500
312		3085.937500
313		3085.937500
314		3085.937500
315		3085.937500
316		3085.937500
317		3085.937500
318		3085.937500
319		3085.937500
320		3085.937500
321		3125.000000
322		3085.937500
323		3085.937500
324		3085.937500
325		3085.937500
326		3085.937500
327		3085.937500
328		3085.937500
329		3085.937500
330		3085.937500
331		3085.937500
332		3085.937500
333		3085.937500
334		3085.937500
335		3085.937500
336		3085.937500
337		3085.937500
338		3085.937500
339		3085.937500
340		3085.937500
341		3085.937500
342		3085.937500
343		3085.937500
344		3085.937500
345		3085.937500
346		3085.937500
347		3085.937500
348		3085.937500
349		3085.937500
350		3085.937500
351		3085.937500
352		3085.937500
353		3125.000000
354		3085.937500
355		3085.937500
356		3085.937500
357		3085.937500
358		3085.937500
359		3085.937500
360		3085.937500
361		3085.937500
362		3085.937500
363		3085.937500
364		3125.000000
365		3085.937500
366		3085.937500
367		3085.937500
368		3085.937500
369		3085.937500
370		3085.937500
371		3085.937500
372		3085.937500
373		3085.937500
374		3085.937500
375		3085.937500
376		3085.937500
377		3085.937500
378		3085.937500
379		3085.937500
380		3125.000000
381		3085.937500
382		3085.937500
383		3085.937500
384		3085.937500
385		3085.937500
386		3085.937500
387		3085.937500
388		3085.937500
389		3085.937500
390		3085.937500
391		3085.937500
392		3085.937500
393		3085.937500
394		3085.937500
395		3085.937500
396		3085.937500
397		3085.937500
398		3085.937500
399		3085.937500
400		3085.937500
401		3125.000000
402		3085.937500
403		3085.937500
404		3085.937500
405		3085.937500
406		3125.000000
407		3125.000000
408		3085.937500
409		3085.937500
410		3085.937500
411		3085.937500
412		3085.937500
413		3085.937500
414		3085.937500
415		3085.937500
416		3085.937500
417		3085.937500
418		3085.937500
419		3085.937500
420		3085.937500
421		3085.937500
422		3085.937500
423		3085.937500
424		3085.937500
425		3085.937500
426		3085.937500
427		3085.937500
428		3085.937500
429		3085.937500
430		3085.937500
431		3085.937500
432		3085.937500
433		3085.937500
434		3085.937500
435		3125.000000
436		3085.937500
437		3085.937500
438		3085.937500
439		3085.937500
440		3085.937500
441		3085.937500
442		3085.937500
443		3085.937500
444		3085.937500
445		3085.937500
446		3085.937500
447		3085.937500
448		3085.937500
449		3085.937500
450		3085.937500
451		3085.937500
452		3085.937500
453		3085.937500
454		3085.937500
455		3125.000000
456		3085.937500
457		3085.937500
458		3085.937500
459		3085.937500
460		3085.937500
461		3085.937500
462		3085.937500
463		3085.937500
464		3085.937500
465		3085.937500
466		3085.937500
467		3125.000000
468		3085.937500
469		3085.937500
470		3085.937500
471		3085.937500
472		3125.000000
473		3085.937500
474		3085.937500
475		3085.937500
476		3085.937500
477		3085.937500
478		3085.937500
479		3085.937500
480		3085.937500
481		3125.000000
482		3085.937500
483		3085.937500
484		3085.937500
485		3085.937500
486		3085.937500
487		3085.937500
488		3085.937500
489		3085.937500
490		3085.937500
491		3085.937500
492		3085.937500
493		3085.937500
494		3085.937500
495		3085.937500
496		3085.937500
497		3085.937500
498		3085.937500
499		3125.000000
500		3085.937500
501		3085.937500
502		3085.937500
503		3085.937500
504		3085.937500
505		3085.937500
506		3085.937500
507		3085.937500
508		3125.000000
509		3125.000000
510		3085.937500
511		3085.937500
512		3085.937500
513		3085.937500
514		3085.937500
515		3085.937500
516		3085.937500
517		3085.937500
518		3085.937500
519		3085.937500
520		3085.937500
521		3085.937500
522		3085.937500
523		3085.937500
524		3085.937500
525		3085.937500
526		3125.000000
527		3085.937500
528		3085.937500
529		3085.937500
530		3085.937500
531		3085.937500
532		3085.937500
533		3085.937500
534		3085.937500
535		3085.937500
536		3085.937500
537		3085.937500
538		3085.937500
539		3085.937500
540		3085.937500
541		3085.937500
542		3085.937500
543		3085.937500
544		3085.937500
545		3085.937500
546		3085.937500
547		3085.937500
548		3085.937500
549		3085.937500
550		3085.937500
551		3085.937500
552		3125.000000
553		3125.000000
554		3085.937500
555		3085.937500
556		3085.937500
557		3085.937500
558		3085.937500
559		3085.937500
560		3085.937500
561		3085.937500
562		3085.937500
563		3085.937500
564		3085.937500
565		3085.937500
566		3085.937500
567		3085.937500
568		3085.937500
569		3085.937500
570		3085.937500
571		3085.937500
572		3085.937500
573		3125.000000
574		3085.937500
575		3085.937500
576		3085.937500
577		3085.937500
578		3085.937500
579		3085.937500
580		3125.000000
581		3085.937500
582		3085.937500
583		3085.937500
584		3085.937500
585		3085.937500
586		3085.937500
587		3085.937500
588		3085.937500
589		3085.937500
590		3085.937500
591		3085.937500
592		3085.937500
593		3085.937500
594		3085.937500
595		3085.937500
596		3085.937500
597		3085.937500
598		3085.937500
599		3085.937500
600		3085.937500
601		3085.937500
602		3085.937500
603		3085.937500
604		3085.937500
605		3085.937500
606		3125.000000
607		3085.937500
608		3085.937500
609		3085.937500
610		3085.937500
611		3085.937500
612		3085.937500
613		3085.937500
614		3085.937500
615		3085.937500
616		3085.937500
617		3085.937500
618		3085.937500
619		3085.937500
620		3085.937500
621		3085.937500
622		3085.937500
623		3085.937500
624		3085.937500
625		3085.937500
626		3085.937500
627		3085.937500
628		3085.937500
629		3085.937500
630		3085.937500
631		3085.937500
632		3085.937500
633		3085.937500
634		3085.937500
635		3085.937500
636		3085.937500
637		3085.937500
638		3085.937500
639		3085.937500
640		3085.937500
641		3085.937500
642		3085.937500
643		3085.937500
644		3085.937500
645		3085.937500
646		3085.937500
647		3085.937500
648		3085.937500
649		3085.937500
650		3085.937500
651		3085.937500
652		3085.937500
653		3085.937500
654		3085.937500
655		3085.937500
656		3085.937500
657		3085.937500
658		3085.937500
659		3085.937500
660		3085.937500
661		3085.937500
662		3085.937500
663		3085.937500
664		3085.937500
665		3085.937500
666		3085.937500
667		3085.937500
668		3085.937500
669		3085.937500
670		3085.937500
671		3085.937500
672		3085.937500
673		3085.937500
674		3085.937500
675		3085.937500
676		3085.937500
677		3085.937500
678		3085.937500
679		3085.937500
680		3085.937500
681		3085.937500
682		3085.937500
683		3085.937500
684		3085.937500
685		3085.937500
686		3085.937500
687		3085.937500
688		3085.937500
689		3085.937500
690		3085.937500
691		3085.937500
692		3085.937500
693		3125.000000
694		3085.937500
695		3085.937500
696		3085.937500
697		3085.937500
698		3125.000000
699		3085.937500
700		3085.937500
701		3085.937500
702		3085.937500
703		3085.937500
704		3085.937500
705		3085.937500
706		3085.937500
707		3085.937500
708		3085.937500
709		3085.937500
710		3085.937500
711		3085.937500
712		3085.937500
713		3085.937500
714		3085.937500
715		3085.937500
716		3085.937500
717		3085.937500
718		3085.937500
719		3085.937500
720		3085.937500
721		3085.937500
722		3085.937500
723		3085.937500
724		3085.937500
725		3085.937500
726		3085.937500
727		3085.937500
728		3085.937500
729		3085.937500
730		3085.937500
731		3085.937500
732		3085.937500
733		3085.937500
734		3085.937500
735		3125.000000
736		3085.937500
737		3085.937500
738		3085.937500
739		3085.937500
740		3085.937500
741		3085.937500
742		3085.937500
743		3085.937500
744		3085.937500
745		3085.937500
746		3085.937500
747		3085.937500
748		3085.937500
749		3085.937500
750		3085.937500
751		3085.937500
752		3125.000000
753		3085.937500
754		3085.937500
755		3085.937500
756		3085.937500
757		3085.937500
758		3085.937500
759		3085.937500
760		3085.937500
761		3085.937500
762		3085.937500
763		3085.937500
764		3085.937500
765		3085.937500
766		3085.937500
767		3085.937500
768		3085.937500
769		3085.937500
770		3085.937500
771		3085.937500
772		3085.937500
773		3085.937500
774		3085.937500
775		3085.937500
776		3085.937500
777		3085.937500
778		3125.000000
779		3085.937500
780		3085.937500
781		3085.937500
782		3085.937500
783		3085.937500
784		3085.937500
785		3085.937500
786		3085.937500
787		3085.937500
788		3085.937500
789		3085.937500
790		3085.937500
791		3085.937500
792		3085.937500
793		3085.937500
794		3085.937500
795		3085.937500
796		3085.937500
797		3085.937500
798		3085.937500
799		3085.937500
800		3085.937500
801		3085.937500
802		3085.937500
803		3085.937500
804		3085.937500
805		3085.937500
806		3085.937500
807		3085.937500
808		3085.937500
809		3085.937500
810		3085.937500
811		3085.937500
812		3085.937500
813		3085.937500
814		3085.937500
815		3125.000000
816		3085.937500
817		3085.937500
818		3085.937500
819		3085.937500
820		3085.937500
821		3085.937500
822		3085.937500
823		3085.937500
824		3085.937500
825		3085.937500
826		3085.937500
827		3085.937500
828		3085.937500
829		3085.937500
830		3085.937500
831		3085.937500
832		3125.000000
833		3085.937500
834		3085.937500
835		3085.937500
836		3085.937500
837		3085.937500
838		3085.937500
839		3085.937500
840		3085.937500
841		3085.937500
842		3085.937500
843		3085.937500
844		3085.937500
845		3085.937500
846		3085.937500
847		3085.937500
848		3085.937500
849		3085.937500
850		3085.937500
851		3085.937500
852		3085.937500
853		3125.000000
854		3125.000000
855		3085.937500
856		3085.937500
857		3085.937500
858		3085.937500
859		3085.937500
860		3085.937500
861		3085.937500
862		3085.937500
863		3085.937500
864		3085.937500
865		3085.937500
866		3085.937500
867		3085.937500
868		3085.937500
869		3085.937500
870		3085.937500
871		3085.937500
872		3085.937500
873		3085.937500
874		3085.937500
875		3085.937500
876		3085.937500
877		3085.937500
878		3085.937500
879		3085.937500
880		3085.937500
881		3085.937500
882		3085.937500
883		3085.937500
884		3085.937500
885		3085.937500
886		3085.937500
887		3085.937500
888		3085.937500
889		3085.937500
890		3085.937500
891		3085.937500
892		3085.937500
893		3085.937500
894		3085.937500
895		3085.937500
896		3085.937500
897		3085.937500
898		3085.937500
899		3085.937500
900		3085.937500
901		3085.937500
902		3085.937500
903		3085.937500
904		3085.937500
905		3046.875000
906		3046.875000
907		3007.812500
908		3007.812500
909		3007.812500
910		2968.750000
911		2968.750000
912		2968.750000
913		2968.750000
914		2929.687500
915		2929.687500
916		2890.625000
917		2890.625000
918		2890.625000
919		2851.562500
920		2851.562500
921		2851.562500
922		2812.500000
923		2812.500000
924		2773.437500
925		2773.437500
926		2734.375000
927		2734.375000
928		2695.312500
929		2695.312500
930		2656.250000
931		2656.250000
932		2656.250000
933		2617.187500
934		2617.187500
935		2617.187500
936		2578.125000
937		2578.125000
938		2578.125000
939		2539.062500
940		2539.062500
941		2500.000000
942		2500.000000
943		2460.937500
944		2460.937500
945		2460.937500
946		2421.875000
947		2421.875000
948		2421.875000
949		2382.812500
950		2382.812500
951		2382.812500
952		2343.750000
953		2343.750000
954		2343.750000
955		2304.687500
956		2304.687500
957		2265.625000
958		2265.625000
959		2265.625000
960		2265.625000
961		2226.562500
962		2226.562500
963		2187.500000
964		2187.500000
965		2148.437500
966		2148.437500
967		2148.437500
968		2109.375000
969		2109.375000
970		2109.375000
971		2070.312500
972		2070.312500
973		2070.312500
974		2070.312500
975		2031.250000
976		2031.250000
977		2031.250000
978		1992.187500
979		1992.187500
980		1953.125000
981		1953.125000
982		1953.125000
983		1914.062500
984		1914.062500
985		1914.062500
986		1914.062500
987		1875.000000
988		1875.000000
989		1875.000000
990		1835.937500
991		1835.937500
992		1835.937500
993		1835.937500
994		1796.875000
995		1757.812500
996		1796.875000
997		1757.812500
998		1757.812500
999		1757.812500
1000		1718.750000
1001		1718.750000
1002		1718.750000
1003		1679.687500
1004		1679.687500
1005		1679.687500
1006		1679.687500
1007		1640.625000
1008		1640.625000
1009		1640.625000
1010		1601.562500
1011		1601.562500
1012		1601.562500
1013		1601.562500
1014		1562.500000
1015		1562.500000
1016		1562.500000
1017		1562.500000
1018		1523.437500
1019		1523.437500
1020		1523.437500
1021		1523.437500
1022		1484.375000
1023		1484.375000
1024		1484.375000
1025		1445.312500
1026		1445.312500
1027		1445.312500
1028		1445.312500
1029		1445.312500
1030		1406.250000
1031		1406.250000
1032		1406.250000
1033		1367.187500
1034		1367.187500
1035		1367.187500
1036		1367.187500
1037		1367.187500
1038		1328.125000
1039		1328.125000
1040		1328.125000
1041		1328.125000
1042		1289.062500
1043		1289.062500
1044		1289.062500
1045		1289.062500
1046		1250.000000
1047		1250.000000
1048		1250.000000
1049		1250.000000
1050		1250.000000
1051		1210.937500
1052		1210.937500
1053		1210.937500
1054		1210.937500
1055		1171.875000
1056		1171.875000
1057		1171.875000
1058		1171.875000
1059		1171.875000
1060		1132.812500
1061		1132.812500
1062		1132.812500
1063		1132.812500
1064		1132.812500
1065		1132.812500
1066		1093.750000
1067		1093.750000
1068		1093.750000
1069		1054.687500
1070		1054.687500
1071		1054.687500
1072		1054.687500
1073		1054.687500
1074		1054.687500
1075		1015.625000
1076		1015.625000
1077		1015.625000
1078		1015.625000
1079		1015.625000
1080		1015.625000
1081		976.562500
1082		976.562500
1083		976.562500
1084		976.562500
1085		976.562500
1086		937.500000
1087		937.500000
1088		937.500000
1089		937.500000
1090		898.437500
1091		898.437500
1092		898.437500
1093		898.437500
1094		898.437500
1095		898.437500
1096		898.437500
1097		898.437500
1098		898.437500
1099		859.375000
1100		859.375000
1101		859.375000
1102		859.375000
1103		859.375000
1104		859.375000
1105		820.312500
1106		820.312500
1107		820.312500
1108		820.312500
1109		781.250000
1110		781.250000
1111		781.250000
1112		781.250000
1113		781.250000
1114		781.250000
1115		781.250000
1116		781.250000
1117		781.250000
1118		781.250000
1119		742.187500
1120		742.187500
1121		742.187500
1122		742.187500
1123		742.187500
1124		703.125000
1125		703.125000
1126		703.125000
1127		703.125000
1128		703.125000
1129		703.125000
1130		703.125000
1131		703.125000
1132		703.125000
1133		664.062500
1134		664.062500
1135		664.062500
1136		664.062500
1137		664.062500
1138		664.062500
1139		664.062500
1140		664.062500
1141		625.000000
1142		625.000000
1143		625.000000
1144		625.000000
1145		625.000000
1146		625.000000
1147		625.000000
1148		625.000000
1149		585.937500
1150		585.937500
1151		585.937500
1152		585.937500
1153		585.937500
1154		585.937500
1155		585.937500
1156		585.937500
1157		585.937500
1158		585.937500
1159		585.937500
1160		585.937500
1161		546.875000
1162		546.875000
1163		546.875000
1164		546.875000
