Vrije proef/m6-1.txt

Channel              :		CH1
Frequency            :		  ?
Period               :		  ?
PK-PK                :		2.891V
Probe attenuation    :		1X
Voltage per ADC value:		4.882813mV
Time interval        :		1000.00000us

index		CH1_Voltage(mV)
1		2578.125000
2		2578.125000
3		2578.125000
4		2578.125000
5		2578.125000
6		2578.125000
7		2578.125000
8		2578.125000
9		2578.125000
10		2578.125000
11		2578.125000
12		2578.125000
13		2578.125000
14		2578.125000
15		2578.125000
16		2578.125000
17		2578.125000
18		2578.125000
19		2578.125000
20		2578.125000
21		2578.125000
22		2578.125000
23		2578.125000
24		2656.250000
25		2578.125000
26		2656.250000
27		2656.250000
28		2656.250000
29		2656.250000
30		2656.250000
31		2656.250000
32		2656.250000
33		2656.250000
34		2656.250000
35		2656.250000
36		2656.250000
37		2656.250000
38		2656.250000
39		2656.250000
40		2656.250000
41		2656.250000
42		2656.250000
43		2656.250000
44		2656.250000
45		2656.250000
46		2656.250000
47		2656.250000
48		2656.250000
49		2656.250000
50		2656.250000
51		2656.250000
52		2656.250000
53		2656.250000
54		2656.250000
55		2656.250000
56		2656.250000
57		2656.250000
58		2656.250000
59		2656.250000
60		2656.250000
61		2656.250000
62		2656.250000
63		2656.250000
64		2656.250000
65		2734.375000
66		2656.250000
67		2656.250000
68		2734.375000
69		2734.375000
70		2734.375000
71		2734.375000
72		2734.375000
73		2734.375000
74		2734.375000
75		2734.375000
76		2734.375000
77		2734.375000
78		2734.375000
79		2734.375000
80		2734.375000
81		2734.375000
82		2734.375000
83		2734.375000
84		2734.375000
85		2734.375000
86		2734.375000
87		2734.375000
88		2734.375000
89		2734.375000
90		2734.375000
91		2734.375000
92		2734.375000
93		2734.375000
94		2734.375000
95		2734.375000
96		2734.375000
97		2734.375000
98		2734.375000
99		2734.375000
100		2734.375000
101		2734.375000
102		2734.375000
103		2812.500000
104		2734.375000
105		2812.500000
106		2812.500000
107		2812.500000
108		2812.500000
109		2812.500000
110		2812.500000
111		2812.500000
112		2812.500000
113		2812.500000
114		2812.500000
115		2812.500000
116		2812.500000
117		2812.500000
118		2812.500000
119		2812.500000
120		2812.500000
121		2812.500000
122		2812.500000
123		2812.500000
124		2812.500000
125		2812.500000
126		2812.500000
127		2812.500000
128		2812.500000
129		2812.500000
130		2812.500000
131		2812.500000
132		2812.500000
133		2812.500000
134		2890.625000
135		2890.625000
136		2890.625000
137		2890.625000
138		2890.625000
139		2890.625000
140		2890.625000
141		2890.625000
142		2890.625000
143		2890.625000
144		2890.625000
145		2890.625000
146		2890.625000
147		2890.625000
148		2812.500000
149		2890.625000
150		2890.625000
151		2890.625000
152		2890.625000
153		2890.625000
154		2890.625000
155		2890.625000
156		2890.625000
157		2890.625000
158		2890.625000
159		2890.625000
160		2890.625000
161		2890.625000
162		2890.625000
163		2890.625000
164		2890.625000
165		2890.625000
166		2890.625000
167		2968.750000
168		2890.625000
169		2968.750000
170		2968.750000
171		2968.750000
172		2968.750000
173		2968.750000
174		2968.750000
175		2968.750000
176		2968.750000
177		2968.750000
178		2968.750000
179		2968.750000
180		2968.750000
181		2968.750000
182		2968.750000
183		2968.750000
184		2968.750000
185		2968.750000
186		2968.750000
187		2968.750000
188		2968.750000
189		2968.750000
190		2968.750000
191		3046.875000
192		3046.875000
193		3046.875000
194		3046.875000
195		3046.875000
196		3046.875000
197		3046.875000
198		3046.875000
199		3046.875000
200		3046.875000
201		3046.875000
202		3046.875000
203		3046.875000
204		3046.875000
205		3046.875000
206		3046.875000
207		3046.875000
208		3046.875000
209		3046.875000
210		3046.875000
211		3046.875000
212		3046.875000
213		3046.875000
214		3046.875000
215		3125.000000
216		3125.000000
217		3125.000000
218		3125.000000
219		3125.000000
220		3125.000000
221		3125.000000
222		3125.000000
223		3125.000000
224		3125.000000
225		3125.000000
226		3125.000000
227		3125.000000
228		3125.000000
229		3125.000000
230		3125.000000
231		3125.000000
232		3125.000000
233		3125.000000
234		3125.000000
235		3125.000000
236		3125.000000
237		3125.000000
238		3203.125000
239		3203.125000
240		3203.125000
241		3203.125000
242		3203.125000
243		3203.125000
244		3203.125000
245		3203.125000
246		3203.125000
247		3203.125000
248		3203.125000
249		3203.125000
250		3203.125000
251		3203.125000
252		3203.125000
253		3203.125000
254		3203.125000
255		3281.250000
256		3203.125000
257		3203.125000
258		3281.250000
259		3203.125000
260		3281.250000
261		3281.250000
262		3281.250000
263		3281.250000
264		3281.250000
265		3281.250000
266		3281.250000
267		3281.250000
268		3281.250000
269		3281.250000
270		3281.250000
271		3281.250000
272		3359.375000
273		3281.250000
274		3281.250000
275		3359.375000
276		3359.375000
277		3359.375000
278		3359.375000
279		3359.375000
280		3359.375000
281		3359.375000
282		3359.375000
283		3359.375000
284		3359.375000
285		3359.375000
286		3359.375000
287		3359.375000
288		3359.375000
289		3359.375000
290		3437.500000
291		3437.500000
292		3437.500000
293		3437.500000
294		3437.500000
295		3437.500000
296		3437.500000
297		3437.500000
298		3437.500000
299		3437.500000
300		3437.500000
301		3437.500000
302		3437.500000
303		3437.500000
304		3437.500000
305		3437.500000
306		3437.500000
307		3437.500000
308		3437.500000
309		3515.625000
310		3515.625000
311		3515.625000
312		3515.625000
313		3515.625000
314		3515.625000
315		3515.625000
316		3515.625000
317		3515.625000
318		3515.625000
319		3515.625000
320		3515.625000
321		3515.625000
322		3515.625000
323		3593.750000
324		3593.750000
325		3593.750000
326		3593.750000
327		3593.750000
328		3593.750000
329		3593.750000
330		3593.750000
331		3593.750000
332		3593.750000
333		3593.750000
334		3593.750000
335		3671.875000
336		3671.875000
337		3671.875000
338		3671.875000
339		3671.875000
340		3671.875000
341		3671.875000
342		3671.875000
343		3671.875000
344		3671.875000
345		3671.875000
346		3671.875000
347		3671.875000
348		3671.875000
349		3750.000000
350		3750.000000
351		3750.000000
352		3750.000000
353		3750.000000
354		3750.000000
355		3750.000000
356		3750.000000
357		3750.000000
358		3750.000000
359		3750.000000
360		3750.000000
361		3828.125000
362		3828.125000
363		3828.125000
364		3828.125000
365		3828.125000
366		3828.125000
367		3828.125000
368		3828.125000
369		3828.125000
370		3828.125000
371		3828.125000
372		3828.125000
373		3906.250000
374		3906.250000
375		3906.250000
376		3906.250000
377		3906.250000
378		3906.250000
379		3906.250000
380		3906.250000
381		3906.250000
382		3906.250000
383		3906.250000
384		3906.250000
385		3906.250000
386		3984.375000
387		3984.375000
388		3984.375000
389		3984.375000
390		3984.375000
391		3984.375000
392		3984.375000
393		3984.375000
394		3984.375000
395		3984.375000
396		3984.375000
397		3984.375000
398		3984.375000
399		4062.500000
400		4062.500000
401		4062.500000
402		4062.500000
403		4062.500000
404		4062.500000
405		4062.500000
406		4062.500000
407		4062.500000
408		4062.500000
409		4062.500000
410		4140.625000
411		4140.625000
412		4140.625000
413		4140.625000
414		4140.625000
415		4140.625000
416		4140.625000
417		4140.625000
418		4140.625000
419		4140.625000
420		4140.625000
421		4140.625000
422		4140.625000
423		4218.750000
424		4218.750000
425		4218.750000
426		4218.750000
427		4218.750000
428		4218.750000
429		4218.750000
430		4218.750000
431		4218.750000
432		4218.750000
433		4218.750000
434		4218.750000
435		4218.750000
436		4296.875000
437		4296.875000
438		4296.875000
439		4296.875000
440		4296.875000
441		4296.875000
442		4296.875000
443		4296.875000
444		4296.875000
445		4296.875000
446		4296.875000
447		4296.875000
448		4296.875000
449		4375.000000
450		4375.000000
451		4375.000000
452		4375.000000
453		4375.000000
454		4375.000000
455		4375.000000
456		4375.000000
457		4375.000000
458		4375.000000
459		4375.000000
460		4375.000000
461		4375.000000
462		4375.000000
463		4453.125000
464		4453.125000
465		4453.125000
466		4453.125000
467		4453.125000
468		4453.125000
469		4453.125000
470		4453.125000
471		4453.125000
472		4453.125000
473		4453.125000
474		4453.125000
475		4453.125000
476		4453.125000
477		4531.250000
478		4531.250000
479		4531.250000
480		4531.250000
481		4531.250000
482		4531.250000
483		4531.250000
484		4531.250000
485		4531.250000
486		4531.250000
487		4531.250000
488		4531.250000
489		4531.250000
490		4609.375000
491		4609.375000
492		4609.375000
493		4609.375000
494		4609.375000
495		4609.375000
496		4609.375000
497		4609.375000
498		4609.375000
499		4609.375000
500		4609.375000
501		4609.375000
502		4609.375000
503		4609.375000
504		4687.500000
505		4609.375000
506		4609.375000
507		4687.500000
508		4687.500000
509		4687.500000
510		4687.500000
511		4687.500000
512		4687.500000
513		4687.500000
514		4687.500000
515		4687.500000
516		4687.500000
517		4687.500000
518		4687.500000
519		4687.500000
520		4765.625000
521		4765.625000
522		4765.625000
523		4765.625000
524		4765.625000
525		4765.625000
526		4765.625000
527		4765.625000
528		4765.625000
529		4765.625000
530		4765.625000
531		4765.625000
532		4765.625000
533		4765.625000
534		4765.625000
535		4843.750000
536		4843.750000
537		4843.750000
538		4843.750000
539		4843.750000
540		4843.750000
541		4843.750000
542		4843.750000
543		4843.750000
544		4843.750000
545		4843.750000
546		4843.750000
547		4843.750000
548		4843.750000
549		4843.750000
550		4843.750000
551		4843.750000
552		4921.875000
553		4843.750000
554		4921.875000
555		4921.875000
556		4921.875000
557		4921.875000
558		4921.875000
559		4921.875000
560		4921.875000
561		4921.875000
562		4921.875000
563		4921.875000
564		4921.875000
565		4921.875000
566		4921.875000
567		4921.875000
568		4921.875000
569		4921.875000
570		4921.875000
571		4921.875000
572		4921.875000
573		4921.875000
574		5000.000000
575		5000.000000
576		5000.000000
577		5000.000000
578		5000.000000
579		5000.000000
580		5000.000000
581		5000.000000
582		5000.000000
583		5000.000000
584		5000.000000
585		5000.000000
586		5000.000000
587		5000.000000
588		5000.000000
589		5000.000000
590		5000.000000
591		5000.000000
592		5000.000000
593		5000.000000
594		5000.000000
595		5000.000000
596		5000.000000
597		5000.000000
598		5000.000000
599		5000.000000
600		5000.000000
601		5000.000000
602		5078.125000
603		5078.125000
604		5078.125000
605		5078.125000
606		5078.125000
607		5078.125000
608		5078.125000
609		5078.125000
610		5078.125000
611		5078.125000
612		5078.125000
613		5078.125000
614		5078.125000
615		5078.125000
616		5078.125000
617		5078.125000
618		5078.125000
619		5078.125000
620		5078.125000
621		5078.125000
622		5078.125000
623		5078.125000
624		5078.125000
625		5078.125000
626		5078.125000
627		5078.125000
628		5078.125000
629		5078.125000
630		5156.250000
631		5078.125000
632		5078.125000
633		5078.125000
634		5078.125000
635		5156.250000
636		5156.250000
637		5078.125000
638		5078.125000
639		5156.250000
640		5156.250000
641		5156.250000
642		5156.250000
643		5156.250000
644		5156.250000
645		5156.250000
646		5156.250000
647		5156.250000
648		5156.250000
649		5156.250000
650		5156.250000
651		5156.250000
652		5156.250000
653		5156.250000
654		5156.250000
655		5156.250000
656		5156.250000
657		5156.250000
658		5156.250000
659		5156.250000
660		5156.250000
661		5156.250000
662		5156.250000
663		5156.250000
664		5156.250000
665		5156.250000
666		5156.250000
667		5156.250000
668		5156.250000
669		5156.250000
670		5156.250000
671		5156.250000
672		5156.250000
673		5156.250000
674		5156.250000
675		5156.250000
676		5156.250000
677		5156.250000
678		5156.250000
679		5156.250000
680		5156.250000
681		5156.250000
682		5156.250000
683		5156.250000
684		5156.250000
685		5156.250000
686		5156.250000
687		5156.250000
688		5156.250000
689		5156.250000
690		5156.250000
691		5156.250000
692		5156.250000
693		5156.250000
694		5156.250000
695		5156.250000
696		5156.250000
697		5156.250000
698		5156.250000
699		5156.250000
700		5156.250000
701		5156.250000
702		5156.250000
703		5156.250000
704		5156.250000
705		5156.250000
706		5156.250000
707		5156.250000
708		5156.250000
709		5156.250000
710		5156.250000
711		5156.250000
712		5156.250000
713		5156.250000
714		5156.250000
715		5156.250000
716		5156.250000
717		5156.250000
718		5156.250000
719		5156.250000
720		5156.250000
721		5156.250000
722		5156.250000
723		5078.125000
724		5156.250000
725		5156.250000
726		5078.125000
727		5156.250000
728		5078.125000
729		5078.125000
730		5156.250000
731		5156.250000
732		5078.125000
733		5156.250000
734		5156.250000
735		5078.125000
736		5078.125000
737		5078.125000
738		5078.125000
739		5078.125000
740		5078.125000
741		5078.125000
742		5078.125000
743		5078.125000
744		5078.125000
745		5078.125000
746		5078.125000
747		5078.125000
748		5078.125000
749		5078.125000
750		5078.125000
751		5078.125000
752		5078.125000
753		5078.125000
754		5078.125000
755		5078.125000
756		5078.125000
757		5078.125000
758		5078.125000
759		5078.125000
760		5078.125000
761		5078.125000
762		5078.125000
763		5000.000000
764		5000.000000
765		5000.000000
766		5000.000000
767		5000.000000
768		5000.000000
769		5000.000000
770		5000.000000
771		5000.000000
772		5000.000000
773		5000.000000
774		5000.000000
775		5000.000000
776		5000.000000
777		5000.000000
778		5000.000000
779		5000.000000
780		5000.000000
781		5000.000000
782		5000.000000
783		5000.000000
784		5000.000000
785		5000.000000
786		5000.000000
787		5000.000000
788		5000.000000
789		5000.000000
790		5000.000000
791		5000.000000
792		5000.000000
793		5000.000000
794		4921.875000
795		4921.875000
796		4921.875000
797		4921.875000
798		4921.875000
799		4921.875000
800		4921.875000
801		4921.875000
802		4921.875000
803		4921.875000
804		4921.875000
805		4921.875000
806		4921.875000
807		4921.875000
808		4921.875000
809		4921.875000
810		4921.875000
811		4921.875000
812		4921.875000
813		4921.875000
814		4843.750000
815		4843.750000
816		4843.750000
817		4843.750000
818		4843.750000
819		4843.750000
820		4843.750000
821		4843.750000
822		4843.750000
823		4843.750000
824		4843.750000
825		4843.750000
826		4843.750000
827		4843.750000
828		4843.750000
829		4843.750000
830		4843.750000
831		4843.750000
832		4765.625000
833		4765.625000
834		4765.625000
835		4765.625000
836		4765.625000
837		4765.625000
838		4765.625000
839		4765.625000
840		4765.625000
841		4765.625000
842		4765.625000
843		4765.625000
844		4765.625000
845		4765.625000
846		4765.625000
847		4765.625000
848		4765.625000
849		4765.625000
850		4765.625000
851		4687.500000
852		4687.500000
853		4687.500000
854		4687.500000
855		4687.500000
856		4687.500000
857		4687.500000
858		4687.500000
859		4687.500000
860		4687.500000
861		4687.500000
862		4687.500000
863		4687.500000
864		4687.500000
865		4687.500000
866		4609.375000
867		4609.375000
868		4609.375000
869		4609.375000
870		4609.375000
871		4609.375000
872		4609.375000
873		4609.375000
874		4609.375000
875		4609.375000
876		4609.375000
877		4609.375000
878		4609.375000
879		4609.375000
880		4531.250000
881		4609.375000
882		4531.250000
883		4531.250000
884		4531.250000
885		4531.250000
886		4531.250000
887		4531.250000
888		4531.250000
889		4531.250000
890		4531.250000
891		4531.250000
892		4531.250000
893		4531.250000
894		4531.250000
895		4531.250000
896		4453.125000
897		4453.125000
898		4453.125000
899		4453.125000
900		4453.125000
901		4453.125000
902		4453.125000
903		4453.125000
904		4453.125000
905		4453.125000
906		4453.125000
907		4453.125000
908		4453.125000
909		4453.125000
910		4375.000000
911		4375.000000
912		4375.000000
913		4375.000000
914		4375.000000
915		4375.000000
916		4375.000000
917		4375.000000
918		4375.000000
919		4375.000000
920		4375.000000
921		4375.000000
922		4296.875000
923		4296.875000
924		4296.875000
925		4296.875000
926		4296.875000
927		4296.875000
928		4296.875000
929		4296.875000
930		4296.875000
931		4296.875000
932		4296.875000
933		4296.875000
934		4296.875000
935		4296.875000
936		4296.875000
937		4218.750000
938		4218.750000
939		4218.750000
940		4218.750000
941		4218.750000
942		4218.750000
943		4218.750000
944		4218.750000
945		4218.750000
946		4218.750000
947		4218.750000
948		4218.750000
949		4140.625000
950		4218.750000
951		4218.750000
952		4140.625000
953		4140.625000
954		4140.625000
955		4140.625000
956		4140.625000
957		4140.625000
958		4140.625000
959		4140.625000
960		4140.625000
961		4140.625000
962		4140.625000
963		4062.500000
964		4062.500000
965		4062.500000
966		4062.500000
967		4062.500000
968		4062.500000
969		4062.500000
970		4062.500000
971		4062.500000
972		4062.500000
973		4062.500000
974		4062.500000
975		4062.500000
976		4062.500000
977		4062.500000
978		3984.375000
979		3984.375000
980		3984.375000
981		3984.375000
982		3984.375000
983		3984.375000
984		3984.375000
985		3984.375000
986		3984.375000
987		3984.375000
988		3984.375000
989		3984.375000
990		3984.375000
991		3984.375000
992		3984.375000
993		3906.250000
994		3906.250000
995		3906.250000
996		3906.250000
997		3906.250000
998		3906.250000
999		3906.250000
1000		3906.250000
1001		3906.250000
1002		3828.125000
1003		3906.250000
1004		3906.250000
1005		3828.125000
1006		3828.125000
1007		3828.125000
1008		3906.250000
1009		3828.125000
1010		3828.125000
1011		3828.125000
1012		3828.125000
1013		3828.125000
1014		3828.125000
1015		3828.125000
1016		3828.125000
1017		3828.125000
1018		3828.125000
1019		3750.000000
1020		3750.000000
1021		3750.000000
1022		3750.000000
1023		3750.000000
1024		3750.000000
1025		3750.000000
1026		3750.000000
1027		3750.000000
1028		3750.000000
1029		3750.000000
1030		3750.000000
1031		3750.000000
1032		3750.000000
1033		3750.000000
1034		3671.875000
1035		3671.875000
1036		3671.875000
1037		3671.875000
1038		3671.875000
1039		3671.875000
1040		3671.875000
1041		3671.875000
1042		3671.875000
1043		3671.875000
1044		3671.875000
1045		3671.875000
1046		3671.875000
1047		3671.875000
1048		3671.875000
1049		3593.750000
1050		3593.750000
1051		3593.750000
1052		3593.750000
1053		3593.750000
1054		3593.750000
1055		3593.750000
1056		3593.750000
1057		3593.750000
1058		3593.750000
1059		3593.750000
1060		3593.750000
1061		3593.750000
1062		3593.750000
1063		3593.750000
1064		3515.625000
1065		3515.625000
1066		3515.625000
1067		3515.625000
1068		3515.625000
1069		3515.625000
1070		3515.625000
1071		3515.625000
1072		3515.625000
1073		3515.625000
1074		3515.625000
1075		3515.625000
1076		3515.625000
1077		3515.625000
1078		3515.625000
1079		3515.625000
1080		3515.625000
1081		3437.500000
1082		3437.500000
1083		3437.500000
1084		3437.500000
1085		3437.500000
1086		3437.500000
1087		3437.500000
1088		3437.500000
1089		3437.500000
1090		3437.500000
1091		3437.500000
1092		3437.500000
1093		3437.500000
1094		3437.500000
1095		3437.500000
1096		3359.375000
1097		3437.500000
1098		3359.375000
1099		3359.375000
1100		3359.375000
1101		3359.375000
1102		3359.375000
1103		3359.375000
1104		3359.375000
1105		3359.375000
1106		3359.375000
1107		3359.375000
1108		3359.375000
1109		3359.375000
1110		3359.375000
1111		3359.375000
1112		3359.375000
1113		3359.375000
1114		3359.375000
1115		3281.250000
1116		3359.375000
1117		3281.250000
1118		3281.250000
1119		3281.250000
1120		3281.250000
1121		3281.250000
1122		3281.250000
1123		3281.250000
1124		3281.250000
1125		3281.250000
1126		3281.250000
1127		3281.250000
1128		3281.250000
1129		3281.250000
1130		3281.250000
1131		3281.250000
1132		3281.250000
1133		3281.250000
1134		3203.125000
1135		3203.125000
1136		3203.125000
1137		3203.125000
1138		3203.125000
1139		3203.125000
1140		3203.125000
1141		3203.125000
1142		3203.125000
1143		3203.125000
1144		3203.125000
1145		3203.125000
1146		3203.125000
1147		3203.125000
1148		3203.125000
1149		3203.125000
1150		3203.125000
1151		3203.125000
1152		3203.125000
1153		3203.125000
1154		3125.000000
1155		3125.000000
1156		3125.000000
1157		3125.000000
1158		3125.000000
1159		3125.000000
