Vrije proef/m6-2.txt

Channel              :		CH1
Frequency            :		  ?
Period               :		  ?
PK-PK                :		3.359V
Probe attenuation    :		1X
Voltage per ADC value:		4.882813mV
Time interval        :		1000.00000us

index		CH1_Voltage(mV)
1		5390.625000
2		5390.625000
3		5390.625000
4		5390.625000
5		5390.625000
6		5468.750000
7		5468.750000
8		5468.750000
9		5468.750000
10		5468.750000
11		5468.750000
12		5468.750000
13		5468.750000
14		5468.750000
15		5468.750000
16		5468.750000
17		5546.875000
18		5546.875000
19		5546.875000
20		5546.875000
21		5546.875000
22		5546.875000
23		5546.875000
24		5546.875000
25		5546.875000
26		5625.000000
27		5625.000000
28		5625.000000
29		5625.000000
30		5625.000000
31		5625.000000
32		5625.000000
33		5625.000000
34		5625.000000
35		5625.000000
36		5625.000000
37		5625.000000
38		5625.000000
39		5703.125000
40		5703.125000
41		5703.125000
42		5703.125000
43		5703.125000
44		5703.125000
45		5703.125000
46		5703.125000
47		5703.125000
48		5703.125000
49		5703.125000
50		5781.250000
51		5781.250000
52		5781.250000
53		5781.250000
54		5781.250000
55		5781.250000
56		5781.250000
57		5781.250000
58		5781.250000
59		5781.250000
60		5781.250000
61		5781.250000
62		5781.250000
63		5859.375000
64		5859.375000
65		5859.375000
66		5859.375000
67		5859.375000
68		5859.375000
69		5859.375000
70		5859.375000
71		5859.375000
72		5859.375000
73		5859.375000
74		5859.375000
75		5859.375000
76		5859.375000
77		5859.375000
78		5859.375000
79		5859.375000
80		5859.375000
81		5937.500000
82		5937.500000
83		5937.500000
84		5937.500000
85		5937.500000
86		5937.500000
87		5937.500000
88		5937.500000
89		5937.500000
90		5937.500000
91		5937.500000
92		5937.500000
93		5937.500000
94		5937.500000
95		5937.500000
96		5937.500000
97		5937.500000
98		5937.500000
99		5937.500000
100		5937.500000
101		5937.500000
102		6015.625000
103		5937.500000
104		6015.625000
105		6015.625000
106		6015.625000
107		6015.625000
108		6015.625000
109		6015.625000
110		6015.625000
111		6015.625000
112		6015.625000
113		6015.625000
114		6015.625000
115		6015.625000
116		6015.625000
117		6015.625000
118		6015.625000
119		6015.625000
120		6015.625000
121		6015.625000
122		6015.625000
123		6015.625000
124		6015.625000
125		6015.625000
126		6015.625000
127		6015.625000
128		6015.625000
129		6015.625000
130		6015.625000
131		6015.625000
132		6015.625000
133		6015.625000
134		6015.625000
135		6015.625000
136		6015.625000
137		6015.625000
138		6015.625000
139		6015.625000
140		6015.625000
141		6015.625000
142		6015.625000
143		6015.625000
144		6015.625000
145		6015.625000
146		6015.625000
147		6015.625000
148		6015.625000
149		6015.625000
150		6015.625000
151		6015.625000
152		6015.625000
153		6015.625000
154		6015.625000
155		6015.625000
156		6015.625000
157		6015.625000
158		6015.625000
159		6015.625000
160		6015.625000
161		6015.625000
162		6015.625000
163		6015.625000
164		6015.625000
165		6015.625000
166		6015.625000
167		6015.625000
168		6015.625000
169		6015.625000
170		6015.625000
171		6015.625000
172		6015.625000
173		6015.625000
174		6015.625000
175		5937.500000
176		5937.500000
177		5937.500000
178		5937.500000
179		5937.500000
180		5937.500000
181		5937.500000
182		5937.500000
183		5937.500000
184		5937.500000
185		5937.500000
186		5937.500000
187		5937.500000
188		5937.500000
189		5937.500000
190		5937.500000
191		5937.500000
192		5937.500000
193		5937.500000
194		5937.500000
195		5937.500000
196		5937.500000
197		5859.375000
198		5859.375000
199		5859.375000
200		5859.375000
201		5859.375000
202		5859.375000
203		5859.375000
204		5859.375000
205		5859.375000
206		5859.375000
207		5859.375000
208		5859.375000
209		5859.375000
210		5859.375000
211		5859.375000
212		5859.375000
213		5859.375000
214		5859.375000
215		5859.375000
216		5781.250000
217		5781.250000
218		5781.250000
219		5781.250000
220		5781.250000
221		5781.250000
222		5781.250000
223		5781.250000
224		5781.250000
225		5781.250000
226		5781.250000
227		5781.250000
228		5781.250000
229		5781.250000
230		5781.250000
231		5703.125000
232		5703.125000
233		5703.125000
234		5703.125000
235		5703.125000
236		5703.125000
237		5703.125000
238		5703.125000
239		5703.125000
240		5703.125000
241		5703.125000
242		5625.000000
243		5625.000000
244		5625.000000
245		5625.000000
246		5625.000000
247		5625.000000
248		5625.000000
249		5625.000000
250		5625.000000
251		5625.000000
252		5625.000000
253		5625.000000
254		5546.875000
255		5546.875000
256		5546.875000
257		5546.875000
258		5546.875000
259		5546.875000
260		5546.875000
261		5546.875000
262		5546.875000
263		5546.875000
264		5546.875000
265		5468.750000
266		5468.750000
267		5468.750000
268		5468.750000
269		5468.750000
270		5468.750000
271		5468.750000
272		5468.750000
273		5468.750000
274		5390.625000
275		5390.625000
276		5390.625000
277		5390.625000
278		5390.625000
279		5390.625000
280		5390.625000
281		5390.625000
282		5390.625000
283		5390.625000
284		5312.500000
285		5312.500000
286		5312.500000
287		5312.500000
288		5312.500000
289		5312.500000
290		5312.500000
291		5312.500000
292		5234.375000
293		5234.375000
294		5234.375000
295		5234.375000
296		5234.375000
297		5234.375000
298		5234.375000
299		5234.375000
300		5234.375000
301		5234.375000
302		5156.250000
303		5156.250000
304		5156.250000
305		5156.250000
306		5156.250000
307		5156.250000
308		5156.250000
309		5156.250000
310		5078.125000
311		5078.125000
312		5078.125000
313		5078.125000
314		5078.125000
315		5078.125000
316		5078.125000
317		5078.125000
318		5078.125000
319		5000.000000
320		5000.000000
321		5000.000000
322		5000.000000
323		5000.000000
324		5000.000000
325		5000.000000
326		4921.875000
327		5000.000000
328		4921.875000
329		4921.875000
330		4921.875000
331		4921.875000
332		4921.875000
333		4921.875000
334		4921.875000
335		4843.750000
336		4843.750000
337		4843.750000
338		4843.750000
339		4843.750000
340		4843.750000
341		4843.750000
342		4843.750000
343		4843.750000
344		4765.625000
345		4765.625000
346		4765.625000
347		4765.625000
348		4765.625000
349		4765.625000
350		4765.625000
351		4765.625000
352		4687.500000
353		4687.500000
354		4687.500000
355		4687.500000
356		4687.500000
357		4687.500000
358		4687.500000
359		4687.500000
360		4609.375000
361		4609.375000
362		4609.375000
363		4609.375000
364		4609.375000
365		4609.375000
366		4609.375000
367		4609.375000
368		4609.375000
369		4531.250000
370		4531.250000
371		4531.250000
372		4531.250000
373		4531.250000
374		4531.250000
375		4531.250000
376		4531.250000
377		4453.125000
378		4453.125000
379		4453.125000
380		4453.125000
381		4453.125000
382		4453.125000
383		4453.125000
384		4453.125000
385		4453.125000
386		4453.125000
387		4375.000000
388		4375.000000
389		4375.000000
390		4375.000000
391		4375.000000
392		4375.000000
393		4375.000000
394		4375.000000
395		4296.875000
396		4296.875000
397		4296.875000
398		4296.875000
399		4296.875000
400		4296.875000
401		4296.875000
402		4296.875000
403		4296.875000
404		4218.750000
405		4218.750000
406		4218.750000
407		4218.750000
408		4218.750000
409		4218.750000
410		4218.750000
411		4218.750000
412		4218.750000
413		4140.625000
414		4140.625000
415		4140.625000
416		4140.625000
417		4140.625000
418		4140.625000
419		4140.625000
420		4140.625000
421		4140.625000
422		4140.625000
423		4062.500000
424		4062.500000
425		4062.500000
426		4062.500000
427		4062.500000
428		4062.500000
429		4062.500000
430		4062.500000
431		4062.500000
432		3984.375000
433		3984.375000
434		3984.375000
435		3984.375000
436		3984.375000
437		3984.375000
438		3984.375000
439		3984.375000
440		3984.375000
441		3984.375000
442		3906.250000
443		3906.250000
444		3906.250000
445		3906.250000
446		3906.250000
447		3906.250000
448		3906.250000
449		3906.250000
450		3906.250000
451		3906.250000
452		3828.125000
453		3828.125000
454		3828.125000
455		3828.125000
456		3828.125000
457		3828.125000
458		3828.125000
459		3828.125000
460		3828.125000
461		3828.125000
462		3828.125000
463		3828.125000
464		3750.000000
465		3750.000000
466		3750.000000
467		3750.000000
468		3750.000000
469		3750.000000
470		3750.000000
471		3750.000000
472		3750.000000
473		3671.875000
474		3671.875000
475		3671.875000
476		3671.875000
477		3671.875000
478		3671.875000
479		3671.875000
480		3671.875000
481		3671.875000
482		3671.875000
483		3671.875000
484		3671.875000
485		3671.875000
486		3593.750000
487		3593.750000
488		3593.750000
489		3593.750000
490		3593.750000
491		3593.750000
492		3593.750000
493		3593.750000
494		3593.750000
495		3515.625000
496		3593.750000
497		3515.625000
498		3515.625000
499		3515.625000
500		3515.625000
501		3515.625000
502		3515.625000
503		3515.625000
504		3515.625000
505		3515.625000
506		3515.625000
507		3515.625000
508		3515.625000
509		3515.625000
510		3437.500000
511		3437.500000
512		3437.500000
513		3437.500000
514		3437.500000
515		3437.500000
516		3437.500000
517		3437.500000
518		3437.500000
519		3437.500000
520		3437.500000
521		3437.500000
522		3359.375000
523		3359.375000
524		3359.375000
525		3359.375000
526		3359.375000
527		3359.375000
528		3359.375000
529		3359.375000
530		3359.375000
531		3359.375000
532		3359.375000
533		3359.375000
534		3359.375000
535		3359.375000
536		3359.375000
537		3281.250000
538		3281.250000
539		3281.250000
540		3281.250000
541		3281.250000
542		3281.250000
543		3281.250000
544		3281.250000
545		3281.250000
546		3281.250000
547		3281.250000
548		3281.250000
549		3281.250000
550		3281.250000
551		3281.250000
552		3281.250000
553		3203.125000
554		3203.125000
555		3203.125000
556		3203.125000
557		3203.125000
558		3203.125000
559		3203.125000
560		3203.125000
561		3203.125000
562		3203.125000
563		3203.125000
564		3203.125000
565		3203.125000
566		3203.125000
567		3203.125000
568		3203.125000
569		3125.000000
570		3125.000000
571		3125.000000
572		3125.000000
573		3125.000000
574		3125.000000
575		3125.000000
576		3125.000000
577		3125.000000
578		3125.000000
579		3125.000000
580		3125.000000
581		3125.000000
582		3125.000000
583		3125.000000
584		3125.000000
585		3125.000000
586		3046.875000
587		3046.875000
588		3046.875000
589		3046.875000
590		3046.875000
591		3046.875000
592		3046.875000
593		3046.875000
594		3046.875000
595		3046.875000
596		3046.875000
597		3046.875000
598		3046.875000
599		3046.875000
600		3046.875000
601		3046.875000
602		3046.875000
603		3046.875000
604		3046.875000
605		3046.875000
606		3046.875000
607		2968.750000
608		2968.750000
609		2968.750000
610		2968.750000
611		2968.750000
612		2968.750000
613		2968.750000
614		2968.750000
615		2968.750000
616		2968.750000
617		2968.750000
618		2968.750000
619		2968.750000
620		2968.750000
621		2968.750000
622		2968.750000
623		2968.750000
624		2968.750000
625		2968.750000
626		2968.750000
627		2968.750000
628		2968.750000
629		2890.625000
630		2890.625000
631		2890.625000
632		2890.625000
633		2890.625000
634		2890.625000
635		2890.625000
636		2890.625000
637		2890.625000
638		2890.625000
639		2890.625000
640		2890.625000
641		2890.625000
642		2890.625000
643		2890.625000
644		2890.625000
645		2890.625000
646		2890.625000
647		2890.625000
648		2890.625000
649		2890.625000
650		2812.500000
651		2812.500000
652		2812.500000
653		2812.500000
654		2812.500000
655		2812.500000
656		2812.500000
657		2812.500000
658		2812.500000
659		2812.500000
660		2812.500000
661		2812.500000
662		2812.500000
663		2812.500000
664		2812.500000
665		2812.500000
666		2812.500000
667		2812.500000
668		2812.500000
669		2812.500000
670		2812.500000
671		2812.500000
672		2734.375000
673		2734.375000
674		2734.375000
675		2734.375000
676		2734.375000
677		2812.500000
678		2734.375000
679		2734.375000
680		2734.375000
681		2734.375000
682		2734.375000
683		2734.375000
684		2734.375000
685		2734.375000
686		2734.375000
687		2734.375000
688		2734.375000
689		2734.375000
690		2734.375000
691		2734.375000
692		2734.375000
693		2734.375000
694		2734.375000
695		2734.375000
696		2734.375000
697		2734.375000
698		2734.375000
699		2734.375000
700		2734.375000
701		2734.375000
702		2734.375000
703		2734.375000
704		2734.375000
705		2734.375000
706		2734.375000
707		2734.375000
708		2734.375000
709		2734.375000
710		2734.375000
711		2734.375000
712		2656.250000
713		2656.250000
714		2656.250000
715		2656.250000
716		2656.250000
717		2656.250000
718		2656.250000
719		2656.250000
720		2656.250000
721		2656.250000
722		2656.250000
723		2656.250000
724		2656.250000
725		2656.250000
726		2656.250000
727		2656.250000
728		2656.250000
729		2656.250000
730		2656.250000
731		2656.250000
732		2656.250000
733		2656.250000
734		2656.250000
735		2656.250000
736		2656.250000
737		2656.250000
738		2656.250000
739		2656.250000
740		2656.250000
741		2656.250000
742		2656.250000
743		2656.250000
744		2656.250000
745		2656.250000
746		2656.250000
747		2656.250000
748		2656.250000
749		2656.250000
750		2656.250000
751		2656.250000
752		2656.250000
753		2656.250000
754		2656.250000
755		2656.250000
756		2656.250000
757		2656.250000
758		2578.125000
759		2578.125000
760		2656.250000
761		2578.125000
762		2578.125000
763		2578.125000
764		2578.125000
765		2578.125000
766		2578.125000
767		2578.125000
768		2578.125000
769		2578.125000
770		2578.125000
771		2578.125000
772		2578.125000
773		2578.125000
774		2578.125000
775		2578.125000
776		2578.125000
777		2578.125000
778		2578.125000
779		2578.125000
780		2578.125000
781		2578.125000
782		2578.125000
783		2578.125000
784		2578.125000
785		2578.125000
786		2578.125000
787		2578.125000
788		2578.125000
789		2578.125000
790		2578.125000
791		2578.125000
792		2578.125000
793		2578.125000
794		2578.125000
795		2578.125000
796		2578.125000
797		2578.125000
798		2578.125000
799		2578.125000
800		2578.125000
801		2578.125000
802		2578.125000
803		2578.125000
804		2578.125000
805		2578.125000
806		2578.125000
807		2578.125000
808		2578.125000
809		2578.125000
810		2578.125000
811		2578.125000
812		2578.125000
813		2578.125000
814		2578.125000
815		2578.125000
816		2578.125000
817		2578.125000
818		2578.125000
819		2578.125000
820		2578.125000
821		2578.125000
822		2578.125000
823		2578.125000
824		2578.125000
825		2578.125000
826		2578.125000
827		2578.125000
828		2578.125000
829		2578.125000
830		2578.125000
831		2578.125000
832		2578.125000
833		2578.125000
834		2578.125000
835		2578.125000
836		2578.125000
837		2578.125000
838		2578.125000
839		2578.125000
840		2578.125000
841		2578.125000
842		2578.125000
843		2578.125000
844		2578.125000
845		2578.125000
846		2578.125000
847		2578.125000
848		2578.125000
849		2578.125000
850		2578.125000
851		2578.125000
852		2500.000000
853		2578.125000
854		2578.125000
855		2500.000000
856		2578.125000
857		2578.125000
858		2578.125000
859		2578.125000
860		2578.125000
861		2578.125000
862		2578.125000
863		2578.125000
864		2578.125000
865		2500.000000
866		2578.125000
867		2578.125000
868		2578.125000
869		2578.125000
870		2578.125000
871		2578.125000
872		2578.125000
873		2578.125000
874		2578.125000
875		2578.125000
876		2578.125000
877		2578.125000
878		2578.125000
879		2578.125000
880		2578.125000
881		2578.125000
882		2578.125000
883		2578.125000
884		2578.125000
885		2578.125000
886		2578.125000
887		2578.125000
888		2578.125000
889		2578.125000
890		2578.125000
891		2578.125000
892		2578.125000
893		2578.125000
894		2578.125000
895		2578.125000
896		2578.125000
897		2578.125000
898		2578.125000
899		2578.125000
900		2578.125000
901		2578.125000
902		2578.125000
903		2578.125000
904		2578.125000
905		2578.125000
906		2578.125000
907		2578.125000
908		2578.125000
909		2578.125000
910		2578.125000
911		2578.125000
912		2578.125000
913		2578.125000
914		2578.125000
915		2578.125000
916		2578.125000
917		2578.125000
918		2578.125000
919		2578.125000
920		2578.125000
921		2578.125000
922		2578.125000
923		2578.125000
924		2578.125000
925		2578.125000
926		2578.125000
927		2578.125000
928		2578.125000
929		2578.125000
930		2578.125000
931		2578.125000
932		2578.125000
933		2578.125000
934		2578.125000
935		2578.125000
936		2578.125000
937		2578.125000
938		2578.125000
939		2578.125000
940		2578.125000
941		2578.125000
942		2578.125000
943		2578.125000
944		2578.125000
945		2578.125000
946		2578.125000
947		2578.125000
948		2578.125000
949		2578.125000
950		2578.125000
951		2578.125000
952		2578.125000
953		2656.250000
954		2578.125000
955		2578.125000
956		2578.125000
957		2578.125000
958		2578.125000
959		2578.125000
960		2578.125000
961		2656.250000
962		2656.250000
963		2656.250000
964		2656.250000
965		2656.250000
966		2656.250000
967		2656.250000
968		2656.250000
969		2656.250000
970		2656.250000
971		2656.250000
972		2656.250000
973		2656.250000
974		2656.250000
975		2656.250000
976		2656.250000
977		2656.250000
978		2656.250000
979		2656.250000
980		2656.250000
981		2656.250000
982		2656.250000
983		2656.250000
984		2656.250000
985		2656.250000
986		2656.250000
987		2656.250000
988		2656.250000
989		2656.250000
990		2656.250000
991		2656.250000
992		2656.250000
993		2656.250000
994		2656.250000
995		2656.250000
996		2656.250000
997		2656.250000
998		2656.250000
999		2656.250000
1000		2656.250000
1001		2656.250000
1002		2656.250000
1003		2734.375000
1004		2734.375000
1005		2734.375000
1006		2734.375000
1007		2734.375000
1008		2734.375000
1009		2734.375000
1010		2734.375000
1011		2734.375000
1012		2734.375000
1013		2734.375000
1014		2734.375000
1015		2734.375000
1016		2656.250000
1017		2734.375000
1018		2734.375000
1019		2734.375000
1020		2734.375000
1021		2734.375000
1022		2734.375000
1023		2734.375000
1024		2734.375000
1025		2734.375000
1026		2734.375000
1027		2734.375000
1028		2734.375000
1029		2734.375000
1030		2734.375000
1031		2734.375000
1032		2734.375000
1033		2734.375000
1034		2734.375000
1035		2734.375000
1036		2734.375000
1037		2812.500000
1038		2734.375000
1039		2812.500000
1040		2812.500000
1041		2812.500000
1042		2812.500000
1043		2812.500000
1044		2812.500000
1045		2812.500000
1046		2812.500000
1047		2812.500000
1048		2812.500000
1049		2812.500000
1050		2812.500000
1051		2812.500000
1052		2812.500000
1053		2812.500000
1054		2812.500000
1055		2812.500000
1056		2812.500000
1057		2812.500000
1058		2812.500000
1059		2812.500000
1060		2812.500000
1061		2812.500000
1062		2890.625000
1063		2890.625000
1064		2890.625000
1065		2890.625000
1066		2890.625000
1067		2890.625000
1068		2890.625000
1069		2890.625000
1070		2890.625000
1071		2890.625000
1072		2890.625000
1073		2890.625000
1074		2890.625000
1075		2890.625000
1076		2890.625000
1077		2890.625000
1078		2890.625000
1079		2890.625000
1080		2890.625000
1081		2890.625000
1082		2890.625000
1083		2890.625000
1084		2890.625000
1085		2890.625000
1086		2968.750000
1087		2968.750000
1088		2968.750000
1089		2968.750000
1090		2968.750000
1091		2968.750000
1092		2968.750000
1093		2968.750000
1094		2968.750000
1095		2968.750000
1096		2968.750000
1097		2968.750000
1098		2968.750000
1099		2968.750000
1100		2968.750000
1101		2968.750000
1102		2968.750000
1103		2968.750000
1104		2968.750000
1105		2968.750000
1106		3046.875000
1107		3046.875000
1108		2968.750000
1109		3046.875000
1110		3046.875000
1111		3046.875000
1112		3046.875000
1113		3046.875000
1114		3046.875000
1115		3046.875000
1116		3046.875000
1117		3046.875000
1118		3046.875000
1119		3046.875000
1120		3046.875000
1121		3046.875000
1122		3046.875000
1123		3046.875000
1124		3046.875000
1125		3046.875000
1126		3125.000000
1127		3125.000000
1128		3125.000000
1129		3125.000000
1130		3125.000000
1131		3125.000000
1132		3125.000000
1133		3125.000000
1134		3125.000000
1135		3125.000000
1136		3125.000000
1137		3125.000000
1138		3125.000000
1139		3125.000000
1140		3125.000000
1141		3125.000000
1142		3203.125000
1143		3203.125000
1144		3203.125000
1145		3203.125000
1146		3203.125000
1147		3203.125000
1148		3203.125000
1149		3203.125000
1150		3203.125000
1151		3203.125000
1152		3203.125000
1153		3203.125000
1154		3203.125000
1155		3203.125000
1156		3203.125000
1157		3203.125000
1158		3281.250000
1159		3281.250000
