Vrije proef/m6-3.txt

Channel              :		CH1
Frequency            :		  ?
Period               :		  ?
PK-PK                :		3.047V
Probe attenuation    :		1X
Voltage per ADC value:		4.882813mV
Time interval        :		1000.00000us

index		CH1_Voltage(mV)
1		4140.625000
2		4140.625000
3		4140.625000
4		4140.625000
5		4140.625000
6		4140.625000
7		4140.625000
8		4140.625000
9		4140.625000
10		4140.625000
11		4062.500000
12		4062.500000
13		4062.500000
14		4062.500000
15		4062.500000
16		4062.500000
17		4062.500000
18		4062.500000
19		4062.500000
20		4062.500000
21		3984.375000
22		3984.375000
23		3984.375000
24		3984.375000
25		3984.375000
26		3984.375000
27		3984.375000
28		3984.375000
29		3984.375000
30		3984.375000
31		3984.375000
32		3906.250000
33		3906.250000
34		3906.250000
35		3906.250000
36		3906.250000
37		3906.250000
38		3906.250000
39		3906.250000
40		3906.250000
41		3906.250000
42		3906.250000
43		3828.125000
44		3828.125000
45		3828.125000
46		3828.125000
47		3828.125000
48		3828.125000
49		3828.125000
50		3828.125000
51		3828.125000
52		3828.125000
53		3750.000000
54		3750.000000
55		3828.125000
56		3750.000000
57		3750.000000
58		3750.000000
59		3750.000000
60		3750.000000
61		3750.000000
62		3750.000000
63		3750.000000
64		3750.000000
65		3750.000000
66		3671.875000
67		3671.875000
68		3671.875000
69		3671.875000
70		3671.875000
71		3671.875000
72		3671.875000
73		3671.875000
74		3671.875000
75		3671.875000
76		3671.875000
77		3671.875000
78		3671.875000
79		3671.875000
80		3593.750000
81		3593.750000
82		3593.750000
83		3593.750000
84		3593.750000
85		3593.750000
86		3593.750000
87		3593.750000
88		3593.750000
89		3593.750000
90		3515.625000
91		3515.625000
92		3515.625000
93		3515.625000
94		3515.625000
95		3515.625000
96		3515.625000
97		3515.625000
98		3515.625000
99		3515.625000
100		3515.625000
101		3515.625000
102		3515.625000
103		3515.625000
104		3437.500000
105		3437.500000
106		3437.500000
107		3437.500000
108		3437.500000
109		3437.500000
110		3437.500000
111		3437.500000
112		3437.500000
113		3437.500000
114		3437.500000
115		3437.500000
116		3437.500000
117		3437.500000
118		3437.500000
119		3359.375000
120		3359.375000
121		3359.375000
122		3359.375000
123		3359.375000
124		3359.375000
125		3359.375000
126		3359.375000
127		3359.375000
128		3359.375000
129		3359.375000
130		3359.375000
131		3359.375000
132		3359.375000
133		3359.375000
134		3359.375000
135		3359.375000
136		3281.250000
137		3281.250000
138		3281.250000
139		3281.250000
140		3281.250000
141		3281.250000
142		3281.250000
143		3281.250000
144		3281.250000
145		3281.250000
146		3281.250000
147		3281.250000
148		3281.250000
149		3281.250000
150		3281.250000
151		3203.125000
152		3203.125000
153		3203.125000
154		3203.125000
155		3203.125000
156		3203.125000
157		3203.125000
158		3203.125000
159		3203.125000
160		3203.125000
161		3203.125000
162		3203.125000
163		3203.125000
164		3203.125000
165		3203.125000
166		3203.125000
167		3203.125000
168		3203.125000
169		3125.000000
170		3125.000000
171		3125.000000
172		3125.000000
173		3125.000000
174		3125.000000
175		3125.000000
176		3125.000000
177		3125.000000
178		3125.000000
179		3125.000000
180		3125.000000
181		3125.000000
182		3125.000000
183		3125.000000
184		3125.000000
185		3125.000000
186		3125.000000
187		3125.000000
188		3046.875000
189		3046.875000
190		3046.875000
191		3046.875000
192		3046.875000
193		3046.875000
194		3046.875000
195		3046.875000
196		3046.875000
197		3046.875000
198		3046.875000
199		3046.875000
200		3046.875000
201		3046.875000
202		3046.875000
203		3046.875000
204		3046.875000
205		3046.875000
206		3046.875000
207		3046.875000
208		3046.875000
209		3046.875000
210		3046.875000
211		3046.875000
212		2968.750000
213		2968.750000
214		2968.750000
215		2968.750000
216		2968.750000
217		2968.750000
218		2968.750000
219		2968.750000
220		2968.750000
221		2968.750000
222		2968.750000
223		2968.750000
224		2968.750000
225		2968.750000
226		2968.750000
227		2968.750000
228		2968.750000
229		2968.750000
230		2968.750000
231		2968.750000
232		2968.750000
233		2890.625000
234		2968.750000
235		2890.625000
236		2968.750000
237		2890.625000
238		2890.625000
239		2890.625000
240		2890.625000
241		2890.625000
242		2890.625000
243		2890.625000
244		2890.625000
245		2890.625000
246		2890.625000
247		2890.625000
248		2890.625000
249		2890.625000
250		2890.625000
251		2890.625000
252		2890.625000
253		2890.625000
254		2890.625000
255		2890.625000
256		2890.625000
257		2890.625000
258		2890.625000
259		2890.625000
260		2890.625000
261		2890.625000
262		2890.625000
263		2890.625000
264		2890.625000
265		2812.500000
266		2812.500000
267		2812.500000
268		2812.500000
269		2812.500000
270		2812.500000
271		2812.500000
272		2812.500000
273		2812.500000
274		2812.500000
275		2812.500000
276		2812.500000
277		2812.500000
278		2812.500000
279		2812.500000
280		2812.500000
281		2812.500000
282		2812.500000
283		2812.500000
284		2812.500000
285		2812.500000
286		2812.500000
287		2812.500000
288		2812.500000
289		2812.500000
290		2812.500000
291		2812.500000
292		2812.500000
293		2812.500000
294		2812.500000
295		2812.500000
296		2812.500000
297		2812.500000
298		2812.500000
299		2812.500000
300		2812.500000
301		2812.500000
302		2812.500000
303		2812.500000
304		2812.500000
305		2734.375000
306		2734.375000
307		2734.375000
308		2734.375000
309		2734.375000
310		2734.375000
311		2734.375000
312		2734.375000
313		2734.375000
314		2734.375000
315		2734.375000
316		2734.375000
317		2734.375000
318		2734.375000
319		2734.375000
320		2734.375000
321		2734.375000
322		2734.375000
323		2734.375000
324		2734.375000
325		2734.375000
326		2734.375000
327		2734.375000
328		2734.375000
329		2734.375000
330		2734.375000
331		2734.375000
332		2734.375000
333		2734.375000
334		2734.375000
335		2734.375000
336		2734.375000
337		2734.375000
338		2734.375000
339		2734.375000
340		2734.375000
341		2734.375000
342		2734.375000
343		2734.375000
344		2734.375000
345		2734.375000
346		2734.375000
347		2734.375000
348		2734.375000
349		2734.375000
350		2734.375000
351		2734.375000
352		2734.375000
353		2734.375000
354		2734.375000
355		2734.375000
356		2734.375000
357		2734.375000
358		2734.375000
359		2734.375000
360		2734.375000
361		2734.375000
362		2734.375000
363		2734.375000
364		2734.375000
365		2734.375000
366		2734.375000
367		2734.375000
368		2734.375000
369		2734.375000
370		2734.375000
371		2734.375000
372		2734.375000
373		2734.375000
374		2734.375000
375		2734.375000
376		2734.375000
377		2734.375000
378		2734.375000
379		2734.375000
380		2734.375000
381		2734.375000
382		2734.375000
383		2734.375000
384		2734.375000
385		2734.375000
386		2734.375000
387		2734.375000
388		2734.375000
389		2734.375000
390		2656.250000
391		2734.375000
392		2734.375000
393		2734.375000
394		2734.375000
395		2734.375000
396		2734.375000
397		2734.375000
398		2734.375000
399		2734.375000
400		2734.375000
401		2734.375000
402		2734.375000
403		2734.375000
404		2734.375000
405		2734.375000
406		2734.375000
407		2734.375000
408		2734.375000
409		2734.375000
410		2734.375000
411		2734.375000
412		2734.375000
413		2734.375000
414		2734.375000
415		2734.375000
416		2734.375000
417		2734.375000
418		2734.375000
419		2734.375000
420		2734.375000
421		2734.375000
422		2734.375000
423		2734.375000
424		2734.375000
425		2734.375000
426		2734.375000
427		2734.375000
428		2734.375000
429		2734.375000
430		2734.375000
431		2734.375000
432		2734.375000
433		2734.375000
434		2734.375000
435		2734.375000
436		2734.375000
437		2734.375000
438		2734.375000
439		2734.375000
440		2734.375000
441		2734.375000
442		2734.375000
443		2734.375000
444		2734.375000
445		2734.375000
446		2734.375000
447		2734.375000
448		2734.375000
449		2734.375000
450		2734.375000
451		2734.375000
452		2734.375000
453		2734.375000
454		2734.375000
455		2734.375000
456		2734.375000
457		2734.375000
458		2734.375000
459		2734.375000
460		2734.375000
461		2734.375000
462		2734.375000
463		2734.375000
464		2734.375000
465		2734.375000
466		2734.375000
467		2734.375000
468		2734.375000
469		2734.375000
470		2734.375000
471		2734.375000
472		2734.375000
473		2734.375000
474		2734.375000
475		2734.375000
476		2734.375000
477		2734.375000
478		2734.375000
479		2734.375000
480		2734.375000
481		2734.375000
482		2734.375000
483		2734.375000
484		2734.375000
485		2734.375000
486		2734.375000
487		2734.375000
488		2734.375000
489		2734.375000
490		2734.375000
491		2734.375000
492		2734.375000
493		2812.500000
494		2812.500000
495		2812.500000
496		2812.500000
497		2812.500000
498		2812.500000
499		2812.500000
500		2812.500000
501		2812.500000
502		2812.500000
503		2812.500000
504		2812.500000
505		2812.500000
506		2812.500000
507		2812.500000
508		2812.500000
509		2812.500000
510		2812.500000
511		2812.500000
512		2812.500000
513		2812.500000
514		2812.500000
515		2812.500000
516		2812.500000
517		2812.500000
518		2812.500000
519		2812.500000
520		2812.500000
521		2812.500000
522		2812.500000
523		2812.500000
524		2812.500000
525		2812.500000
526		2812.500000
527		2812.500000
528		2812.500000
529		2812.500000
530		2812.500000
531		2812.500000
532		2812.500000
533		2812.500000
534		2890.625000
535		2890.625000
536		2890.625000
537		2890.625000
538		2890.625000
539		2890.625000
540		2890.625000
541		2890.625000
542		2890.625000
543		2890.625000
544		2890.625000
545		2890.625000
546		2890.625000
547		2890.625000
548		2890.625000
549		2890.625000
550		2890.625000
551		2890.625000
552		2890.625000
553		2890.625000
554		2890.625000
555		2890.625000
556		2890.625000
557		2890.625000
558		2890.625000
559		2890.625000
560		2890.625000
561		2890.625000
562		2890.625000
563		2890.625000
564		2890.625000
565		2890.625000
566		2968.750000
567		2968.750000
568		2968.750000
569		2968.750000
570		2968.750000
571		2968.750000
572		2968.750000
573		2968.750000
574		2968.750000
575		2968.750000
576		2968.750000
577		2968.750000
578		2968.750000
579		2968.750000
580		2968.750000
581		2968.750000
582		2968.750000
583		2968.750000
584		2968.750000
585		2968.750000
586		2968.750000
587		2968.750000
588		2968.750000
589		2968.750000
590		3046.875000
591		3046.875000
592		3046.875000
593		3046.875000
594		3046.875000
595		3046.875000
596		3046.875000
597		3046.875000
598		3046.875000
599		3046.875000
600		3046.875000
601		3046.875000
602		3046.875000
603		3046.875000
604		3046.875000
605		3046.875000
606		3046.875000
607		3046.875000
608		3125.000000
609		3125.000000
610		3125.000000
611		3125.000000
612		3125.000000
613		3125.000000
614		3125.000000
615		3125.000000
616		3125.000000
617		3125.000000
618		3125.000000
619		3125.000000
620		3125.000000
621		3125.000000
622		3125.000000
623		3125.000000
624		3125.000000
625		3125.000000
626		3125.000000
627		3125.000000
628		3203.125000
629		3203.125000
630		3203.125000
631		3203.125000
632		3203.125000
633		3203.125000
634		3203.125000
635		3203.125000
636		3203.125000
637		3203.125000
638		3203.125000
639		3203.125000
640		3203.125000
641		3203.125000
642		3281.250000
643		3281.250000
644		3281.250000
645		3281.250000
646		3281.250000
647		3281.250000
648		3281.250000
649		3281.250000
650		3281.250000
651		3281.250000
652		3281.250000
653		3281.250000
654		3281.250000
655		3281.250000
656		3281.250000
657		3359.375000
658		3359.375000
659		3359.375000
660		3359.375000
661		3359.375000
662		3359.375000
663		3359.375000
664		3359.375000
665		3359.375000
666		3359.375000
667		3359.375000
668		3359.375000
669		3359.375000
670		3359.375000
671		3359.375000
672		3437.500000
673		3437.500000
674		3437.500000
675		3437.500000
676		3437.500000
677		3437.500000
678		3437.500000
679		3437.500000
680		3437.500000
681		3437.500000
682		3437.500000
683		3515.625000
684		3515.625000
685		3515.625000
686		3515.625000
687		3515.625000
688		3515.625000
689		3515.625000
690		3515.625000
691		3515.625000
692		3515.625000
693		3515.625000
694		3515.625000
695		3593.750000
696		3593.750000
697		3593.750000
698		3593.750000
699		3593.750000
700		3593.750000
701		3593.750000
702		3593.750000
703		3593.750000
704		3593.750000
705		3593.750000
706		3671.875000
707		3671.875000
708		3671.875000
709		3671.875000
710		3671.875000
711		3671.875000
712		3671.875000
713		3671.875000
714		3671.875000
715		3671.875000
716		3750.000000
717		3750.000000
718		3750.000000
719		3750.000000
720		3750.000000
721		3750.000000
722		3750.000000
723		3750.000000
724		3750.000000
725		3750.000000
726		3828.125000
727		3828.125000
728		3828.125000
729		3828.125000
730		3828.125000
731		3828.125000
732		3828.125000
733		3828.125000
734		3828.125000
735		3906.250000
736		3906.250000
737		3906.250000
738		3906.250000
739		3906.250000
740		3906.250000
741		3906.250000
742		3906.250000
743		3906.250000
744		3906.250000
745		3906.250000
746		3906.250000
747		3984.375000
748		3906.250000
749		3984.375000
750		3984.375000
751		3984.375000
752		3984.375000
753		3984.375000
754		3984.375000
755		4062.500000
756		4062.500000
757		4062.500000
758		4062.500000
759		4062.500000
760		4062.500000
761		4062.500000
762		4062.500000
763		4062.500000
764		4062.500000
765		4140.625000
766		4140.625000
767		4140.625000
768		4140.625000
769		4140.625000
770		4140.625000
771		4140.625000
772		4140.625000
773		4218.750000
774		4218.750000
775		4218.750000
776		4218.750000
777		4218.750000
778		4218.750000
779		4218.750000
780		4218.750000
781		4218.750000
782		4296.875000
783		4296.875000
784		4296.875000
785		4296.875000
786		4296.875000
787		4296.875000
788		4296.875000
789		4296.875000
790		4296.875000
791		4375.000000
792		4375.000000
793		4375.000000
794		4375.000000
795		4375.000000
796		4375.000000
797		4375.000000
798		4375.000000
799		4453.125000
800		4453.125000
801		4453.125000
802		4453.125000
803		4453.125000
804		4453.125000
805		4453.125000
806		4453.125000
807		4453.125000
808		4531.250000
809		4531.250000
810		4531.250000
811		4531.250000
812		4531.250000
813		4531.250000
814		4531.250000
815		4531.250000
816		4531.250000
817		4609.375000
818		4609.375000
819		4609.375000
820		4609.375000
821		4609.375000
822		4609.375000
823		4609.375000
824		4609.375000
825		4609.375000
826		4609.375000
827		4609.375000
828		4687.500000
829		4687.500000
830		4687.500000
831		4687.500000
832		4687.500000
833		4687.500000
834		4687.500000
835		4687.500000
836		4765.625000
837		4765.625000
838		4765.625000
839		4765.625000
840		4765.625000
841		4765.625000
842		4765.625000
843		4765.625000
844		4765.625000
845		4843.750000
846		4765.625000
847		4843.750000
848		4843.750000
849		4843.750000
850		4843.750000
851		4843.750000
852		4843.750000
853		4843.750000
854		4843.750000
855		4921.875000
856		4921.875000
857		4921.875000
858		4921.875000
859		4921.875000
860		4921.875000
861		4921.875000
862		4921.875000
863		4921.875000
864		4921.875000
865		5000.000000
866		5000.000000
867		5000.000000
868		5000.000000
869		5000.000000
870		5000.000000
871		5000.000000
872		5000.000000
873		5000.000000
874		5000.000000
875		5000.000000
876		5000.000000
877		5078.125000
878		5078.125000
879		5078.125000
880		5078.125000
881		5078.125000
882		5078.125000
883		5078.125000
884		5078.125000
885		5078.125000
886		5078.125000
887		5078.125000
888		5078.125000
889		5156.250000
890		5156.250000
891		5156.250000
892		5156.250000
893		5156.250000
894		5156.250000
895		5156.250000
896		5156.250000
897		5156.250000
898		5234.375000
899		5234.375000
900		5234.375000
901		5234.375000
902		5234.375000
903		5234.375000
904		5234.375000
905		5234.375000
906		5234.375000
907		5234.375000
908		5234.375000
909		5234.375000
910		5234.375000
911		5234.375000
912		5234.375000
913		5312.500000
914		5312.500000
915		5312.500000
916		5312.500000
917		5312.500000
918		5312.500000
919		5312.500000
920		5312.500000
921		5312.500000
922		5312.500000
923		5312.500000
924		5312.500000
925		5312.500000
926		5312.500000
927		5312.500000
928		5312.500000
929		5312.500000
930		5390.625000
931		5390.625000
932		5390.625000
933		5390.625000
934		5390.625000
935		5390.625000
936		5390.625000
937		5390.625000
938		5390.625000
939		5390.625000
940		5390.625000
941		5390.625000
942		5390.625000
943		5390.625000
944		5390.625000
945		5390.625000
946		5390.625000
947		5390.625000
948		5390.625000
949		5390.625000
950		5468.750000
951		5468.750000
952		5468.750000
953		5468.750000
954		5468.750000
955		5468.750000
956		5468.750000
957		5468.750000
958		5468.750000
959		5468.750000
960		5468.750000
961		5468.750000
962		5468.750000
963		5468.750000
964		5468.750000
965		5468.750000
966		5468.750000
967		5468.750000
968		5468.750000
969		5468.750000
970		5468.750000
971		5468.750000
972		5468.750000
973		5468.750000
974		5468.750000
975		5468.750000
976		5468.750000
977		5468.750000
978		5468.750000
979		5468.750000
980		5468.750000
981		5468.750000
982		5468.750000
983		5468.750000
984		5468.750000
985		5468.750000
986		5468.750000
987		5468.750000
988		5468.750000
989		5546.875000
990		5468.750000
991		5468.750000
992		5468.750000
993		5468.750000
994		5468.750000
995		5468.750000
996		5546.875000
997		5468.750000
998		5468.750000
999		5546.875000
1000		5468.750000
1001		5468.750000
1002		5468.750000
1003		5468.750000
1004		5546.875000
1005		5546.875000
1006		5468.750000
1007		5468.750000
1008		5468.750000
1009		5468.750000
1010		5468.750000
1011		5468.750000
1012		5468.750000
1013		5468.750000
1014		5468.750000
1015		5468.750000
1016		5468.750000
1017		5468.750000
1018		5468.750000
1019		5468.750000
1020		5468.750000
1021		5468.750000
1022		5468.750000
1023		5468.750000
1024		5468.750000
1025		5468.750000
1026		5468.750000
1027		5468.750000
1028		5468.750000
1029		5468.750000
1030		5468.750000
1031		5468.750000
1032		5468.750000
1033		5468.750000
1034		5468.750000
1035		5468.750000
1036		5468.750000
1037		5468.750000
1038		5468.750000
1039		5468.750000
1040		5468.750000
1041		5468.750000
1042		5390.625000
1043		5468.750000
1044		5390.625000
1045		5390.625000
1046		5390.625000
1047		5390.625000
1048		5390.625000
1049		5390.625000
1050		5390.625000
1051		5390.625000
1052		5390.625000
1053		5390.625000
1054		5390.625000
1055		5390.625000
1056		5390.625000
1057		5390.625000
1058		5390.625000
1059		5390.625000
1060		5390.625000
1061		5390.625000
1062		5390.625000
1063		5390.625000
1064		5312.500000
1065		5312.500000
1066		5312.500000
1067		5312.500000
1068		5312.500000
1069		5312.500000
1070		5312.500000
1071		5312.500000
1072		5312.500000
1073		5312.500000
1074		5312.500000
1075		5312.500000
1076		5312.500000
1077		5312.500000
1078		5312.500000
1079		5312.500000
1080		5312.500000
1081		5234.375000
1082		5234.375000
1083		5234.375000
1084		5234.375000
1085		5234.375000
1086		5234.375000
1087		5234.375000
1088		5234.375000
1089		5234.375000
1090		5234.375000
1091		5234.375000
1092		5234.375000
1093		5234.375000
1094		5234.375000
1095		5234.375000
1096		5156.250000
1097		5156.250000
1098		5156.250000
1099		5156.250000
1100		5156.250000
1101		5156.250000
1102		5156.250000
1103		5156.250000
1104		5156.250000
1105		5156.250000
1106		5156.250000
1107		5156.250000
1108		5078.125000
1109		5078.125000
1110		5078.125000
1111		5078.125000
1112		5078.125000
1113		5078.125000
1114		5078.125000
1115		5078.125000
1116		5078.125000
1117		5078.125000
1118		5078.125000
1119		5000.000000
1120		5000.000000
1121		5000.000000
1122		5000.000000
1123		5000.000000
1124		5000.000000
1125		5000.000000
1126		5000.000000
1127		5000.000000
1128		5000.000000
1129		5000.000000
1130		5000.000000
1131		4921.875000
1132		4921.875000
1133		4921.875000
1134		4921.875000
1135		4921.875000
1136		4921.875000
1137		4921.875000
1138		4921.875000
1139		4921.875000
1140		4921.875000
1141		4921.875000
1142		4843.750000
1143		4843.750000
1144		4843.750000
1145		4843.750000
1146		4843.750000
1147		4843.750000
1148		4843.750000
1149		4843.750000
1150		4843.750000
1151		4843.750000
1152		4765.625000
1153		4765.625000
1154		4765.625000
1155		4765.625000
1156		4765.625000
1157		4765.625000
1158		4765.625000
1159		4765.625000
