Old_data/metingen laweit/20cm, resfreq1/data_81_216.txt

Channel              :		CH1
Frequency            :		973.6Hz
Period               :		1.027ms
PK-PK                :		72.27mV
Probe attenuation    :		1X
Voltage per ADC value:		0.122070mV
Time interval        :		2.00000us

index		CH1_Voltage(mV)
1		46.875000
2		46.875000
3		44.921875
4		46.875000
5		42.968750
6		46.875000
7		42.968750
8		46.875000
9		42.968750
10		46.875000
11		42.968750
12		46.875000
13		42.968750
14		46.875000
15		42.968750
16		46.875000
17		41.015625
18		44.921875
19		42.968750
20		44.921875
21		41.015625
22		44.921875
23		41.015625
24		44.921875
25		41.015625
26		44.921875
27		41.015625
28		44.921875
29		41.015625
30		42.968750
31		41.015625
32		42.968750
33		41.015625
34		42.968750
35		39.062500
36		42.968750
37		39.062500
38		41.015625
39		37.109375
40		42.968750
41		37.109375
42		41.015625
43		37.109375
44		41.015625
45		37.109375
46		39.062500
47		37.109375
48		39.062500
49		35.156250
50		39.062500
51		35.156250
52		39.062500
53		35.156250
54		37.109375
55		33.203125
56		37.109375
57		35.156250
58		37.109375
59		33.203125
60		37.109375
61		33.203125
62		35.156250
63		33.203125
64		35.156250
65		31.250000
66		35.156250
67		31.250000
68		35.156250
69		31.250000
70		33.203125
71		31.250000
72		33.203125
73		29.296875
74		33.203125
75		29.296875
76		31.250000
77		27.343750
78		31.250000
79		27.343750
80		31.250000
81		27.343750
82		29.296875
83		25.390625
84		29.296875
85		25.390625
86		29.296875
87		25.390625
88		27.343750
89		23.437500
90		27.343750
91		23.437500
92		27.343750
93		21.484375
94		25.390625
95		21.484375
96		25.390625
97		21.484375
98		25.390625
99		19.531250
100		23.437500
101		19.531250
102		23.437500
103		19.531250
104		21.484375
105		17.578125
106		21.484375
107		17.578125
108		21.484375
109		15.625000
110		19.531250
111		15.625000
112		19.531250
113		15.625000
114		17.578125
115		15.625000
116		17.578125
117		13.671875
118		15.625000
119		13.671875
120		15.625000
121		11.718750
122		15.625000
123		9.765625
124		15.625000
125		9.765625
126		13.671875
127		9.765625
128		13.671875
129		9.765625
130		11.718750
131		7.812500
132		11.718750
133		7.812500
134		9.765625
135		5.859375
136		9.765625
137		5.859375
138		9.765625
139		3.906250
140		9.765625
141		3.906250
142		7.812500
143		3.906250
144		7.812500
145		3.906250
146		5.859375
147		1.953125
148		5.859375
149		1.953125
150		3.906250
151		0.000000
152		3.906250
153		0.000000
154		1.953125
155		0.000000
156		1.953125
157		-1.953125
158		1.953125
159		-1.953125
160		0.000000
161		-1.953125
162		0.000000
163		-3.906250
164		0.000000
165		-3.906250
166		-1.953125
167		-3.906250
168		-1.953125
169		-5.859375
170		-1.953125
171		-5.859375
172		-3.906250
173		-7.812500
174		-3.906250
175		-7.812500
176		-3.906250
177		-7.812500
178		-3.906250
179		-7.812500
180		-5.859375
181		-7.812500
182		-5.859375
183		-9.765625
184		-5.859375
185		-9.765625
186		-5.859375
187		-9.765625
188		-7.812500
189		-11.718750
190		-7.812500
191		-11.718750
192		-7.812500
193		-11.718750
194		-9.765625
195		-11.718750
196		-9.765625
197		-11.718750
198		-9.765625
199		-13.671875
200		-9.765625
201		-15.625000
202		-9.765625
203		-13.671875
204		-11.718750
205		-13.671875
206		-11.718750
207		-15.625000
208		-11.718750
209		-15.625000
210		-11.718750
211		-15.625000
212		-13.671875
213		-15.625000
214		-13.671875
215		-15.625000
216		-13.671875
217		-15.625000
218		-13.671875
219		-17.578125
220		-13.671875
221		-15.625000
222		-13.671875
223		-17.578125
224		-13.671875
225		-17.578125
226		-13.671875
227		-17.578125
228		-13.671875
229		-17.578125
230		-15.625000
231		-17.578125
232		-13.671875
233		-17.578125
234		-15.625000
235		-17.578125
236		-13.671875
237		-17.578125
238		-15.625000
239		-17.578125
240		-15.625000
241		-19.531250
242		-13.671875
243		-17.578125
244		-15.625000
245		-17.578125
246		-15.625000
247		-17.578125
248		-15.625000
249		-17.578125
250		-15.625000
251		-17.578125
252		-15.625000
253		-17.578125
254		-15.625000
255		-17.578125
256		-15.625000
257		-19.531250
258		-15.625000
259		-17.578125
260		-13.671875
261		-17.578125
262		-13.671875
263		-17.578125
264		-13.671875
265		-17.578125
266		-13.671875
267		-17.578125
268		-13.671875
269		-17.578125
270		-13.671875
271		-15.625000
272		-13.671875
273		-15.625000
274		-11.718750
275		-15.625000
276		-11.718750
277		-15.625000
278		-11.718750
279		-13.671875
280		-11.718750
281		-15.625000
282		-11.718750
283		-13.671875
284		-11.718750
285		-13.671875
286		-9.765625
287		-13.671875
288		-9.765625
289		-11.718750
290		-9.765625
291		-11.718750
292		-9.765625
293		-11.718750
294		-7.812500
295		-11.718750
296		-7.812500
297		-9.765625
298		-7.812500
299		-9.765625
300		-7.812500
301		-9.765625
302		-5.859375
303		-9.765625
304		-5.859375
305		-7.812500
306		-5.859375
307		-9.765625
308		-3.906250
309		-7.812500
310		-3.906250
311		-5.859375
312		-3.906250
313		-5.859375
314		-3.906250
315		-5.859375
316		-1.953125
317		-5.859375
318		-1.953125
319		-3.906250
320		0.000000
321		-3.906250
322		0.000000
323		-1.953125
324		0.000000
325		-1.953125
326		1.953125
327		-1.953125
328		1.953125
329		0.000000
330		1.953125
331		-1.953125
332		3.906250
333		1.953125
334		3.906250
335		1.953125
336		3.906250
337		1.953125
338		5.859375
339		3.906250
340		5.859375
341		3.906250
342		7.812500
343		3.906250
344		7.812500
345		5.859375
346		9.765625
347		5.859375
348		9.765625
349		7.812500
350		9.765625
351		7.812500
352		11.718750
353		7.812500
354		11.718750
355		9.765625
356		11.718750
357		9.765625
358		13.671875
359		11.718750
360		13.671875
361		11.718750
362		15.625000
363		11.718750
364		15.625000
365		13.671875
366		17.578125
367		13.671875
368		17.578125
369		13.671875
370		19.531250
371		15.625000
372		19.531250
373		17.578125
374		19.531250
375		17.578125
376		19.531250
377		17.578125
378		21.484375
379		19.531250
380		21.484375
381		19.531250
382		23.437500
383		21.484375
384		23.437500
385		21.484375
386		23.437500
387		21.484375
388		25.390625
389		23.437500
390		25.390625
391		23.437500
392		27.343750
393		23.437500
394		27.343750
395		25.390625
396		27.343750
397		25.390625
398		29.296875
399		25.390625
400		29.296875
401		27.343750
402		29.296875
403		27.343750
404		31.250000
405		29.296875
406		31.250000
407		29.296875
408		31.250000
409		29.296875
410		33.203125
411		31.250000
412		33.203125
413		31.250000
414		33.203125
415		31.250000
416		35.156250
417		33.203125
418		35.156250
419		33.203125
420		35.156250
421		33.203125
422		37.109375
423		35.156250
424		37.109375
425		35.156250
426		37.109375
427		35.156250
428		39.062500
429		35.156250
430		39.062500
431		37.109375
432		39.062500
433		37.109375
434		39.062500
435		37.109375
436		39.062500
437		37.109375
438		41.015625
439		39.062500
440		41.015625
441		39.062500
442		41.015625
443		39.062500
444		42.968750
445		39.062500
446		42.968750
447		39.062500
448		42.968750
449		41.015625
450		42.968750
451		41.015625
452		42.968750
453		41.015625
454		44.921875
455		41.015625
456		42.968750
457		41.015625
458		44.921875
459		41.015625
460		44.921875
461		41.015625
462		44.921875
463		42.968750
464		44.921875
465		42.968750
466		46.875000
467		42.968750
468		46.875000
469		42.968750
470		46.875000
471		42.968750
472		46.875000
473		44.921875
474		46.875000
475		42.968750
476		46.875000
477		42.968750
478		46.875000
479		44.921875
480		46.875000
481		44.921875
482		46.875000
483		44.921875
484		46.875000
485		44.921875
486		48.828125
487		42.968750
488		48.828125
489		44.921875
490		46.875000
491		44.921875
492		48.828125
493		44.921875
494		48.828125
495		44.921875
496		46.875000
497		44.921875
498		46.875000
499		44.921875
500		48.828125
501		44.921875
502		48.828125
503		44.921875
504		46.875000
505		44.921875
506		48.828125
507		44.921875
508		46.875000
509		42.968750
510		46.875000
511		44.921875
512		46.875000
513		44.921875
514		46.875000
515		44.921875
516		46.875000
517		42.968750
518		46.875000
519		42.968750
520		46.875000
521		42.968750
522		46.875000
523		42.968750
524		46.875000
525		41.015625
526		46.875000
527		41.015625
528		46.875000
529		42.968750
530		44.921875
531		42.968750
532		44.921875
533		41.015625
534		44.921875
535		41.015625
536		44.921875
537		39.062500
538		44.921875
539		41.015625
540		44.921875
541		41.015625
542		42.968750
543		41.015625
544		42.968750
545		41.015625
546		42.968750
547		39.062500
548		42.968750
549		39.062500
550		42.968750
551		37.109375
552		41.015625
553		37.109375
554		41.015625
555		37.109375
556		41.015625
557		37.109375
558		39.062500
559		37.109375
560		39.062500
561		35.156250
562		39.062500
563		37.109375
564		39.062500
565		35.156250
566		39.062500
567		35.156250
568		37.109375
569		33.203125
570		37.109375
571		33.203125
572		37.109375
573		33.203125
574		37.109375
575		33.203125
576		35.156250
577		31.250000
578		35.156250
579		31.250000
580		35.156250
581		31.250000
582		35.156250
583		31.250000
584		33.203125
585		29.296875
586		33.203125
587		29.296875
588		33.203125
589		29.296875
590		33.203125
591		27.343750
592		31.250000
593		25.390625
594		31.250000
595		27.343750
596		29.296875
597		25.390625
598		29.296875
599		25.390625
600		29.296875
601		23.437500
602		27.343750
603		23.437500
604		27.343750
605		23.437500
606		27.343750
607		23.437500
608		25.390625
609		21.484375
610		25.390625
611		21.484375
612		25.390625
613		19.531250
614		23.437500
615		19.531250
616		23.437500
617		17.578125
618		21.484375
619		17.578125
620		21.484375
621		15.625000
622		21.484375
623		17.578125
624		19.531250
625		15.625000
626		17.578125
627		15.625000
628		17.578125
629		13.671875
630		17.578125
631		13.671875
632		17.578125
633		11.718750
634		15.625000
635		11.718750
636		15.625000
637		11.718750
638		13.671875
639		9.765625
640		13.671875
641		9.765625
642		11.718750
643		7.812500
644		11.718750
645		7.812500
646		11.718750
647		7.812500
648		9.765625
649		5.859375
650		9.765625
651		5.859375
652		9.765625
653		5.859375
654		7.812500
655		3.906250
656		7.812500
657		3.906250
658		5.859375
659		3.906250
660		5.859375
661		1.953125
662		5.859375
663		1.953125
664		3.906250
665		0.000000
666		3.906250
667		-1.953125
668		3.906250
669		0.000000
670		1.953125
671		-1.953125
672		1.953125
673		-1.953125
674		1.953125
675		-1.953125
676		0.000000
677		-3.906250
678		0.000000
679		-3.906250
680		0.000000
681		-5.859375
682		0.000000
683		-5.859375
684		-1.953125
685		-5.859375
686		-1.953125
687		-5.859375
688		-3.906250
689		-7.812500
690		-3.906250
691		-7.812500
692		-5.859375
693		-7.812500
694		-5.859375
695		-9.765625
696		-5.859375
697		-9.765625
698		-5.859375
699		-9.765625
700		-7.812500
701		-9.765625
702		-7.812500
703		-11.718750
704		-7.812500
705		-13.671875
706		-7.812500
707		-11.718750
708		-9.765625
709		-11.718750
710		-9.765625
711		-13.671875
712		-9.765625
713		-13.671875
714		-9.765625
715		-13.671875
716		-11.718750
717		-13.671875
718		-11.718750
719		-15.625000
720		-11.718750
721		-15.625000
722		-11.718750
723		-15.625000
724		-11.718750
725		-15.625000
726		-13.671875
727		-17.578125
728		-13.671875
729		-17.578125
730		-13.671875
731		-17.578125
732		-13.671875
733		-17.578125
734		-13.671875
735		-17.578125
736		-13.671875
737		-17.578125
738		-13.671875
739		-17.578125
740		-13.671875
741		-17.578125
742		-15.625000
743		-17.578125
744		-15.625000
745		-17.578125
746		-15.625000
747		-17.578125
748		-15.625000
749		-17.578125
750		-15.625000
751		-17.578125
752		-15.625000
753		-17.578125
754		-15.625000
755		-17.578125
756		-15.625000
757		-19.531250
758		-15.625000
759		-17.578125
760		-15.625000
761		-17.578125
762		-15.625000
763		-17.578125
764		-15.625000
765		-17.578125
766		-15.625000
767		-17.578125
768		-15.625000
769		-17.578125
770		-15.625000
771		-17.578125
772		-15.625000
773		-19.531250
774		-13.671875
775		-17.578125
776		-15.625000
777		-17.578125
778		-13.671875
779		-17.578125
780		-13.671875
781		-15.625000
782		-13.671875
783		-15.625000
784		-13.671875
785		-15.625000
786		-13.671875
787		-15.625000
788		-13.671875
789		-15.625000
790		-11.718750
791		-15.625000
792		-11.718750
793		-13.671875
794		-11.718750
795		-15.625000
796		-11.718750
797		-13.671875
798		-9.765625
799		-13.671875
800		-9.765625
801		-13.671875
802		-9.765625
803		-11.718750
804		-9.765625
805		-11.718750
806		-9.765625
807		-11.718750
808		-7.812500
809		-11.718750
810		-7.812500
811		-11.718750
812		-7.812500
813		-9.765625
814		-5.859375
815		-9.765625
816		-5.859375
817		-7.812500
818		-5.859375
819		-7.812500
820		-5.859375
821		-7.812500
822		-3.906250
823		-7.812500
824		-3.906250
825		-5.859375
826		-3.906250
827		-5.859375
828		-3.906250
829		-5.859375
830		-1.953125
831		-3.906250
832		-1.953125
833		-3.906250
834		0.000000
835		-3.906250
836		0.000000
837		-1.953125
838		1.953125
839		-1.953125
840		1.953125
841		-1.953125
842		1.953125
843		0.000000
844		1.953125
845		0.000000
846		3.906250
847		0.000000
848		3.906250
849		1.953125
850		5.859375
851		1.953125
852		5.859375
853		3.906250
854		7.812500
855		3.906250
856		7.812500
857		5.859375
858		7.812500
859		5.859375
860		7.812500
861		5.859375
862		9.765625
863		5.859375
864		9.765625
865		7.812500
866		11.718750
867		7.812500
868		11.718750
869		9.765625
870		13.671875
871		9.765625
872		13.671875
873		11.718750
874		15.625000
875		11.718750
876		15.625000
877		13.671875
878		15.625000
879		13.671875
880		17.578125
881		13.671875
882		17.578125
883		15.625000
884		17.578125
885		15.625000
886		19.531250
887		17.578125
888		19.531250
889		17.578125
890		21.484375
891		17.578125
892		21.484375
893		19.531250
894		21.484375
895		19.531250
896		23.437500
897		19.531250
898		23.437500
899		21.484375
900		25.390625
901		21.484375
902		25.390625
903		23.437500
904		25.390625
905		23.437500
906		27.343750
907		23.437500
908		27.343750
909		25.390625
910		27.343750
911		25.390625
912		27.343750
913		25.390625
914		29.296875
915		27.343750
916		31.250000
917		27.343750
918		31.250000
919		29.296875
920		31.250000
921		29.296875
922		33.203125
923		29.296875
924		33.203125
925		29.296875
926		33.203125
927		31.250000
928		33.203125
929		31.250000
930		35.156250
931		31.250000
932		35.156250
933		33.203125
934		35.156250
935		33.203125
936		37.109375
937		33.203125
938		37.109375
939		35.156250
940		37.109375
941		35.156250
942		39.062500
943		35.156250
944		39.062500
945		37.109375
946		39.062500
947		35.156250
948		41.015625
949		37.109375
950		41.015625
951		37.109375
952		41.015625
953		39.062500
954		41.015625
955		39.062500
956		41.015625
957		39.062500
958		41.015625
959		39.062500
960		42.968750
961		41.015625
962		42.968750
963		39.062500
964		42.968750
965		41.015625
966		42.968750
967		41.015625
968		44.921875
969		41.015625
970		44.921875
971		41.015625
972		44.921875
973		41.015625
974		44.921875
975		41.015625
976		44.921875
977		42.968750
978		44.921875
979		42.968750
980		44.921875
981		42.968750
982		44.921875
983		42.968750
984		44.921875
985		42.968750
986		46.875000
987		42.968750
988		46.875000
989		42.968750
990		46.875000
991		42.968750
992		46.875000
993		44.921875
994		46.875000
995		44.921875
996		46.875000
997		42.968750
998		46.875000
999		44.921875
1000		46.875000
1001		44.921875
1002		46.875000
1003		44.921875
1004		46.875000
1005		44.921875
1006		46.875000
1007		44.921875
1008		46.875000
1009		44.921875
1010		46.875000
1011		44.921875
1012		46.875000
1013		42.968750
1014		46.875000
1015		44.921875
1016		46.875000
1017		44.921875
1018		46.875000
1019		44.921875
1020		46.875000
1021		44.921875
1022		46.875000
1023		44.921875
1024		46.875000
1025		42.968750
1026		46.875000
1027		44.921875
1028		46.875000
1029		42.968750
1030		46.875000
1031		42.968750
1032		46.875000
1033		42.968750
1034		46.875000
1035		42.968750
1036		46.875000
1037		42.968750
1038		44.921875
1039		42.968750
1040		44.921875
1041		42.968750
1042		44.921875
1043		41.015625
1044		46.875000
1045		42.968750
1046		44.921875
1047		41.015625
1048		44.921875
1049		41.015625
1050		44.921875
1051		41.015625
1052		44.921875
1053		41.015625
1054		42.968750
1055		41.015625
1056		42.968750
1057		39.062500
1058		42.968750
1059		39.062500
1060		42.968750
1061		39.062500
1062		41.015625
1063		37.109375
1064		41.015625
1065		39.062500
1066		41.015625
1067		37.109375
1068		41.015625
1069		37.109375
1070		41.015625
1071		37.109375
1072		39.062500
1073		37.109375
1074		39.062500
1075		35.156250
1076		39.062500
1077		35.156250
1078		39.062500
1079		35.156250
1080		37.109375
1081		33.203125
1082		37.109375
1083		33.203125
1084		37.109375
1085		33.203125
1086		37.109375
1087		33.203125
1088		35.156250
1089		33.203125
1090		35.156250
1091		31.250000
1092		35.156250
1093		31.250000
1094		35.156250
1095		31.250000
1096		33.203125
1097		29.296875
1098		33.203125
1099		29.296875
1100		33.203125
1101		29.296875
1102		31.250000
1103		29.296875
1104		31.250000
1105		27.343750
1106		31.250000
1107		27.343750
1108		29.296875
1109		25.390625
1110		29.296875
1111		25.390625
1112		27.343750
1113		25.390625
1114		27.343750
1115		23.437500
1116		27.343750
1117		23.437500
1118		25.390625
1119		23.437500
1120		25.390625
1121		21.484375
1122		25.390625
1123		21.484375
1124		23.437500
1125		21.484375
1126		23.437500
1127		19.531250
1128		23.437500
1129		19.531250
1130		21.484375
1131		17.578125
1132		21.484375
1133		17.578125
1134		19.531250
1135		15.625000
1136		19.531250
1137		15.625000
1138		19.531250
1139		15.625000
1140		17.578125
1141		13.671875
1142		17.578125
1143		13.671875
1144		17.578125
1145		13.671875
1146		15.625000
1147		11.718750
1148		15.625000
1149		11.718750
1150		15.625000
1151		9.765625
1152		13.671875
1153		9.765625
1154		13.671875
1155		9.765625
1156		11.718750
1157		7.812500
1158		11.718750
1159		7.812500
1160		11.718750
1161		7.812500
1162		9.765625
1163		5.859375
1164		9.765625
1165		5.859375
1166		9.765625
1167		5.859375
1168		7.812500
1169		3.906250
1170		7.812500
1171		3.906250
1172		7.812500
1173		1.953125
1174		5.859375
1175		1.953125
1176		5.859375
1177		1.953125
1178		3.906250
1179		0.000000
1180		1.953125
1181		0.000000
1182		1.953125
1183		-1.953125
1184		1.953125
1185		-1.953125
1186		1.953125
1187		-1.953125
1188		0.000000
1189		-3.906250
1190		0.000000
1191		-3.906250
1192		0.000000
1193		-5.859375
1194		-1.953125
1195		-3.906250
1196		-1.953125
1197		-5.859375
1198		-3.906250
1199		-7.812500
1200		-1.953125
1201		-7.812500
1202		-3.906250
1203		-7.812500
1204		-3.906250
1205		-7.812500
1206		-3.906250
1207		-9.765625
1208		-5.859375
1209		-9.765625
1210		-5.859375
1211		-9.765625
1212		-5.859375
1213		-9.765625
1214		-7.812500
1215		-11.718750
1216		-7.812500
1217		-11.718750
1218		-7.812500
1219		-11.718750
1220		-9.765625
1221		-11.718750
1222		-9.765625
1223		-13.671875
1224		-9.765625
1225		-13.671875
1226		-9.765625
1227		-13.671875
1228		-11.718750
1229		-13.671875
1230		-11.718750
1231		-13.671875
1232		-11.718750
1233		-15.625000
1234		-11.718750
1235		-15.625000
1236		-11.718750
1237		-15.625000
1238		-13.671875
1239		-15.625000
1240		-13.671875
1241		-15.625000
1242		-13.671875
1243		-17.578125
1244		-13.671875
1245		-17.578125
1246		-13.671875
1247		-17.578125
1248		-15.625000
1249		-17.578125
1250		-13.671875
1251		-17.578125
1252		-13.671875
1253		-17.578125
1254		-15.625000
1255		-17.578125
1256		-15.625000
1257		-17.578125
1258		-15.625000
1259		-17.578125
1260		-15.625000
1261		-19.531250
1262		-15.625000
1263		-17.578125
1264		-15.625000
1265		-19.531250
1266		-15.625000
1267		-19.531250
1268		-15.625000
1269		-17.578125
1270		-15.625000
1271		-19.531250
1272		-15.625000
1273		-19.531250
1274		-15.625000
1275		-19.531250
1276		-15.625000
1277		-19.531250
1278		-15.625000
1279		-17.578125
1280		-15.625000
1281		-17.578125
1282		-15.625000
1283		-19.531250
1284		-15.625000
1285		-17.578125
1286		-15.625000
1287		-17.578125
1288		-13.671875
1289		-17.578125
1290		-15.625000
1291		-17.578125
1292		-13.671875
1293		-17.578125
1294		-13.671875
1295		-17.578125
1296		-13.671875
1297		-15.625000
