metingen laweit/2000Hz, 35,0cm/data_81_170.txt

Channel              :		CH1
Frequency            :		1.973kHz
Period               :		0.507ms
PK-PK                :		144.5mV
Probe attenuation    :		1X
Voltage per ADC value:		0.122070mV
Time interval        :		2.00000us

index		CH1_Voltage(mV)
1		70.312500
2		70.312500
3		72.265625
4		66.406250
5		74.218750
6		66.406250
7		74.218750
8		64.453125
9		72.265625
10		64.453125
11		72.265625
12		62.500000
13		70.312500
14		60.546875
15		70.312500
16		60.546875
17		68.359375
18		60.546875
19		64.453125
20		58.593750
21		62.500000
22		54.687500
23		62.500000
24		52.734375
25		60.546875
26		50.781250
27		60.546875
28		48.828125
29		56.640625
30		46.875000
31		54.687500
32		44.921875
33		52.734375
34		44.921875
35		48.828125
36		41.015625
37		44.921875
38		37.109375
39		44.921875
40		33.203125
41		42.968750
42		31.250000
43		39.062500
44		27.343750
45		37.109375
46		25.390625
47		33.203125
48		21.484375
49		31.250000
50		21.484375
51		29.296875
52		17.578125
53		21.484375
54		13.671875
55		19.531250
56		9.765625
57		17.578125
58		5.859375
59		15.625000
60		1.953125
61		11.718750
62		0.000000
63		7.812500
64		-3.906250
65		5.859375
66		-5.859375
67		1.953125
68		-7.812500
69		-3.906250
70		-11.718750
71		-7.812500
72		-17.578125
73		-7.812500
74		-19.531250
75		-11.718750
76		-23.437500
77		-15.625000
78		-27.343750
79		-17.578125
80		-29.296875
81		-21.484375
82		-33.203125
83		-23.437500
84		-33.203125
85		-25.390625
86		-35.156250
87		-31.250000
88		-39.062500
89		-35.156250
90		-42.968750
91		-35.156250
92		-44.921875
93		-37.109375
94		-46.875000
95		-41.015625
96		-48.828125
97		-42.968750
98		-50.781250
99		-44.921875
100		-52.734375
101		-46.875000
102		-52.734375
103		-50.781250
104		-54.687500
105		-50.781250
106		-58.593750
107		-50.781250
108		-60.546875
109		-52.734375
110		-60.546875
111		-54.687500
112		-62.500000
113		-54.687500
114		-62.500000
115		-54.687500
116		-62.500000
117		-56.640625
118		-60.546875
119		-58.593750
120		-62.500000
121		-60.546875
122		-64.453125
123		-56.640625
124		-64.453125
125		-56.640625
126		-64.453125
127		-56.640625
128		-64.453125
129		-56.640625
130		-64.453125
131		-56.640625
132		-62.500000
133		-54.687500
134		-60.546875
135		-54.687500
136		-58.593750
137		-54.687500
138		-58.593750
139		-52.734375
140		-58.593750
141		-50.781250
142		-56.640625
143		-48.828125
144		-54.687500
145		-48.828125
146		-52.734375
147		-46.875000
148		-52.734375
149		-42.968750
150		-50.781250
151		-42.968750
152		-44.921875
153		-41.015625
154		-42.968750
155		-39.062500
156		-42.968750
157		-33.203125
158		-41.015625
159		-31.250000
160		-37.109375
161		-29.296875
162		-35.156250
163		-25.390625
164		-31.250000
165		-23.437500
166		-29.296875
167		-19.531250
168		-25.390625
169		-19.531250
170		-21.484375
171		-15.625000
172		-17.578125
173		-11.718750
174		-15.625000
175		-7.812500
176		-13.671875
177		-3.906250
178		-9.765625
179		-1.953125
180		-7.812500
181		1.953125
182		-3.906250
183		5.859375
184		0.000000
185		7.812500
186		5.859375
187		9.765625
188		9.765625
189		13.671875
190		9.765625
191		19.531250
192		11.718750
193		21.484375
194		15.625000
195		25.390625
196		19.531250
197		27.343750
198		21.484375
199		31.250000
200		25.390625
201		35.156250
202		31.250000
203		35.156250
204		33.203125
205		39.062500
206		35.156250
207		42.968750
208		37.109375
209		44.921875
210		39.062500
211		48.828125
212		42.968750
213		50.781250
214		44.921875
215		52.734375
216		46.875000
217		54.687500
218		48.828125
219		56.640625
220		54.687500
221		56.640625
222		54.687500
223		62.500000
224		56.640625
225		64.453125
226		58.593750
227		66.406250
228		58.593750
229		66.406250
230		60.546875
231		68.359375
232		62.500000
233		70.312500
234		62.500000
235		70.312500
236		66.406250
237		70.312500
238		68.359375
239		70.312500
240		66.406250
241		74.218750
242		66.406250
243		74.218750
244		66.406250
245		74.218750
246		68.359375
247		74.218750
248		68.359375
249		76.171875
250		68.359375
251		76.171875
252		68.359375
253		74.218750
254		70.312500
255		72.265625
256		66.406250
257		74.218750
258		66.406250
259		74.218750
260		66.406250
261		74.218750
262		64.453125
263		72.265625
264		64.453125
265		72.265625
266		62.500000
267		70.312500
268		62.500000
269		70.312500
270		62.500000
271		66.406250
272		60.546875
273		64.453125
274		56.640625
275		64.453125
276		54.687500
277		62.500000
278		52.734375
279		60.546875
280		50.781250
281		58.593750
282		48.828125
283		56.640625
284		46.875000
285		54.687500
286		46.875000
287		50.781250
288		42.968750
289		46.875000
290		39.062500
291		46.875000
292		35.156250
293		44.921875
294		33.203125
295		41.015625
296		29.296875
297		39.062500
298		27.343750
299		37.109375
300		23.437500
301		33.203125
302		23.437500
303		31.250000
304		19.531250
305		25.390625
306		15.625000
307		21.484375
308		11.718750
309		19.531250
310		7.812500
311		17.578125
312		5.859375
313		15.625000
314		1.953125
315		9.765625
316		-1.953125
317		7.812500
318		-3.906250
319		3.906250
320		-5.859375
321		-1.953125
322		-9.765625
323		-3.906250
324		-15.625000
325		-5.859375
326		-17.578125
327		-9.765625
328		-21.484375
329		-11.718750
330		-23.437500
331		-15.625000
332		-27.343750
333		-17.578125
334		-29.296875
335		-21.484375
336		-31.250000
337		-25.390625
338		-33.203125
339		-29.296875
340		-39.062500
341		-31.250000
342		-41.015625
343		-33.203125
344		-44.921875
345		-35.156250
346		-46.875000
347		-37.109375
348		-48.828125
349		-39.062500
350		-50.781250
351		-41.015625
352		-52.734375
353		-42.968750
354		-50.781250
355		-48.828125
356		-52.734375
357		-50.781250
358		-56.640625
359		-48.828125
360		-58.593750
361		-50.781250
362		-60.546875
363		-52.734375
364		-60.546875
365		-52.734375
366		-62.500000
367		-54.687500
368		-62.500000
369		-54.687500
370		-60.546875
371		-56.640625
372		-60.546875
373		-58.593750
374		-64.453125
375		-56.640625
376		-64.453125
377		-56.640625
378		-64.453125
379		-56.640625
380		-64.453125
381		-56.640625
382		-62.500000
383		-56.640625
384		-62.500000
385		-54.687500
386		-62.500000
387		-54.687500
388		-58.593750
389		-56.640625
390		-58.593750
391		-52.734375
392		-58.593750
393		-50.781250
394		-56.640625
395		-50.781250
396		-56.640625
397		-48.828125
398		-54.687500
399		-46.875000
400		-52.734375
401		-44.921875
402		-50.781250
403		-42.968750
404		-46.875000
405		-42.968750
406		-42.968750
407		-41.015625
408		-42.968750
409		-35.156250
410		-41.015625
411		-33.203125
412		-39.062500
413		-31.250000
414		-37.109375
415		-27.343750
416		-33.203125
417		-25.390625
418		-31.250000
419		-21.484375
420		-27.343750
421		-21.484375
422		-21.484375
423		-17.578125
424		-19.531250
425		-11.718750
426		-17.578125
427		-9.765625
428		-15.625000
429		-5.859375
430		-11.718750
431		-3.906250
432		-7.812500
433		0.000000
434		-3.906250
435		3.906250
436		-1.953125
437		5.859375
438		3.906250
439		7.812500
440		5.859375
441		11.718750
442		7.812500
443		17.578125
444		11.718750
445		19.531250
446		15.625000
447		23.437500
448		17.578125
449		27.343750
450		21.484375
451		29.296875
452		23.437500
453		33.203125
454		27.343750
455		33.203125
456		31.250000
457		37.109375
458		35.156250
459		41.015625
460		35.156250
461		44.921875
462		39.062500
463		46.875000
464		41.015625
465		48.828125
466		42.968750
467		52.734375
468		46.875000
469		54.687500
470		48.828125
471		54.687500
472		52.734375
473		56.640625
474		54.687500
475		60.546875
476		54.687500
477		62.500000
478		56.640625
479		64.453125
480		58.593750
481		66.406250
482		60.546875
483		68.359375
484		60.546875
485		70.312500
486		62.500000
487		70.312500
488		64.453125
489		68.359375
490		68.359375
491		70.312500
492		66.406250
493		74.218750
494		66.406250
495		74.218750
496		66.406250
497		74.218750
498		68.359375
499		74.218750
500		68.359375
501		76.171875
502		68.359375
503		76.171875
504		68.359375
505		76.171875
506		70.312500
507		72.265625
508		68.359375
509		74.218750
510		68.359375
511		74.218750
512		66.406250
513		74.218750
514		66.406250
515		74.218750
516		64.453125
517		72.265625
518		64.453125
519		72.265625
520		64.453125
521		70.312500
522		64.453125
523		66.406250
524		62.500000
525		64.453125
526		58.593750
527		66.406250
528		56.640625
529		64.453125
530		54.687500
531		62.500000
532		52.734375
533		60.546875
534		50.781250
535		58.593750
536		48.828125
537		56.640625
538		48.828125
539		52.734375
540		44.921875
541		50.781250
542		41.015625
543		48.828125
544		39.062500
545		46.875000
546		35.156250
547		44.921875
548		33.203125
549		41.015625
550		29.296875
551		39.062500
552		27.343750
553		35.156250
554		25.390625
555		33.203125
556		23.437500
557		27.343750
558		17.578125
559		23.437500
560		13.671875
561		23.437500
562		9.765625
563		21.484375
564		7.812500
565		17.578125
566		3.906250
567		13.671875
568		0.000000
569		9.765625
570		-1.953125
571		7.812500
572		-3.906250
573		1.953125
574		-5.859375
575		-1.953125
576		-11.718750
577		-5.859375
578		-15.625000
579		-5.859375
580		-17.578125
581		-9.765625
582		-21.484375
583		-11.718750
584		-25.390625
585		-15.625000
586		-27.343750
587		-19.531250
588		-27.343750
589		-21.484375
590		-31.250000
591		-27.343750
592		-37.109375
593		-29.296875
594		-39.062500
595		-29.296875
596		-41.015625
597		-33.203125
598		-42.968750
599		-35.156250
600		-44.921875
601		-37.109375
602		-48.828125
603		-41.015625
604		-48.828125
605		-42.968750
606		-50.781250
607		-46.875000
608		-52.734375
609		-48.828125
610		-56.640625
611		-48.828125
612		-56.640625
613		-48.828125
614		-58.593750
615		-50.781250
616		-58.593750
617		-52.734375
618		-60.546875
619		-52.734375
620		-62.500000
621		-54.687500
622		-62.500000
623		-54.687500
624		-60.546875
625		-58.593750
626		-62.500000
627		-56.640625
628		-64.453125
629		-56.640625
630		-64.453125
631		-56.640625
632		-64.453125
633		-56.640625
634		-62.500000
635		-56.640625
636		-62.500000
637		-54.687500
638		-62.500000
639		-54.687500
640		-58.593750
641		-56.640625
642		-58.593750
643		-54.687500
644		-58.593750
645		-50.781250
646		-58.593750
647		-48.828125
648		-56.640625
649		-48.828125
650		-54.687500
651		-46.875000
652		-52.734375
653		-44.921875
654		-52.734375
655		-42.968750
656		-46.875000
657		-42.968750
658		-44.921875
659		-41.015625
660		-44.921875
661		-37.109375
662		-42.968750
663		-33.203125
664		-41.015625
665		-31.250000
666		-37.109375
667		-29.296875
668		-35.156250
669		-25.390625
670		-31.250000
671		-23.437500
672		-29.296875
673		-21.484375
674		-23.437500
675		-19.531250
676		-21.484375
677		-13.671875
678		-19.531250
679		-9.765625
680		-17.578125
681		-7.812500
682		-13.671875
683		-3.906250
684		-9.765625
685		0.000000
686		-7.812500
687		1.953125
688		-3.906250
689		3.906250
690		1.953125
691		5.859375
692		5.859375
693		9.765625
694		7.812500
695		15.625000
696		9.765625
697		19.531250
698		13.671875
699		21.484375
700		15.625000
701		25.390625
702		19.531250
703		27.343750
704		21.484375
705		31.250000
706		25.390625
707		31.250000
708		31.250000
709		35.156250
710		33.203125
711		41.015625
712		33.203125
713		42.968750
714		37.109375
715		46.875000
716		39.062500
717		48.828125
718		42.968750
719		50.781250
720		44.921875
721		52.734375
722		46.875000
723		54.687500
724		52.734375
725		54.687500
726		54.687500
727		56.640625
728		54.687500
729		62.500000
730		54.687500
731		64.453125
732		58.593750
733		66.406250
734		58.593750
735		66.406250
736		60.546875
737		70.312500
738		62.500000
739		70.312500
740		66.406250
741		68.359375
742		66.406250
743		70.312500
744		66.406250
745		72.265625
746		66.406250
747		74.218750
748		66.406250
749		74.218750
750		68.359375
751		74.218750
752		68.359375
753		76.171875
754		68.359375
755		76.171875
756		68.359375
757		76.171875
758		72.265625
759		74.218750
760		68.359375
761		76.171875
762		68.359375
763		76.171875
764		68.359375
765		74.218750
766		66.406250
767		74.218750
768		66.406250
769		72.265625
770		64.453125
771		72.265625
772		64.453125
773		72.265625
774		64.453125
775		68.359375
776		64.453125
777		66.406250
778		60.546875
779		66.406250
780		58.593750
781		66.406250
782		56.640625
783		64.453125
784		54.687500
785		62.500000
786		52.734375
787		60.546875
788		50.781250
789		58.593750
790		50.781250
791		56.640625
792		48.828125
793		52.734375
794		42.968750
795		48.828125
796		41.015625
797		48.828125
798		37.109375
799		46.875000
800		35.156250
801		44.921875
802		31.250000
803		41.015625
804		29.296875
805		39.062500
806		27.343750
807		35.156250
808		25.390625
809		29.296875
810		21.484375
811		27.343750
812		15.625000
813		25.390625
814		13.671875
815		23.437500
816		9.765625
817		19.531250
818		5.859375
819		15.625000
820		1.953125
821		13.671875
822		0.000000
823		9.765625
824		0.000000
825		5.859375
826		-3.906250
827		0.000000
828		-9.765625
829		-1.953125
830		-11.718750
831		-3.906250
832		-15.625000
833		-7.812500
834		-17.578125
835		-9.765625
836		-21.484375
837		-13.671875
838		-25.390625
839		-15.625000
840		-25.390625
841		-19.531250
842		-29.296875
843		-25.390625
844		-33.203125
845		-27.343750
846		-37.109375
847		-27.343750
848		-39.062500
849		-31.250000
850		-42.968750
851		-33.203125
852		-44.921875
853		-35.156250
854		-46.875000
855		-39.062500
856		-48.828125
857		-41.015625
858		-48.828125
859		-44.921875
860		-50.781250
861		-46.875000
862		-54.687500
863		-46.875000
864		-56.640625
865		-46.875000
866		-56.640625
867		-48.828125
868		-58.593750
869		-50.781250
870		-60.546875
871		-52.734375
872		-60.546875
873		-52.734375
874		-60.546875
875		-54.687500
876		-60.546875
877		-56.640625
878		-62.500000
879		-56.640625
880		-62.500000
881		-56.640625
882		-62.500000
883		-56.640625
884		-62.500000
885		-56.640625
886		-62.500000
887		-56.640625
888		-62.500000
889		-56.640625
890		-62.500000
891		-54.687500
892		-58.593750
893		-56.640625
894		-58.593750
895		-54.687500
896		-60.546875
897		-52.734375
898		-58.593750
899		-50.781250
900		-56.640625
901		-48.828125
902		-56.640625
903		-46.875000
904		-54.687500
905		-46.875000
906		-52.734375
907		-44.921875
908		-48.828125
909		-44.921875
910		-46.875000
911		-41.015625
912		-44.921875
913		-37.109375
914		-42.968750
915		-35.156250
916		-41.015625
917		-33.203125
918		-39.062500
919		-29.296875
920		-37.109375
921		-27.343750
922		-33.203125
923		-25.390625
924		-31.250000
925		-23.437500
926		-25.390625
927		-21.484375
928		-21.484375
929		-15.625000
930		-21.484375
931		-13.671875
932		-19.531250
933		-9.765625
934		-15.625000
935		-5.859375
936		-11.718750
937		-3.906250
938		-7.812500
939		0.000000
940		-5.859375
941		1.953125
942		0.000000
943		3.906250
944		3.906250
945		7.812500
946		3.906250
947		13.671875
948		7.812500
949		17.578125
950		9.765625
951		19.531250
952		13.671875
953		23.437500
954		17.578125
955		25.390625
956		19.531250
957		29.296875
958		23.437500
959		31.250000
960		29.296875
961		33.203125
962		31.250000
963		39.062500
964		33.203125
965		41.015625
966		35.156250
967		42.968750
968		39.062500
969		46.875000
970		41.015625
971		48.828125
972		42.968750
973		50.781250
974		44.921875
975		52.734375
976		50.781250
977		54.687500
978		52.734375
979		56.640625
980		52.734375
981		60.546875
982		54.687500
983		62.500000
984		56.640625
985		64.453125
986		58.593750
987		66.406250
988		60.546875
989		68.359375
990		62.500000
991		70.312500
992		64.453125
993		68.359375
994		66.406250
995		70.312500
996		66.406250
997		72.265625
998		66.406250
999		74.218750
1000		66.406250
1001		74.218750
1002		68.359375
1003		74.218750
1004		68.359375
1005		76.171875
1006		68.359375
1007		76.171875
1008		68.359375
1009		76.171875
1010		70.312500
1011		74.218750
1012		70.312500
1013		74.218750
1014		68.359375
1015		76.171875
1016		68.359375
1017		76.171875
1018		68.359375
1019		74.218750
1020		66.406250
1021		74.218750
1022		66.406250
1023		74.218750
1024		64.453125
1025		72.265625
1026		66.406250
1027		70.312500
1028		64.453125
1029		68.359375
1030		60.546875
1031		68.359375
1032		58.593750
1033		66.406250
1034		56.640625
1035		66.406250
1036		56.640625
1037		64.453125
1038		54.687500
1039		62.500000
1040		52.734375
1041		60.546875
1042		52.734375
1043		58.593750
1044		50.781250
1045		54.687500
1046		46.875000
1047		50.781250
1048		42.968750
1049		50.781250
1050		39.062500
1051		48.828125
1052		37.109375
1053		46.875000
1054		33.203125
1055		42.968750
1056		31.250000
1057		41.015625
1058		29.296875
1059		37.109375
1060		27.343750
1061		33.203125
1062		25.390625
1063		29.296875
1064		19.531250
1065		27.343750
1066		17.578125
1067		25.390625
1068		13.671875
1069		21.484375
1070		9.765625
1071		19.531250
1072		5.859375
1073		15.625000
1074		3.906250
1075		11.718750
1076		1.953125
1077		7.812500
1078		-1.953125
1079		3.906250
1080		-5.859375
1081		0.000000
1082		-9.765625
1083		-1.953125
1084		-13.671875
1085		-3.906250
1086		-15.625000
1087		-7.812500
1088		-19.531250
1089		-9.765625
1090		-23.437500
1091		-13.671875
1092		-23.437500
1093		-17.578125
1094		-27.343750
1095		-21.484375
1096		-29.296875
1097		-25.390625
1098		-33.203125
1099		-25.390625
1100		-37.109375
1101		-27.343750
1102		-39.062500
1103		-31.250000
1104		-41.015625
1105		-33.203125
1106		-44.921875
1107		-35.156250
1108		-46.875000
1109		-39.062500
1110		-46.875000
1111		-42.968750
1112		-48.828125
1113		-44.921875
1114		-52.734375
1115		-44.921875
1116		-54.687500
1117		-46.875000
1118		-56.640625
1119		-48.828125
1120		-56.640625
1121		-48.828125
1122		-58.593750
1123		-50.781250
1124		-60.546875
1125		-52.734375
1126		-60.546875
1127		-52.734375
1128		-58.593750
1129		-56.640625
1130		-60.546875
1131		-54.687500
1132		-62.500000
1133		-54.687500
1134		-62.500000
1135		-54.687500
1136		-62.500000
1137		-54.687500
1138		-62.500000
1139		-54.687500
1140		-62.500000
1141		-54.687500
1142		-62.500000
1143		-54.687500
1144		-58.593750
1145		-56.640625
1146		-58.593750
1147		-54.687500
1148		-58.593750
1149		-52.734375
1150		-58.593750
1151		-50.781250
1152		-56.640625
1153		-50.781250
1154		-56.640625
1155		-48.828125
1156		-54.687500
1157		-46.875000
1158		-52.734375
1159		-44.921875
1160		-50.781250
1161		-44.921875
1162		-46.875000
1163		-42.968750
1164		-46.875000
1165		-39.062500
1166		-44.921875
1167		-35.156250
1168		-42.968750
1169		-33.203125
1170		-41.015625
1171		-31.250000
1172		-37.109375
1173		-29.296875
1174		-35.156250
1175		-25.390625
1176		-31.250000
1177		-25.390625
1178		-27.343750
1179		-23.437500
1180		-23.437500
1181		-17.578125
1182		-23.437500
1183		-13.671875
1184		-19.531250
1185		-11.718750
1186		-17.578125
1187		-7.812500
1188		-13.671875
1189		-3.906250
1190		-11.718750
1191		-1.953125
1192		-7.812500
1193		1.953125
1194		-1.953125
1195		3.906250
1196		1.953125
1197		5.859375
1198		3.906250
1199		11.718750
1200		5.859375
1201		15.625000
1202		9.765625
1203		17.578125
1204		11.718750
1205		21.484375
1206		15.625000
1207		25.390625
1208		19.531250
1209		27.343750
1210		21.484375
1211		29.296875
1212		27.343750
1213		31.250000
1214		31.250000
1215		37.109375
1216		31.250000
1217		39.062500
1218		33.203125
1219		42.968750
1220		37.109375
1221		44.921875
1222		39.062500
1223		48.828125
1224		41.015625
1225		50.781250
1226		44.921875
1227		52.734375
1228		48.828125
1229		52.734375
1230		52.734375
1231		54.687500
1232		52.734375
1233		60.546875
1234		54.687500
1235		62.500000
1236		56.640625
1237		64.453125
1238		58.593750
1239		66.406250
1240		60.546875
1241		66.406250
1242		60.546875
1243		68.359375
1244		62.500000
1245		68.359375
1246		66.406250
1247		68.359375
1248		66.406250
1249		72.265625
1250		66.406250
1251		74.218750
1252		66.406250
1253		74.218750
1254		68.359375
1255		74.218750
1256		68.359375
1257		76.171875
1258		68.359375
1259		76.171875
1260		68.359375
1261		76.171875
1262		72.265625
1263		74.218750
1264		72.265625
1265		74.218750
1266		68.359375
1267		76.171875
1268		68.359375
1269		76.171875
1270		68.359375
1271		76.171875
1272		68.359375
1273		74.218750
1274		66.406250
1275		74.218750
1276		66.406250
