metingen laweit/2000Hz, 35,0cm/data_81_165.txt

Channel              :		CH1
Frequency            :		1.975kHz
Period               :		0.506ms
PK-PK                :		117.2mV
Probe attenuation    :		1X
Voltage per ADC value:		0.122070mV
Time interval        :		2.00000us

index		CH1_Voltage(mV)
1		60.546875
2		60.546875
3		64.453125
4		60.546875
5		64.453125
6		60.546875
7		64.453125
8		60.546875
9		62.500000
10		58.593750
11		62.500000
12		58.593750
13		62.500000
14		58.593750
15		60.546875
16		56.640625
17		60.546875
18		56.640625
19		58.593750
20		54.687500
21		58.593750
22		50.781250
23		56.640625
24		52.734375
25		54.687500
26		50.781250
27		52.734375
28		48.828125
29		52.734375
30		46.875000
31		50.781250
32		44.921875
33		48.828125
34		42.968750
35		46.875000
36		41.015625
37		44.921875
38		39.062500
39		42.968750
40		37.109375
41		41.015625
42		33.203125
43		39.062500
44		31.250000
45		35.156250
46		29.296875
47		33.203125
48		25.390625
49		31.250000
50		23.437500
51		29.296875
52		21.484375
53		27.343750
54		19.531250
55		23.437500
56		17.578125
57		21.484375
58		13.671875
59		17.578125
60		11.718750
61		15.625000
62		7.812500
63		13.671875
64		5.859375
65		9.765625
66		3.906250
67		7.812500
68		0.000000
69		3.906250
70		-1.953125
71		1.953125
72		-5.859375
73		0.000000
74		-7.812500
75		-1.953125
76		-9.765625
77		-5.859375
78		-11.718750
79		-7.812500
80		-15.625000
81		-11.718750
82		-17.578125
83		-13.671875
84		-21.484375
85		-15.625000
86		-23.437500
87		-19.531250
88		-25.390625
89		-19.531250
90		-27.343750
91		-23.437500
92		-29.296875
93		-25.390625
94		-31.250000
95		-27.343750
96		-33.203125
97		-29.296875
98		-35.156250
99		-31.250000
100		-37.109375
101		-33.203125
102		-39.062500
103		-35.156250
104		-41.015625
105		-35.156250
106		-41.015625
107		-37.109375
108		-41.015625
109		-39.062500
110		-42.968750
111		-39.062500
112		-44.921875
113		-39.062500
114		-44.921875
115		-41.015625
116		-44.921875
117		-42.968750
118		-44.921875
119		-42.968750
120		-46.875000
121		-42.968750
122		-46.875000
123		-42.968750
124		-46.875000
125		-42.968750
126		-44.921875
127		-42.968750
128		-46.875000
129		-42.968750
130		-46.875000
131		-42.968750
132		-44.921875
133		-41.015625
134		-44.921875
135		-41.015625
136		-42.968750
137		-39.062500
138		-42.968750
139		-39.062500
140		-42.968750
141		-37.109375
142		-41.015625
143		-37.109375
144		-39.062500
145		-35.156250
146		-39.062500
147		-35.156250
148		-37.109375
149		-33.203125
150		-35.156250
151		-31.250000
152		-33.203125
153		-29.296875
154		-31.250000
155		-27.343750
156		-29.296875
157		-25.390625
158		-27.343750
159		-23.437500
160		-25.390625
161		-21.484375
162		-21.484375
163		-17.578125
164		-19.531250
165		-15.625000
166		-17.578125
167		-13.671875
168		-15.625000
169		-9.765625
170		-13.671875
171		-7.812500
172		-9.765625
173		-5.859375
174		-7.812500
175		-3.906250
176		-5.859375
177		-1.953125
178		-1.953125
179		1.953125
180		0.000000
181		3.906250
182		1.953125
183		7.812500
184		5.859375
185		9.765625
186		7.812500
187		13.671875
188		9.765625
189		15.625000
190		13.671875
191		17.578125
192		15.625000
193		19.531250
194		19.531250
195		23.437500
196		21.484375
197		25.390625
198		23.437500
199		29.296875
200		25.390625
201		31.250000
202		29.296875
203		33.203125
204		31.250000
205		37.109375
206		33.203125
207		37.109375
208		35.156250
209		39.062500
210		37.109375
211		41.015625
212		41.015625
213		44.921875
214		42.968750
215		46.875000
216		44.921875
217		48.828125
218		44.921875
219		48.828125
220		46.875000
221		52.734375
222		48.828125
223		52.734375
224		50.781250
225		54.687500
226		52.734375
227		56.640625
228		54.687500
229		56.640625
230		54.687500
231		58.593750
232		56.640625
233		60.546875
234		56.640625
235		60.546875
236		58.593750
237		62.500000
238		58.593750
239		62.500000
240		60.546875
241		62.500000
242		60.546875
243		64.453125
244		62.500000
245		64.453125
246		60.546875
247		64.453125
248		62.500000
249		64.453125
250		62.500000
251		64.453125
252		62.500000
253		64.453125
254		62.500000
255		64.453125
256		62.500000
257		64.453125
258		60.546875
259		64.453125
260		62.500000
261		64.453125
262		60.546875
263		62.500000
264		58.593750
265		62.500000
266		58.593750
267		62.500000
268		58.593750
269		60.546875
270		56.640625
271		60.546875
272		54.687500
273		58.593750
274		54.687500
275		58.593750
276		52.734375
277		58.593750
278		52.734375
279		54.687500
280		50.781250
281		54.687500
282		48.828125
283		52.734375
284		46.875000
285		50.781250
286		44.921875
287		48.828125
288		42.968750
289		46.875000
290		41.015625
291		44.921875
292		39.062500
293		42.968750
294		37.109375
295		41.015625
296		33.203125
297		37.109375
298		31.250000
299		35.156250
300		29.296875
301		33.203125
302		27.343750
303		31.250000
304		25.390625
305		29.296875
306		21.484375
307		27.343750
308		19.531250
309		23.437500
310		17.578125
311		21.484375
312		13.671875
313		17.578125
314		11.718750
315		15.625000
316		7.812500
317		13.671875
318		5.859375
319		11.718750
320		3.906250
321		7.812500
322		0.000000
323		5.859375
324		-3.906250
325		1.953125
326		-5.859375
327		0.000000
328		-7.812500
329		-3.906250
330		-11.718750
331		-5.859375
332		-13.671875
333		-7.812500
334		-15.625000
335		-11.718750
336		-17.578125
337		-13.671875
338		-19.531250
339		-15.625000
340		-23.437500
341		-19.531250
342		-25.390625
343		-21.484375
344		-27.343750
345		-23.437500
346		-29.296875
347		-25.390625
348		-31.250000
349		-25.390625
350		-33.203125
351		-29.296875
352		-35.156250
353		-31.250000
354		-35.156250
355		-33.203125
356		-39.062500
357		-33.203125
358		-39.062500
359		-35.156250
360		-41.015625
361		-35.156250
362		-41.015625
363		-39.062500
364		-42.968750
365		-39.062500
366		-42.968750
367		-39.062500
368		-44.921875
369		-41.015625
370		-44.921875
371		-41.015625
372		-44.921875
373		-41.015625
374		-44.921875
375		-41.015625
376		-44.921875
377		-41.015625
378		-44.921875
379		-42.968750
380		-44.921875
381		-41.015625
382		-44.921875
383		-41.015625
384		-44.921875
385		-41.015625
386		-42.968750
387		-41.015625
388		-42.968750
389		-39.062500
390		-42.968750
391		-39.062500
392		-41.015625
393		-37.109375
394		-39.062500
395		-37.109375
396		-39.062500
397		-35.156250
398		-39.062500
399		-33.203125
400		-35.156250
401		-33.203125
402		-35.156250
403		-31.250000
404		-33.203125
405		-29.296875
406		-31.250000
407		-27.343750
408		-29.296875
409		-25.390625
410		-27.343750
411		-23.437500
412		-25.390625
413		-21.484375
414		-23.437500
415		-17.578125
416		-21.484375
417		-17.578125
418		-17.578125
419		-13.671875
420		-15.625000
421		-11.718750
422		-13.671875
423		-7.812500
424		-11.718750
425		-5.859375
426		-7.812500
427		-3.906250
428		-5.859375
429		-1.953125
430		-3.906250
431		1.953125
432		0.000000
433		3.906250
434		1.953125
435		5.859375
436		3.906250
437		9.765625
438		7.812500
439		11.718750
440		9.765625
441		13.671875
442		11.718750
443		17.578125
444		13.671875
445		19.531250
446		17.578125
447		21.484375
448		21.484375
449		25.390625
450		23.437500
451		27.343750
452		25.390625
453		29.296875
454		27.343750
455		33.203125
456		31.250000
457		35.156250
458		33.203125
459		37.109375
460		35.156250
461		39.062500
462		37.109375
463		41.015625
464		39.062500
465		44.921875
466		41.015625
467		46.875000
468		42.968750
469		46.875000
470		44.921875
471		48.828125
472		46.875000
473		50.781250
474		48.828125
475		52.734375
476		50.781250
477		54.687500
478		52.734375
479		56.640625
480		54.687500
481		56.640625
482		54.687500
483		58.593750
484		56.640625
485		60.546875
486		58.593750
487		60.546875
488		58.593750
489		62.500000
490		60.546875
491		62.500000
492		60.546875
493		64.453125
494		60.546875
495		64.453125
496		62.500000
497		64.453125
498		62.500000
499		66.406250
500		62.500000
501		66.406250
502		62.500000
503		66.406250
504		62.500000
505		66.406250
506		62.500000
507		66.406250
508		62.500000
509		66.406250
510		62.500000
511		66.406250
512		62.500000
513		64.453125
514		62.500000
515		64.453125
516		60.546875
517		64.453125
518		60.546875
519		64.453125
520		58.593750
521		62.500000
522		58.593750
523		62.500000
524		56.640625
525		60.546875
526		56.640625
527		60.546875
528		54.687500
529		58.593750
530		52.734375
531		56.640625
532		50.781250
533		56.640625
534		48.828125
535		54.687500
536		48.828125
537		52.734375
538		46.875000
539		50.781250
540		44.921875
541		48.828125
542		42.968750
543		46.875000
544		41.015625
545		44.921875
546		39.062500
547		42.968750
548		35.156250
549		41.015625
550		33.203125
551		39.062500
552		31.250000
553		35.156250
554		29.296875
555		33.203125
556		27.343750
557		31.250000
558		23.437500
559		29.296875
560		19.531250
561		25.390625
562		19.531250
563		23.437500
564		15.625000
565		19.531250
566		11.718750
567		17.578125
568		9.765625
569		15.625000
570		7.812500
571		13.671875
572		5.859375
573		9.765625
574		1.953125
575		7.812500
576		0.000000
577		3.906250
578		-3.906250
579		1.953125
580		-5.859375
581		-1.953125
582		-7.812500
583		-3.906250
584		-11.718750
585		-5.859375
586		-13.671875
587		-7.812500
588		-15.625000
589		-11.718750
590		-19.531250
591		-13.671875
592		-19.531250
593		-15.625000
594		-23.437500
595		-17.578125
596		-25.390625
597		-21.484375
598		-27.343750
599		-23.437500
600		-29.296875
601		-23.437500
602		-31.250000
603		-27.343750
604		-33.203125
605		-29.296875
606		-35.156250
607		-31.250000
608		-37.109375
609		-31.250000
610		-39.062500
611		-33.203125
612		-39.062500
613		-35.156250
614		-39.062500
615		-37.109375
616		-41.015625
617		-37.109375
618		-42.968750
619		-39.062500
620		-42.968750
621		-39.062500
622		-42.968750
623		-41.015625
624		-44.921875
625		-41.015625
626		-44.921875
627		-41.015625
628		-44.921875
629		-41.015625
630		-44.921875
631		-42.968750
632		-44.921875
633		-41.015625
634		-44.921875
635		-41.015625
636		-44.921875
637		-41.015625
638		-44.921875
639		-41.015625
640		-42.968750
641		-41.015625
642		-42.968750
643		-39.062500
644		-42.968750
645		-37.109375
646		-41.015625
647		-37.109375
648		-39.062500
649		-37.109375
650		-39.062500
651		-35.156250
652		-37.109375
653		-33.203125
654		-35.156250
655		-31.250000
656		-33.203125
657		-29.296875
658		-31.250000
659		-27.343750
660		-31.250000
661		-25.390625
662		-29.296875
663		-23.437500
664		-25.390625
665		-23.437500
666		-23.437500
667		-19.531250
668		-23.437500
669		-17.578125
670		-19.531250
671		-15.625000
672		-17.578125
673		-13.671875
674		-15.625000
675		-9.765625
676		-11.718750
677		-7.812500
678		-9.765625
679		-5.859375
680		-7.812500
681		-3.906250
682		-3.906250
683		0.000000
684		-1.953125
685		1.953125
686		0.000000
687		5.859375
688		3.906250
689		7.812500
690		5.859375
691		9.765625
692		7.812500
693		11.718750
694		11.718750
695		15.625000
696		11.718750
697		17.578125
698		15.625000
699		19.531250
700		19.531250
701		23.437500
702		21.484375
703		25.390625
704		23.437500
705		29.296875
706		27.343750
707		31.250000
708		29.296875
709		33.203125
710		31.250000
711		35.156250
712		33.203125
713		37.109375
714		37.109375
715		41.015625
716		39.062500
717		42.968750
718		41.015625
719		44.921875
720		41.015625
721		46.875000
722		44.921875
723		48.828125
724		46.875000
725		50.781250
726		46.875000
727		52.734375
728		50.781250
729		54.687500
730		50.781250
731		54.687500
732		52.734375
733		56.640625
734		54.687500
735		58.593750
736		54.687500
737		60.546875
738		56.640625
739		60.546875
740		58.593750
741		60.546875
742		58.593750
743		62.500000
744		60.546875
745		62.500000
746		60.546875
747		64.453125
748		62.500000
749		64.453125
750		60.546875
751		66.406250
752		62.500000
753		64.453125
754		62.500000
755		66.406250
756		62.500000
757		66.406250
758		62.500000
759		66.406250
760		62.500000
761		66.406250
762		60.546875
763		66.406250
764		62.500000
765		64.453125
766		62.500000
767		64.453125
768		60.546875
769		64.453125
770		60.546875
771		64.453125
772		60.546875
773		62.500000
774		58.593750
775		62.500000
776		56.640625
777		60.546875
778		56.640625
779		60.546875
780		54.687500
781		58.593750
782		54.687500
783		56.640625
784		52.734375
785		56.640625
786		50.781250
787		54.687500
788		48.828125
789		52.734375
790		46.875000
791		50.781250
792		44.921875
793		48.828125
794		42.968750
795		48.828125
796		42.968750
797		46.875000
798		39.062500
799		42.968750
800		37.109375
801		41.015625
802		33.203125
803		41.015625
804		33.203125
805		37.109375
806		31.250000
807		35.156250
808		27.343750
809		33.203125
810		25.390625
811		29.296875
812		21.484375
813		27.343750
814		21.484375
815		25.390625
816		17.578125
817		21.484375
818		15.625000
819		19.531250
820		11.718750
821		17.578125
822		9.765625
823		13.671875
824		5.859375
825		11.718750
826		3.906250
827		9.765625
828		1.953125
829		5.859375
830		-1.953125
831		3.906250
832		-3.906250
833		0.000000
834		-5.859375
835		-1.953125
836		-9.765625
837		-3.906250
838		-11.718750
839		-7.812500
840		-13.671875
841		-9.765625
842		-17.578125
843		-11.718750
844		-19.531250
845		-13.671875
846		-21.484375
847		-17.578125
848		-23.437500
849		-19.531250
850		-25.390625
851		-21.484375
852		-27.343750
853		-23.437500
854		-29.296875
855		-25.390625
856		-31.250000
857		-27.343750
858		-33.203125
859		-29.296875
860		-35.156250
861		-31.250000
862		-37.109375
863		-33.203125
864		-39.062500
865		-33.203125
866		-39.062500
867		-35.156250
868		-41.015625
869		-37.109375
870		-41.015625
871		-39.062500
872		-42.968750
873		-39.062500
874		-42.968750
875		-41.015625
876		-42.968750
877		-41.015625
878		-42.968750
879		-41.015625
880		-44.921875
881		-41.015625
882		-44.921875
883		-42.968750
884		-44.921875
885		-41.015625
886		-44.921875
887		-41.015625
888		-44.921875
889		-41.015625
890		-42.968750
891		-41.015625
892		-42.968750
893		-41.015625
894		-42.968750
895		-39.062500
896		-42.968750
897		-39.062500
898		-41.015625
899		-39.062500
900		-39.062500
901		-37.109375
902		-39.062500
903		-35.156250
904		-39.062500
905		-33.203125
906		-37.109375
907		-33.203125
908		-35.156250
909		-31.250000
910		-33.203125
911		-29.296875
912		-31.250000
913		-27.343750
914		-29.296875
915		-25.390625
916		-27.343750
917		-23.437500
918		-25.390625
919		-21.484375
920		-23.437500
921		-19.531250
922		-21.484375
923		-17.578125
924		-19.531250
925		-13.671875
926		-15.625000
927		-11.718750
928		-13.671875
929		-9.765625
930		-11.718750
931		-5.859375
932		-7.812500
933		-3.906250
934		-5.859375
935		-1.953125
936		-3.906250
937		1.953125
938		-1.953125
939		3.906250
940		1.953125
941		7.812500
942		3.906250
943		7.812500
944		5.859375
945		11.718750
946		9.765625
947		15.625000
948		11.718750
949		17.578125
950		15.625000
951		19.531250
952		17.578125
953		23.437500
954		19.531250
955		25.390625
956		23.437500
957		27.343750
958		25.390625
959		29.296875
960		27.343750
961		33.203125
962		29.296875
963		35.156250
964		33.203125
965		37.109375
966		35.156250
967		39.062500
968		37.109375
969		41.015625
970		39.062500
971		42.968750
972		41.015625
973		44.921875
974		42.968750
975		46.875000
976		44.921875
977		48.828125
978		46.875000
979		50.781250
980		48.828125
981		52.734375
982		50.781250
983		54.687500
984		52.734375
985		56.640625
986		54.687500
987		58.593750
988		54.687500
989		58.593750
990		56.640625
991		60.546875
992		58.593750
993		60.546875
994		58.593750
995		62.500000
996		60.546875
997		64.453125
998		60.546875
999		64.453125
1000		62.500000
1001		64.453125
1002		60.546875
1003		64.453125
1004		62.500000
1005		66.406250
1006		62.500000
1007		66.406250
1008		62.500000
1009		66.406250
1010		64.453125
1011		66.406250
1012		62.500000
1013		66.406250
1014		62.500000
1015		66.406250
1016		62.500000
1017		66.406250
1018		62.500000
1019		64.453125
1020		60.546875
1021		66.406250
1022		60.546875
1023		64.453125
1024		60.546875
1025		64.453125
1026		60.546875
1027		62.500000
1028		58.593750
1029		62.500000
1030		58.593750
1031		60.546875
1032		56.640625
1033		60.546875
1034		56.640625
1035		58.593750
1036		54.687500
1037		58.593750
1038		52.734375
1039		56.640625
1040		50.781250
1041		54.687500
1042		48.828125
1043		52.734375
1044		46.875000
1045		50.781250
1046		46.875000
1047		48.828125
1048		42.968750
1049		48.828125
1050		41.015625
1051		44.921875
1052		39.062500
1053		42.968750
1054		37.109375
1055		42.968750
1056		35.156250
1057		39.062500
1058		33.203125
1059		37.109375
1060		29.296875
1061		35.156250
1062		27.343750
1063		33.203125
1064		25.390625
1065		31.250000
1066		23.437500
1067		27.343750
1068		19.531250
1069		23.437500
1070		17.578125
1071		21.484375
1072		13.671875
1073		19.531250
1074		11.718750
1075		15.625000
1076		7.812500
1077		13.671875
1078		5.859375
1079		11.718750
1080		3.906250
1081		7.812500
1082		1.953125
1083		5.859375
1084		-1.953125
1085		1.953125
1086		-5.859375
1087		0.000000
1088		-7.812500
1089		-1.953125
1090		-9.765625
1091		-5.859375
1092		-11.718750
1093		-7.812500
1094		-13.671875
1095		-9.765625
1096		-17.578125
1097		-11.718750
1098		-19.531250
1099		-15.625000
1100		-21.484375
1101		-17.578125
1102		-23.437500
1103		-19.531250
1104		-25.390625
1105		-21.484375
1106		-27.343750
1107		-23.437500
1108		-29.296875
1109		-25.390625
1110		-31.250000
1111		-27.343750
1112		-33.203125
1113		-29.296875
1114		-35.156250
1115		-31.250000
1116		-37.109375
1117		-33.203125
1118		-37.109375
1119		-35.156250
1120		-39.062500
1121		-35.156250
1122		-41.015625
1123		-37.109375
1124		-41.015625
1125		-39.062500
1126		-41.015625
1127		-39.062500
1128		-42.968750
1129		-39.062500
1130		-42.968750
1131		-41.015625
1132		-44.921875
1133		-39.062500
1134		-44.921875
1135		-41.015625
1136		-44.921875
1137		-41.015625
1138		-44.921875
1139		-41.015625
1140		-44.921875
1141		-41.015625
1142		-44.921875
1143		-41.015625
1144		-42.968750
1145		-41.015625
1146		-42.968750
1147		-39.062500
1148		-42.968750
1149		-39.062500
1150		-41.015625
1151		-39.062500
1152		-41.015625
1153		-37.109375
1154		-41.015625
1155		-35.156250
1156		-39.062500
1157		-35.156250
1158		-37.109375
1159		-33.203125
1160		-35.156250
1161		-31.250000
1162		-33.203125
1163		-29.296875
1164		-33.203125
1165		-27.343750
1166		-31.250000
1167		-27.343750
1168		-27.343750
1169		-23.437500
1170		-25.390625
1171		-21.484375
1172		-25.390625
1173		-19.531250
1174		-21.484375
1175		-17.578125
1176		-19.531250
1177		-15.625000
1178		-17.578125
1179		-13.671875
1180		-15.625000
1181		-9.765625
1182		-13.671875
1183		-7.812500
1184		-9.765625
1185		-5.859375
1186		-7.812500
1187		-3.906250
1188		-5.859375
1189		0.000000
1190		-1.953125
1191		1.953125
1192		0.000000
1193		5.859375
1194		1.953125
1195		5.859375
1196		3.906250
1197		9.765625
1198		7.812500
1199		11.718750
1200		9.765625
1201		15.625000
1202		13.671875
1203		17.578125
1204		15.625000
1205		21.484375
1206		17.578125
1207		23.437500
1208		21.484375
1209		27.343750
1210		23.437500
1211		27.343750
1212		25.390625
1213		31.250000
1214		29.296875
1215		33.203125
1216		31.250000
1217		35.156250
1218		33.203125
1219		37.109375
1220		35.156250
1221		39.062500
1222		37.109375
1223		42.968750
1224		41.015625
1225		44.921875
1226		42.968750
1227		46.875000
1228		44.921875
1229		48.828125
1230		46.875000
1231		48.828125
1232		46.875000
1233		52.734375
1234		48.828125
1235		52.734375
1236		50.781250
1237		54.687500
1238		52.734375
1239		56.640625
1240		54.687500
1241		58.593750
1242		56.640625
1243		60.546875
1244		56.640625
1245		60.546875
1246		58.593750
1247		60.546875
1248		58.593750
1249		62.500000
1250		58.593750
1251		64.453125
1252		60.546875
1253		62.500000
1254		62.500000
1255		64.453125
1256		62.500000
1257		64.453125
1258		62.500000
1259		66.406250
1260		62.500000
1261		66.406250
1262		62.500000
1263		66.406250
1264		62.500000
1265		66.406250
1266		62.500000
1267		66.406250
1268		64.453125
1269		66.406250
1270		62.500000
1271		66.406250
1272		62.500000
1273		66.406250
1274		62.500000
1275		64.453125
1276		60.546875
1277		64.453125
1278		60.546875
1279		64.453125
1280		60.546875
1281		62.500000
