metingen laweit/2000Hz, 35.0cm/data_81_157.txt

Channel              :		CH1
Frequency            :		1.982kHz
Period               :		0.505ms
PK-PK                :		117.2mV
Probe attenuation    :		1X
Voltage per ADC value:		0.122070mV
Time interval        :		2.00000us

index		CH1_Voltage(mV)
1		64.453125
2		64.453125
3		62.500000
4		64.453125
5		62.500000
6		66.406250
7		64.453125
8		66.406250
9		62.500000
10		66.406250
11		64.453125
12		66.406250
13		64.453125
14		66.406250
15		62.500000
16		66.406250
17		62.500000
18		66.406250
19		62.500000
20		64.453125
21		62.500000
22		64.453125
23		60.546875
24		64.453125
25		60.546875
26		64.453125
27		58.593750
28		62.500000
29		58.593750
30		62.500000
31		56.640625
32		60.546875
33		56.640625
34		60.546875
35		54.687500
36		58.593750
37		52.734375
38		56.640625
39		52.734375
40		54.687500
41		50.781250
42		54.687500
43		48.828125
44		52.734375
45		46.875000
46		50.781250
47		42.968750
48		48.828125
49		41.015625
50		46.875000
51		41.015625
52		44.921875
53		37.109375
54		42.968750
55		35.156250
56		39.062500
57		33.203125
58		37.109375
59		31.250000
60		35.156250
61		29.296875
62		33.203125
63		27.343750
64		29.296875
65		23.437500
66		27.343750
67		21.484375
68		25.390625
69		17.578125
70		23.437500
71		15.625000
72		19.531250
73		13.671875
74		17.578125
75		9.765625
76		15.625000
77		7.812500
78		11.718750
79		5.859375
80		9.765625
81		1.953125
82		5.859375
83		0.000000
84		3.906250
85		-3.906250
86		1.953125
87		-5.859375
88		-1.953125
89		-7.812500
90		-3.906250
91		-9.765625
92		-5.859375
93		-13.671875
94		-9.765625
95		-15.625000
96		-11.718750
97		-17.578125
98		-13.671875
99		-21.484375
100		-15.625000
101		-23.437500
102		-19.531250
103		-25.390625
104		-21.484375
105		-27.343750
106		-21.484375
107		-29.296875
108		-25.390625
109		-31.250000
110		-27.343750
111		-33.203125
112		-29.296875
113		-35.156250
114		-31.250000
115		-35.156250
116		-33.203125
117		-37.109375
118		-33.203125
119		-39.062500
120		-35.156250
121		-41.015625
122		-37.109375
123		-41.015625
124		-37.109375
125		-42.968750
126		-39.062500
127		-42.968750
128		-39.062500
129		-42.968750
130		-41.015625
131		-44.921875
132		-41.015625
133		-44.921875
134		-41.015625
135		-44.921875
136		-41.015625
137		-44.921875
138		-41.015625
139		-44.921875
140		-41.015625
141		-44.921875
142		-41.015625
143		-42.968750
144		-41.015625
145		-42.968750
146		-41.015625
147		-42.968750
148		-39.062500
149		-42.968750
150		-39.062500
151		-41.015625
152		-37.109375
153		-41.015625
154		-37.109375
155		-39.062500
156		-35.156250
157		-39.062500
158		-33.203125
159		-37.109375
160		-33.203125
161		-35.156250
162		-31.250000
163		-33.203125
164		-29.296875
165		-31.250000
166		-27.343750
167		-29.296875
168		-25.390625
169		-27.343750
170		-23.437500
171		-25.390625
172		-21.484375
173		-23.437500
174		-19.531250
175		-21.484375
176		-17.578125
177		-19.531250
178		-13.671875
179		-15.625000
180		-11.718750
181		-13.671875
182		-9.765625
183		-11.718750
184		-7.812500
185		-9.765625
186		-3.906250
187		-5.859375
188		-1.953125
189		-3.906250
190		0.000000
191		-1.953125
192		3.906250
193		0.000000
194		5.859375
195		3.906250
196		7.812500
197		7.812500
198		11.718750
199		9.765625
200		13.671875
201		11.718750
202		17.578125
203		15.625000
204		19.531250
205		17.578125
206		23.437500
207		19.531250
208		23.437500
209		23.437500
210		27.343750
211		25.390625
212		29.296875
213		27.343750
214		31.250000
215		29.296875
216		35.156250
217		33.203125
218		37.109375
219		35.156250
220		39.062500
221		37.109375
222		41.015625
223		39.062500
224		44.921875
225		41.015625
226		44.921875
227		42.968750
228		46.875000
229		46.875000
230		48.828125
231		46.875000
232		50.781250
233		48.828125
234		52.734375
235		50.781250
236		54.687500
237		52.734375
238		56.640625
239		54.687500
240		56.640625
241		54.687500
242		58.593750
243		56.640625
244		60.546875
245		56.640625
246		60.546875
247		58.593750
248		62.500000
249		60.546875
250		62.500000
251		60.546875
252		64.453125
253		60.546875
254		64.453125
255		62.500000
256		64.453125
257		62.500000
258		64.453125
259		62.500000
260		66.406250
261		62.500000
262		66.406250
263		64.453125
264		66.406250
265		64.453125
266		66.406250
267		62.500000
268		66.406250
269		62.500000
270		66.406250
271		62.500000
272		66.406250
273		62.500000
274		64.453125
275		60.546875
276		64.453125
277		60.546875
278		64.453125
279		60.546875
280		62.500000
281		58.593750
282		62.500000
283		56.640625
284		60.546875
285		56.640625
286		60.546875
287		54.687500
288		58.593750
289		54.687500
290		58.593750
291		50.781250
292		54.687500
293		48.828125
294		54.687500
295		48.828125
296		52.734375
297		46.875000
298		50.781250
299		44.921875
300		48.828125
301		42.968750
302		48.828125
303		41.015625
304		44.921875
305		39.062500
306		42.968750
307		37.109375
308		41.015625
309		33.203125
310		39.062500
311		31.250000
312		35.156250
313		29.296875
314		33.203125
315		27.343750
316		31.250000
317		25.390625
318		29.296875
319		21.484375
320		27.343750
321		19.531250
322		23.437500
323		15.625000
324		21.484375
325		13.671875
326		17.578125
327		11.718750
328		15.625000
329		7.812500
330		13.671875
331		5.859375
332		9.765625
333		1.953125
334		7.812500
335		0.000000
336		5.859375
337		-1.953125
338		1.953125
339		-5.859375
340		0.000000
341		-7.812500
342		-3.906250
343		-9.765625
344		-5.859375
345		-13.671875
346		-7.812500
347		-15.625000
348		-11.718750
349		-17.578125
350		-13.671875
351		-19.531250
352		-15.625000
353		-23.437500
354		-17.578125
355		-25.390625
356		-19.531250
357		-27.343750
358		-23.437500
359		-29.296875
360		-25.390625
361		-31.250000
362		-25.390625
363		-33.203125
364		-29.296875
365		-35.156250
366		-31.250000
367		-37.109375
368		-31.250000
369		-37.109375
370		-33.203125
371		-39.062500
372		-35.156250
373		-39.062500
374		-37.109375
375		-41.015625
376		-37.109375
377		-42.968750
378		-37.109375
379		-42.968750
380		-39.062500
381		-42.968750
382		-41.015625
383		-42.968750
384		-41.015625
385		-44.921875
386		-41.015625
387		-44.921875
388		-41.015625
389		-44.921875
390		-41.015625
391		-44.921875
392		-41.015625
393		-44.921875
394		-41.015625
395		-44.921875
396		-41.015625
397		-42.968750
398		-41.015625
399		-42.968750
400		-41.015625
401		-42.968750
402		-39.062500
403		-41.015625
404		-39.062500
405		-41.015625
406		-37.109375
407		-41.015625
408		-37.109375
409		-39.062500
410		-35.156250
411		-37.109375
412		-33.203125
413		-35.156250
414		-31.250000
415		-33.203125
416		-29.296875
417		-33.203125
418		-29.296875
419		-31.250000
420		-25.390625
421		-27.343750
422		-23.437500
423		-27.343750
424		-23.437500
425		-23.437500
426		-19.531250
427		-23.437500
428		-17.578125
429		-21.484375
430		-15.625000
431		-17.578125
432		-13.671875
433		-15.625000
434		-11.718750
435		-13.671875
436		-7.812500
437		-9.765625
438		-5.859375
439		-7.812500
440		-3.906250
441		-5.859375
442		0.000000
443		-1.953125
444		1.953125
445		0.000000
446		5.859375
447		1.953125
448		7.812500
449		5.859375
450		9.765625
451		7.812500
452		13.671875
453		11.718750
454		15.625000
455		13.671875
456		17.578125
457		15.625000
458		19.531250
459		17.578125
460		23.437500
461		21.484375
462		25.390625
463		23.437500
464		29.296875
465		27.343750
466		31.250000
467		29.296875
468		33.203125
469		31.250000
470		35.156250
471		33.203125
472		37.109375
473		35.156250
474		39.062500
475		39.062500
476		42.968750
477		41.015625
478		44.921875
479		42.968750
480		46.875000
481		42.968750
482		48.828125
483		46.875000
484		50.781250
485		48.828125
486		50.781250
487		50.781250
488		52.734375
489		52.734375
490		54.687500
491		52.734375
492		56.640625
493		54.687500
494		58.593750
495		56.640625
496		60.546875
497		56.640625
498		60.546875
499		58.593750
500		60.546875
501		58.593750
502		62.500000
503		60.546875
504		62.500000
505		60.546875
506		64.453125
507		60.546875
508		64.453125
509		62.500000
510		64.453125
511		62.500000
512		64.453125
513		62.500000
514		66.406250
515		62.500000
516		64.453125
517		62.500000
518		66.406250
519		62.500000
520		66.406250
521		62.500000
522		66.406250
523		62.500000
524		66.406250
525		60.546875
526		64.453125
527		60.546875
528		64.453125
529		60.546875
530		64.453125
531		58.593750
532		62.500000
533		58.593750
534		62.500000
535		56.640625
536		60.546875
537		56.640625
538		58.593750
539		54.687500
540		58.593750
541		54.687500
542		56.640625
543		52.734375
544		56.640625
545		50.781250
546		54.687500
547		48.828125
548		52.734375
549		46.875000
550		50.781250
551		44.921875
552		48.828125
553		42.968750
554		46.875000
555		41.015625
556		44.921875
557		39.062500
558		42.968750
559		37.109375
560		41.015625
561		35.156250
562		39.062500
563		31.250000
564		37.109375
565		29.296875
566		35.156250
567		27.343750
568		31.250000
569		23.437500
570		29.296875
571		21.484375
572		25.390625
573		19.531250
574		23.437500
575		17.578125
576		21.484375
577		13.671875
578		17.578125
579		11.718750
580		15.625000
581		7.812500
582		13.671875
583		5.859375
584		9.765625
585		3.906250
586		7.812500
587		0.000000
588		5.859375
589		-1.953125
590		1.953125
591		-3.906250
592		0.000000
593		-7.812500
594		-1.953125
595		-9.765625
596		-5.859375
597		-13.671875
598		-7.812500
599		-15.625000
600		-11.718750
601		-17.578125
602		-13.671875
603		-19.531250
604		-15.625000
605		-21.484375
606		-17.578125
607		-25.390625
608		-19.531250
609		-25.390625
610		-21.484375
611		-29.296875
612		-23.437500
613		-31.250000
614		-27.343750
615		-33.203125
616		-29.296875
617		-33.203125
618		-31.250000
619		-37.109375
620		-33.203125
621		-37.109375
622		-33.203125
623		-39.062500
624		-35.156250
625		-39.062500
626		-37.109375
627		-41.015625
628		-37.109375
629		-42.968750
630		-39.062500
631		-42.968750
632		-39.062500
633		-42.968750
634		-41.015625
635		-42.968750
636		-41.015625
637		-44.921875
638		-41.015625
639		-44.921875
640		-41.015625
641		-44.921875
642		-42.968750
643		-44.921875
644		-41.015625
645		-44.921875
646		-41.015625
647		-44.921875
648		-41.015625
649		-44.921875
650		-41.015625
651		-42.968750
652		-41.015625
653		-42.968750
654		-39.062500
655		-42.968750
656		-39.062500
657		-41.015625
658		-39.062500
659		-41.015625
660		-37.109375
661		-39.062500
662		-35.156250
663		-37.109375
664		-35.156250
665		-37.109375
666		-33.203125
667		-35.156250
668		-31.250000
669		-33.203125
670		-29.296875
671		-31.250000
672		-27.343750
673		-29.296875
674		-25.390625
675		-27.343750
676		-23.437500
677		-25.390625
678		-21.484375
679		-23.437500
680		-19.531250
681		-21.484375
682		-15.625000
683		-17.578125
684		-13.671875
685		-15.625000
686		-11.718750
687		-13.671875
688		-7.812500
689		-11.718750
690		-5.859375
691		-7.812500
692		-3.906250
693		-5.859375
694		-1.953125
695		-3.906250
696		1.953125
697		0.000000
698		3.906250
699		1.953125
700		5.859375
701		5.859375
702		9.765625
703		7.812500
704		13.671875
705		9.765625
706		15.625000
707		11.718750
708		17.578125
709		15.625000
710		19.531250
711		17.578125
712		23.437500
713		21.484375
714		25.390625
715		23.437500
716		27.343750
717		25.390625
718		29.296875
719		29.296875
720		33.203125
721		29.296875
722		35.156250
723		33.203125
724		37.109375
725		35.156250
726		39.062500
727		39.062500
728		42.968750
729		39.062500
730		44.921875
731		41.015625
732		46.875000
733		42.968750
734		46.875000
735		46.875000
736		48.828125
737		48.828125
738		50.781250
739		48.828125
740		52.734375
741		50.781250
742		54.687500
743		52.734375
744		56.640625
745		54.687500
746		58.593750
747		54.687500
748		58.593750
749		56.640625
750		60.546875
751		58.593750
752		60.546875
753		58.593750
754		62.500000
755		60.546875
756		62.500000
757		60.546875
758		64.453125
759		60.546875
760		64.453125
761		62.500000
762		64.453125
763		62.500000
764		66.406250
765		62.500000
766		66.406250
767		62.500000
768		64.453125
769		62.500000
770		66.406250
771		62.500000
772		66.406250
773		62.500000
774		64.453125
775		62.500000
776		64.453125
777		62.500000
778		64.453125
779		62.500000
780		64.453125
781		60.546875
782		62.500000
783		58.593750
784		62.500000
785		58.593750
786		62.500000
787		56.640625
788		60.546875
789		56.640625
790		60.546875
791		56.640625
792		58.593750
793		54.687500
794		56.640625
795		52.734375
796		56.640625
797		50.781250
798		54.687500
799		48.828125
800		52.734375
801		48.828125
802		50.781250
803		46.875000
804		48.828125
805		42.968750
806		48.828125
807		42.968750
808		46.875000
809		41.015625
810		44.921875
811		37.109375
812		41.015625
813		35.156250
814		39.062500
815		33.203125
816		37.109375
817		31.250000
818		35.156250
819		27.343750
820		31.250000
821		25.390625
822		29.296875
823		21.484375
824		27.343750
825		19.531250
826		25.390625
827		17.578125
828		21.484375
829		15.625000
830		19.531250
831		11.718750
832		17.578125
833		9.765625
834		13.671875
835		7.812500
836		11.718750
837		3.906250
838		7.812500
839		1.953125
840		5.859375
841		-1.953125
842		3.906250
843		-3.906250
844		0.000000
845		-5.859375
846		-1.953125
847		-9.765625
848		-3.906250
849		-11.718750
850		-7.812500
851		-13.671875
852		-9.765625
853		-15.625000
854		-11.718750
855		-19.531250
856		-15.625000
857		-21.484375
858		-15.625000
859		-23.437500
860		-19.531250
861		-25.390625
862		-21.484375
863		-27.343750
864		-23.437500
865		-29.296875
866		-27.343750
867		-31.250000
868		-27.343750
869		-33.203125
870		-29.296875
871		-35.156250
872		-31.250000
873		-37.109375
874		-33.203125
875		-39.062500
876		-35.156250
877		-39.062500
878		-37.109375
879		-41.015625
880		-37.109375
881		-41.015625
882		-37.109375
883		-42.968750
884		-39.062500
885		-42.968750
886		-41.015625
887		-42.968750
888		-41.015625
889		-44.921875
890		-41.015625
891		-44.921875
892		-41.015625
893		-44.921875
894		-41.015625
895		-44.921875
896		-41.015625
897		-44.921875
898		-42.968750
899		-44.921875
900		-41.015625
901		-44.921875
902		-41.015625
903		-42.968750
904		-41.015625
905		-44.921875
906		-39.062500
907		-42.968750
908		-39.062500
909		-42.968750
910		-39.062500
911		-41.015625
912		-37.109375
913		-39.062500
914		-35.156250
915		-39.062500
916		-33.203125
917		-37.109375
918		-33.203125
919		-35.156250
920		-31.250000
921		-33.203125
922		-29.296875
923		-33.203125
924		-27.343750
925		-29.296875
926		-25.390625
927		-27.343750
928		-23.437500
929		-25.390625
930		-21.484375
931		-23.437500
932		-19.531250
933		-21.484375
934		-15.625000
935		-19.531250
936		-15.625000
937		-15.625000
938		-13.671875
939		-13.671875
940		-9.765625
941		-11.718750
942		-7.812500
943		-9.765625
944		-5.859375
945		-7.812500
946		-1.953125
947		-3.906250
948		1.953125
949		-1.953125
950		1.953125
951		0.000000
952		5.859375
953		3.906250
954		7.812500
955		5.859375
956		11.718750
957		9.765625
958		13.671875
959		11.718750
960		15.625000
961		13.671875
962		19.531250
963		17.578125
964		21.484375
965		19.531250
966		23.437500
967		21.484375
968		27.343750
969		25.390625
970		29.296875
971		27.343750
972		31.250000
973		29.296875
974		35.156250
975		33.203125
976		37.109375
977		33.203125
978		39.062500
979		37.109375
980		41.015625
981		39.062500
982		42.968750
983		41.015625
984		44.921875
985		42.968750
986		46.875000
987		44.921875
988		48.828125
989		46.875000
990		50.781250
991		48.828125
992		52.734375
993		50.781250
994		54.687500
995		52.734375
996		54.687500
997		52.734375
998		56.640625
999		54.687500
1000		58.593750
1001		56.640625
1002		60.546875
1003		56.640625
1004		60.546875
1005		58.593750
1006		60.546875
1007		58.593750
1008		62.500000
1009		60.546875
1010		64.453125
1011		60.546875
1012		64.453125
1013		60.546875
1014		64.453125
1015		62.500000
1016		64.453125
1017		62.500000
1018		66.406250
1019		62.500000
1020		66.406250
1021		62.500000
1022		64.453125
1023		62.500000
1024		66.406250
1025		62.500000
1026		66.406250
1027		62.500000
1028		66.406250
1029		62.500000
1030		64.453125
1031		60.546875
1032		64.453125
1033		60.546875
1034		64.453125
1035		60.546875
1036		62.500000
1037		58.593750
1038		62.500000
1039		56.640625
1040		60.546875
1041		56.640625
1042		60.546875
1043		54.687500
1044		58.593750
1045		54.687500
1046		58.593750
1047		52.734375
1048		56.640625
1049		50.781250
1050		54.687500
1051		50.781250
1052		54.687500
1053		48.828125
1054		50.781250
1055		46.875000
1056		48.828125
1057		42.968750
1058		48.828125
1059		42.968750
1060		46.875000
1061		41.015625
1062		44.921875
1063		37.109375
1064		41.015625
1065		35.156250
1066		39.062500
1067		33.203125
1068		37.109375
1069		31.250000
1070		35.156250
1071		27.343750
1072		33.203125
1073		25.390625
1074		29.296875
1075		23.437500
1076		27.343750
1077		19.531250
1078		25.390625
1079		17.578125
1080		23.437500
1081		15.625000
1082		21.484375
1083		11.718750
1084		17.578125
1085		9.765625
1086		15.625000
1087		7.812500
1088		11.718750
1089		3.906250
1090		7.812500
1091		1.953125
1092		5.859375
1093		0.000000
1094		3.906250
1095		-3.906250
1096		0.000000
1097		-5.859375
1098		-1.953125
1099		-7.812500
1100		-3.906250
1101		-11.718750
1102		-5.859375
1103		-13.671875
1104		-9.765625
1105		-15.625000
1106		-11.718750
1107		-19.531250
1108		-15.625000
1109		-21.484375
1110		-17.578125
1111		-23.437500
1112		-19.531250
1113		-25.390625
1114		-21.484375
1115		-27.343750
1116		-23.437500
1117		-29.296875
1118		-25.390625
1119		-31.250000
1120		-27.343750
1121		-33.203125
1122		-29.296875
1123		-37.109375
1124		-31.250000
1125		-37.109375
1126		-33.203125
1127		-39.062500
1128		-35.156250
1129		-39.062500
1130		-35.156250
1131		-41.015625
1132		-37.109375
1133		-41.015625
1134		-37.109375
1135		-42.968750
1136		-39.062500
1137		-42.968750
1138		-41.015625
1139		-44.921875
1140		-41.015625
1141		-44.921875
1142		-41.015625
1143		-44.921875
1144		-42.968750
1145		-44.921875
1146		-42.968750
1147		-46.875000
1148		-42.968750
1149		-44.921875
1150		-42.968750
1151		-44.921875
1152		-41.015625
1153		-46.875000
1154		-41.015625
1155		-44.921875
1156		-42.968750
1157		-44.921875
1158		-41.015625
1159		-42.968750
1160		-39.062500
1161		-42.968750
1162		-39.062500
1163		-41.015625
1164		-39.062500
1165		-41.015625
1166		-37.109375
1167		-39.062500
1168		-35.156250
1169		-37.109375
1170		-33.203125
1171		-35.156250
1172		-33.203125
1173		-35.156250
1174		-31.250000
1175		-33.203125
1176		-29.296875
1177		-31.250000
1178		-27.343750
1179		-29.296875
1180		-25.390625
1181		-27.343750
1182		-21.484375
1183		-25.390625
1184		-21.484375
1185		-23.437500
1186		-17.578125
1187		-21.484375
1188		-15.625000
1189		-17.578125
1190		-13.671875
1191		-15.625000
1192		-11.718750
1193		-13.671875
1194		-7.812500
1195		-9.765625
1196		-5.859375
1197		-7.812500
1198		-3.906250
1199		-5.859375
1200		0.000000
1201		-3.906250
1202		1.953125
1203		0.000000
1204		3.906250
1205		1.953125
1206		7.812500
1207		5.859375
1208		9.765625
1209		7.812500
1210		11.718750
1211		11.718750
1212		15.625000
1213		13.671875
1214		17.578125
1215		15.625000
1216		21.484375
1217		19.531250
1218		23.437500
1219		21.484375
1220		27.343750
1221		23.437500
1222		27.343750
1223		27.343750
1224		31.250000
1225		29.296875
1226		33.203125
1227		31.250000
1228		35.156250
1229		33.203125
1230		37.109375
1231		35.156250
1232		41.015625
1233		37.109375
1234		42.968750
1235		41.015625
1236		44.921875
1237		42.968750
1238		46.875000
1239		44.921875
1240		48.828125
1241		46.875000
1242		50.781250
1243		48.828125
1244		52.734375
1245		48.828125
1246		54.687500
1247		50.781250
1248		54.687500
1249		52.734375
1250		56.640625
1251		54.687500
1252		58.593750
1253		54.687500
1254		58.593750
1255		56.640625
1256		60.546875
1257		58.593750
1258		60.546875
1259		58.593750
1260		62.500000
1261		60.546875
1262		62.500000
1263		60.546875
1264		64.453125
1265		60.546875
1266		66.406250
1267		60.546875
1268		64.453125
1269		62.500000
1270		64.453125
1271		62.500000
1272		64.453125
1273		62.500000
1274		64.453125
1275		62.500000
1276		66.406250
1277		62.500000
1278		66.406250
1279		62.500000
1280		66.406250
1281		62.500000
