metingen laweit/2000Hz, 35.0cm/data_81_166.txt

Channel              :		CH1
Frequency            :		1.975kHz
Period               :		0.506ms
PK-PK                :		39.06mV
Probe attenuation    :		1X
Voltage per ADC value:		0.122070mV
Time interval        :		2.00000us

index		CH1_Voltage(mV)
1		19.531250
2		19.531250
3		21.484375
4		17.578125
5		21.484375
6		17.578125
7		21.484375
8		17.578125
9		21.484375
10		17.578125
11		19.531250
12		17.578125
13		19.531250
14		15.625000
15		17.578125
16		15.625000
17		17.578125
18		13.671875
19		17.578125
20		13.671875
21		17.578125
22		13.671875
23		15.625000
24		13.671875
25		15.625000
26		11.718750
27		15.625000
28		11.718750
29		13.671875
30		9.765625
31		13.671875
32		9.765625
33		13.671875
34		9.765625
35		11.718750
36		7.812500
37		11.718750
38		7.812500
39		11.718750
40		7.812500
41		9.765625
42		5.859375
43		9.765625
44		5.859375
45		7.812500
46		3.906250
47		7.812500
48		3.906250
49		7.812500
50		1.953125
51		7.812500
52		1.953125
53		5.859375
54		1.953125
55		5.859375
56		1.953125
57		3.906250
58		1.953125
59		3.906250
60		0.000000
61		3.906250
62		0.000000
63		3.906250
64		0.000000
65		1.953125
66		-1.953125
67		1.953125
68		-1.953125
69		1.953125
70		-1.953125
71		0.000000
72		-3.906250
73		0.000000
74		-1.953125
75		0.000000
76		-3.906250
77		0.000000
78		-3.906250
79		0.000000
80		-3.906250
81		-1.953125
82		-5.859375
83		-1.953125
84		-5.859375
85		-1.953125
86		-5.859375
87		-1.953125
88		-5.859375
89		-1.953125
90		-5.859375
91		-1.953125
92		-5.859375
93		-1.953125
94		-5.859375
95		-1.953125
96		-5.859375
97		-1.953125
98		-5.859375
99		-1.953125
100		-5.859375
101		-1.953125
102		-5.859375
103		-1.953125
104		-5.859375
105		-1.953125
106		-3.906250
107		-1.953125
108		-3.906250
109		-1.953125
110		-5.859375
111		-1.953125
112		-3.906250
113		-1.953125
114		-5.859375
115		-1.953125
116		-3.906250
117		0.000000
118		-3.906250
119		0.000000
120		-3.906250
121		0.000000
122		-1.953125
123		0.000000
124		-1.953125
125		0.000000
126		-1.953125
127		1.953125
128		-1.953125
129		1.953125
130		0.000000
131		1.953125
132		0.000000
133		3.906250
134		0.000000
135		3.906250
136		0.000000
137		3.906250
138		1.953125
139		3.906250
140		1.953125
141		3.906250
142		1.953125
143		5.859375
144		1.953125
145		5.859375
146		3.906250
147		7.812500
148		3.906250
149		7.812500
150		3.906250
151		7.812500
152		5.859375
153		9.765625
154		5.859375
155		9.765625
156		5.859375
157		9.765625
158		7.812500
159		11.718750
160		7.812500
161		11.718750
162		9.765625
163		11.718750
164		9.765625
165		13.671875
166		9.765625
167		13.671875
168		11.718750
169		13.671875
170		11.718750
171		15.625000
172		11.718750
173		15.625000
174		13.671875
175		15.625000
176		13.671875
177		15.625000
178		13.671875
179		17.578125
180		13.671875
181		17.578125
182		15.625000
183		17.578125
184		15.625000
185		19.531250
186		15.625000
187		19.531250
188		15.625000
189		21.484375
190		17.578125
191		19.531250
192		17.578125
193		19.531250
194		17.578125
195		21.484375
196		17.578125
197		21.484375
198		17.578125
199		21.484375
200		19.531250
201		21.484375
202		19.531250
203		23.437500
204		19.531250
205		23.437500
206		19.531250
207		23.437500
208		21.484375
209		23.437500
210		19.531250
211		23.437500
212		21.484375
213		25.390625
214		19.531250
215		23.437500
216		21.484375
217		23.437500
218		21.484375
219		23.437500
220		21.484375
221		25.390625
222		21.484375
223		25.390625
224		21.484375
225		25.390625
226		21.484375
227		23.437500
228		21.484375
229		25.390625
230		21.484375
231		25.390625
232		21.484375
233		25.390625
234		21.484375
235		25.390625
236		21.484375
237		25.390625
238		21.484375
239		25.390625
240		21.484375
241		25.390625
242		21.484375
243		23.437500
244		21.484375
245		23.437500
246		19.531250
247		23.437500
248		19.531250
249		23.437500
250		19.531250
251		23.437500
252		19.531250
253		23.437500
254		19.531250
255		23.437500
256		19.531250
257		23.437500
258		19.531250
259		21.484375
260		17.578125
261		21.484375
262		17.578125
263		21.484375
264		17.578125
265		19.531250
266		15.625000
267		19.531250
268		15.625000
269		19.531250
270		15.625000
271		19.531250
272		13.671875
273		17.578125
274		13.671875
275		17.578125
276		13.671875
277		15.625000
278		11.718750
279		15.625000
280		11.718750
281		15.625000
282		11.718750
283		15.625000
284		9.765625
285		13.671875
286		9.765625
287		13.671875
288		9.765625
289		13.671875
290		7.812500
291		11.718750
292		7.812500
293		11.718750
294		7.812500
295		9.765625
296		5.859375
297		9.765625
298		5.859375
299		9.765625
300		5.859375
301		7.812500
302		3.906250
303		7.812500
304		3.906250
305		7.812500
306		1.953125
307		7.812500
308		1.953125
309		5.859375
310		1.953125
311		3.906250
312		0.000000
313		3.906250
314		0.000000
315		3.906250
316		0.000000
317		3.906250
318		0.000000
319		1.953125
320		0.000000
321		1.953125
322		-1.953125
323		1.953125
324		-1.953125
325		1.953125
326		-1.953125
327		0.000000
328		-3.906250
329		0.000000
330		-1.953125
331		0.000000
332		-3.906250
333		0.000000
334		-3.906250
335		0.000000
336		-3.906250
337		-1.953125
338		-5.859375
339		-1.953125
340		-5.859375
341		-1.953125
342		-3.906250
343		-1.953125
344		-3.906250
345		-1.953125
346		-5.859375
347		0.000000
348		-5.859375
349		-1.953125
350		-5.859375
351		-1.953125
352		-5.859375
353		-1.953125
354		-5.859375
355		-1.953125
356		-5.859375
357		-1.953125
358		-5.859375
359		-1.953125
360		-3.906250
361		-1.953125
362		-3.906250
363		-1.953125
364		-3.906250
365		0.000000
366		-3.906250
367		0.000000
368		-3.906250
369		0.000000
370		-3.906250
371		0.000000
372		-3.906250
373		0.000000
374		-1.953125
375		1.953125
376		-1.953125
377		0.000000
378		-1.953125
379		1.953125
380		0.000000
381		1.953125
382		0.000000
383		1.953125
384		0.000000
385		1.953125
386		0.000000
387		3.906250
388		1.953125
389		3.906250
390		1.953125
391		5.859375
392		1.953125
393		5.859375
394		3.906250
395		5.859375
396		1.953125
397		7.812500
398		3.906250
399		7.812500
400		3.906250
401		7.812500
402		5.859375
403		7.812500
404		5.859375
405		9.765625
406		5.859375
407		9.765625
408		7.812500
409		9.765625
410		7.812500
411		9.765625
412		7.812500
413		13.671875
414		9.765625
415		11.718750
416		9.765625
417		13.671875
418		9.765625
419		13.671875
420		9.765625
421		13.671875
422		11.718750
423		13.671875
424		11.718750
425		15.625000
426		13.671875
427		15.625000
428		13.671875
429		15.625000
430		13.671875
431		17.578125
432		13.671875
433		17.578125
434		15.625000
435		17.578125
436		15.625000
437		17.578125
438		15.625000
439		19.531250
440		15.625000
441		19.531250
442		15.625000
443		19.531250
444		17.578125
445		19.531250
446		17.578125
447		21.484375
448		17.578125
449		21.484375
450		19.531250
451		21.484375
452		17.578125
453		21.484375
454		19.531250
455		23.437500
456		19.531250
457		23.437500
458		19.531250
459		23.437500
460		21.484375
461		23.437500
462		19.531250
463		23.437500
464		21.484375
465		23.437500
466		21.484375
467		23.437500
468		21.484375
469		23.437500
470		21.484375
471		23.437500
472		21.484375
473		23.437500
474		21.484375
475		25.390625
476		21.484375
477		23.437500
478		21.484375
479		25.390625
480		21.484375
481		25.390625
482		21.484375
483		25.390625
484		21.484375
485		25.390625
486		21.484375
487		25.390625
488		21.484375
489		23.437500
490		21.484375
491		25.390625
492		19.531250
493		23.437500
494		21.484375
495		23.437500
496		21.484375
497		23.437500
498		19.531250
499		23.437500
500		19.531250
501		23.437500
502		19.531250
503		23.437500
504		19.531250
505		23.437500
506		19.531250
507		23.437500
508		17.578125
509		21.484375
510		19.531250
511		21.484375
512		17.578125
513		21.484375
514		17.578125
515		21.484375
516		17.578125
517		19.531250
518		15.625000
519		19.531250
520		15.625000
521		19.531250
522		15.625000
523		17.578125
524		13.671875
525		19.531250
526		13.671875
527		17.578125
528		13.671875
529		15.625000
530		11.718750
531		15.625000
532		11.718750
533		15.625000
534		11.718750
535		15.625000
536		11.718750
537		13.671875
538		9.765625
539		13.671875
540		9.765625
541		13.671875
542		9.765625
543		11.718750
544		7.812500
545		11.718750
546		5.859375
547		11.718750
548		7.812500
549		9.765625
550		5.859375
551		9.765625
552		5.859375
553		7.812500
554		3.906250
555		7.812500
556		3.906250
557		7.812500
558		1.953125
559		5.859375
560		3.906250
561		5.859375
562		1.953125
563		3.906250
564		1.953125
565		5.859375
566		0.000000
567		3.906250
568		0.000000
569		3.906250
570		0.000000
571		1.953125
572		-1.953125
573		1.953125
574		-1.953125
575		1.953125
576		-1.953125
577		1.953125
578		-1.953125
579		0.000000
580		-1.953125
581		0.000000
582		-3.906250
583		0.000000
584		-3.906250
585		0.000000
586		-3.906250
587		0.000000
588		-3.906250
589		0.000000
590		-3.906250
591		-1.953125
592		-5.859375
593		-1.953125
594		-3.906250
595		-1.953125
596		-3.906250
597		-1.953125
598		-5.859375
599		-1.953125
600		-5.859375
601		-1.953125
602		-5.859375
603		-1.953125
604		-5.859375
605		-1.953125
606		-5.859375
607		-1.953125
608		-5.859375
609		-1.953125
610		-3.906250
611		-1.953125
612		-5.859375
613		-1.953125
614		-5.859375
615		-1.953125
616		-3.906250
617		-1.953125
618		-3.906250
619		-1.953125
620		-3.906250
621		0.000000
622		-3.906250
623		0.000000
624		-3.906250
625		0.000000
626		-3.906250
627		0.000000
628		-1.953125
629		0.000000
630		-1.953125
631		1.953125
632		-1.953125
633		1.953125
634		-1.953125
635		1.953125
636		0.000000
637		1.953125
638		0.000000
639		1.953125
640		0.000000
641		3.906250
642		0.000000
643		3.906250
644		1.953125
645		3.906250
646		1.953125
647		5.859375
648		3.906250
649		5.859375
650		3.906250
651		5.859375
652		3.906250
653		7.812500
654		3.906250
655		7.812500
656		5.859375
657		7.812500
658		5.859375
659		9.765625
660		5.859375
661		9.765625
662		7.812500
663		9.765625
664		7.812500
665		11.718750
666		7.812500
667		11.718750
668		9.765625
669		11.718750
670		9.765625
671		13.671875
672		9.765625
673		13.671875
674		11.718750
675		13.671875
676		11.718750
677		15.625000
678		11.718750
679		15.625000
680		13.671875
681		15.625000
682		11.718750
683		17.578125
684		13.671875
685		17.578125
686		13.671875
687		17.578125
688		13.671875
689		19.531250
690		15.625000
691		19.531250
692		15.625000
693		19.531250
694		15.625000
695		19.531250
696		17.578125
697		19.531250
698		17.578125
699		21.484375
700		17.578125
701		21.484375
702		17.578125
703		21.484375
704		19.531250
705		21.484375
706		19.531250
707		21.484375
708		19.531250
709		23.437500
710		19.531250
711		23.437500
712		19.531250
713		23.437500
714		21.484375
715		23.437500
716		21.484375
717		23.437500
718		21.484375
719		23.437500
720		21.484375
721		23.437500
722		21.484375
723		23.437500
724		21.484375
725		25.390625
726		21.484375
727		25.390625
728		21.484375
729		23.437500
730		21.484375
731		23.437500
732		19.531250
733		25.390625
734		21.484375
735		25.390625
736		21.484375
737		25.390625
738		21.484375
739		25.390625
740		21.484375
741		25.390625
742		21.484375
743		25.390625
744		21.484375
745		25.390625
746		21.484375
747		23.437500
748		19.531250
749		25.390625
750		21.484375
751		23.437500
752		19.531250
753		23.437500
754		21.484375
755		23.437500
756		19.531250
757		23.437500
758		19.531250
759		23.437500
760		19.531250
761		23.437500
762		19.531250
763		21.484375
764		19.531250
765		21.484375
766		17.578125
767		21.484375
768		17.578125
769		19.531250
770		17.578125
771		19.531250
772		15.625000
773		19.531250
774		15.625000
775		19.531250
776		15.625000
777		19.531250
778		15.625000
779		17.578125
780		13.671875
781		17.578125
782		13.671875
783		17.578125
784		13.671875
785		17.578125
786		11.718750
787		15.625000
788		11.718750
789		15.625000
790		11.718750
791		15.625000
792		9.765625
793		13.671875
794		7.812500
795		13.671875
796		9.765625
797		11.718750
798		7.812500
799		11.718750
800		7.812500
801		11.718750
802		7.812500
803		9.765625
804		5.859375
805		9.765625
806		5.859375
807		7.812500
808		3.906250
809		7.812500
810		3.906250
811		7.812500
812		3.906250
813		5.859375
814		3.906250
815		5.859375
816		1.953125
817		5.859375
818		1.953125
819		3.906250
820		1.953125
821		3.906250
822		0.000000
823		3.906250
824		0.000000
825		3.906250
826		-1.953125
827		1.953125
828		-1.953125
829		1.953125
830		-1.953125
831		0.000000
832		-3.906250
833		1.953125
834		-1.953125
835		0.000000
836		-3.906250
837		0.000000
838		-3.906250
839		0.000000
840		-3.906250
841		0.000000
842		-3.906250
843		-1.953125
844		-5.859375
845		0.000000
846		-3.906250
847		-1.953125
848		-3.906250
849		-1.953125
850		-3.906250
851		-1.953125
852		-3.906250
853		-1.953125
854		-3.906250
855		-1.953125
856		-3.906250
857		-1.953125
858		-3.906250
859		-1.953125
860		-3.906250
861		-1.953125
862		-5.859375
863		-1.953125
864		-3.906250
865		-1.953125
866		-5.859375
867		-1.953125
868		-3.906250
869		-1.953125
870		-3.906250
871		0.000000
872		-3.906250
873		0.000000
874		-3.906250
875		0.000000
876		-3.906250
877		0.000000
878		-1.953125
879		1.953125
880		-1.953125
881		0.000000
882		-1.953125
883		0.000000
884		-1.953125
885		1.953125
886		-1.953125
887		1.953125
888		0.000000
889		1.953125
890		0.000000
891		3.906250
892		0.000000
893		3.906250
894		1.953125
895		3.906250
896		1.953125
897		3.906250
898		1.953125
899		5.859375
900		1.953125
901		5.859375
902		3.906250
903		7.812500
904		3.906250
905		7.812500
906		3.906250
907		7.812500
908		5.859375
909		9.765625
910		5.859375
911		9.765625
912		5.859375
913		9.765625
914		7.812500
915		9.765625
916		7.812500
917		11.718750
918		7.812500
919		11.718750
920		9.765625
921		11.718750
922		9.765625
923		11.718750
924		9.765625
925		13.671875
926		11.718750
927		13.671875
928		9.765625
929		15.625000
930		11.718750
931		15.625000
932		13.671875
933		15.625000
934		13.671875
935		15.625000
936		13.671875
937		17.578125
938		13.671875
939		17.578125
940		15.625000
941		17.578125
942		15.625000
943		19.531250
944		15.625000
945		19.531250
946		15.625000
947		19.531250
948		17.578125
949		19.531250
950		15.625000
951		21.484375
952		17.578125
953		21.484375
954		17.578125
955		21.484375
956		17.578125
957		21.484375
958		19.531250
959		21.484375
960		19.531250
961		21.484375
962		19.531250
963		23.437500
964		19.531250
965		21.484375
966		21.484375
967		23.437500
968		19.531250
969		23.437500
970		21.484375
971		23.437500
972		19.531250
973		25.390625
974		21.484375
975		23.437500
976		21.484375
977		23.437500
978		21.484375
979		25.390625
980		21.484375
981		25.390625
982		21.484375
983		23.437500
984		21.484375
985		25.390625
986		21.484375
987		25.390625
988		21.484375
989		25.390625
990		21.484375
991		25.390625
992		21.484375
993		25.390625
994		21.484375
995		25.390625
996		21.484375
997		25.390625
998		21.484375
999		23.437500
1000		21.484375
1001		23.437500
1002		19.531250
1003		23.437500
1004		21.484375
1005		23.437500
1006		19.531250
1007		23.437500
1008		19.531250
1009		23.437500
1010		19.531250
1011		23.437500
1012		19.531250
1013		23.437500
1014		19.531250
1015		21.484375
1016		19.531250
1017		21.484375
1018		17.578125
1019		21.484375
1020		17.578125
1021		21.484375
1022		17.578125
1023		21.484375
1024		17.578125
1025		19.531250
1026		15.625000
1027		19.531250
1028		15.625000
1029		17.578125
1030		13.671875
1031		19.531250
1032		13.671875
1033		17.578125
1034		11.718750
1035		17.578125
1036		13.671875
1037		17.578125
1038		11.718750
1039		15.625000
1040		11.718750
1041		15.625000
1042		9.765625
1043		13.671875
1044		9.765625
1045		13.671875
1046		9.765625
1047		13.671875
1048		9.765625
1049		11.718750
1050		7.812500
1051		11.718750
1052		7.812500
1053		11.718750
1054		5.859375
1055		9.765625
1056		5.859375
1057		9.765625
1058		5.859375
1059		7.812500
1060		3.906250
1061		7.812500
1062		3.906250
1063		7.812500
1064		3.906250
1065		7.812500
1066		3.906250
1067		5.859375
1068		1.953125
1069		5.859375
1070		1.953125
1071		3.906250
1072		0.000000
1073		3.906250
1074		0.000000
1075		3.906250
1076		-1.953125
1077		1.953125
1078		-1.953125
1079		1.953125
1080		-1.953125
1081		1.953125
1082		-1.953125
1083		0.000000
1084		-3.906250
1085		1.953125
1086		-1.953125
1087		0.000000
1088		-3.906250
1089		0.000000
1090		-3.906250
1091		0.000000
1092		-3.906250
1093		0.000000
1094		-3.906250
1095		-1.953125
1096		-5.859375
1097		0.000000
1098		-5.859375
1099		-1.953125
1100		-3.906250
1101		-1.953125
1102		-5.859375
1103		-1.953125
1104		-5.859375
1105		-1.953125
1106		-5.859375
1107		-1.953125
1108		-5.859375
1109		-1.953125
1110		-5.859375
1111		-1.953125
1112		-5.859375
1113		-1.953125
1114		-5.859375
1115		-1.953125
1116		-3.906250
1117		-1.953125
1118		-5.859375
1119		0.000000
1120		-5.859375
1121		-1.953125
1122		-3.906250
1123		-1.953125
1124		-3.906250
1125		-1.953125
1126		-3.906250
1127		0.000000
1128		-3.906250
1129		0.000000
1130		-3.906250
1131		0.000000
1132		-1.953125
1133		0.000000
1134		-1.953125
1135		0.000000
1136		-1.953125
1137		1.953125
1138		-1.953125
1139		1.953125
1140		-1.953125
1141		1.953125
1142		0.000000
1143		1.953125
1144		0.000000
1145		3.906250
1146		0.000000
1147		3.906250
1148		0.000000
1149		3.906250
1150		1.953125
1151		3.906250
1152		1.953125
1153		5.859375
1154		1.953125
1155		5.859375
1156		3.906250
1157		7.812500
1158		3.906250
1159		7.812500
1160		3.906250
1161		7.812500
1162		5.859375
1163		7.812500
1164		5.859375
1165		9.765625
1166		5.859375
1167		9.765625
1168		7.812500
1169		9.765625
1170		7.812500
1171		11.718750
1172		7.812500
1173		11.718750
1174		9.765625
1175		11.718750
1176		9.765625
1177		13.671875
1178		9.765625
1179		13.671875
1180		11.718750
1181		15.625000
1182		11.718750
1183		13.671875
1184		13.671875
1185		15.625000
1186		11.718750
1187		15.625000
1188		13.671875
1189		17.578125
1190		13.671875
1191		17.578125
1192		13.671875
1193		17.578125
1194		15.625000
1195		17.578125
1196		15.625000
1197		17.578125
1198		15.625000
1199		19.531250
1200		17.578125
1201		19.531250
1202		17.578125
1203		19.531250
1204		17.578125
1205		21.484375
1206		17.578125
1207		21.484375
1208		17.578125
1209		21.484375
1210		17.578125
1211		21.484375
1212		19.531250
1213		21.484375
1214		19.531250
1215		23.437500
1216		19.531250
1217		23.437500
1218		21.484375
1219		23.437500
1220		19.531250
1221		23.437500
1222		21.484375
1223		23.437500
1224		21.484375
1225		23.437500
1226		21.484375
1227		25.390625
1228		21.484375
1229		25.390625
1230		21.484375
1231		25.390625
1232		21.484375
1233		25.390625
1234		21.484375
1235		25.390625
1236		21.484375
1237		25.390625
1238		21.484375
1239		25.390625
1240		21.484375
1241		25.390625
1242		21.484375
1243		25.390625
1244		21.484375
1245		25.390625
1246		21.484375
1247		25.390625
1248		19.531250
1249		25.390625
1250		21.484375
1251		23.437500
1252		21.484375
1253		25.390625
1254		21.484375
1255		23.437500
1256		21.484375
1257		23.437500
1258		21.484375
1259		23.437500
1260		19.531250
1261		23.437500
1262		19.531250
1263		23.437500
1264		19.531250
1265		23.437500
1266		19.531250
1267		21.484375
1268		19.531250
1269		21.484375
1270		19.531250
1271		21.484375
1272		17.578125
1273		21.484375
1274		17.578125
1275		21.484375
1276		17.578125
1277		19.531250
1278		17.578125
1279		19.531250
1280		15.625000
1281		19.531250
1282		15.625000
1283		19.531250
1284		15.625000
1285		19.531250
1286		13.671875
1287		17.578125
1288		13.671875
1289		17.578125
1290		11.718750
1291		17.578125
1292		11.718750
1293		15.625000
1294		11.718750
1295		15.625000
1296		9.765625
1297		15.625000
1298		9.765625
1299		13.671875
1300		9.765625
1301		13.671875
1302		9.765625
1303		11.718750
1304		7.812500
1305		11.718750
1306		7.812500
1307		11.718750
1308		5.859375
1309		9.765625
1310		5.859375
1311		9.765625
1312		5.859375
1313		7.812500
1314		3.906250
1315		7.812500
1316		3.906250
1317		7.812500
1318		3.906250
1319		5.859375
1320		1.953125
1321		5.859375
1322		1.953125
1323		5.859375
1324		1.953125
1325		5.859375
1326		1.953125
1327		3.906250
1328		0.000000
1329		3.906250
1330		0.000000
1331		3.906250
