metingen laweit/2000Hz, 35.0cm/data_81_160.txt

Channel              :		CH1
Frequency            :		1.987kHz
Period               :		0.503ms
PK-PK                :		121.1mV
Probe attenuation    :		1X
Voltage per ADC value:		0.122070mV
Time interval        :		2.00000us

index		CH1_Voltage(mV)
1		46.875000
2		46.875000
3		50.781250
4		48.828125
5		52.734375
6		50.781250
7		54.687500
8		52.734375
9		54.687500
10		52.734375
11		56.640625
12		54.687500
13		58.593750
14		54.687500
15		58.593750
16		56.640625
17		60.546875
18		58.593750
19		60.546875
20		58.593750
21		60.546875
22		58.593750
23		62.500000
24		60.546875
25		62.500000
26		60.546875
27		62.500000
28		60.546875
29		62.500000
30		60.546875
31		62.500000
32		60.546875
33		62.500000
34		60.546875
35		62.500000
36		60.546875
37		62.500000
38		58.593750
39		62.500000
40		58.593750
41		62.500000
42		58.593750
43		62.500000
44		56.640625
45		60.546875
46		56.640625
47		60.546875
48		56.640625
49		58.593750
50		54.687500
51		58.593750
52		54.687500
53		56.640625
54		52.734375
55		56.640625
56		50.781250
57		54.687500
58		48.828125
59		52.734375
60		46.875000
61		52.734375
62		46.875000
63		48.828125
64		44.921875
65		48.828125
66		41.015625
67		44.921875
68		41.015625
69		44.921875
70		39.062500
71		41.015625
72		35.156250
73		41.015625
74		33.203125
75		37.109375
76		31.250000
77		35.156250
78		29.296875
79		33.203125
80		25.390625
81		31.250000
82		23.437500
83		27.343750
84		21.484375
85		25.390625
86		17.578125
87		23.437500
88		15.625000
89		19.531250
90		13.671875
91		17.578125
92		9.765625
93		15.625000
94		7.812500
95		11.718750
96		3.906250
97		9.765625
98		1.953125
99		5.859375
100		-1.953125
101		3.906250
102		-3.906250
103		1.953125
104		-5.859375
105		-1.953125
106		-9.765625
107		-3.906250
108		-11.718750
109		-7.812500
110		-13.671875
111		-9.765625
112		-17.578125
113		-13.671875
114		-19.531250
115		-15.625000
116		-21.484375
117		-17.578125
118		-23.437500
119		-19.531250
120		-27.343750
121		-23.437500
122		-29.296875
123		-25.390625
124		-31.250000
125		-27.343750
126		-33.203125
127		-29.296875
128		-35.156250
129		-31.250000
130		-37.109375
131		-33.203125
132		-39.062500
133		-35.156250
134		-41.015625
135		-37.109375
136		-41.015625
137		-37.109375
138		-42.968750
139		-39.062500
140		-44.921875
141		-41.015625
142		-44.921875
143		-42.968750
144		-46.875000
145		-42.968750
146		-48.828125
147		-44.921875
148		-48.828125
149		-44.921875
150		-48.828125
151		-44.921875
152		-48.828125
153		-46.875000
154		-48.828125
155		-46.875000
156		-50.781250
157		-46.875000
158		-50.781250
159		-46.875000
160		-50.781250
161		-46.875000
162		-48.828125
163		-46.875000
164		-48.828125
165		-44.921875
166		-48.828125
167		-44.921875
168		-46.875000
169		-42.968750
170		-46.875000
171		-42.968750
172		-46.875000
173		-42.968750
174		-44.921875
175		-41.015625
176		-42.968750
177		-39.062500
178		-41.015625
179		-39.062500
180		-41.015625
181		-37.109375
182		-39.062500
183		-35.156250
184		-37.109375
185		-33.203125
186		-35.156250
187		-31.250000
188		-33.203125
189		-29.296875
190		-31.250000
191		-27.343750
192		-29.296875
193		-23.437500
194		-27.343750
195		-23.437500
196		-25.390625
197		-19.531250
198		-21.484375
199		-17.578125
200		-19.531250
201		-15.625000
202		-17.578125
203		-11.718750
204		-13.671875
205		-9.765625
206		-11.718750
207		-7.812500
208		-9.765625
209		-3.906250
210		-5.859375
211		-1.953125
212		-3.906250
213		1.953125
214		0.000000
215		3.906250
216		1.953125
217		5.859375
218		3.906250
219		7.812500
220		7.812500
221		11.718750
222		9.765625
223		15.625000
224		13.671875
225		17.578125
226		15.625000
227		19.531250
228		17.578125
229		21.484375
230		21.484375
231		25.390625
232		23.437500
233		27.343750
234		25.390625
235		31.250000
236		29.296875
237		33.203125
238		31.250000
239		35.156250
240		33.203125
241		37.109375
242		35.156250
243		39.062500
244		37.109375
245		42.968750
246		39.062500
247		42.968750
248		41.015625
249		44.921875
250		42.968750
251		46.875000
252		44.921875
253		48.828125
254		46.875000
255		50.781250
256		48.828125
257		52.734375
258		50.781250
259		54.687500
260		50.781250
261		54.687500
262		52.734375
263		56.640625
264		54.687500
265		58.593750
266		54.687500
267		58.593750
268		56.640625
269		60.546875
270		58.593750
271		60.546875
272		58.593750
273		60.546875
274		58.593750
275		62.500000
276		58.593750
277		62.500000
278		58.593750
279		62.500000
280		60.546875
281		62.500000
282		60.546875
283		64.453125
284		60.546875
285		62.500000
286		58.593750
287		62.500000
288		60.546875
289		62.500000
290		58.593750
291		62.500000
292		58.593750
293		62.500000
294		58.593750
295		60.546875
296		56.640625
297		60.546875
298		56.640625
299		58.593750
300		54.687500
301		58.593750
302		54.687500
303		58.593750
304		52.734375
305		56.640625
306		48.828125
307		54.687500
308		48.828125
309		54.687500
310		48.828125
311		52.734375
312		46.875000
313		50.781250
314		44.921875
315		48.828125
316		42.968750
317		48.828125
318		41.015625
319		44.921875
320		39.062500
321		42.968750
322		37.109375
323		41.015625
324		35.156250
325		39.062500
326		33.203125
327		37.109375
328		29.296875
329		35.156250
330		27.343750
331		31.250000
332		25.390625
333		29.296875
334		23.437500
335		27.343750
336		19.531250
337		25.390625
338		17.578125
339		21.484375
340		13.671875
341		19.531250
342		11.718750
343		15.625000
344		9.765625
345		13.671875
346		5.859375
347		9.765625
348		3.906250
349		7.812500
350		0.000000
351		5.859375
352		-1.953125
353		1.953125
354		-3.906250
355		0.000000
356		-7.812500
357		-1.953125
358		-9.765625
359		-5.859375
360		-13.671875
361		-7.812500
362		-15.625000
363		-11.718750
364		-19.531250
365		-13.671875
366		-19.531250
367		-15.625000
368		-23.437500
369		-17.578125
370		-25.390625
371		-21.484375
372		-27.343750
373		-23.437500
374		-31.250000
375		-25.390625
376		-33.203125
377		-27.343750
378		-33.203125
379		-29.296875
380		-37.109375
381		-31.250000
382		-37.109375
383		-33.203125
384		-39.062500
385		-35.156250
386		-41.015625
387		-37.109375
388		-42.968750
389		-39.062500
390		-44.921875
391		-41.015625
392		-44.921875
393		-41.015625
394		-46.875000
395		-42.968750
396		-46.875000
397		-44.921875
398		-48.828125
399		-44.921875
400		-48.828125
401		-44.921875
402		-50.781250
403		-44.921875
404		-48.828125
405		-46.875000
406		-50.781250
407		-46.875000
408		-50.781250
409		-46.875000
410		-50.781250
411		-46.875000
412		-50.781250
413		-46.875000
414		-48.828125
415		-46.875000
416		-48.828125
417		-44.921875
418		-48.828125
419		-44.921875
420		-48.828125
421		-44.921875
422		-46.875000
423		-42.968750
424		-44.921875
425		-41.015625
426		-44.921875
427		-41.015625
428		-42.968750
429		-39.062500
430		-41.015625
431		-39.062500
432		-41.015625
433		-37.109375
434		-39.062500
435		-35.156250
436		-37.109375
437		-33.203125
438		-35.156250
439		-31.250000
440		-33.203125
441		-29.296875
442		-31.250000
443		-27.343750
444		-29.296875
445		-23.437500
446		-27.343750
447		-21.484375
448		-23.437500
449		-19.531250
450		-21.484375
451		-17.578125
452		-19.531250
453		-13.671875
454		-17.578125
455		-11.718750
456		-13.671875
457		-9.765625
458		-11.718750
459		-5.859375
460		-7.812500
461		-3.906250
462		-7.812500
463		-1.953125
464		-3.906250
465		1.953125
466		0.000000
467		3.906250
468		1.953125
469		7.812500
470		5.859375
471		9.765625
472		7.812500
473		11.718750
474		9.765625
475		15.625000
476		11.718750
477		17.578125
478		15.625000
479		19.531250
480		17.578125
481		23.437500
482		21.484375
483		25.390625
484		23.437500
485		29.296875
486		27.343750
487		31.250000
488		29.296875
489		33.203125
490		31.250000
491		35.156250
492		33.203125
493		37.109375
494		35.156250
495		39.062500
496		37.109375
497		42.968750
498		41.015625
499		44.921875
500		42.968750
501		46.875000
502		42.968750
503		46.875000
504		44.921875
505		48.828125
506		46.875000
507		50.781250
508		48.828125
509		52.734375
510		50.781250
511		54.687500
512		52.734375
513		54.687500
514		52.734375
515		56.640625
516		54.687500
517		58.593750
518		56.640625
519		58.593750
520		56.640625
521		60.546875
522		58.593750
523		60.546875
524		58.593750
525		60.546875
526		58.593750
527		62.500000
528		58.593750
529		62.500000
530		60.546875
531		62.500000
532		58.593750
533		62.500000
534		58.593750
535		62.500000
536		60.546875
537		62.500000
538		58.593750
539		64.453125
540		60.546875
541		62.500000
542		58.593750
543		62.500000
544		58.593750
545		62.500000
546		58.593750
547		60.546875
548		56.640625
549		60.546875
550		54.687500
551		58.593750
552		54.687500
553		58.593750
554		52.734375
555		58.593750
556		52.734375
557		56.640625
558		50.781250
559		54.687500
560		50.781250
561		54.687500
562		48.828125
563		52.734375
564		46.875000
565		50.781250
566		44.921875
567		48.828125
568		41.015625
569		46.875000
570		39.062500
571		44.921875
572		39.062500
573		42.968750
574		37.109375
575		41.015625
576		33.203125
577		37.109375
578		31.250000
579		37.109375
580		29.296875
581		33.203125
582		27.343750
583		31.250000
584		23.437500
585		29.296875
586		21.484375
587		27.343750
588		19.531250
589		23.437500
590		17.578125
591		21.484375
592		11.718750
593		17.578125
594		9.765625
595		15.625000
596		7.812500
597		11.718750
598		5.859375
599		9.765625
600		1.953125
601		7.812500
602		0.000000
603		3.906250
604		-1.953125
605		1.953125
606		-5.859375
607		-1.953125
608		-7.812500
609		-3.906250
610		-11.718750
611		-5.859375
612		-13.671875
613		-9.765625
614		-15.625000
615		-11.718750
616		-19.531250
617		-13.671875
618		-21.484375
619		-17.578125
620		-23.437500
621		-19.531250
622		-25.390625
623		-21.484375
624		-29.296875
625		-25.390625
626		-31.250000
627		-27.343750
628		-33.203125
629		-29.296875
630		-35.156250
631		-31.250000
632		-37.109375
633		-33.203125
634		-39.062500
635		-33.203125
636		-41.015625
637		-37.109375
638		-42.968750
639		-37.109375
640		-42.968750
641		-41.015625
642		-44.921875
643		-41.015625
644		-46.875000
645		-41.015625
646		-46.875000
647		-42.968750
648		-46.875000
649		-44.921875
650		-48.828125
651		-44.921875
652		-48.828125
653		-44.921875
654		-50.781250
655		-46.875000
656		-50.781250
657		-46.875000
658		-48.828125
659		-46.875000
660		-50.781250
661		-46.875000
662		-50.781250
663		-46.875000
664		-48.828125
665		-46.875000
666		-48.828125
667		-46.875000
668		-48.828125
669		-44.921875
670		-48.828125
671		-44.921875
672		-48.828125
673		-44.921875
674		-46.875000
675		-42.968750
676		-46.875000
677		-41.015625
678		-44.921875
679		-41.015625
680		-42.968750
681		-39.062500
682		-41.015625
683		-39.062500
684		-39.062500
685		-37.109375
686		-39.062500
687		-35.156250
688		-37.109375
689		-33.203125
690		-35.156250
691		-31.250000
692		-33.203125
693		-29.296875
694		-31.250000
695		-25.390625
696		-27.343750
697		-25.390625
698		-27.343750
699		-21.484375
700		-23.437500
701		-19.531250
702		-21.484375
703		-17.578125
704		-19.531250
705		-13.671875
706		-17.578125
707		-11.718750
708		-13.671875
709		-9.765625
710		-11.718750
711		-5.859375
712		-7.812500
713		-3.906250
714		-5.859375
715		0.000000
716		-3.906250
717		1.953125
718		0.000000
719		3.906250
720		1.953125
721		7.812500
722		3.906250
723		9.765625
724		7.812500
725		11.718750
726		11.718750
727		15.625000
728		11.718750
729		17.578125
730		15.625000
731		21.484375
732		19.531250
733		23.437500
734		21.484375
735		27.343750
736		23.437500
737		27.343750
738		25.390625
739		31.250000
740		29.296875
741		33.203125
742		31.250000
743		35.156250
744		33.203125
745		37.109375
746		35.156250
747		41.015625
748		37.109375
749		41.015625
750		39.062500
751		44.921875
752		42.968750
753		44.921875
754		42.968750
755		48.828125
756		44.921875
757		48.828125
758		46.875000
759		50.781250
760		48.828125
761		52.734375
762		50.781250
763		54.687500
764		52.734375
765		56.640625
766		52.734375
767		56.640625
768		54.687500
769		56.640625
770		54.687500
771		58.593750
772		56.640625
773		60.546875
774		56.640625
775		60.546875
776		58.593750
777		60.546875
778		58.593750
779		62.500000
780		58.593750
781		60.546875
782		58.593750
783		62.500000
784		58.593750
785		62.500000
786		58.593750
787		62.500000
788		58.593750
789		62.500000
790		58.593750
791		62.500000
792		58.593750
793		60.546875
794		58.593750
795		60.546875
796		58.593750
797		60.546875
798		56.640625
799		60.546875
800		56.640625
801		60.546875
802		54.687500
803		58.593750
804		54.687500
805		58.593750
806		52.734375
807		56.640625
808		52.734375
809		54.687500
810		50.781250
811		52.734375
812		48.828125
813		52.734375
814		46.875000
815		50.781250
816		44.921875
817		48.828125
818		42.968750
819		46.875000
820		41.015625
821		44.921875
822		39.062500
823		42.968750
824		37.109375
825		41.015625
826		35.156250
827		39.062500
828		33.203125
829		37.109375
830		31.250000
831		35.156250
832		27.343750
833		33.203125
834		25.390625
835		29.296875
836		23.437500
837		27.343750
838		19.531250
839		25.390625
840		17.578125
841		21.484375
842		15.625000
843		19.531250
844		11.718750
845		15.625000
846		7.812500
847		13.671875
848		7.812500
849		11.718750
850		3.906250
851		9.765625
852		1.953125
853		5.859375
854		-1.953125
855		3.906250
856		-3.906250
857		0.000000
858		-5.859375
859		-1.953125
860		-9.765625
861		-5.859375
862		-11.718750
863		-7.812500
864		-15.625000
865		-11.718750
866		-17.578125
867		-13.671875
868		-19.531250
869		-15.625000
870		-23.437500
871		-17.578125
872		-25.390625
873		-21.484375
874		-27.343750
875		-23.437500
876		-29.296875
877		-25.390625
878		-33.203125
879		-27.343750
880		-33.203125
881		-29.296875
882		-35.156250
883		-31.250000
884		-37.109375
885		-33.203125
886		-39.062500
887		-35.156250
888		-41.015625
889		-37.109375
890		-42.968750
891		-37.109375
892		-44.921875
893		-41.015625
894		-44.921875
895		-42.968750
896		-46.875000
897		-42.968750
898		-46.875000
899		-42.968750
900		-46.875000
901		-44.921875
902		-48.828125
903		-46.875000
904		-50.781250
905		-46.875000
906		-50.781250
907		-46.875000
908		-50.781250
909		-46.875000
910		-50.781250
911		-48.828125
912		-50.781250
913		-46.875000
914		-50.781250
915		-46.875000
916		-50.781250
917		-46.875000
918		-48.828125
919		-46.875000
920		-48.828125
921		-46.875000
922		-48.828125
923		-44.921875
924		-48.828125
925		-42.968750
926		-46.875000
927		-42.968750
928		-44.921875
929		-42.968750
930		-44.921875
931		-41.015625
932		-42.968750
933		-39.062500
934		-42.968750
935		-37.109375
936		-39.062500
937		-37.109375
938		-39.062500
939		-33.203125
940		-37.109375
941		-31.250000
942		-33.203125
943		-31.250000
944		-31.250000
945		-27.343750
946		-31.250000
947		-25.390625
948		-27.343750
949		-23.437500
950		-27.343750
951		-21.484375
952		-23.437500
953		-19.531250
954		-21.484375
955		-15.625000
956		-17.578125
957		-13.671875
958		-15.625000
959		-11.718750
960		-13.671875
961		-9.765625
962		-9.765625
963		-5.859375
964		-7.812500
965		-3.906250
966		-3.906250
967		0.000000
968		-1.953125
969		1.953125
970		0.000000
971		5.859375
972		3.906250
973		7.812500
974		5.859375
975		9.765625
976		7.812500
977		13.671875
978		11.718750
979		15.625000
980		13.671875
981		19.531250
982		17.578125
983		21.484375
984		19.531250
985		23.437500
986		21.484375
987		27.343750
988		25.390625
989		29.296875
990		27.343750
991		31.250000
992		29.296875
993		33.203125
994		33.203125
995		35.156250
996		33.203125
997		39.062500
998		37.109375
999		41.015625
1000		39.062500
1001		42.968750
1002		41.015625
1003		44.921875
1004		42.968750
1005		46.875000
1006		44.921875
1007		48.828125
1008		46.875000
1009		50.781250
1010		48.828125
1011		50.781250
1012		48.828125
1013		54.687500
1014		50.781250
1015		54.687500
1016		52.734375
1017		56.640625
1018		52.734375
1019		56.640625
1020		54.687500
1021		58.593750
1022		56.640625
1023		60.546875
1024		56.640625
1025		60.546875
1026		58.593750
1027		60.546875
1028		58.593750
1029		60.546875
1030		58.593750
1031		62.500000
1032		58.593750
1033		62.500000
1034		58.593750
1035		62.500000
1036		58.593750
1037		62.500000
1038		58.593750
1039		62.500000
1040		58.593750
1041		62.500000
1042		58.593750
1043		62.500000
1044		60.546875
1045		62.500000
1046		58.593750
1047		62.500000
1048		58.593750
1049		60.546875
1050		56.640625
1051		60.546875
1052		56.640625
1053		58.593750
1054		54.687500
1055		58.593750
1056		54.687500
1057		58.593750
1058		52.734375
1059		56.640625
1060		52.734375
1061		54.687500
1062		50.781250
1063		52.734375
1064		48.828125
1065		52.734375
1066		46.875000
1067		50.781250
1068		44.921875
1069		48.828125
1070		42.968750
1071		46.875000
1072		41.015625
1073		44.921875
1074		39.062500
1075		42.968750
1076		37.109375
1077		42.968750
1078		35.156250
1079		39.062500
1080		31.250000
1081		37.109375
1082		31.250000
1083		35.156250
1084		27.343750
1085		33.203125
1086		25.390625
1087		29.296875
1088		23.437500
1089		27.343750
1090		19.531250
1091		25.390625
1092		17.578125
1093		21.484375
1094		15.625000
1095		19.531250
1096		11.718750
1097		15.625000
1098		9.765625
1099		13.671875
1100		5.859375
1101		11.718750
1102		3.906250
1103		7.812500
1104		1.953125
1105		5.859375
1106		-1.953125
1107		1.953125
1108		-5.859375
1109		0.000000
1110		-7.812500
1111		-3.906250
1112		-9.765625
1113		-5.859375
1114		-11.718750
1115		-7.812500
1116		-15.625000
1117		-9.765625
1118		-17.578125
1119		-13.671875
1120		-19.531250
1121		-15.625000
1122		-23.437500
1123		-19.531250
1124		-25.390625
1125		-19.531250
1126		-27.343750
1127		-23.437500
1128		-29.296875
1129		-25.390625
1130		-33.203125
1131		-27.343750
1132		-35.156250
1133		-29.296875
1134		-35.156250
1135		-31.250000
1136		-37.109375
1137		-33.203125
1138		-39.062500
1139		-35.156250
1140		-41.015625
1141		-37.109375
1142		-42.968750
1143		-39.062500
1144		-42.968750
1145		-41.015625
1146		-44.921875
1147		-42.968750
1148		-46.875000
1149		-42.968750
1150		-46.875000
1151		-44.921875
1152		-48.828125
1153		-44.921875
1154		-48.828125
1155		-46.875000
1156		-48.828125
1157		-46.875000
1158		-50.781250
1159		-46.875000
1160		-50.781250
1161		-46.875000
1162		-50.781250
1163		-46.875000
1164		-52.734375
1165		-46.875000
1166		-50.781250
1167		-46.875000
1168		-50.781250
1169		-46.875000
1170		-48.828125
1171		-46.875000
1172		-48.828125
1173		-44.921875
1174		-48.828125
1175		-44.921875
1176		-48.828125
1177		-42.968750
1178		-46.875000
1179		-42.968750
1180		-44.921875
1181		-42.968750
1182		-44.921875
1183		-41.015625
1184		-42.968750
1185		-39.062500
1186		-41.015625
1187		-37.109375
1188		-39.062500
1189		-35.156250
1190		-39.062500
1191		-33.203125
1192		-35.156250
1193		-31.250000
1194		-33.203125
1195		-29.296875
1196		-31.250000
1197		-27.343750
1198		-29.296875
1199		-25.390625
1200		-27.343750
1201		-23.437500
1202		-25.390625
1203		-21.484375
1204		-23.437500
1205		-17.578125
1206		-21.484375
1207		-15.625000
1208		-17.578125
1209		-13.671875
1210		-15.625000
1211		-11.718750
1212		-11.718750
1213		-7.812500
1214		-9.765625
1215		-3.906250
1216		-7.812500
1217		-1.953125
1218		-3.906250
1219		0.000000
1220		-1.953125
1221		1.953125
1222		1.953125
1223		5.859375
1224		3.906250
1225		7.812500
1226		5.859375
1227		11.718750
1228		9.765625
1229		13.671875
1230		11.718750
1231		15.625000
1232		13.671875
1233		19.531250
1234		17.578125
1235		21.484375
1236		19.531250
1237		25.390625
1238		23.437500
1239		27.343750
1240		25.390625
1241		29.296875
1242		27.343750
1243		33.203125
1244		29.296875
1245		35.156250
1246		33.203125
1247		37.109375
1248		35.156250
1249		39.062500
1250		37.109375
1251		41.015625
1252		39.062500
1253		42.968750
1254		41.015625
1255		44.921875
1256		42.968750
1257		46.875000
1258		44.921875
1259		48.828125
1260		46.875000
1261		50.781250
1262		48.828125
1263		52.734375
1264		50.781250
1265		52.734375
1266		50.781250
1267		54.687500
1268		52.734375
1269		56.640625
1270		54.687500
1271		58.593750
1272		54.687500
1273		58.593750
1274		56.640625
1275		60.546875
1276		56.640625
1277		60.546875
1278		56.640625
