metingen laweit/2000Hz, 35.0cm/data_81_148.txt

Channel              :		CH1
Frequency            :		1.973kHz
Period               :		0.507ms
PK-PK                :		171.9mV
Probe attenuation    :		1X
Voltage per ADC value:		0.122070mV
Time interval        :		2.00000us

index		CH1_Voltage(mV)
1		87.890625
2		87.890625
3		83.984375
4		87.890625
5		83.984375
6		87.890625
7		82.031250
8		85.937500
9		82.031250
10		85.937500
11		80.078125
12		85.937500
13		80.078125
14		83.984375
15		78.125000
16		82.031250
17		76.171875
18		82.031250
19		76.171875
20		78.125000
21		74.218750
22		76.171875
23		70.312500
24		76.171875
25		70.312500
26		72.265625
27		66.406250
28		70.312500
29		64.453125
30		68.359375
31		60.546875
32		66.406250
33		58.593750
34		64.453125
35		54.687500
36		60.546875
37		52.734375
38		56.640625
39		48.828125
40		54.687500
41		44.921875
42		50.781250
43		42.968750
44		48.828125
45		39.062500
46		44.921875
47		35.156250
48		41.015625
49		31.250000
50		37.109375
51		27.343750
52		33.203125
53		23.437500
54		29.296875
55		19.531250
56		25.390625
57		15.625000
58		21.484375
59		11.718750
60		17.578125
61		5.859375
62		13.671875
63		3.906250
64		9.765625
65		0.000000
66		5.859375
67		-3.906250
68		1.953125
69		-7.812500
70		-1.953125
71		-11.718750
72		-5.859375
73		-15.625000
74		-11.718750
75		-19.531250
76		-13.671875
77		-23.437500
78		-17.578125
79		-27.343750
80		-23.437500
81		-31.250000
82		-25.390625
83		-37.109375
84		-31.250000
85		-39.062500
86		-33.203125
87		-42.968750
88		-37.109375
89		-44.921875
90		-41.015625
91		-48.828125
92		-44.921875
93		-52.734375
94		-46.875000
95		-54.687500
96		-50.781250
97		-58.593750
98		-52.734375
99		-60.546875
100		-56.640625
101		-62.500000
102		-58.593750
103		-66.406250
104		-60.546875
105		-68.359375
106		-64.453125
107		-70.312500
108		-66.406250
109		-72.265625
110		-68.359375
111		-74.218750
112		-68.359375
113		-74.218750
114		-70.312500
115		-76.171875
116		-72.265625
117		-76.171875
118		-72.265625
119		-76.171875
120		-74.218750
121		-78.125000
122		-74.218750
123		-78.125000
124		-74.218750
125		-78.125000
126		-74.218750
127		-78.125000
128		-74.218750
129		-78.125000
130		-74.218750
131		-76.171875
132		-74.218750
133		-76.171875
134		-72.265625
135		-76.171875
136		-72.265625
137		-74.218750
138		-70.312500
139		-74.218750
140		-70.312500
141		-72.265625
142		-68.359375
143		-70.312500
144		-66.406250
145		-68.359375
146		-62.500000
147		-66.406250
148		-62.500000
149		-64.453125
150		-60.546875
151		-62.500000
152		-56.640625
153		-58.593750
154		-54.687500
155		-56.640625
156		-50.781250
157		-52.734375
158		-48.828125
159		-50.781250
160		-44.921875
161		-46.875000
162		-41.015625
163		-42.968750
164		-37.109375
165		-39.062500
166		-35.156250
167		-35.156250
168		-31.250000
169		-33.203125
170		-27.343750
171		-29.296875
172		-23.437500
173		-25.390625
174		-19.531250
175		-21.484375
176		-13.671875
177		-17.578125
178		-11.718750
179		-13.671875
180		-7.812500
181		-7.812500
182		-3.906250
183		-3.906250
184		0.000000
185		0.000000
186		3.906250
187		3.906250
188		9.765625
189		7.812500
190		13.671875
191		9.765625
192		17.578125
193		15.625000
194		21.484375
195		19.531250
196		25.390625
197		23.437500
198		29.296875
199		27.343750
200		33.203125
201		31.250000
202		37.109375
203		35.156250
204		41.015625
205		39.062500
206		42.968750
207		41.015625
208		46.875000
209		44.921875
210		50.781250
211		48.828125
212		52.734375
213		52.734375
214		56.640625
215		54.687500
216		58.593750
217		58.593750
218		62.500000
219		60.546875
220		66.406250
221		64.453125
222		68.359375
223		66.406250
224		70.312500
225		68.359375
226		72.265625
227		70.312500
228		74.218750
229		72.265625
230		78.125000
231		74.218750
232		78.125000
233		76.171875
234		80.078125
235		78.125000
236		82.031250
237		80.078125
238		83.984375
239		80.078125
240		83.984375
241		82.031250
242		83.984375
243		82.031250
244		85.937500
245		83.984375
246		85.937500
247		82.031250
248		87.890625
249		83.984375
250		85.937500
251		83.984375
252		87.890625
253		83.984375
254		87.890625
255		83.984375
256		87.890625
257		83.984375
258		85.937500
259		82.031250
260		85.937500
261		82.031250
262		85.937500
263		80.078125
264		85.937500
265		80.078125
266		83.984375
267		80.078125
268		82.031250
269		78.125000
270		82.031250
271		76.171875
272		80.078125
273		74.218750
274		78.125000
275		72.265625
276		76.171875
277		70.312500
278		74.218750
279		68.359375
280		72.265625
281		64.453125
282		70.312500
283		62.500000
284		66.406250
285		60.546875
286		64.453125
287		56.640625
288		62.500000
289		54.687500
290		58.593750
291		50.781250
292		56.640625
293		48.828125
294		52.734375
295		42.968750
296		50.781250
297		41.015625
298		46.875000
299		37.109375
300		42.968750
301		33.203125
302		39.062500
303		29.296875
304		35.156250
305		27.343750
306		31.250000
307		23.437500
308		27.343750
309		19.531250
310		23.437500
311		13.671875
312		19.531250
313		9.765625
314		15.625000
315		5.859375
316		11.718750
317		1.953125
318		7.812500
319		-1.953125
320		3.906250
321		-5.859375
322		0.000000
323		-9.765625
324		-3.906250
325		-13.671875
326		-7.812500
327		-17.578125
328		-11.718750
329		-21.484375
330		-15.625000
331		-25.390625
332		-19.531250
333		-29.296875
334		-23.437500
335		-33.203125
336		-27.343750
337		-37.109375
338		-31.250000
339		-41.015625
340		-35.156250
341		-44.921875
342		-39.062500
343		-46.875000
344		-42.968750
345		-50.781250
346		-44.921875
347		-52.734375
348		-48.828125
349		-56.640625
350		-52.734375
351		-58.593750
352		-54.687500
353		-62.500000
354		-56.640625
355		-64.453125
356		-58.593750
357		-66.406250
358		-62.500000
359		-68.359375
360		-64.453125
361		-70.312500
362		-66.406250
363		-72.265625
364		-68.359375
365		-74.218750
366		-68.359375
367		-74.218750
368		-72.265625
369		-76.171875
370		-72.265625
371		-78.125000
372		-74.218750
373		-78.125000
374		-74.218750
375		-78.125000
376		-74.218750
377		-78.125000
378		-76.171875
379		-78.125000
380		-74.218750
381		-78.125000
382		-74.218750
383		-78.125000
384		-76.171875
385		-78.125000
386		-74.218750
387		-76.171875
388		-72.265625
389		-76.171875
390		-72.265625
391		-74.218750
392		-70.312500
393		-72.265625
394		-70.312500
395		-72.265625
396		-66.406250
397		-70.312500
398		-64.453125
399		-66.406250
400		-64.453125
401		-64.453125
402		-60.546875
403		-62.500000
404		-58.593750
405		-60.546875
406		-56.640625
407		-58.593750
408		-52.734375
409		-54.687500
410		-50.781250
411		-52.734375
412		-46.875000
413		-48.828125
414		-42.968750
415		-44.921875
416		-41.015625
417		-42.968750
418		-37.109375
419		-39.062500
420		-33.203125
421		-35.156250
422		-29.296875
423		-31.250000
424		-25.390625
425		-27.343750
426		-21.484375
427		-23.437500
428		-17.578125
429		-19.531250
430		-13.671875
431		-15.625000
432		-9.765625
433		-11.718750
434		-5.859375
435		-7.812500
436		-1.953125
437		-3.906250
438		1.953125
439		0.000000
440		7.812500
441		5.859375
442		9.765625
443		9.765625
444		13.671875
445		11.718750
446		17.578125
447		17.578125
448		23.437500
449		19.531250
450		27.343750
451		25.390625
452		29.296875
453		29.296875
454		35.156250
455		33.203125
456		37.109375
457		35.156250
458		41.015625
459		39.062500
460		44.921875
461		42.968750
462		48.828125
463		46.875000
464		52.734375
465		50.781250
466		54.687500
467		52.734375
468		56.640625
469		56.640625
470		62.500000
471		58.593750
472		62.500000
473		60.546875
474		66.406250
475		64.453125
476		68.359375
477		66.406250
478		72.265625
479		68.359375
480		74.218750
481		72.265625
482		76.171875
483		74.218750
484		76.171875
485		76.171875
486		78.125000
487		76.171875
488		80.078125
489		78.125000
490		82.031250
491		80.078125
492		83.984375
493		82.031250
494		83.984375
495		82.031250
496		85.937500
497		83.984375
498		85.937500
499		83.984375
500		87.890625
501		83.984375
502		85.937500
503		83.984375
504		87.890625
505		83.984375
506		87.890625
507		83.984375
508		87.890625
509		83.984375
510		87.890625
511		83.984375
512		85.937500
513		83.984375
514		85.937500
515		82.031250
516		85.937500
517		82.031250
518		83.984375
519		80.078125
520		83.984375
521		78.125000
522		83.984375
523		78.125000
524		80.078125
525		76.171875
526		80.078125
527		74.218750
528		78.125000
529		72.265625
530		76.171875
531		68.359375
532		74.218750
533		68.359375
534		72.265625
535		64.453125
536		68.359375
537		62.500000
538		66.406250
539		58.593750
540		64.453125
541		56.640625
542		60.546875
543		52.734375
544		58.593750
545		50.781250
546		54.687500
547		46.875000
548		52.734375
549		42.968750
550		48.828125
551		39.062500
552		44.921875
553		37.109375
554		41.015625
555		33.203125
556		39.062500
557		29.296875
558		35.156250
559		25.390625
560		31.250000
561		21.484375
562		27.343750
563		15.625000
564		23.437500
565		11.718750
566		19.531250
567		9.765625
568		13.671875
569		5.859375
570		9.765625
571		0.000000
572		7.812500
573		-3.906250
574		1.953125
575		-7.812500
576		-1.953125
577		-11.718750
578		-5.859375
579		-15.625000
580		-9.765625
581		-19.531250
582		-13.671875
583		-23.437500
584		-17.578125
585		-27.343750
586		-21.484375
587		-31.250000
588		-25.390625
589		-35.156250
590		-29.296875
591		-39.062500
592		-33.203125
593		-41.015625
594		-37.109375
595		-46.875000
596		-41.015625
597		-48.828125
598		-42.968750
599		-52.734375
600		-46.875000
601		-54.687500
602		-50.781250
603		-58.593750
604		-52.734375
605		-60.546875
606		-54.687500
607		-62.500000
608		-58.593750
609		-66.406250
610		-60.546875
611		-68.359375
612		-64.453125
613		-70.312500
614		-64.453125
615		-72.265625
616		-66.406250
617		-72.265625
618		-68.359375
619		-74.218750
620		-70.312500
621		-76.171875
622		-72.265625
623		-76.171875
624		-74.218750
625		-78.125000
626		-74.218750
627		-78.125000
628		-74.218750
629		-78.125000
630		-74.218750
631		-78.125000
632		-76.171875
633		-78.125000
634		-76.171875
635		-78.125000
636		-76.171875
637		-78.125000
638		-74.218750
639		-78.125000
640		-74.218750
641		-76.171875
642		-72.265625
643		-74.218750
644		-72.265625
645		-74.218750
646		-70.312500
647		-72.265625
648		-68.359375
649		-70.312500
650		-66.406250
651		-70.312500
652		-64.453125
653		-66.406250
654		-62.500000
655		-64.453125
656		-60.546875
657		-62.500000
658		-56.640625
659		-60.546875
660		-54.687500
661		-56.640625
662		-52.734375
663		-54.687500
664		-48.828125
665		-50.781250
666		-46.875000
667		-48.828125
668		-42.968750
669		-44.921875
670		-41.015625
671		-41.015625
672		-35.156250
673		-39.062500
674		-31.250000
675		-33.203125
676		-29.296875
677		-31.250000
678		-25.390625
679		-27.343750
680		-21.484375
681		-23.437500
682		-17.578125
683		-17.578125
684		-11.718750
685		-15.625000
686		-9.765625
687		-9.765625
688		-5.859375
689		-5.859375
690		0.000000
691		-1.953125
692		3.906250
693		1.953125
694		7.812500
695		5.859375
696		11.718750
697		9.765625
698		15.625000
699		13.671875
700		19.531250
701		17.578125
702		23.437500
703		21.484375
704		27.343750
705		25.390625
706		31.250000
707		29.296875
708		35.156250
709		33.203125
710		39.062500
711		37.109375
712		42.968750
713		41.015625
714		44.921875
715		42.968750
716		50.781250
717		46.875000
718		52.734375
719		50.781250
720		54.687500
721		52.734375
722		58.593750
723		56.640625
724		60.546875
725		60.546875
726		64.453125
727		62.500000
728		66.406250
729		64.453125
730		68.359375
731		66.406250
732		72.265625
733		70.312500
734		74.218750
735		70.312500
736		76.171875
737		74.218750
738		78.125000
739		76.171875
740		80.078125
741		76.171875
742		80.078125
743		78.125000
744		82.031250
745		80.078125
746		83.984375
747		82.031250
748		83.984375
749		82.031250
750		85.937500
751		82.031250
752		85.937500
753		83.984375
754		85.937500
755		83.984375
756		87.890625
757		83.984375
758		87.890625
759		83.984375
760		87.890625
761		83.984375
762		87.890625
763		83.984375
764		87.890625
765		83.984375
766		85.937500
767		82.031250
768		85.937500
769		82.031250
770		83.984375
771		82.031250
772		83.984375
773		80.078125
774		83.984375
775		78.125000
776		82.031250
777		76.171875
778		80.078125
779		74.218750
780		78.125000
781		72.265625
782		78.125000
783		72.265625
784		74.218750
785		68.359375
786		74.218750
787		66.406250
788		70.312500
789		62.500000
790		68.359375
791		60.546875
792		64.453125
793		58.593750
794		64.453125
795		54.687500
796		60.546875
797		52.734375
798		58.593750
799		48.828125
800		54.687500
801		44.921875
802		50.781250
803		42.968750
804		46.875000
805		39.062500
806		44.921875
807		35.156250
808		41.015625
809		31.250000
810		37.109375
811		27.343750
812		33.203125
813		23.437500
814		29.296875
815		19.531250
816		25.390625
817		15.625000
818		21.484375
819		11.718750
820		19.531250
821		7.812500
822		13.671875
823		3.906250
824		9.765625
825		0.000000
826		5.859375
827		-3.906250
828		1.953125
829		-7.812500
830		-1.953125
831		-11.718750
832		-7.812500
833		-17.578125
834		-9.765625
835		-19.531250
836		-15.625000
837		-23.437500
838		-19.531250
839		-29.296875
840		-23.437500
841		-33.203125
842		-27.343750
843		-35.156250
844		-31.250000
845		-39.062500
846		-33.203125
847		-42.968750
848		-37.109375
849		-46.875000
850		-41.015625
851		-48.828125
852		-44.921875
853		-52.734375
854		-48.828125
855		-54.687500
856		-50.781250
857		-58.593750
858		-52.734375
859		-60.546875
860		-56.640625
861		-62.500000
862		-58.593750
863		-66.406250
864		-62.500000
865		-68.359375
866		-64.453125
867		-70.312500
868		-66.406250
869		-72.265625
870		-68.359375
871		-72.265625
872		-68.359375
873		-74.218750
874		-70.312500
875		-76.171875
876		-72.265625
877		-76.171875
878		-74.218750
879		-76.171875
880		-74.218750
881		-78.125000
882		-74.218750
883		-78.125000
884		-74.218750
885		-78.125000
886		-74.218750
887		-78.125000
888		-76.171875
889		-76.171875
890		-74.218750
891		-78.125000
892		-74.218750
893		-76.171875
894		-72.265625
895		-76.171875
896		-72.265625
897		-74.218750
898		-70.312500
899		-72.265625
900		-70.312500
901		-72.265625
902		-68.359375
903		-70.312500
904		-66.406250
905		-68.359375
906		-64.453125
907		-66.406250
908		-60.546875
909		-62.500000
910		-58.593750
911		-60.546875
912		-56.640625
913		-58.593750
914		-52.734375
915		-54.687500
916		-50.781250
917		-52.734375
918		-46.875000
919		-48.828125
920		-44.921875
921		-46.875000
922		-41.015625
923		-42.968750
924		-37.109375
925		-39.062500
926		-33.203125
927		-35.156250
928		-31.250000
929		-31.250000
930		-27.343750
931		-27.343750
932		-21.484375
933		-25.390625
934		-17.578125
935		-19.531250
936		-13.671875
937		-15.625000
938		-9.765625
939		-11.718750
940		-5.859375
941		-7.812500
942		-1.953125
943		-3.906250
944		1.953125
945		0.000000
946		5.859375
947		3.906250
948		9.765625
949		7.812500
950		13.671875
951		11.718750
952		17.578125
953		15.625000
954		21.484375
955		19.531250
956		25.390625
957		23.437500
958		29.296875
959		27.343750
960		33.203125
961		31.250000
962		37.109375
963		35.156250
964		41.015625
965		39.062500
966		42.968750
967		42.968750
968		46.875000
969		44.921875
970		50.781250
971		48.828125
972		54.687500
973		52.734375
974		56.640625
975		54.687500
976		60.546875
977		58.593750
978		62.500000
979		60.546875
980		66.406250
981		64.453125
982		68.359375
983		66.406250
984		70.312500
985		68.359375
986		72.265625
987		70.312500
988		74.218750
989		72.265625
990		76.171875
991		74.218750
992		80.078125
993		76.171875
994		82.031250
995		76.171875
996		83.984375
997		80.078125
998		83.984375
999		80.078125
1000		85.937500
1001		82.031250
1002		85.937500
1003		82.031250
1004		85.937500
1005		83.984375
1006		85.937500
1007		83.984375
1008		87.890625
1009		82.031250
1010		89.843750
1011		82.031250
1012		89.843750
1013		83.984375
1014		87.890625
1015		83.984375
1016		87.890625
1017		83.984375
1018		87.890625
1019		82.031250
1020		87.890625
1021		83.984375
1022		85.937500
1023		82.031250
1024		83.984375
1025		78.125000
1026		85.937500
1027		78.125000
1028		83.984375
1029		76.171875
1030		83.984375
1031		76.171875
1032		80.078125
1033		74.218750
1034		78.125000
1035		70.312500
1036		78.125000
1037		70.312500
1038		74.218750
1039		68.359375
1040		72.265625
1041		64.453125
1042		70.312500
1043		60.546875
1044		70.312500
1045		58.593750
1046		66.406250
1047		56.640625
1048		64.453125
1049		52.734375
1050		58.593750
1051		48.828125
1052		56.640625
1053		46.875000
1054		54.687500
1055		44.921875
1056		48.828125
1057		41.015625
1058		46.875000
1059		35.156250
1060		44.921875
1061		31.250000
1062		41.015625
1063		29.296875
1064		39.062500
1065		25.390625
1066		33.203125
1067		19.531250
1068		29.296875
1069		15.625000
1070		27.343750
1071		15.625000
1072		19.531250
1073		9.765625
1074		15.625000
1075		3.906250
1076		11.718750
1077		0.000000
1078		9.765625
1079		-3.906250
1080		5.859375
1081		-7.812500
1082		1.953125
1083		-11.718750
1084		-1.953125
1085		-17.578125
1086		-7.812500
1087		-17.578125
1088		-11.718750
1089		-21.484375
1090		-17.578125
1091		-27.343750
1092		-19.531250
1093		-31.250000
1094		-21.484375
1095		-35.156250
1096		-25.390625
1097		-39.062500
1098		-29.296875
1099		-41.015625
1100		-33.203125
1101		-46.875000
1102		-37.109375
1103		-50.781250
1104		-41.015625
1105		-50.781250
1106		-44.921875
1107		-52.734375
1108		-48.828125
1109		-58.593750
1110		-50.781250
1111		-60.546875
1112		-52.734375
1113		-64.453125
1114		-54.687500
1115		-66.406250
1116		-58.593750
1117		-68.359375
1118		-60.546875
1119		-70.312500
1120		-62.500000
1121		-70.312500
1122		-64.453125
1123		-72.265625
1124		-68.359375
1125		-74.218750
1126		-70.312500
1127		-76.171875
1128		-70.312500
1129		-78.125000
1130		-70.312500
1131		-78.125000
1132		-72.265625
1133		-80.078125
1134		-72.265625
1135		-80.078125
1136		-72.265625
1137		-80.078125
1138		-72.265625
1139		-78.125000
1140		-76.171875
1141		-78.125000
1142		-74.218750
1143		-80.078125
1144		-72.265625
1145		-78.125000
1146		-72.265625
1147		-78.125000
1148		-70.312500
1149		-78.125000
1150		-70.312500
1151		-76.171875
1152		-68.359375
1153		-74.218750
1154		-66.406250
1155		-74.218750
1156		-66.406250
1157		-70.312500
1158		-66.406250
1159		-68.359375
1160		-62.500000
1161		-68.359375
1162		-58.593750
1163		-64.453125
1164		-56.640625
1165		-62.500000
1166		-54.687500
1167		-58.593750
1168		-50.781250
1169		-56.640625
1170		-48.828125
1171		-54.687500
1172		-46.875000
1173		-48.828125
1174		-42.968750
1175		-44.921875
1176		-41.015625
1177		-42.968750
1178		-35.156250
1179		-41.015625
1180		-31.250000
1181		-37.109375
1182		-27.343750
1183		-35.156250
1184		-23.437500
1185		-29.296875
1186		-19.531250
1187		-27.343750
1188		-15.625000
1189		-19.531250
1190		-13.671875
1191		-15.625000
1192		-9.765625
1193		-11.718750
1194		-3.906250
1195		-9.765625
1196		0.000000
1197		-5.859375
1198		3.906250
1199		0.000000
1200		7.812500
1201		3.906250
1202		11.718750
1203		5.859375
1204		15.625000
1205		9.765625
1206		19.531250
1207		17.578125
1208		21.484375
1209		21.484375
1210		29.296875
1211		23.437500
1212		33.203125
1213		25.390625
1214		37.109375
1215		29.296875
1216		41.015625
1217		35.156250
1218		42.968750
1219		37.109375
1220		46.875000
1221		41.015625
1222		48.828125
1223		46.875000
1224		52.734375
1225		50.781250
1226		54.687500
1227		50.781250
1228		60.546875
1229		54.687500
1230		62.500000
1231		56.640625
1232		66.406250
1233		60.546875
1234		68.359375
1235		62.500000
1236		70.312500
1237		64.453125
1238		74.218750
1239		66.406250
1240		74.218750
1241		72.265625
1242		76.171875
1243		72.265625
1244		80.078125
1245		74.218750
1246		82.031250
1247		74.218750
1248		82.031250
1249		76.171875
1250		83.984375
1251		78.125000
1252		85.937500
1253		80.078125
1254		85.937500
1255		80.078125
1256		85.937500
1257		83.984375
1258		85.937500
1259		83.984375
1260		85.937500
1261		82.031250
1262		89.843750
1263		82.031250
1264		89.843750
1265		83.984375
1266		89.843750
1267		82.031250
1268		89.843750
1269		82.031250
1270		89.843750
1271		82.031250
1272		87.890625
1273		83.984375
1274		85.937500
