metingen laweit/2000Hz, 35.0cm/data_81_147.txt

Channel              :		CH1
Frequency            :		1.973kHz
Period               :		0.507ms
PK-PK                :		169.9mV
Probe attenuation    :		1X
Voltage per ADC value:		0.122070mV
Time interval        :		2.00000us

index		CH1_Voltage(mV)
1		85.937500
2		85.937500
3		82.031250
4		85.937500
5		82.031250
6		83.984375
7		80.078125
8		85.937500
9		80.078125
10		83.984375
11		80.078125
12		83.984375
13		78.125000
14		82.031250
15		76.171875
16		80.078125
17		76.171875
18		80.078125
19		74.218750
20		78.125000
21		72.265625
22		76.171875
23		70.312500
24		74.218750
25		68.359375
26		72.265625
27		64.453125
28		70.312500
29		62.500000
30		66.406250
31		60.546875
32		64.453125
33		56.640625
34		62.500000
35		52.734375
36		58.593750
37		50.781250
38		56.640625
39		48.828125
40		52.734375
41		44.921875
42		50.781250
43		41.015625
44		46.875000
45		37.109375
46		42.968750
47		35.156250
48		41.015625
49		31.250000
50		37.109375
51		27.343750
52		33.203125
53		23.437500
54		29.296875
55		19.531250
56		25.390625
57		15.625000
58		21.484375
59		11.718750
60		17.578125
61		7.812500
62		13.671875
63		3.906250
64		9.765625
65		0.000000
66		5.859375
67		-3.906250
68		1.953125
69		-7.812500
70		-1.953125
71		-11.718750
72		-5.859375
73		-15.625000
74		-9.765625
75		-19.531250
76		-13.671875
77		-23.437500
78		-17.578125
79		-27.343750
80		-19.531250
81		-31.250000
82		-25.390625
83		-33.203125
84		-29.296875
85		-39.062500
86		-31.250000
87		-41.015625
88		-35.156250
89		-42.968750
90		-39.062500
91		-46.875000
92		-42.968750
93		-50.781250
94		-44.921875
95		-52.734375
96		-46.875000
97		-56.640625
98		-50.781250
99		-58.593750
100		-52.734375
101		-60.546875
102		-54.687500
103		-62.500000
104		-58.593750
105		-64.453125
106		-60.546875
107		-66.406250
108		-62.500000
109		-68.359375
110		-64.453125
111		-70.312500
112		-66.406250
113		-70.312500
114		-68.359375
115		-72.265625
116		-68.359375
117		-74.218750
118		-70.312500
119		-74.218750
120		-70.312500
121		-74.218750
122		-72.265625
123		-74.218750
124		-72.265625
125		-76.171875
126		-72.265625
127		-74.218750
128		-72.265625
129		-74.218750
130		-70.312500
131		-74.218750
132		-70.312500
133		-74.218750
134		-70.312500
135		-72.265625
136		-68.359375
137		-72.265625
138		-68.359375
139		-70.312500
140		-66.406250
141		-68.359375
142		-64.453125
143		-68.359375
144		-62.500000
145		-64.453125
146		-60.546875
147		-64.453125
148		-58.593750
149		-60.546875
150		-56.640625
151		-58.593750
152		-54.687500
153		-56.640625
154		-50.781250
155		-52.734375
156		-48.828125
157		-50.781250
158		-46.875000
159		-46.875000
160		-42.968750
161		-44.921875
162		-39.062500
163		-41.015625
164		-37.109375
165		-37.109375
166		-33.203125
167		-35.156250
168		-29.296875
169		-31.250000
170		-25.390625
171		-27.343750
172		-21.484375
173		-23.437500
174		-17.578125
175		-19.531250
176		-13.671875
177		-15.625000
178		-9.765625
179		-13.671875
180		-5.859375
181		-7.812500
182		-1.953125
183		-3.906250
184		1.953125
185		0.000000
186		5.859375
187		3.906250
188		9.765625
189		7.812500
190		13.671875
191		11.718750
192		17.578125
193		13.671875
194		21.484375
195		19.531250
196		25.390625
197		23.437500
198		27.343750
199		27.343750
200		33.203125
201		29.296875
202		37.109375
203		33.203125
204		41.015625
205		37.109375
206		42.968750
207		41.015625
208		46.875000
209		44.921875
210		48.828125
211		46.875000
212		52.734375
213		50.781250
214		54.687500
215		52.734375
216		58.593750
217		56.640625
218		62.500000
219		58.593750
220		64.453125
221		62.500000
222		66.406250
223		64.453125
224		68.359375
225		66.406250
226		72.265625
227		68.359375
228		74.218750
229		70.312500
230		74.218750
231		72.265625
232		76.171875
233		74.218750
234		80.078125
235		76.171875
236		80.078125
237		76.171875
238		82.031250
239		78.125000
240		82.031250
241		80.078125
242		82.031250
243		80.078125
244		83.984375
245		82.031250
246		83.984375
247		82.031250
248		85.937500
249		82.031250
250		85.937500
251		82.031250
252		85.937500
253		82.031250
254		85.937500
255		82.031250
256		85.937500
257		82.031250
258		85.937500
259		80.078125
260		83.984375
261		80.078125
262		83.984375
263		80.078125
264		83.984375
265		80.078125
266		82.031250
267		78.125000
268		82.031250
269		76.171875
270		80.078125
271		74.218750
272		78.125000
273		72.265625
274		76.171875
275		72.265625
276		74.218750
277		68.359375
278		74.218750
279		66.406250
280		72.265625
281		64.453125
282		68.359375
283		62.500000
284		66.406250
285		58.593750
286		64.453125
287		56.640625
288		60.546875
289		52.734375
290		58.593750
291		50.781250
292		54.687500
293		46.875000
294		52.734375
295		44.921875
296		48.828125
297		41.015625
298		44.921875
299		37.109375
300		42.968750
301		33.203125
302		39.062500
303		29.296875
304		35.156250
305		25.390625
306		31.250000
307		23.437500
308		27.343750
309		17.578125
310		23.437500
311		13.671875
312		19.531250
313		9.765625
314		15.625000
315		5.859375
316		13.671875
317		3.906250
318		7.812500
319		-1.953125
320		3.906250
321		-5.859375
322		0.000000
323		-7.812500
324		-3.906250
325		-13.671875
326		-7.812500
327		-17.578125
328		-11.718750
329		-21.484375
330		-15.625000
331		-25.390625
332		-19.531250
333		-27.343750
334		-23.437500
335		-31.250000
336		-25.390625
337		-35.156250
338		-29.296875
339		-39.062500
340		-33.203125
341		-41.015625
342		-37.109375
343		-46.875000
344		-41.015625
345		-48.828125
346		-42.968750
347		-50.781250
348		-46.875000
349		-54.687500
350		-50.781250
351		-56.640625
352		-50.781250
353		-60.546875
354		-54.687500
355		-62.500000
356		-56.640625
357		-64.453125
358		-60.546875
359		-66.406250
360		-62.500000
361		-68.359375
362		-62.500000
363		-70.312500
364		-66.406250
365		-70.312500
366		-66.406250
367		-72.265625
368		-68.359375
369		-72.265625
370		-70.312500
371		-74.218750
372		-70.312500
373		-76.171875
374		-70.312500
375		-74.218750
376		-72.265625
377		-74.218750
378		-72.265625
379		-76.171875
380		-72.265625
381		-76.171875
382		-72.265625
383		-76.171875
384		-72.265625
385		-74.218750
386		-72.265625
387		-74.218750
388		-70.312500
389		-72.265625
390		-70.312500
391		-72.265625
392		-68.359375
393		-70.312500
394		-66.406250
395		-68.359375
396		-64.453125
397		-66.406250
398		-64.453125
399		-66.406250
400		-62.500000
401		-62.500000
402		-58.593750
403		-60.546875
404		-56.640625
405		-58.593750
406		-54.687500
407		-56.640625
408		-52.734375
409		-52.734375
410		-48.828125
411		-50.781250
412		-44.921875
413		-48.828125
414		-42.968750
415		-44.921875
416		-39.062500
417		-41.015625
418		-35.156250
419		-37.109375
420		-33.203125
421		-33.203125
422		-29.296875
423		-31.250000
424		-25.390625
425		-27.343750
426		-21.484375
427		-23.437500
428		-17.578125
429		-19.531250
430		-13.671875
431		-15.625000
432		-9.765625
433		-11.718750
434		-5.859375
435		-9.765625
436		-1.953125
437		-3.906250
438		1.953125
439		0.000000
440		5.859375
441		3.906250
442		9.765625
443		7.812500
444		13.671875
445		11.718750
446		17.578125
447		15.625000
448		21.484375
449		19.531250
450		25.390625
451		23.437500
452		29.296875
453		27.343750
454		33.203125
455		31.250000
456		37.109375
457		33.203125
458		39.062500
459		39.062500
460		42.968750
461		41.015625
462		46.875000
463		44.921875
464		50.781250
465		48.828125
466		52.734375
467		50.781250
468		56.640625
469		54.687500
470		58.593750
471		56.640625
472		62.500000
473		60.546875
474		64.453125
475		62.500000
476		66.406250
477		64.453125
478		70.312500
479		66.406250
480		72.265625
481		68.359375
482		74.218750
483		70.312500
484		74.218750
485		72.265625
486		76.171875
487		74.218750
488		78.125000
489		76.171875
490		80.078125
491		78.125000
492		80.078125
493		80.078125
494		82.031250
495		80.078125
496		83.984375
497		82.031250
498		83.984375
499		80.078125
500		83.984375
501		82.031250
502		83.984375
503		82.031250
504		85.937500
505		82.031250
506		85.937500
507		82.031250
508		85.937500
509		82.031250
510		83.984375
511		80.078125
512		85.937500
513		80.078125
514		83.984375
515		80.078125
516		83.984375
517		80.078125
518		82.031250
519		78.125000
520		82.031250
521		76.171875
522		80.078125
523		76.171875
524		80.078125
525		74.218750
526		78.125000
527		72.265625
528		76.171875
529		70.312500
530		74.218750
531		68.359375
532		72.265625
533		66.406250
534		70.312500
535		62.500000
536		66.406250
537		60.546875
538		64.453125
539		58.593750
540		62.500000
541		54.687500
542		60.546875
543		52.734375
544		56.640625
545		48.828125
546		54.687500
547		44.921875
548		50.781250
549		42.968750
550		48.828125
551		39.062500
552		44.921875
553		35.156250
554		41.015625
555		31.250000
556		37.109375
557		27.343750
558		33.203125
559		25.390625
560		29.296875
561		19.531250
562		27.343750
563		15.625000
564		21.484375
565		13.671875
566		19.531250
567		9.765625
568		15.625000
569		5.859375
570		11.718750
571		0.000000
572		7.812500
573		-3.906250
574		3.906250
575		-5.859375
576		0.000000
577		-9.765625
578		-3.906250
579		-13.671875
580		-9.765625
581		-17.578125
582		-11.718750
583		-21.484375
584		-15.625000
585		-25.390625
586		-19.531250
587		-29.296875
588		-23.437500
589		-33.203125
590		-27.343750
591		-37.109375
592		-31.250000
593		-39.062500
594		-35.156250
595		-42.968750
596		-39.062500
597		-46.875000
598		-41.015625
599		-50.781250
600		-44.921875
601		-52.734375
602		-46.875000
603		-54.687500
604		-50.781250
605		-56.640625
606		-52.734375
607		-60.546875
608		-54.687500
609		-62.500000
610		-58.593750
611		-64.453125
612		-60.546875
613		-66.406250
614		-62.500000
615		-68.359375
616		-64.453125
617		-70.312500
618		-66.406250
619		-72.265625
620		-66.406250
621		-72.265625
622		-68.359375
623		-74.218750
624		-70.312500
625		-74.218750
626		-70.312500
627		-74.218750
628		-72.265625
629		-76.171875
630		-70.312500
631		-76.171875
632		-72.265625
633		-76.171875
634		-72.265625
635		-74.218750
636		-72.265625
637		-74.218750
638		-72.265625
639		-74.218750
640		-70.312500
641		-74.218750
642		-70.312500
643		-72.265625
644		-68.359375
645		-70.312500
646		-66.406250
647		-70.312500
648		-66.406250
649		-68.359375
650		-64.453125
651		-66.406250
652		-62.500000
653		-64.453125
654		-60.546875
655		-62.500000
656		-56.640625
657		-58.593750
658		-54.687500
659		-56.640625
660		-52.734375
661		-54.687500
662		-50.781250
663		-52.734375
664		-46.875000
665		-48.828125
666		-44.921875
667		-44.921875
668		-41.015625
669		-42.968750
670		-37.109375
671		-39.062500
672		-35.156250
673		-37.109375
674		-31.250000
675		-31.250000
676		-27.343750
677		-29.296875
678		-23.437500
679		-25.390625
680		-19.531250
681		-21.484375
682		-15.625000
683		-17.578125
684		-11.718750
685		-13.671875
686		-7.812500
687		-9.765625
688		-3.906250
689		-5.859375
690		0.000000
691		-1.953125
692		3.906250
693		1.953125
694		7.812500
695		5.859375
696		11.718750
697		9.765625
698		15.625000
699		13.671875
700		19.531250
701		17.578125
702		23.437500
703		21.484375
704		27.343750
705		25.390625
706		31.250000
707		29.296875
708		35.156250
709		31.250000
710		37.109375
711		37.109375
712		41.015625
713		39.062500
714		44.921875
715		42.968750
716		48.828125
717		46.875000
718		50.781250
719		50.781250
720		54.687500
721		52.734375
722		56.640625
723		54.687500
724		60.546875
725		58.593750
726		62.500000
727		60.546875
728		64.453125
729		64.453125
730		68.359375
731		64.453125
732		70.312500
733		68.359375
734		72.265625
735		70.312500
736		74.218750
737		72.265625
738		76.171875
739		74.218750
740		78.125000
741		76.171875
742		80.078125
743		78.125000
744		80.078125
745		80.078125
746		82.031250
747		80.078125
748		83.984375
749		80.078125
750		83.984375
751		82.031250
752		83.984375
753		82.031250
754		85.937500
755		82.031250
756		85.937500
757		82.031250
758		85.937500
759		83.984375
760		85.937500
761		83.984375
762		85.937500
763		82.031250
764		85.937500
765		82.031250
766		85.937500
767		82.031250
768		85.937500
769		80.078125
770		83.984375
771		80.078125
772		83.984375
773		78.125000
774		82.031250
775		76.171875
776		80.078125
777		76.171875
778		78.125000
779		74.218750
780		78.125000
781		72.265625
782		76.171875
783		70.312500
784		74.218750
785		68.359375
786		72.265625
787		66.406250
788		70.312500
789		64.453125
790		66.406250
791		60.546875
792		64.453125
793		58.593750
794		62.500000
795		54.687500
796		58.593750
797		50.781250
798		56.640625
799		48.828125
800		54.687500
801		44.921875
802		50.781250
803		42.968750
804		46.875000
805		39.062500
806		44.921875
807		33.203125
808		41.015625
809		31.250000
810		37.109375
811		27.343750
812		33.203125
813		23.437500
814		29.296875
815		19.531250
816		27.343750
817		17.578125
818		23.437500
819		13.671875
820		17.578125
821		7.812500
822		13.671875
823		3.906250
824		9.765625
825		0.000000
826		7.812500
827		-3.906250
828		3.906250
829		-7.812500
830		-1.953125
831		-11.718750
832		-5.859375
833		-15.625000
834		-9.765625
835		-17.578125
836		-13.671875
837		-23.437500
838		-17.578125
839		-27.343750
840		-21.484375
841		-31.250000
842		-23.437500
843		-33.203125
844		-27.343750
845		-37.109375
846		-31.250000
847		-41.015625
848		-35.156250
849		-44.921875
850		-39.062500
851		-46.875000
852		-42.968750
853		-48.828125
854		-44.921875
855		-52.734375
856		-48.828125
857		-56.640625
858		-50.781250
859		-58.593750
860		-52.734375
861		-60.546875
862		-56.640625
863		-62.500000
864		-58.593750
865		-66.406250
866		-60.546875
867		-68.359375
868		-62.500000
869		-68.359375
870		-64.453125
871		-70.312500
872		-66.406250
873		-72.265625
874		-68.359375
875		-72.265625
876		-68.359375
877		-74.218750
878		-70.312500
879		-74.218750
880		-72.265625
881		-76.171875
882		-72.265625
883		-76.171875
884		-72.265625
885		-76.171875
886		-72.265625
887		-76.171875
888		-72.265625
889		-74.218750
890		-72.265625
891		-74.218750
892		-70.312500
893		-74.218750
894		-70.312500
895		-72.265625
896		-70.312500
897		-72.265625
898		-68.359375
899		-72.265625
900		-66.406250
901		-70.312500
902		-66.406250
903		-68.359375
904		-64.453125
905		-66.406250
906		-62.500000
907		-64.453125
908		-60.546875
909		-62.500000
910		-56.640625
911		-60.546875
912		-54.687500
913		-56.640625
914		-52.734375
915		-54.687500
916		-48.828125
917		-52.734375
918		-46.875000
919		-48.828125
920		-42.968750
921		-44.921875
922		-41.015625
923		-41.015625
924		-37.109375
925		-39.062500
926		-33.203125
927		-35.156250
928		-31.250000
929		-31.250000
930		-27.343750
931		-27.343750
932		-21.484375
933		-23.437500
934		-17.578125
935		-21.484375
936		-15.625000
937		-17.578125
938		-11.718750
939		-11.718750
940		-7.812500
941		-9.765625
942		-3.906250
943		-3.906250
944		1.953125
945		-1.953125
946		3.906250
947		1.953125
948		7.812500
949		5.859375
950		13.671875
951		9.765625
952		17.578125
953		13.671875
954		19.531250
955		17.578125
956		23.437500
957		21.484375
958		27.343750
959		25.390625
960		31.250000
961		29.296875
962		35.156250
963		33.203125
964		39.062500
965		37.109375
966		42.968750
967		39.062500
968		46.875000
969		42.968750
970		48.828125
971		46.875000
972		50.781250
973		48.828125
974		54.687500
975		52.734375
976		58.593750
977		56.640625
978		60.546875
979		58.593750
980		62.500000
981		60.546875
982		66.406250
983		62.500000
984		70.312500
985		64.453125
986		72.265625
987		66.406250
988		74.218750
989		70.312500
990		76.171875
991		72.265625
992		78.125000
993		72.265625
994		80.078125
995		74.218750
996		80.078125
997		78.125000
998		80.078125
999		78.125000
1000		83.984375
1001		78.125000
1002		85.937500
1003		78.125000
1004		85.937500
1005		82.031250
1006		85.937500
1007		80.078125
1008		85.937500
1009		80.078125
1010		85.937500
1011		80.078125
1012		87.890625
1013		83.984375
1014		85.937500
1015		80.078125
1016		85.937500
1017		80.078125
1018		85.937500
1019		80.078125
1020		85.937500
1021		78.125000
1022		85.937500
1023		78.125000
1024		83.984375
1025		76.171875
1026		83.984375
1027		76.171875
1028		83.984375
1029		76.171875
1030		80.078125
1031		74.218750
1032		78.125000
1033		70.312500
1034		78.125000
1035		70.312500
1036		76.171875
1037		68.359375
1038		74.218750
1039		66.406250
1040		72.265625
1041		62.500000
1042		70.312500
1043		60.546875
1044		68.359375
1045		58.593750
1046		66.406250
1047		56.640625
1048		60.546875
1049		52.734375
1050		58.593750
1051		48.828125
1052		58.593750
1053		44.921875
1054		54.687500
1055		42.968750
1056		50.781250
1057		39.062500
1058		46.875000
1059		35.156250
1060		44.921875
1061		33.203125
1062		41.015625
1063		31.250000
1064		35.156250
1065		27.343750
1066		31.250000
1067		21.484375
1068		31.250000
1069		17.578125
1070		27.343750
1071		13.671875
1072		21.484375
1073		9.765625
1074		17.578125
1075		5.859375
1076		15.625000
1077		1.953125
1078		9.765625
1079		0.000000
1080		5.859375
1081		-3.906250
1082		1.953125
1083		-11.718750
1084		-1.953125
1085		-13.671875
1086		-5.859375
1087		-17.578125
1088		-7.812500
1089		-21.484375
1090		-11.718750
1091		-25.390625
1092		-17.578125
1093		-29.296875
1094		-19.531250
1095		-31.250000
1096		-23.437500
1097		-35.156250
1098		-29.296875
1099		-39.062500
1100		-33.203125
1101		-42.968750
1102		-33.203125
1103		-48.828125
1104		-37.109375
1105		-50.781250
1106		-41.015625
1107		-52.734375
1108		-44.921875
1109		-56.640625
1110		-46.875000
1111		-58.593750
1112		-48.828125
1113		-58.593750
1114		-54.687500
1115		-60.546875
1116		-56.640625
1117		-66.406250
1118		-58.593750
1119		-66.406250
1120		-58.593750
1121		-70.312500
1122		-60.546875
1123		-70.312500
1124		-62.500000
1125		-72.265625
1126		-64.453125
1127		-74.218750
1128		-66.406250
1129		-74.218750
1130		-66.406250
1131		-72.265625
1132		-70.312500
1133		-76.171875
1134		-70.312500
1135		-78.125000
1136		-68.359375
1137		-76.171875
1138		-70.312500
1139		-78.125000
1140		-70.312500
1141		-78.125000
1142		-70.312500
1143		-76.171875
1144		-70.312500
1145		-76.171875
1146		-68.359375
1147		-72.265625
1148		-70.312500
1149		-72.265625
1150		-68.359375
1151		-72.265625
1152		-66.406250
1153		-72.265625
1154		-64.453125
1155		-70.312500
1156		-62.500000
1157		-68.359375
1158		-60.546875
1159		-66.406250
1160		-58.593750
1161		-64.453125
1162		-56.640625
1163		-60.546875
1164		-56.640625
1165		-58.593750
1166		-54.687500
1167		-56.640625
1168		-48.828125
1169		-56.640625
1170		-46.875000
1171		-52.734375
1172		-42.968750
1173		-48.828125
1174		-39.062500
1175		-44.921875
1176		-37.109375
1177		-42.968750
1178		-33.203125
1179		-39.062500
1180		-31.250000
1181		-33.203125
1182		-29.296875
1183		-31.250000
1184		-23.437500
1185		-29.296875
1186		-19.531250
1187		-25.390625
1188		-15.625000
1189		-21.484375
1190		-11.718750
1191		-17.578125
1192		-7.812500
1193		-13.671875
1194		-3.906250
1195		-9.765625
1196		0.000000
1197		-3.906250
1198		1.953125
1199		0.000000
1200		5.859375
1201		3.906250
1202		11.718750
1203		5.859375
1204		15.625000
1205		9.765625
1206		19.531250
1207		13.671875
1208		23.437500
1209		17.578125
1210		27.343750
1211		21.484375
1212		31.250000
1213		25.390625
1214		33.203125
1215		31.250000
1216		37.109375
1217		35.156250
1218		41.015625
1219		37.109375
1220		44.921875
1221		39.062500
1222		48.828125
1223		42.968750
1224		52.734375
1225		46.875000
1226		54.687500
1227		48.828125
1228		58.593750
1229		52.734375
1230		60.546875
1231		56.640625
1232		62.500000
1233		60.546875
1234		64.453125
1235		60.546875
1236		68.359375
1237		62.500000
1238		70.312500
1239		64.453125
1240		72.265625
1241		68.359375
1242		74.218750
1243		68.359375
1244		76.171875
1245		72.265625
1246		78.125000
1247		74.218750
1248		78.125000
1249		76.171875
1250		80.078125
1251		76.171875
1252		83.984375
1253		76.171875
1254		83.984375
1255		78.125000
1256		85.937500
1257		78.125000
1258		85.937500
1259		80.078125
1260		87.890625
1261		80.078125
1262		87.890625
1263		80.078125
1264		87.890625
1265		83.984375
1266		85.937500
1267		83.984375
1268		85.937500
1269		80.078125
1270		87.890625
1271		80.078125
1272		87.890625
1273		80.078125
1274		85.937500
