metingen laweit/2000Hz, 35.0cm/data_81_162.txt

Channel              :		CH1
Frequency            :		1.987kHz
Period               :		0.503ms
PK-PK                :		207.0mV
Probe attenuation    :		1X
Voltage per ADC value:		0.122070mV
Time interval        :		2.00000us

index		CH1_Voltage(mV)
1		82.031250
2		82.031250
3		80.078125
4		83.984375
5		82.031250
6		87.890625
7		83.984375
8		87.890625
9		87.890625
10		89.843750
11		89.843750
12		91.796875
13		89.843750
14		93.750000
15		91.796875
16		95.703125
17		93.750000
18		97.656250
19		93.750000
20		97.656250
21		95.703125
22		99.609375
23		95.703125
24		99.609375
25		97.656250
26		99.609375
27		95.703125
28		99.609375
29		97.656250
30		99.609375
31		97.656250
32		99.609375
33		95.703125
34		99.609375
35		95.703125
36		99.609375
37		95.703125
38		97.656250
39		93.750000
40		97.656250
41		93.750000
42		95.703125
43		91.796875
44		93.750000
45		89.843750
46		93.750000
47		87.890625
48		91.796875
49		85.937500
50		89.843750
51		83.984375
52		87.890625
53		80.078125
54		85.937500
55		78.125000
56		83.984375
57		76.171875
58		82.031250
59		72.265625
60		78.125000
61		70.312500
62		74.218750
63		66.406250
64		70.312500
65		62.500000
66		68.359375
67		58.593750
68		64.453125
69		54.687500
70		60.546875
71		50.781250
72		56.640625
73		46.875000
74		52.734375
75		42.968750
76		48.828125
77		39.062500
78		44.921875
79		33.203125
80		41.015625
81		29.296875
82		37.109375
83		25.390625
84		31.250000
85		19.531250
86		27.343750
87		15.625000
88		21.484375
89		9.765625
90		17.578125
91		5.859375
92		13.671875
93		1.953125
94		7.812500
95		-3.906250
96		1.953125
97		-9.765625
98		-1.953125
99		-13.671875
100		-7.812500
101		-17.578125
102		-11.718750
103		-23.437500
104		-17.578125
105		-27.343750
106		-21.484375
107		-33.203125
108		-27.343750
109		-37.109375
110		-31.250000
111		-42.968750
112		-35.156250
113		-46.875000
114		-39.062500
115		-50.781250
116		-44.921875
117		-54.687500
118		-48.828125
119		-58.593750
120		-52.734375
121		-62.500000
122		-56.640625
123		-66.406250
124		-60.546875
125		-70.312500
126		-64.453125
127		-72.265625
128		-68.359375
129		-76.171875
130		-70.312500
131		-78.125000
132		-74.218750
133		-82.031250
134		-76.171875
135		-83.984375
136		-80.078125
137		-87.890625
138		-82.031250
139		-87.890625
140		-83.984375
141		-89.843750
142		-85.937500
143		-91.796875
144		-87.890625
145		-93.750000
146		-89.843750
147		-93.750000
148		-89.843750
149		-95.703125
150		-91.796875
151		-95.703125
152		-91.796875
153		-95.703125
154		-91.796875
155		-95.703125
156		-91.796875
157		-95.703125
158		-91.796875
159		-93.750000
160		-91.796875
161		-93.750000
162		-91.796875
163		-93.750000
164		-89.843750
165		-91.796875
166		-87.890625
167		-89.843750
168		-85.937500
169		-87.890625
170		-83.984375
171		-87.890625
172		-83.984375
173		-85.937500
174		-80.078125
175		-82.031250
176		-78.125000
177		-80.078125
178		-74.218750
179		-76.171875
180		-72.265625
181		-74.218750
182		-68.359375
183		-70.312500
184		-66.406250
185		-68.359375
186		-62.500000
187		-62.500000
188		-58.593750
189		-60.546875
190		-54.687500
191		-54.687500
192		-50.781250
193		-50.781250
194		-44.921875
195		-46.875000
196		-39.062500
197		-42.968750
198		-37.109375
199		-37.109375
200		-33.203125
201		-33.203125
202		-27.343750
203		-29.296875
204		-23.437500
205		-23.437500
206		-17.578125
207		-19.531250
208		-13.671875
209		-13.671875
210		-7.812500
211		-9.765625
212		-3.906250
213		-5.859375
214		1.953125
215		0.000000
216		5.859375
217		3.906250
218		11.718750
219		9.765625
220		15.625000
221		13.671875
222		21.484375
223		19.531250
224		25.390625
225		23.437500
226		29.296875
227		29.296875
228		35.156250
229		33.203125
230		39.062500
231		37.109375
232		42.968750
233		41.015625
234		46.875000
235		46.875000
236		50.781250
237		50.781250
238		56.640625
239		54.687500
240		58.593750
241		56.640625
242		62.500000
243		62.500000
244		66.406250
245		64.453125
246		70.312500
247		68.359375
248		72.265625
249		72.265625
250		76.171875
251		74.218750
252		80.078125
253		78.125000
254		82.031250
255		80.078125
256		83.984375
257		82.031250
258		87.890625
259		83.984375
260		87.890625
261		87.890625
262		91.796875
263		87.890625
264		93.750000
265		89.843750
266		95.703125
267		91.796875
268		95.703125
269		93.750000
270		97.656250
271		95.703125
272		97.656250
273		95.703125
274		99.609375
275		95.703125
276		99.609375
277		97.656250
278		99.609375
279		97.656250
280		101.562500
281		97.656250
282		99.609375
283		95.703125
284		99.609375
285		95.703125
286		99.609375
287		95.703125
288		99.609375
289		93.750000
290		97.656250
291		93.750000
292		97.656250
293		93.750000
294		95.703125
295		91.796875
296		93.750000
297		89.843750
298		93.750000
299		87.890625
300		91.796875
301		83.984375
302		89.843750
303		83.984375
304		87.890625
305		80.078125
306		85.937500
307		78.125000
308		82.031250
309		76.171875
310		80.078125
311		72.265625
312		76.171875
313		68.359375
314		74.218750
315		66.406250
316		70.312500
317		62.500000
318		68.359375
319		58.593750
320		64.453125
321		54.687500
322		60.546875
323		50.781250
324		56.640625
325		46.875000
326		52.734375
327		41.015625
328		48.828125
329		39.062500
330		44.921875
331		33.203125
332		39.062500
333		27.343750
334		35.156250
335		23.437500
336		31.250000
337		19.531250
338		25.390625
339		13.671875
340		21.484375
341		9.765625
342		15.625000
343		5.859375
344		11.718750
345		0.000000
346		5.859375
347		-3.906250
348		1.953125
349		-9.765625
350		-3.906250
351		-13.671875
352		-7.812500
353		-19.531250
354		-13.671875
355		-23.437500
356		-17.578125
357		-29.296875
358		-21.484375
359		-33.203125
360		-27.343750
361		-39.062500
362		-31.250000
363		-42.968750
364		-37.109375
365		-46.875000
366		-39.062500
367		-50.781250
368		-44.921875
369		-54.687500
370		-50.781250
371		-58.593750
372		-54.687500
373		-64.453125
374		-58.593750
375		-68.359375
376		-62.500000
377		-70.312500
378		-64.453125
379		-74.218750
380		-68.359375
381		-76.171875
382		-72.265625
383		-80.078125
384		-74.218750
385		-82.031250
386		-78.125000
387		-83.984375
388		-80.078125
389		-87.890625
390		-82.031250
391		-89.843750
392		-85.937500
393		-91.796875
394		-85.937500
395		-91.796875
396		-87.890625
397		-93.750000
398		-89.843750
399		-93.750000
400		-91.796875
401		-95.703125
402		-91.796875
403		-95.703125
404		-93.750000
405		-95.703125
406		-93.750000
407		-95.703125
408		-93.750000
409		-97.656250
410		-91.796875
411		-95.703125
412		-91.796875
413		-93.750000
414		-91.796875
415		-93.750000
416		-89.843750
417		-91.796875
418		-87.890625
419		-91.796875
420		-87.890625
421		-89.843750
422		-85.937500
423		-87.890625
424		-83.984375
425		-85.937500
426		-80.078125
427		-83.984375
428		-78.125000
429		-80.078125
430		-76.171875
431		-76.171875
432		-72.265625
433		-74.218750
434		-70.312500
435		-70.312500
436		-64.453125
437		-68.359375
438		-60.546875
439		-64.453125
440		-58.593750
441		-60.546875
442		-54.687500
443		-56.640625
444		-50.781250
445		-50.781250
446		-44.921875
447		-46.875000
448		-41.015625
449		-44.921875
450		-37.109375
451		-39.062500
452		-31.250000
453		-33.203125
454		-27.343750
455		-29.296875
456		-23.437500
457		-25.390625
458		-17.578125
459		-19.531250
460		-13.671875
461		-15.625000
462		-7.812500
463		-9.765625
464		-3.906250
465		-5.859375
466		1.953125
467		0.000000
468		5.859375
469		3.906250
470		9.765625
471		7.812500
472		15.625000
473		13.671875
474		21.484375
475		19.531250
476		25.390625
477		23.437500
478		29.296875
479		27.343750
480		35.156250
481		33.203125
482		39.062500
483		37.109375
484		42.968750
485		41.015625
486		46.875000
487		44.921875
488		52.734375
489		50.781250
490		56.640625
491		52.734375
492		58.593750
493		56.640625
494		62.500000
495		60.546875
496		66.406250
497		64.453125
498		70.312500
499		68.359375
500		72.265625
501		72.265625
502		76.171875
503		74.218750
504		78.125000
505		76.171875
506		82.031250
507		78.125000
508		83.984375
509		82.031250
510		85.937500
511		83.984375
512		87.890625
513		85.937500
514		89.843750
515		87.890625
516		91.796875
517		89.843750
518		93.750000
519		91.796875
520		95.703125
521		91.796875
522		95.703125
523		93.750000
524		97.656250
525		95.703125
526		99.609375
527		95.703125
528		99.609375
529		95.703125
530		99.609375
531		97.656250
532		99.609375
533		95.703125
534		99.609375
535		95.703125
536		99.609375
537		95.703125
538		99.609375
539		95.703125
540		97.656250
541		93.750000
542		97.656250
543		93.750000
544		95.703125
545		91.796875
546		95.703125
547		89.843750
548		93.750000
549		87.890625
550		93.750000
551		85.937500
552		91.796875
553		83.984375
554		87.890625
555		82.031250
556		87.890625
557		80.078125
558		83.984375
559		78.125000
560		82.031250
561		74.218750
562		80.078125
563		72.265625
564		76.171875
565		68.359375
566		74.218750
567		64.453125
568		70.312500
569		62.500000
570		66.406250
571		58.593750
572		64.453125
573		52.734375
574		58.593750
575		48.828125
576		56.640625
577		44.921875
578		50.781250
579		41.015625
580		46.875000
581		37.109375
582		42.968750
583		31.250000
584		39.062500
585		27.343750
586		33.203125
587		23.437500
588		29.296875
589		17.578125
590		25.390625
591		13.671875
592		19.531250
593		7.812500
594		15.625000
595		3.906250
596		9.765625
597		0.000000
598		5.859375
599		-5.859375
600		0.000000
601		-9.765625
602		-3.906250
603		-15.625000
604		-9.765625
605		-19.531250
606		-13.671875
607		-25.390625
608		-17.578125
609		-29.296875
610		-23.437500
611		-35.156250
612		-27.343750
613		-39.062500
614		-33.203125
615		-42.968750
616		-37.109375
617		-48.828125
618		-41.015625
619		-52.734375
620		-46.875000
621		-56.640625
622		-50.781250
623		-60.546875
624		-54.687500
625		-64.453125
626		-58.593750
627		-68.359375
628		-62.500000
629		-70.312500
630		-64.453125
631		-74.218750
632		-70.312500
633		-78.125000
634		-72.265625
635		-80.078125
636		-76.171875
637		-82.031250
638		-78.125000
639		-85.937500
640		-82.031250
641		-87.890625
642		-83.984375
643		-89.843750
644		-83.984375
645		-91.796875
646		-87.890625
647		-91.796875
648		-89.843750
649		-95.703125
650		-91.796875
651		-95.703125
652		-91.796875
653		-95.703125
654		-91.796875
655		-95.703125
656		-93.750000
657		-95.703125
658		-93.750000
659		-95.703125
660		-93.750000
661		-95.703125
662		-91.796875
663		-95.703125
664		-91.796875
665		-93.750000
666		-91.796875
667		-95.703125
668		-89.843750
669		-91.796875
670		-89.843750
671		-91.796875
672		-85.937500
673		-89.843750
674		-85.937500
675		-87.890625
676		-82.031250
677		-85.937500
678		-80.078125
679		-83.984375
680		-78.125000
681		-80.078125
682		-76.171875
683		-76.171875
684		-72.265625
685		-74.218750
686		-68.359375
687		-70.312500
688		-64.453125
689		-66.406250
690		-62.500000
691		-64.453125
692		-58.593750
693		-60.546875
694		-54.687500
695		-56.640625
696		-50.781250
697		-50.781250
698		-44.921875
699		-46.875000
700		-41.015625
701		-42.968750
702		-37.109375
703		-39.062500
704		-31.250000
705		-33.203125
706		-27.343750
707		-29.296875
708		-23.437500
709		-23.437500
710		-17.578125
711		-19.531250
712		-13.671875
713		-15.625000
714		-7.812500
715		-9.765625
716		-3.906250
717		-3.906250
718		1.953125
719		0.000000
720		5.859375
721		3.906250
722		11.718750
723		9.765625
724		15.625000
725		13.671875
726		21.484375
727		19.531250
728		25.390625
729		23.437500
730		29.296875
731		29.296875
732		35.156250
733		33.203125
734		41.015625
735		37.109375
736		44.921875
737		42.968750
738		46.875000
739		46.875000
740		52.734375
741		50.781250
742		54.687500
743		52.734375
744		60.546875
745		58.593750
746		64.453125
747		62.500000
748		66.406250
749		64.453125
750		70.312500
751		68.359375
752		76.171875
753		70.312500
754		78.125000
755		72.265625
756		80.078125
757		76.171875
758		83.984375
759		78.125000
760		85.937500
761		82.031250
762		87.890625
763		83.984375
764		87.890625
765		87.890625
766		89.843750
767		87.890625
768		93.750000
769		87.890625
770		95.703125
771		89.843750
772		97.656250
773		91.796875
774		97.656250
775		91.796875
776		99.609375
777		93.750000
778		99.609375
779		95.703125
780		99.609375
781		95.703125
782		99.609375
783		97.656250
784		99.609375
785		93.750000
786		101.562500
787		93.750000
788		101.562500
789		93.750000
790		101.562500
791		91.796875
792		99.609375
793		91.796875
794		99.609375
795		91.796875
796		97.656250
797		91.796875
798		95.703125
799		89.843750
800		93.750000
801		85.937500
802		93.750000
803		85.937500
804		91.796875
805		82.031250
806		89.843750
807		80.078125
808		87.890625
809		78.125000
810		85.937500
811		74.218750
812		83.984375
813		74.218750
814		80.078125
815		72.265625
816		76.171875
817		66.406250
818		72.265625
819		62.500000
820		70.312500
821		60.546875
822		66.406250
823		56.640625
824		64.453125
825		52.734375
826		58.593750
827		46.875000
828		54.687500
829		44.921875
830		50.781250
831		41.015625
832		46.875000
833		35.156250
834		42.968750
835		29.296875
836		39.062500
837		25.390625
838		35.156250
839		19.531250
840		29.296875
841		15.625000
842		25.390625
843		11.718750
844		21.484375
845		7.812500
846		15.625000
847		3.906250
848		9.765625
849		-1.953125
850		3.906250
851		-5.859375
852		0.000000
853		-13.671875
854		-1.953125
855		-17.578125
856		-7.812500
857		-23.437500
858		-11.718750
859		-27.343750
860		-17.578125
861		-33.203125
862		-23.437500
863		-35.156250
864		-27.343750
865		-39.062500
866		-33.203125
867		-44.921875
868		-39.062500
869		-50.781250
870		-41.015625
871		-54.687500
872		-44.921875
873		-58.593750
874		-48.828125
875		-62.500000
876		-52.734375
877		-66.406250
878		-58.593750
879		-70.312500
880		-60.546875
881		-72.265625
882		-66.406250
883		-74.218750
884		-70.312500
885		-80.078125
886		-74.218750
887		-82.031250
888		-74.218750
889		-85.937500
890		-76.171875
891		-87.890625
892		-80.078125
893		-89.843750
894		-82.031250
895		-91.796875
896		-83.984375
897		-91.796875
898		-85.937500
899		-93.750000
900		-89.843750
901		-95.703125
902		-91.796875
903		-97.656250
904		-89.843750
905		-97.656250
906		-91.796875
907		-99.609375
908		-91.796875
909		-99.609375
910		-91.796875
911		-99.609375
912		-91.796875
913		-97.656250
914		-91.796875
915		-95.703125
916		-93.750000
917		-93.750000
918		-91.796875
919		-95.703125
920		-89.843750
921		-93.750000
922		-87.890625
923		-93.750000
924		-85.937500
925		-91.796875
926		-83.984375
927		-89.843750
928		-82.031250
929		-87.890625
930		-78.125000
931		-83.984375
932		-78.125000
933		-80.078125
934		-76.171875
935		-76.171875
936		-70.312500
937		-76.171875
938		-66.406250
939		-74.218750
940		-62.500000
941		-68.359375
942		-60.546875
943		-64.453125
944		-54.687500
945		-60.546875
946		-50.781250
947		-56.640625
948		-48.828125
949		-50.781250
950		-44.921875
951		-46.875000
952		-41.015625
953		-44.921875
954		-35.156250
955		-39.062500
956		-29.296875
957		-35.156250
958		-25.390625
959		-31.250000
960		-21.484375
961		-27.343750
962		-15.625000
963		-21.484375
964		-9.765625
965		-15.625000
966		-7.812500
967		-9.765625
968		-3.906250
969		-3.906250
970		3.906250
971		-1.953125
972		7.812500
973		3.906250
974		13.671875
975		7.812500
976		17.578125
977		11.718750
978		23.437500
979		17.578125
980		27.343750
981		21.484375
982		29.296875
983		29.296875
984		35.156250
985		33.203125
986		41.015625
987		35.156250
988		44.921875
989		39.062500
990		50.781250
991		42.968750
992		52.734375
993		46.875000
994		56.640625
995		50.781250
996		60.546875
997		54.687500
998		64.453125
999		62.500000
1000		66.406250
1001		64.453125
1002		70.312500
1003		68.359375
1004		76.171875
1005		68.359375
1006		78.125000
1007		72.265625
1008		80.078125
1009		76.171875
1010		83.984375
1011		78.125000
1012		85.937500
1013		80.078125
1014		87.890625
1015		82.031250
1016		89.843750
1017		85.937500
1018		89.843750
1019		87.890625
1020		93.750000
1021		87.890625
1022		95.703125
1023		89.843750
1024		97.656250
1025		89.843750
1026		97.656250
1027		91.796875
1028		99.609375
1029		91.796875
1030		99.609375
1031		93.750000
1032		99.609375
1033		95.703125
1034		99.609375
1035		95.703125
1036		99.609375
1037		93.750000
1038		101.562500
1039		93.750000
1040		101.562500
1041		93.750000
1042		99.609375
1043		91.796875
1044		99.609375
1045		91.796875
1046		99.609375
1047		89.843750
1048		97.656250
1049		89.843750
1050		97.656250
1051		89.843750
1052		93.750000
1053		85.937500
1054		93.750000
1055		83.984375
1056		91.796875
1057		82.031250
1058		89.843750
1059		80.078125
1060		87.890625
1061		76.171875
1062		85.937500
1063		74.218750
1064		82.031250
1065		72.265625
1066		80.078125
1067		70.312500
1068		74.218750
1069		66.406250
1070		72.265625
1071		60.546875
1072		70.312500
1073		58.593750
1074		66.406250
1075		54.687500
1076		64.453125
1077		50.781250
1078		60.546875
1079		46.875000
1080		54.687500
1081		42.968750
1082		50.781250
1083		39.062500
1084		46.875000
1085		35.156250
1086		41.015625
1087		29.296875
1088		37.109375
1089		25.390625
1090		35.156250
1091		19.531250
1092		29.296875
1093		15.625000
1094		25.390625
1095		9.765625
1096		19.531250
1097		5.859375
1098		15.625000
1099		1.953125
1100		11.718750
1101		-1.953125
1102		3.906250
1103		-9.765625
1104		-1.953125
1105		-13.671875
1106		-3.906250
1107		-19.531250
1108		-9.765625
1109		-23.437500
1110		-15.625000
1111		-29.296875
1112		-17.578125
1113		-35.156250
1114		-23.437500
1115		-37.109375
1116		-27.343750
1117		-41.015625
1118		-35.156250
1119		-44.921875
1120		-39.062500
1121		-50.781250
1122		-42.968750
1123		-56.640625
1124		-46.875000
1125		-58.593750
1126		-50.781250
1127		-62.500000
1128		-54.687500
1129		-66.406250
1130		-58.593750
1131		-72.265625
1132		-62.500000
1133		-72.265625
1134		-66.406250
1135		-76.171875
1136		-70.312500
1137		-80.078125
1138		-74.218750
1139		-83.984375
1140		-76.171875
1141		-85.937500
1142		-78.125000
1143		-87.890625
1144		-80.078125
1145		-91.796875
1146		-83.984375
1147		-93.750000
1148		-83.984375
1149		-93.750000
1150		-85.937500
1151		-93.750000
1152		-89.843750
1153		-93.750000
1154		-91.796875
1155		-97.656250
1156		-91.796875
1157		-99.609375
1158		-91.796875
1159		-99.609375
1160		-91.796875
1161		-99.609375
1162		-91.796875
1163		-99.609375
1164		-91.796875
1165		-99.609375
1166		-91.796875
1167		-97.656250
1168		-91.796875
1169		-95.703125
1170		-91.796875
1171		-95.703125
1172		-89.843750
1173		-95.703125
1174		-87.890625
1175		-93.750000
1176		-85.937500
1177		-91.796875
1178		-83.984375
1179		-89.843750
1180		-82.031250
1181		-87.890625
1182		-80.078125
1183		-85.937500
1184		-78.125000
1185		-80.078125
1186		-76.171875
1187		-78.125000
1188		-70.312500
1189		-74.218750
1190		-66.406250
1191		-72.265625
1192		-64.453125
1193		-70.312500
1194		-60.546875
1195		-66.406250
1196		-56.640625
1197		-60.546875
1198		-50.781250
1199		-56.640625
1200		-48.828125
1201		-50.781250
1202		-44.921875
1203		-46.875000
1204		-41.015625
1205		-44.921875
1206		-33.203125
1207		-39.062500
1208		-29.296875
1209		-35.156250
1210		-25.390625
1211		-31.250000
1212		-21.484375
1213		-25.390625
1214		-15.625000
1215		-21.484375
1216		-9.765625
1217		-15.625000
1218		-7.812500
1219		-9.765625
1220		-1.953125
1221		-3.906250
1222		3.906250
1223		-1.953125
1224		9.765625
1225		3.906250
1226		13.671875
1227		7.812500
1228		19.531250
1229		13.671875
1230		23.437500
1231		17.578125
1232		27.343750
1233		21.484375
1234		31.250000
1235		29.296875
1236		35.156250
1237		33.203125
1238		39.062500
1239		37.109375
1240		44.921875
1241		41.015625
1242		50.781250
1243		44.921875
1244		52.734375
1245		48.828125
1246		58.593750
1247		52.734375
1248		62.500000
1249		54.687500
1250		64.453125
1251		60.546875
1252		66.406250
1253		66.406250
1254		70.312500
1255		68.359375
1256		74.218750
1257		70.312500
1258		78.125000
1259		72.265625
1260		82.031250
1261		74.218750
1262		83.984375
1263		78.125000
1264		85.937500
1265		80.078125
1266		87.890625
1267		82.031250
1268		89.843750
1269		87.890625
1270		89.843750
1271		87.890625
1272		93.750000
