metingen laweit/2000Hz, 35.0cm/data_81_174.txt

Channel              :		CH1
Frequency            :		  ?
Period               :		  ?
PK-PK                :		23.44mV
Probe attenuation    :		1X
Voltage per ADC value:		0.122070mV
Time interval        :		2.00000us

index		CH1_Voltage(mV)
1		17.578125
2		17.578125
3		13.671875
4		17.578125
5		13.671875
6		17.578125
7		13.671875
8		15.625000
9		13.671875
10		17.578125
11		11.718750
12		15.625000
13		13.671875
14		15.625000
15		11.718750
16		15.625000
17		11.718750
18		15.625000
19		11.718750
20		15.625000
21		11.718750
22		15.625000
23		11.718750
24		13.671875
25		9.765625
26		13.671875
27		9.765625
28		13.671875
29		9.765625
30		13.671875
31		9.765625
32		11.718750
33		7.812500
34		11.718750
35		7.812500
36		11.718750
37		7.812500
38		11.718750
39		7.812500
40		11.718750
41		7.812500
42		11.718750
43		7.812500
44		9.765625
45		7.812500
46		11.718750
47		7.812500
48		9.765625
49		5.859375
50		9.765625
51		5.859375
52		9.765625
53		5.859375
54		9.765625
55		5.859375
56		9.765625
57		5.859375
58		7.812500
59		5.859375
60		7.812500
61		3.906250
62		7.812500
63		3.906250
64		7.812500
65		5.859375
66		7.812500
67		3.906250
68		7.812500
69		3.906250
70		7.812500
71		3.906250
72		7.812500
73		3.906250
74		7.812500
75		3.906250
76		7.812500
77		3.906250
78		5.859375
79		3.906250
80		7.812500
81		3.906250
82		5.859375
83		3.906250
84		7.812500
85		3.906250
86		7.812500
87		3.906250
88		7.812500
89		3.906250
90		5.859375
91		3.906250
92		5.859375
93		3.906250
94		5.859375
95		3.906250
96		7.812500
97		3.906250
98		7.812500
99		3.906250
100		5.859375
101		3.906250
102		7.812500
103		3.906250
104		7.812500
105		3.906250
106		7.812500
107		3.906250
108		7.812500
109		3.906250
110		7.812500
111		3.906250
112		7.812500
113		5.859375
114		7.812500
115		5.859375
116		7.812500
117		3.906250
118		9.765625
119		5.859375
120		9.765625
121		5.859375
122		9.765625
123		5.859375
124		9.765625
125		5.859375
126		9.765625
127		5.859375
128		9.765625
129		5.859375
130		9.765625
131		5.859375
132		9.765625
133		7.812500
134		9.765625
135		7.812500
136		11.718750
137		7.812500
138		11.718750
139		7.812500
140		11.718750
141		7.812500
142		11.718750
143		7.812500
144		11.718750
145		7.812500
146		11.718750
147		9.765625
148		11.718750
149		9.765625
150		11.718750
151		9.765625
152		13.671875
153		9.765625
154		13.671875
155		9.765625
156		13.671875
157		9.765625
158		13.671875
159		11.718750
160		13.671875
161		11.718750
162		13.671875
163		9.765625
164		13.671875
165		11.718750
166		13.671875
167		11.718750
168		15.625000
169		11.718750
170		15.625000
171		11.718750
172		15.625000
173		11.718750
174		15.625000
175		11.718750
176		15.625000
177		11.718750
178		15.625000
179		11.718750
180		15.625000
181		13.671875
182		15.625000
183		13.671875
184		15.625000
185		11.718750
186		17.578125
187		13.671875
188		17.578125
189		13.671875
190		17.578125
191		13.671875
192		17.578125
193		13.671875
194		17.578125
195		13.671875
196		17.578125
197		13.671875
198		17.578125
199		15.625000
200		17.578125
201		13.671875
202		17.578125
203		15.625000
204		17.578125
205		15.625000
206		17.578125
207		15.625000
208		17.578125
209		15.625000
210		17.578125
211		15.625000
212		17.578125
213		13.671875
214		19.531250
215		15.625000
216		17.578125
217		15.625000
218		17.578125
219		15.625000
220		17.578125
221		15.625000
222		19.531250
223		15.625000
224		17.578125
225		15.625000
226		17.578125
227		15.625000
228		17.578125
229		15.625000
230		19.531250
231		15.625000
232		17.578125
233		15.625000
234		17.578125
235		15.625000
236		17.578125
237		15.625000
238		17.578125
239		15.625000
240		17.578125
241		15.625000
242		17.578125
243		13.671875
244		17.578125
245		13.671875
246		17.578125
247		13.671875
248		17.578125
249		13.671875
250		17.578125
251		13.671875
252		17.578125
253		13.671875
254		17.578125
255		13.671875
256		17.578125
257		13.671875
258		15.625000
259		13.671875
260		15.625000
261		11.718750
262		15.625000
263		11.718750
264		15.625000
265		13.671875
266		15.625000
267		11.718750
268		15.625000
269		11.718750
270		15.625000
271		11.718750
272		13.671875
273		9.765625
274		13.671875
275		9.765625
276		13.671875
277		9.765625
278		13.671875
279		9.765625
280		13.671875
281		9.765625
282		13.671875
283		9.765625
284		11.718750
285		9.765625
286		11.718750
287		7.812500
288		11.718750
289		7.812500
290		11.718750
291		7.812500
292		11.718750
293		7.812500
294		11.718750
295		7.812500
296		9.765625
297		5.859375
298		11.718750
299		7.812500
300		9.765625
301		5.859375
302		9.765625
303		5.859375
304		9.765625
305		5.859375
306		9.765625
307		5.859375
308		9.765625
309		3.906250
310		7.812500
311		3.906250
312		7.812500
313		3.906250
314		7.812500
315		5.859375
316		7.812500
317		3.906250
318		7.812500
319		1.953125
320		7.812500
321		3.906250
322		7.812500
323		3.906250
324		7.812500
325		1.953125
326		7.812500
327		3.906250
328		5.859375
329		3.906250
330		5.859375
331		1.953125
332		7.812500
333		3.906250
334		5.859375
335		1.953125
336		7.812500
337		1.953125
338		5.859375
339		1.953125
340		5.859375
341		3.906250
342		5.859375
343		3.906250
344		5.859375
345		3.906250
346		5.859375
347		1.953125
348		7.812500
349		3.906250
350		5.859375
351		3.906250
352		5.859375
353		3.906250
354		5.859375
355		3.906250
356		7.812500
357		3.906250
358		7.812500
359		3.906250
360		7.812500
361		3.906250
362		7.812500
363		3.906250
364		7.812500
365		3.906250
366		7.812500
367		5.859375
368		7.812500
369		3.906250
370		7.812500
371		5.859375
372		9.765625
373		5.859375
374		7.812500
375		5.859375
376		9.765625
377		5.859375
378		9.765625
379		5.859375
380		9.765625
381		5.859375
382		9.765625
383		7.812500
384		9.765625
385		5.859375
386		9.765625
387		7.812500
388		9.765625
389		7.812500
390		9.765625
391		7.812500
392		11.718750
393		7.812500
394		11.718750
395		7.812500
396		11.718750
397		7.812500
398		11.718750
399		9.765625
400		11.718750
401		9.765625
402		11.718750
403		9.765625
404		13.671875
405		9.765625
406		11.718750
407		9.765625
408		13.671875
409		9.765625
410		13.671875
411		9.765625
412		13.671875
413		9.765625
414		13.671875
415		9.765625
416		13.671875
417		11.718750
418		13.671875
419		11.718750
420		15.625000
421		11.718750
422		15.625000
423		11.718750
424		15.625000
425		11.718750
426		15.625000
427		11.718750
428		15.625000
429		11.718750
430		15.625000
431		11.718750
432		15.625000
433		13.671875
434		15.625000
435		13.671875
436		15.625000
437		13.671875
438		17.578125
439		13.671875
440		17.578125
441		13.671875
442		17.578125
443		13.671875
444		17.578125
445		13.671875
446		17.578125
447		13.671875
448		17.578125
449		13.671875
450		17.578125
451		15.625000
452		17.578125
453		13.671875
454		17.578125
455		15.625000
456		17.578125
457		15.625000
458		17.578125
459		13.671875
460		17.578125
461		13.671875
462		17.578125
463		13.671875
464		17.578125
465		15.625000
466		17.578125
467		15.625000
468		17.578125
469		13.671875
470		17.578125
471		13.671875
472		17.578125
473		15.625000
474		17.578125
475		15.625000
476		19.531250
477		15.625000
478		17.578125
479		15.625000
480		17.578125
481		15.625000
482		19.531250
483		15.625000
484		17.578125
485		15.625000
486		17.578125
487		15.625000
488		19.531250
489		15.625000
490		17.578125
491		15.625000
492		17.578125
493		15.625000
494		17.578125
495		15.625000
496		17.578125
497		13.671875
498		17.578125
499		13.671875
500		19.531250
501		15.625000
502		17.578125
503		13.671875
504		17.578125
505		13.671875
506		17.578125
507		13.671875
508		17.578125
509		13.671875
510		15.625000
511		13.671875
512		15.625000
513		13.671875
514		15.625000
515		11.718750
516		17.578125
517		13.671875
518		15.625000
519		11.718750
520		15.625000
521		11.718750
522		15.625000
523		11.718750
524		15.625000
525		11.718750
526		15.625000
527		9.765625
528		13.671875
529		11.718750
530		13.671875
531		9.765625
532		13.671875
533		9.765625
534		13.671875
535		9.765625
536		11.718750
537		9.765625
538		13.671875
539		7.812500
540		13.671875
541		7.812500
542		11.718750
543		7.812500
544		11.718750
545		7.812500
546		11.718750
547		7.812500
548		11.718750
549		5.859375
550		11.718750
551		7.812500
552		9.765625
553		5.859375
554		9.765625
555		5.859375
556		9.765625
557		5.859375
558		9.765625
559		5.859375
560		9.765625
561		5.859375
562		7.812500
563		5.859375
564		7.812500
565		3.906250
566		9.765625
567		5.859375
568		7.812500
569		3.906250
570		7.812500
571		3.906250
572		7.812500
573		3.906250
574		5.859375
575		3.906250
576		7.812500
577		3.906250
578		5.859375
579		3.906250
580		5.859375
581		3.906250
582		5.859375
583		3.906250
584		5.859375
585		3.906250
586		5.859375
587		1.953125
588		5.859375
589		1.953125
590		7.812500
591		1.953125
592		5.859375
593		3.906250
594		5.859375
595		1.953125
596		5.859375
597		3.906250
598		5.859375
599		3.906250
600		5.859375
601		3.906250
602		5.859375
603		3.906250
604		5.859375
605		1.953125
606		7.812500
607		3.906250
608		7.812500
609		3.906250
610		7.812500
611		3.906250
612		7.812500
613		3.906250
614		7.812500
615		3.906250
616		7.812500
617		3.906250
618		7.812500
619		5.859375
620		7.812500
621		3.906250
622		9.765625
623		3.906250
624		7.812500
625		3.906250
626		9.765625
627		5.859375
628		9.765625
629		5.859375
630		7.812500
631		5.859375
632		9.765625
633		5.859375
634		9.765625
635		7.812500
636		9.765625
637		5.859375
638		9.765625
639		7.812500
640		9.765625
641		5.859375
642		11.718750
643		7.812500
644		9.765625
645		7.812500
646		11.718750
647		7.812500
648		11.718750
649		7.812500
650		11.718750
651		9.765625
652		11.718750
653		9.765625
654		11.718750
655		7.812500
656		13.671875
657		9.765625
658		11.718750
659		9.765625
660		13.671875
661		9.765625
662		13.671875
663		9.765625
664		13.671875
665		9.765625
666		13.671875
667		11.718750
668		13.671875
669		11.718750
670		13.671875
671		9.765625
672		13.671875
673		11.718750
674		15.625000
675		11.718750
676		15.625000
677		11.718750
678		15.625000
679		11.718750
680		15.625000
681		11.718750
682		15.625000
683		11.718750
684		15.625000
685		13.671875
686		15.625000
687		13.671875
688		15.625000
689		11.718750
690		15.625000
691		13.671875
692		15.625000
693		13.671875
694		15.625000
695		13.671875
696		17.578125
697		13.671875
698		17.578125
699		13.671875
700		17.578125
701		11.718750
702		17.578125
703		13.671875
704		15.625000
705		13.671875
706		17.578125
707		13.671875
708		17.578125
709		13.671875
710		17.578125
711		13.671875
712		17.578125
713		13.671875
714		17.578125
715		13.671875
716		17.578125
717		13.671875
718		17.578125
719		15.625000
720		17.578125
721		15.625000
722		17.578125
723		13.671875
724		19.531250
725		13.671875
726		19.531250
727		15.625000
728		17.578125
729		15.625000
730		17.578125
731		13.671875
732		17.578125
733		15.625000
734		19.531250
735		15.625000
736		17.578125
737		15.625000
738		17.578125
739		15.625000
740		19.531250
741		15.625000
742		17.578125
743		15.625000
744		17.578125
745		13.671875
746		17.578125
747		15.625000
748		17.578125
749		13.671875
750		17.578125
751		13.671875
752		19.531250
753		13.671875
754		17.578125
755		13.671875
756		17.578125
757		13.671875
758		17.578125
759		13.671875
760		17.578125
761		13.671875
762		17.578125
763		13.671875
764		15.625000
765		13.671875
766		15.625000
767		11.718750
768		15.625000
769		13.671875
770		15.625000
771		13.671875
772		15.625000
773		11.718750
774		15.625000
775		11.718750
776		13.671875
777		11.718750
778		15.625000
779		9.765625
780		13.671875
781		9.765625
782		13.671875
783		9.765625
784		13.671875
785		9.765625
786		13.671875
787		9.765625
788		11.718750
789		9.765625
790		13.671875
791		9.765625
792		11.718750
793		9.765625
794		11.718750
795		7.812500
796		11.718750
797		7.812500
798		11.718750
799		7.812500
800		11.718750
801		7.812500
802		11.718750
803		7.812500
804		9.765625
805		7.812500
806		9.765625
807		5.859375
808		9.765625
809		5.859375
810		9.765625
811		5.859375
812		9.765625
813		5.859375
814		7.812500
815		3.906250
816		7.812500
817		3.906250
818		7.812500
819		3.906250
820		7.812500
821		3.906250
822		7.812500
823		3.906250
824		7.812500
825		3.906250
826		7.812500
827		3.906250
828		7.812500
829		3.906250
830		5.859375
831		3.906250
832		7.812500
833		3.906250
834		5.859375
835		1.953125
836		7.812500
837		3.906250
838		5.859375
839		1.953125
840		5.859375
841		3.906250
842		5.859375
843		3.906250
844		5.859375
845		3.906250
846		5.859375
847		3.906250
848		5.859375
849		3.906250
850		5.859375
851		1.953125
852		5.859375
853		3.906250
854		5.859375
855		3.906250
856		5.859375
857		1.953125
858		7.812500
859		3.906250
860		7.812500
861		3.906250
862		7.812500
863		3.906250
864		7.812500
865		3.906250
866		7.812500
867		3.906250
868		7.812500
869		3.906250
870		7.812500
871		5.859375
872		7.812500
873		3.906250
874		7.812500
875		5.859375
876		7.812500
877		5.859375
878		7.812500
879		5.859375
880		7.812500
881		5.859375
882		9.765625
883		5.859375
884		9.765625
885		5.859375
886		9.765625
887		7.812500
888		9.765625
889		7.812500
890		9.765625
891		5.859375
892		9.765625
893		7.812500
894		9.765625
895		7.812500
896		9.765625
897		7.812500
898		11.718750
899		7.812500
900		11.718750
901		7.812500
902		11.718750
903		7.812500
904		11.718750
905		9.765625
906		11.718750
907		7.812500
908		13.671875
909		9.765625
910		13.671875
911		9.765625
912		13.671875
913		9.765625
914		13.671875
915		9.765625
916		13.671875
917		9.765625
918		13.671875
919		9.765625
920		13.671875
921		11.718750
922		13.671875
923		11.718750
924		15.625000
925		11.718750
926		15.625000
927		11.718750
928		15.625000
929		11.718750
930		15.625000
931		11.718750
932		15.625000
933		11.718750
934		15.625000
935		11.718750
936		15.625000
937		13.671875
938		15.625000
939		13.671875
940		15.625000
941		11.718750
942		17.578125
943		13.671875
944		15.625000
945		13.671875
946		17.578125
947		13.671875
948		15.625000
949		13.671875
950		17.578125
951		13.671875
952		17.578125
953		13.671875
954		17.578125
955		13.671875
956		17.578125
957		13.671875
958		17.578125
959		13.671875
960		17.578125
961		13.671875
962		17.578125
963		15.625000
964		17.578125
965		15.625000
966		17.578125
967		13.671875
968		17.578125
969		13.671875
970		19.531250
971		15.625000
972		17.578125
973		15.625000
974		17.578125
975		15.625000
976		19.531250
977		15.625000
978		17.578125
979		15.625000
980		19.531250
981		13.671875
982		19.531250
983		15.625000
984		19.531250
985		15.625000
986		19.531250
987		15.625000
988		19.531250
989		15.625000
990		17.578125
991		15.625000
992		19.531250
993		15.625000
994		17.578125
995		15.625000
996		19.531250
997		13.671875
998		19.531250
999		15.625000
1000		17.578125
1001		15.625000
1002		17.578125
1003		13.671875
1004		19.531250
1005		15.625000
1006		17.578125
1007		13.671875
1008		17.578125
1009		13.671875
1010		17.578125
1011		13.671875
1012		17.578125
1013		11.718750
1014		17.578125
1015		13.671875
1016		17.578125
1017		11.718750
1018		19.531250
1019		11.718750
1020		17.578125
1021		13.671875
1022		15.625000
1023		13.671875
1024		15.625000
1025		11.718750
1026		15.625000
1027		11.718750
1028		15.625000
1029		11.718750
1030		15.625000
1031		9.765625
1032		15.625000
1033		9.765625
1034		15.625000
1035		9.765625
1036		13.671875
1037		9.765625
1038		13.671875
1039		9.765625
1040		13.671875
1041		9.765625
1042		13.671875
1043		7.812500
1044		13.671875
1045		7.812500
1046		13.671875
1047		7.812500
1048		13.671875
1049		5.859375
1050		13.671875
1051		5.859375
1052		13.671875
1053		5.859375
1054		11.718750
1055		7.812500
1056		9.765625
1057		7.812500
1058		9.765625
1059		3.906250
1060		11.718750
1061		3.906250
1062		11.718750
1063		3.906250
1064		11.718750
1065		3.906250
1066		9.765625
1067		3.906250
1068		9.765625
1069		3.906250
1070		9.765625
1071		3.906250
1072		7.812500
1073		5.859375
1074		7.812500
1075		1.953125
1076		7.812500
1077		1.953125
1078		9.765625
1079		1.953125
1080		9.765625
1081		1.953125
1082		7.812500
1083		1.953125
1084		7.812500
1085		1.953125
1086		9.765625
1087		1.953125
1088		7.812500
1089		3.906250
1090		5.859375
1091		1.953125
1092		7.812500
1093		0.000000
1094		7.812500
1095		1.953125
1096		7.812500
1097		1.953125
1098		7.812500
1099		0.000000
1100		7.812500
1101		1.953125
1102		7.812500
1103		1.953125
1104		7.812500
1105		1.953125
1106		7.812500
1107		3.906250
1108		5.859375
1109		1.953125
1110		7.812500
1111		1.953125
1112		9.765625
1113		1.953125
1114		7.812500
1115		1.953125
1116		9.765625
1117		1.953125
1118		7.812500
1119		1.953125
1120		7.812500
1121		1.953125
1122		7.812500
1123		3.906250
1124		7.812500
1125		1.953125
1126		7.812500
1127		1.953125
1128		9.765625
1129		3.906250
1130		9.765625
1131		1.953125
1132		9.765625
1133		3.906250
1134		11.718750
1135		3.906250
1136		9.765625
1137		3.906250
1138		9.765625
1139		5.859375
1140		7.812500
1141		5.859375
1142		9.765625
1143		5.859375
1144		11.718750
1145		5.859375
1146		11.718750
1147		5.859375
1148		13.671875
1149		5.859375
1150		11.718750
1151		5.859375
1152		13.671875
1153		5.859375
1154		13.671875
1155		7.812500
1156		11.718750
1157		9.765625
1158		11.718750
1159		5.859375
1160		13.671875
1161		5.859375
1162		13.671875
1163		7.812500
1164		13.671875
1165		7.812500
1166		15.625000
1167		7.812500
1168		15.625000
1169		7.812500
1170		15.625000
1171		7.812500
1172		15.625000
1173		11.718750
1174		13.671875
1175		9.765625
1176		13.671875
1177		7.812500
1178		15.625000
1179		9.765625
1180		15.625000
1181		9.765625
1182		17.578125
1183		9.765625
1184		17.578125
1185		9.765625
1186		17.578125
1187		9.765625
1188		17.578125
1189		11.718750
1190		15.625000
1191		13.671875
1192		15.625000
1193		9.765625
1194		17.578125
1195		9.765625
1196		17.578125
1197		11.718750
1198		17.578125
1199		11.718750
1200		17.578125
1201		11.718750
1202		19.531250
1203		11.718750
1204		19.531250
1205		11.718750
1206		17.578125
1207		13.671875
1208		15.625000
1209		11.718750
1210		19.531250
1211		11.718750
1212		19.531250
1213		11.718750
1214		19.531250
1215		11.718750
1216		19.531250
1217		11.718750
1218		19.531250
1219		11.718750
1220		19.531250
1221		11.718750
1222		19.531250
1223		15.625000
1224		17.578125
1225		15.625000
1226		17.578125
1227		11.718750
1228		19.531250
1229		13.671875
1230		19.531250
1231		11.718750
1232		19.531250
1233		13.671875
1234		19.531250
1235		13.671875
1236		19.531250
1237		13.671875
1238		19.531250
1239		13.671875
1240		19.531250
1241		15.625000
1242		17.578125
1243		13.671875
1244		19.531250
1245		13.671875
1246		19.531250
1247		11.718750
1248		21.484375
1249		13.671875
1250		19.531250
1251		11.718750
1252		19.531250
1253		11.718750
1254		19.531250
1255		11.718750
1256		19.531250
1257		15.625000
1258		17.578125
1259		13.671875
1260		17.578125
1261		11.718750
1262		19.531250
1263		11.718750
1264		19.531250
1265		11.718750
1266		19.531250
1267		11.718750
1268		19.531250
1269		11.718750
1270		19.531250
1271		11.718750
1272		17.578125
1273		13.671875
1274		15.625000
1275		13.671875
1276		15.625000
1277		9.765625
1278		17.578125
1279		9.765625
1280		17.578125
1281		9.765625
1282		17.578125
1283		9.765625
1284		17.578125
1285		9.765625
1286		17.578125
1287		9.765625
1288		15.625000
1289		9.765625
1290		15.625000
1291		9.765625
1292		13.671875
1293		7.812500
1294		13.671875
1295		7.812500
1296		15.625000
1297		7.812500
1298		13.671875
1299		5.859375
1300		13.671875
1301		5.859375
1302		13.671875
1303		5.859375
1304		13.671875
1305		5.859375
1306		13.671875
1307		7.812500
1308		9.765625
1309		7.812500
1310		9.765625
1311		3.906250
1312		11.718750
1313		3.906250
1314		11.718750
1315		3.906250
1316		11.718750
1317		3.906250
1318		9.765625
1319		3.906250
1320		9.765625
1321		1.953125
1322		9.765625
1323		3.906250
1324		9.765625
1325		5.859375
1326		7.812500
1327		1.953125
1328		9.765625
1329		1.953125
1330		9.765625
1331		1.953125
1332		9.765625
1333		3.906250
1334		9.765625
1335		1.953125
1336		9.765625
1337		1.953125
1338		9.765625
1339		1.953125
1340		7.812500
1341		3.906250
1342		5.859375
1343		3.906250
1344		5.859375
