Old_data/metingen laweit/1000Hz, 50.0cm/data_81_m143.txt

Channel              :		CH1
Frequency            :		1.047kHz
Period               :		0.955ms
PK-PK                :		277.3mV
Probe attenuation    :		1X
Voltage per ADC value:		0.122070mV
Time interval        :		2.00000us

index		CH1_Voltage(mV)
1		-31.250000
2		-31.250000
3		-39.062500
4		-33.203125
5		-42.968750
6		-37.109375
7		-46.875000
8		-41.015625
9		-50.781250
10		-42.968750
11		-52.734375
12		-46.875000
13		-56.640625
14		-52.734375
15		-60.546875
16		-54.687500
17		-62.500000
18		-58.593750
19		-66.406250
20		-62.500000
21		-70.312500
22		-64.453125
23		-74.218750
24		-68.359375
25		-76.171875
26		-70.312500
27		-80.078125
28		-74.218750
29		-82.031250
30		-78.125000
31		-87.890625
32		-82.031250
33		-89.843750
34		-83.984375
35		-91.796875
36		-87.890625
37		-95.703125
38		-89.843750
39		-97.656250
40		-93.750000
41		-101.562500
42		-95.703125
43		-103.515625
44		-99.609375
45		-107.421875
46		-101.562500
47		-109.375000
48		-103.515625
49		-113.281250
50		-105.468750
51		-115.234375
52		-109.375000
53		-117.187500
54		-111.328125
55		-119.140625
56		-115.234375
57		-123.046875
58		-117.187500
59		-125.000000
60		-119.140625
61		-125.000000
62		-121.093750
63		-128.906250
64		-125.000000
65		-130.859375
66		-125.000000
67		-132.812500
68		-128.906250
69		-134.765625
70		-128.906250
71		-134.765625
72		-130.859375
73		-136.718750
74		-132.812500
75		-138.671875
76		-134.765625
77		-140.625000
78		-136.718750
79		-142.578125
80		-138.671875
81		-142.578125
82		-140.625000
83		-144.531250
84		-138.671875
85		-144.531250
86		-142.578125
87		-146.484375
88		-142.578125
89		-146.484375
90		-144.531250
91		-146.484375
92		-144.531250
93		-148.437500
94		-144.531250
95		-148.437500
96		-146.484375
97		-148.437500
98		-146.484375
99		-150.390625
100		-146.484375
101		-150.390625
102		-146.484375
103		-150.390625
104		-146.484375
105		-150.390625
106		-146.484375
107		-150.390625
108		-146.484375
109		-150.390625
110		-146.484375
111		-150.390625
112		-146.484375
113		-148.437500
114		-146.484375
115		-150.390625
116		-144.531250
117		-148.437500
118		-144.531250
119		-148.437500
120		-144.531250
121		-146.484375
122		-142.578125
123		-146.484375
124		-142.578125
125		-144.531250
126		-140.625000
127		-144.531250
128		-140.625000
129		-142.578125
130		-138.671875
131		-140.625000
132		-138.671875
133		-140.625000
134		-134.765625
135		-138.671875
136		-134.765625
137		-138.671875
138		-132.812500
139		-134.765625
140		-130.859375
141		-132.812500
142		-128.906250
143		-130.859375
144		-126.953125
145		-130.859375
146		-125.000000
147		-126.953125
148		-123.046875
149		-125.000000
150		-121.093750
151		-123.046875
152		-119.140625
153		-121.093750
154		-115.234375
155		-117.187500
156		-113.281250
157		-117.187500
158		-111.328125
159		-113.281250
160		-109.375000
161		-111.328125
162		-105.468750
163		-107.421875
164		-103.515625
165		-105.468750
166		-99.609375
167		-103.515625
168		-97.656250
169		-99.609375
170		-93.750000
171		-95.703125
172		-91.796875
173		-93.750000
174		-87.890625
175		-89.843750
176		-85.937500
177		-87.890625
178		-82.031250
179		-83.984375
180		-80.078125
181		-80.078125
182		-76.171875
183		-78.125000
184		-72.265625
185		-74.218750
186		-68.359375
187		-70.312500
188		-66.406250
189		-68.359375
190		-62.500000
191		-64.453125
192		-58.593750
193		-60.546875
194		-54.687500
195		-56.640625
196		-52.734375
197		-52.734375
198		-48.828125
199		-50.781250
200		-42.968750
201		-46.875000
202		-41.015625
203		-42.968750
204		-37.109375
205		-39.062500
206		-33.203125
207		-35.156250
208		-31.250000
209		-33.203125
210		-27.343750
211		-27.343750
212		-21.484375
213		-25.390625
214		-19.531250
215		-21.484375
216		-15.625000
217		-17.578125
218		-11.718750
219		-13.671875
220		-9.765625
221		-11.718750
222		-5.859375
223		-5.859375
224		-1.953125
225		-3.906250
226		1.953125
227		0.000000
228		5.859375
229		1.953125
230		7.812500
231		7.812500
232		11.718750
233		9.765625
234		15.625000
235		13.671875
236		17.578125
237		17.578125
238		21.484375
239		19.531250
240		25.390625
241		23.437500
242		27.343750
243		27.343750
244		31.250000
245		29.296875
246		35.156250
247		33.203125
248		37.109375
249		35.156250
250		41.015625
251		37.109375
252		42.968750
253		41.015625
254		46.875000
255		44.921875
256		50.781250
257		46.875000
258		52.734375
259		50.781250
260		54.687500
261		52.734375
262		58.593750
263		54.687500
264		60.546875
265		58.593750
266		62.500000
267		60.546875
268		66.406250
269		62.500000
270		68.359375
271		66.406250
272		70.312500
273		70.312500
274		74.218750
275		72.265625
276		76.171875
277		74.218750
278		78.125000
279		76.171875
280		80.078125
281		78.125000
282		82.031250
283		80.078125
284		85.937500
285		82.031250
286		87.890625
287		83.984375
288		87.890625
289		85.937500
290		89.843750
291		87.890625
292		91.796875
293		89.843750
294		93.750000
295		91.796875
296		97.656250
297		93.750000
298		97.656250
299		95.703125
300		99.609375
301		97.656250
302		101.562500
303		97.656250
304		101.562500
305		99.609375
306		103.515625
307		101.562500
308		105.468750
309		101.562500
310		105.468750
311		103.515625
312		107.421875
313		103.515625
314		109.375000
315		105.468750
316		109.375000
317		105.468750
318		109.375000
319		107.421875
320		111.328125
321		107.421875
322		111.328125
323		109.375000
324		113.281250
325		109.375000
326		113.281250
327		111.328125
328		113.281250
329		111.328125
330		115.234375
331		111.328125
332		113.281250
333		113.281250
334		115.234375
335		111.328125
336		115.234375
337		111.328125
338		117.187500
339		113.281250
340		117.187500
341		113.281250
342		115.234375
343		113.281250
344		115.234375
345		113.281250
346		115.234375
347		111.328125
348		115.234375
349		113.281250
350		115.234375
351		111.328125
352		117.187500
353		111.328125
354		115.234375
355		111.328125
356		115.234375
357		111.328125
358		113.281250
359		111.328125
360		113.281250
361		109.375000
362		113.281250
363		107.421875
364		113.281250
365		109.375000
366		111.328125
367		105.468750
368		111.328125
369		107.421875
370		109.375000
371		105.468750
372		109.375000
373		103.515625
374		107.421875
375		103.515625
376		107.421875
377		101.562500
378		105.468750
379		99.609375
380		103.515625
381		99.609375
382		103.515625
383		97.656250
384		101.562500
385		95.703125
386		99.609375
387		93.750000
388		99.609375
389		93.750000
390		97.656250
391		91.796875
392		95.703125
393		89.843750
394		93.750000
395		87.890625
396		91.796875
397		85.937500
398		89.843750
399		83.984375
400		87.890625
401		82.031250
402		85.937500
403		80.078125
404		83.984375
405		78.125000
406		82.031250
407		76.171875
408		80.078125
409		72.265625
410		78.125000
411		70.312500
412		74.218750
413		66.406250
414		74.218750
415		66.406250
416		70.312500
417		62.500000
418		68.359375
419		60.546875
420		66.406250
421		58.593750
422		62.500000
423		54.687500
424		60.546875
425		52.734375
426		56.640625
427		48.828125
428		54.687500
429		46.875000
430		50.781250
431		42.968750
432		48.828125
433		41.015625
434		44.921875
435		37.109375
436		42.968750
437		35.156250
438		39.062500
439		31.250000
440		37.109375
441		27.343750
442		33.203125
443		25.390625
444		29.296875
445		21.484375
446		27.343750
447		17.578125
448		23.437500
449		13.671875
450		19.531250
451		11.718750
452		15.625000
453		7.812500
454		13.671875
455		3.906250
456		9.765625
457		1.953125
458		7.812500
459		-1.953125
460		1.953125
461		-5.859375
462		-1.953125
463		-9.765625
464		-3.906250
465		-13.671875
466		-7.812500
467		-15.625000
468		-11.718750
469		-19.531250
470		-13.671875
471		-23.437500
472		-19.531250
473		-27.343750
474		-21.484375
475		-31.250000
476		-25.390625
477		-35.156250
478		-29.296875
479		-37.109375
480		-33.203125
481		-41.015625
482		-35.156250
483		-44.921875
484		-39.062500
485		-50.781250
486		-42.968750
487		-52.734375
488		-44.921875
489		-54.687500
490		-48.828125
491		-58.593750
492		-52.734375
493		-62.500000
494		-56.640625
495		-64.453125
496		-60.546875
497		-70.312500
498		-62.500000
499		-72.265625
500		-66.406250
501		-76.171875
502		-70.312500
503		-80.078125
504		-72.265625
505		-82.031250
506		-76.171875
507		-83.984375
508		-80.078125
509		-87.890625
510		-83.984375
511		-91.796875
512		-85.937500
513		-95.703125
514		-89.843750
515		-97.656250
516		-91.796875
517		-99.609375
518		-95.703125
519		-103.515625
520		-97.656250
521		-105.468750
522		-101.562500
523		-109.375000
524		-103.515625
525		-111.328125
526		-107.421875
527		-113.281250
528		-109.375000
529		-117.187500
530		-111.328125
531		-119.140625
532		-113.281250
533		-121.093750
534		-117.187500
535		-123.046875
536		-119.140625
537		-125.000000
538		-119.140625
539		-126.953125
540		-123.046875
541		-130.859375
542		-125.000000
543		-132.812500
544		-126.953125
545		-134.765625
546		-128.906250
547		-136.718750
548		-130.859375
549		-136.718750
550		-132.812500
551		-138.671875
552		-134.765625
553		-142.578125
554		-134.765625
555		-142.578125
556		-134.765625
557		-144.531250
558		-136.718750
559		-144.531250
560		-140.625000
561		-144.531250
562		-142.578125
563		-146.484375
564		-142.578125
565		-148.437500
566		-142.578125
567		-148.437500
568		-144.531250
569		-150.390625
570		-142.578125
571		-150.390625
572		-144.531250
573		-152.343750
574		-144.531250
575		-150.390625
576		-146.484375
577		-150.390625
578		-146.484375
579		-150.390625
580		-148.437500
581		-152.343750
582		-146.484375
583		-150.390625
584		-148.437500
585		-150.390625
586		-148.437500
587		-152.343750
588		-144.531250
589		-152.343750
590		-144.531250
591		-152.343750
592		-144.531250
593		-150.390625
594		-144.531250
595		-148.437500
596		-144.531250
597		-148.437500
598		-144.531250
599		-148.437500
600		-144.531250
601		-146.484375
602		-142.578125
603		-146.484375
604		-140.625000
605		-146.484375
606		-138.671875
607		-144.531250
608		-136.718750
609		-142.578125
610		-136.718750
611		-140.625000
612		-134.765625
613		-138.671875
614		-134.765625
615		-136.718750
616		-132.812500
617		-134.765625
618		-130.859375
619		-132.812500
620		-128.906250
621		-134.765625
622		-125.000000
623		-130.859375
624		-123.046875
625		-128.906250
626		-121.093750
627		-126.953125
628		-119.140625
629		-123.046875
630		-115.234375
631		-121.093750
632		-115.234375
633		-119.140625
634		-113.281250
635		-115.234375
636		-111.328125
637		-115.234375
638		-105.468750
639		-111.328125
640		-103.515625
641		-109.375000
642		-99.609375
643		-107.421875
644		-99.609375
645		-103.515625
646		-95.703125
647		-101.562500
648		-91.796875
649		-97.656250
650		-91.796875
651		-91.796875
652		-87.890625
653		-89.843750
654		-82.031250
655		-89.843750
656		-80.078125
657		-85.937500
658		-76.171875
659		-82.031250
660		-72.265625
661		-78.125000
662		-70.312500
663		-76.171875
664		-66.406250
665		-72.265625
666		-64.453125
667		-66.406250
668		-62.500000
669		-62.500000
670		-58.593750
671		-60.546875
672		-52.734375
673		-58.593750
674		-48.828125
675		-54.687500
676		-44.921875
677		-50.781250
678		-42.968750
679		-48.828125
680		-39.062500
681		-44.921875
682		-33.203125
683		-39.062500
684		-33.203125
685		-35.156250
686		-29.296875
687		-31.250000
688		-25.390625
689		-29.296875
690		-19.531250
691		-25.390625
692		-17.578125
693		-23.437500
694		-13.671875
695		-19.531250
696		-9.765625
697		-15.625000
698		-5.859375
699		-11.718750
700		-3.906250
701		-5.859375
702		-1.953125
703		-1.953125
704		1.953125
705		-1.953125
706		7.812500
707		1.953125
708		11.718750
709		3.906250
710		13.671875
711		7.812500
712		17.578125
713		11.718750
714		21.484375
715		15.625000
716		23.437500
717		19.531250
718		25.390625
719		23.437500
720		29.296875
721		27.343750
722		33.203125
723		27.343750
724		37.109375
725		31.250000
726		41.015625
727		35.156250
728		42.968750
729		37.109375
730		46.875000
731		39.062500
732		48.828125
733		42.968750
734		50.781250
735		48.828125
736		52.734375
737		50.781250
738		58.593750
739		50.781250
740		60.546875
741		54.687500
742		62.500000
743		56.640625
744		66.406250
745		60.546875
746		68.359375
747		62.500000
748		70.312500
749		64.453125
750		72.265625
751		70.312500
752		74.218750
753		72.265625
754		76.171875
755		72.265625
756		80.078125
757		74.218750
758		82.031250
759		76.171875
760		83.984375
761		78.125000
762		85.937500
763		80.078125
764		89.843750
765		83.984375
766		91.796875
767		85.937500
768		89.843750
769		87.890625
770		91.796875
771		89.843750
772		95.703125
773		89.843750
774		99.609375
775		91.796875
776		99.609375
777		91.796875
778		101.562500
779		93.750000
780		103.515625
781		95.703125
782		103.515625
783		97.656250
784		105.468750
785		101.562500
786		103.515625
787		103.515625
788		105.468750
789		101.562500
790		109.375000
791		103.515625
792		109.375000
793		103.515625
794		111.328125
795		103.515625
796		111.328125
797		105.468750
798		113.281250
799		105.468750
800		113.281250
801		107.421875
802		113.281250
803		109.375000
804		113.281250
805		107.421875
806		115.234375
807		109.375000
808		117.187500
809		109.375000
810		117.187500
811		109.375000
812		117.187500
813		109.375000
814		117.187500
815		109.375000
816		117.187500
817		109.375000
818		119.140625
819		113.281250
820		115.234375
821		111.328125
822		117.187500
823		109.375000
824		117.187500
825		109.375000
826		117.187500
827		109.375000
828		117.187500
829		109.375000
830		117.187500
831		109.375000
832		117.187500
833		109.375000
834		117.187500
835		111.328125
836		113.281250
837		109.375000
838		113.281250
839		107.421875
840		115.234375
841		105.468750
842		113.281250
843		105.468750
844		113.281250
845		103.515625
846		113.281250
847		103.515625
848		111.328125
849		103.515625
850		111.328125
851		101.562500
852		109.375000
853		103.515625
854		105.468750
855		99.609375
856		105.468750
857		97.656250
858		105.468750
859		97.656250
860		105.468750
861		95.703125
862		103.515625
863		93.750000
864		101.562500
865		91.796875
866		99.609375
867		89.843750
868		99.609375
869		91.796875
870		93.750000
871		89.843750
872		91.796875
873		83.984375
874		93.750000
875		82.031250
876		91.796875
877		80.078125
878		89.843750
879		78.125000
880		87.890625
881		78.125000
882		83.984375
883		74.218750
884		82.031250
885		74.218750
886		80.078125
887		72.265625
888		76.171875
889		66.406250
890		74.218750
891		64.453125
892		72.265625
893		62.500000
894		70.312500
895		58.593750
896		68.359375
897		56.640625
898		66.406250
899		54.687500
900		62.500000
901		52.734375
902		60.546875
903		50.781250
904		54.687500
905		46.875000
906		52.734375
907		42.968750
908		52.734375
909		39.062500
910		48.828125
911		37.109375
912		44.921875
913		33.203125
914		42.968750
915		29.296875
916		41.015625
917		27.343750
918		37.109375
919		27.343750
920		31.250000
921		23.437500
922		27.343750
923		17.578125
924		25.390625
925		13.671875
926		21.484375
927		11.718750
928		19.531250
929		7.812500
930		15.625000
931		3.906250
932		13.671875
933		1.953125
934		7.812500
935		0.000000
936		5.859375
937		-3.906250
938		1.953125
939		-9.765625
940		-1.953125
941		-13.671875
942		-3.906250
943		-15.625000
944		-7.812500
945		-19.531250
946		-9.765625
947		-23.437500
948		-15.625000
949		-25.390625
950		-17.578125
951		-29.296875
952		-21.484375
953		-31.250000
954		-27.343750
955		-35.156250
956		-31.250000
957		-41.015625
958		-31.250000
959		-44.921875
960		-35.156250
961		-48.828125
962		-39.062500
963		-52.734375
964		-42.968750
965		-54.687500
966		-46.875000
967		-58.593750
968		-50.781250
969		-60.546875
970		-54.687500
971		-64.453125
972		-58.593750
973		-70.312500
974		-60.546875
975		-72.265625
976		-62.500000
977		-76.171875
978		-66.406250
979		-80.078125
980		-70.312500
981		-83.984375
982		-72.265625
983		-85.937500
984		-76.171875
985		-87.890625
986		-80.078125
987		-89.843750
988		-85.937500
989		-93.750000
990		-87.890625
991		-97.656250
992		-87.890625
993		-101.562500
994		-91.796875
995		-103.515625
996		-95.703125
997		-105.468750
998		-97.656250
999		-109.375000
1000		-99.609375
1001		-111.328125
1002		-103.515625
1003		-111.328125
1004		-107.421875
1005		-115.234375
1006		-111.328125
1007		-119.140625
1008		-111.328125
1009		-123.046875
1010		-113.281250
1011		-125.000000
1012		-115.234375
1013		-126.953125
1014		-117.187500
1015		-128.906250
1016		-121.093750
1017		-130.859375
1018		-123.046875
1019		-130.859375
1020		-125.000000
1021		-132.812500
1022		-128.906250
1023		-136.718750
1024		-128.906250
1025		-138.671875
1026		-130.859375
1027		-140.625000
1028		-132.812500
1029		-142.578125
1030		-132.812500
1031		-142.578125
1032		-134.765625
1033		-144.531250
1034		-136.718750
1035		-144.531250
1036		-138.671875
1037		-144.531250
1038		-142.578125
1039		-146.484375
1040		-142.578125
1041		-148.437500
1042		-140.625000
1043		-150.390625
1044		-140.625000
1045		-150.390625
1046		-142.578125
1047		-150.390625
1048		-144.531250
1049		-152.343750
1050		-144.531250
1051		-152.343750
1052		-144.531250
1053		-152.343750
1054		-146.484375
1055		-150.390625
1056		-148.437500
1057		-152.343750
1058		-146.484375
1059		-154.296875
1060		-146.484375
1061		-154.296875
1062		-146.484375
1063		-154.296875
1064		-146.484375
1065		-154.296875
1066		-144.531250
1067		-152.343750
1068		-144.531250
1069		-152.343750
1070		-144.531250
1071		-148.437500
1072		-146.484375
1073		-148.437500
1074		-146.484375
1075		-150.390625
1076		-142.578125
1077		-150.390625
1078		-140.625000
1079		-148.437500
1080		-140.625000
1081		-148.437500
1082		-138.671875
1083		-146.484375
1084		-138.671875
1085		-144.531250
1086		-136.718750
1087		-140.625000
1088		-136.718750
1089		-140.625000
1090		-136.718750
1091		-140.625000
1092		-132.812500
1093		-138.671875
1094		-128.906250
1095		-138.671875
1096		-128.906250
1097		-134.765625
1098		-126.953125
1099		-132.812500
1100		-125.000000
1101		-132.812500
1102		-123.046875
1103		-128.906250
1104		-123.046875
1105		-125.000000
1106		-121.093750
1107		-123.046875
1108		-115.234375
1109		-123.046875
1110		-113.281250
1111		-119.140625
1112		-111.328125
1113		-117.187500
1114		-109.375000
1115		-115.234375
1116		-105.468750
1117		-113.281250
1118		-103.515625
1119		-109.375000
1120		-101.562500
1121		-103.515625
1122		-99.609375
1123		-101.562500
1124		-97.656250
1125		-99.609375
1126		-91.796875
1127		-97.656250
1128		-89.843750
1129		-95.703125
1130		-83.984375
1131		-89.843750
1132		-82.031250
1133		-87.890625
1134		-80.078125
1135		-85.937500
1136		-76.171875
1137		-80.078125
1138		-74.218750
1139		-76.171875
1140		-72.265625
1141		-72.265625
1142		-66.406250
1143		-70.312500
1144		-62.500000
1145		-68.359375
1146		-58.593750
1147		-64.453125
1148		-54.687500
1149		-60.546875
1150		-50.781250
1151		-58.593750
1152		-48.828125
1153		-52.734375
1154		-46.875000
1155		-48.828125
1156		-42.968750
1157		-44.921875
1158		-39.062500
1159		-42.968750
1160		-33.203125
1161		-39.062500
1162		-29.296875
1163		-37.109375
1164		-27.343750
1165		-33.203125
1166		-23.437500
1167		-29.296875
1168		-19.531250
1169		-25.390625
1170		-17.578125
1171		-19.531250
1172		-13.671875
1173		-15.625000
1174		-9.765625
1175		-13.671875
1176		-3.906250
1177		-9.765625
1178		-1.953125
1179		-5.859375
1180		1.953125
1181		-5.859375
1182		5.859375
1183		0.000000
1184		9.765625
1185		3.906250
1186		11.718750
1187		5.859375
1188		13.671875
1189		11.718750
1190		17.578125
1191		15.625000
1192		23.437500
1193		15.625000
1194		23.437500
1195		19.531250
1196		29.296875
1197		23.437500
1198		33.203125
1199		27.343750
1200		35.156250
1201		29.296875
1202		37.109375
1203		33.203125
1204		41.015625
1205		37.109375
1206		42.968750
1207		41.015625
1208		44.921875
1209		41.015625
1210		50.781250
1211		42.968750
1212		52.734375
1213		46.875000
1214		56.640625
1215		50.781250
1216		58.593750
1217		52.734375
1218		60.546875
1219		54.687500
1220		64.453125
1221		58.593750
1222		64.453125
1223		62.500000
1224		66.406250
1225		64.453125
1226		72.265625
1227		66.406250
1228		74.218750
1229		68.359375
