Old_data/metingen laweit/1000Hz, 50.0cm/data_81_m185.txt

Channel              :		CH1
Frequency            :		1.050kHz
Period               :		0.952ms
PK-PK                :		330.1mV
Probe attenuation    :		1X
Voltage per ADC value:		0.122070mV
Time interval        :		2.00000us

index		CH1_Voltage(mV)
1		19.531250
2		19.531250
3		5.859375
4		15.625000
5		3.906250
6		9.765625
7		0.000000
8		5.859375
9		-7.812500
10		0.000000
11		-11.718750
12		-1.953125
13		-15.625000
14		-5.859375
15		-19.531250
16		-11.718750
17		-25.390625
18		-13.671875
19		-29.296875
20		-17.578125
21		-31.250000
22		-23.437500
23		-35.156250
24		-29.296875
25		-41.015625
26		-33.203125
27		-44.921875
28		-35.156250
29		-50.781250
30		-39.062500
31		-52.734375
32		-44.921875
33		-58.593750
34		-46.875000
35		-60.546875
36		-52.734375
37		-64.453125
38		-56.640625
39		-68.359375
40		-62.500000
41		-72.265625
42		-66.406250
43		-80.078125
44		-70.312500
45		-82.031250
46		-74.218750
47		-87.890625
48		-76.171875
49		-89.843750
50		-80.078125
51		-93.750000
52		-85.937500
53		-97.656250
54		-87.890625
55		-99.609375
56		-93.750000
57		-103.515625
58		-97.656250
59		-109.375000
60		-101.562500
61		-111.328125
62		-103.515625
63		-117.187500
64		-107.421875
65		-119.140625
66		-111.328125
67		-125.000000
68		-115.234375
69		-126.953125
70		-117.187500
71		-128.906250
72		-121.093750
73		-130.859375
74		-125.000000
75		-132.812500
76		-128.906250
77		-138.671875
78		-128.906250
79		-140.625000
80		-132.812500
81		-144.531250
82		-134.765625
83		-146.484375
84		-136.718750
85		-148.437500
86		-140.625000
87		-152.343750
88		-142.578125
89		-152.343750
90		-146.484375
91		-154.296875
92		-150.390625
93		-158.203125
94		-150.390625
95		-160.156250
96		-152.343750
97		-162.109375
98		-154.296875
99		-164.062500
100		-156.250000
101		-166.015625
102		-158.203125
103		-167.968750
104		-158.203125
105		-167.968750
106		-162.109375
107		-167.968750
108		-164.062500
109		-171.875000
110		-164.062500
111		-171.875000
112		-164.062500
113		-173.828125
114		-166.015625
115		-173.828125
116		-166.015625
117		-173.828125
118		-166.015625
119		-175.781250
120		-167.968750
121		-175.781250
122		-167.968750
123		-171.875000
124		-169.921875
125		-173.828125
126		-169.921875
127		-173.828125
128		-169.921875
129		-175.781250
130		-169.921875
131		-173.828125
132		-167.968750
133		-175.781250
134		-167.968750
135		-173.828125
136		-167.968750
137		-173.828125
138		-166.015625
139		-171.875000
140		-167.968750
141		-169.921875
142		-166.015625
143		-171.875000
144		-164.062500
145		-169.921875
146		-162.109375
147		-167.968750
148		-160.156250
149		-167.968750
150		-160.156250
151		-166.015625
152		-158.203125
153		-166.015625
154		-156.250000
155		-162.109375
156		-154.296875
157		-158.203125
158		-154.296875
159		-156.250000
160		-152.343750
161		-156.250000
162		-146.484375
163		-154.296875
164		-146.484375
165		-152.343750
166		-144.531250
167		-150.390625
168		-140.625000
169		-146.484375
170		-138.671875
171		-144.531250
172		-134.765625
173		-140.625000
174		-134.765625
175		-136.718750
176		-130.859375
177		-134.765625
178		-126.953125
179		-132.812500
180		-123.046875
181		-128.906250
182		-119.140625
183		-125.000000
184		-117.187500
185		-123.046875
186		-113.281250
187		-119.140625
188		-109.375000
189		-115.234375
190		-107.421875
191		-109.375000
192		-103.515625
193		-105.468750
194		-99.609375
195		-105.468750
196		-95.703125
197		-99.609375
198		-89.843750
199		-95.703125
200		-87.890625
201		-91.796875
202		-83.984375
203		-89.843750
204		-78.125000
205		-82.031250
206		-76.171875
207		-78.125000
208		-72.265625
209		-74.218750
210		-68.359375
211		-70.312500
212		-62.500000
213		-68.359375
214		-58.593750
215		-64.453125
216		-52.734375
217		-58.593750
218		-48.828125
219		-54.687500
220		-44.921875
221		-50.781250
222		-39.062500
223		-46.875000
224		-37.109375
225		-39.062500
226		-33.203125
227		-35.156250
228		-27.343750
229		-33.203125
230		-23.437500
231		-29.296875
232		-19.531250
233		-23.437500
234		-13.671875
235		-21.484375
236		-9.765625
237		-15.625000
238		-5.859375
239		-11.718750
240		-1.953125
241		-3.906250
242		0.000000
243		0.000000
244		5.859375
245		3.906250
246		11.718750
247		5.859375
248		15.625000
249		9.765625
250		19.531250
251		15.625000
252		23.437500
253		19.531250
254		27.343750
255		21.484375
256		31.250000
257		27.343750
258		33.203125
259		33.203125
260		39.062500
261		37.109375
262		44.921875
263		39.062500
264		48.828125
265		41.015625
266		50.781250
267		46.875000
268		54.687500
269		48.828125
270		58.593750
271		54.687500
272		62.500000
273		56.640625
274		64.453125
275		62.500000
276		68.359375
277		66.406250
278		72.265625
279		66.406250
280		76.171875
281		70.312500
282		80.078125
283		74.218750
284		83.984375
285		78.125000
286		85.937500
287		80.078125
288		89.843750
289		82.031250
290		91.796875
291		87.890625
292		93.750000
293		91.796875
294		95.703125
295		93.750000
296		101.562500
297		95.703125
298		103.515625
299		97.656250
300		105.468750
301		99.609375
302		107.421875
303		101.562500
304		111.328125
305		105.468750
306		113.281250
307		107.421875
308		113.281250
309		111.328125
310		115.234375
311		113.281250
312		119.140625
313		113.281250
314		123.046875
315		115.234375
316		123.046875
317		117.187500
318		126.953125
319		119.140625
320		128.906250
321		121.093750
322		128.906250
323		123.046875
324		130.859375
325		126.953125
326		130.859375
327		128.906250
328		132.812500
329		128.906250
330		136.718750
331		128.906250
332		136.718750
333		130.859375
334		138.671875
335		132.812500
336		138.671875
337		132.812500
338		140.625000
339		132.812500
340		140.625000
341		136.718750
342		140.625000
343		138.671875
344		140.625000
345		136.718750
346		144.531250
347		136.718750
348		144.531250
349		138.671875
350		144.531250
351		138.671875
352		146.484375
353		138.671875
354		146.484375
355		138.671875
356		146.484375
357		140.625000
358		146.484375
359		142.578125
360		146.484375
361		142.578125
362		144.531250
363		140.625000
364		148.437500
365		140.625000
366		148.437500
367		140.625000
368		148.437500
369		140.625000
370		148.437500
371		138.671875
372		148.437500
373		138.671875
374		146.484375
375		142.578125
376		144.531250
377		140.625000
378		144.531250
379		136.718750
380		144.531250
381		136.718750
382		144.531250
383		136.718750
384		144.531250
385		134.765625
386		142.578125
387		134.765625
388		142.578125
389		132.812500
390		140.625000
391		134.765625
392		140.625000
393		132.812500
394		136.718750
395		130.859375
396		136.718750
397		128.906250
398		136.718750
399		126.953125
400		134.765625
401		126.953125
402		132.812500
403		123.046875
404		132.812500
405		121.093750
406		130.859375
407		121.093750
408		128.906250
409		121.093750
410		125.000000
411		119.140625
412		123.046875
413		113.281250
414		123.046875
415		111.328125
416		121.093750
417		109.375000
418		119.140625
419		107.421875
420		117.187500
421		105.468750
422		113.281250
423		101.562500
424		111.328125
425		101.562500
426		107.421875
427		99.609375
428		103.515625
429		95.703125
430		101.562500
431		91.796875
432		99.609375
433		87.890625
434		97.656250
435		85.937500
436		95.703125
437		83.984375
438		91.796875
439		78.125000
440		87.890625
441		78.125000
442		85.937500
443		76.171875
444		80.078125
445		72.265625
446		76.171875
447		66.406250
448		76.171875
449		62.500000
450		72.265625
451		58.593750
452		68.359375
453		56.640625
454		66.406250
455		52.734375
456		60.546875
457		50.781250
458		56.640625
459		46.875000
460		52.734375
461		42.968750
462		48.828125
463		37.109375
464		44.921875
465		33.203125
466		42.968750
467		31.250000
468		37.109375
469		23.437500
470		35.156250
471		21.484375
472		31.250000
473		17.578125
474		27.343750
475		15.625000
476		21.484375
477		9.765625
478		15.625000
479		3.906250
480		11.718750
481		0.000000
482		9.765625
483		-3.906250
484		5.859375
485		-7.812500
486		1.953125
487		-13.671875
488		-1.953125
489		-17.578125
490		-7.812500
491		-19.531250
492		-11.718750
493		-23.437500
494		-17.578125
495		-27.343750
496		-21.484375
497		-33.203125
498		-25.390625
499		-39.062500
500		-27.343750
501		-41.015625
502		-33.203125
503		-46.875000
504		-37.109375
505		-50.781250
506		-41.015625
507		-54.687500
508		-44.921875
509		-56.640625
510		-48.828125
511		-60.546875
512		-56.640625
513		-66.406250
514		-60.546875
515		-72.265625
516		-60.546875
517		-76.171875
518		-66.406250
519		-78.125000
520		-70.312500
521		-83.984375
522		-74.218750
523		-87.890625
524		-78.125000
525		-89.843750
526		-82.031250
527		-93.750000
528		-87.890625
529		-97.656250
530		-91.796875
531		-103.515625
532		-93.750000
533		-107.421875
534		-95.703125
535		-111.328125
536		-101.562500
537		-113.281250
538		-103.515625
539		-117.187500
540		-107.421875
541		-121.093750
542		-111.328125
543		-121.093750
544		-115.234375
545		-125.000000
546		-121.093750
547		-130.859375
548		-123.046875
549		-134.765625
550		-125.000000
551		-136.718750
552		-128.906250
553		-138.671875
554		-128.906250
555		-142.578125
556		-132.812500
557		-144.531250
558		-136.718750
559		-146.484375
560		-138.671875
561		-148.437500
562		-142.578125
563		-152.343750
564		-146.484375
565		-154.296875
566		-146.484375
567		-156.250000
568		-148.437500
569		-160.156250
570		-150.390625
571		-160.156250
572		-152.343750
573		-162.109375
574		-154.296875
575		-164.062500
576		-156.250000
577		-164.062500
578		-160.156250
579		-166.015625
580		-162.109375
581		-169.921875
582		-162.109375
583		-169.921875
584		-162.109375
585		-171.875000
586		-164.062500
587		-171.875000
588		-164.062500
589		-173.828125
590		-166.015625
591		-173.828125
592		-167.968750
593		-173.828125
594		-167.968750
595		-171.875000
596		-169.921875
597		-173.828125
598		-169.921875
599		-175.781250
600		-167.968750
601		-175.781250
602		-167.968750
603		-175.781250
604		-167.968750
605		-175.781250
606		-167.968750
607		-175.781250
608		-167.968750
609		-175.781250
610		-167.968750
611		-171.875000
612		-169.921875
613		-171.875000
614		-167.968750
615		-173.828125
616		-166.015625
617		-171.875000
618		-164.062500
619		-171.875000
620		-162.109375
621		-169.921875
622		-162.109375
623		-169.921875
624		-160.156250
625		-167.968750
626		-158.203125
627		-164.062500
628		-160.156250
629		-162.109375
630		-158.203125
631		-162.109375
632		-154.296875
633		-160.156250
634		-152.343750
635		-158.203125
636		-148.437500
637		-154.296875
638		-148.437500
639		-154.296875
640		-144.531250
641		-152.343750
642		-142.578125
643		-148.437500
644		-140.625000
645		-144.531250
646		-140.625000
647		-140.625000
648		-134.765625
649		-140.625000
650		-132.812500
651		-138.671875
652		-128.906250
653		-134.765625
654		-125.000000
655		-132.812500
656		-121.093750
657		-128.906250
658		-119.140625
659		-125.000000
660		-115.234375
661		-119.140625
662		-115.234375
663		-115.234375
664		-111.328125
665		-113.281250
666		-105.468750
667		-109.375000
668		-101.562500
669		-107.421875
670		-97.656250
671		-103.515625
672		-93.750000
673		-99.609375
674		-89.843750
675		-93.750000
676		-85.937500
677		-91.796875
678		-83.984375
679		-85.937500
680		-78.125000
681		-82.031250
682		-74.218750
683		-80.078125
684		-70.312500
685		-76.171875
686		-66.406250
687		-70.312500
688		-62.500000
689		-66.406250
690		-56.640625
691		-62.500000
692		-52.734375
693		-56.640625
694		-50.781250
695		-50.781250
696		-44.921875
697		-46.875000
698		-41.015625
699		-44.921875
700		-35.156250
701		-41.015625
702		-29.296875
703		-35.156250
704		-27.343750
705		-31.250000
706		-23.437500
707		-27.343750
708		-17.578125
709		-21.484375
710		-11.718750
711		-17.578125
712		-11.718750
713		-11.718750
714		-5.859375
715		-7.812500
716		0.000000
717		-5.859375
718		3.906250
719		-1.953125
720		7.812500
721		3.906250
722		11.718750
723		7.812500
724		15.625000
725		9.765625
726		21.484375
727		15.625000
728		23.437500
729		21.484375
730		27.343750
731		25.390625
732		33.203125
733		27.343750
734		37.109375
735		31.250000
736		42.968750
737		37.109375
738		44.921875
739		39.062500
740		48.828125
741		42.968750
742		52.734375
743		46.875000
744		54.687500
745		52.734375
746		58.593750
747		56.640625
748		62.500000
749		58.593750
750		68.359375
751		60.546875
752		70.312500
753		64.453125
754		74.218750
755		68.359375
756		78.125000
757		72.265625
758		80.078125
759		74.218750
760		83.984375
761		78.125000
762		85.937500
763		83.984375
764		87.890625
765		85.937500
766		93.750000
767		87.890625
768		97.656250
769		89.843750
770		99.609375
771		93.750000
772		101.562500
773		95.703125
774		103.515625
775		97.656250
776		107.421875
777		101.562500
778		109.375000
779		105.468750
780		109.375000
781		107.421875
782		111.328125
783		107.421875
784		117.187500
785		111.328125
786		119.140625
787		113.281250
788		121.093750
789		113.281250
790		123.046875
791		115.234375
792		125.000000
793		119.140625
794		126.953125
795		121.093750
796		126.953125
797		125.000000
798		128.906250
799		125.000000
800		130.859375
801		125.000000
802		132.812500
803		126.953125
804		136.718750
805		128.906250
806		134.765625
807		128.906250
808		136.718750
809		130.859375
810		138.671875
811		132.812500
812		138.671875
813		136.718750
814		138.671875
815		136.718750
816		140.625000
817		134.765625
818		142.578125
819		136.718750
820		144.531250
821		136.718750
822		144.531250
823		138.671875
824		144.531250
825		138.671875
826		146.484375
827		138.671875
828		146.484375
829		142.578125
830		144.531250
831		142.578125
832		144.531250
833		140.625000
834		146.484375
835		138.671875
836		148.437500
837		140.625000
838		148.437500
839		140.625000
840		148.437500
841		140.625000
842		148.437500
843		140.625000
844		146.484375
845		140.625000
846		146.484375
847		142.578125
848		144.531250
849		140.625000
850		146.484375
851		138.671875
852		146.484375
853		138.671875
854		146.484375
855		138.671875
856		146.484375
857		136.718750
858		144.531250
859		136.718750
860		144.531250
861		136.718750
862		142.578125
863		136.718750
864		140.625000
865		134.765625
866		138.671875
867		132.812500
868		140.625000
869		130.859375
870		138.671875
871		128.906250
872		136.718750
873		126.953125
874		134.765625
875		126.953125
876		134.765625
877		125.000000
878		132.812500
879		125.000000
880		130.859375
881		123.046875
882		126.953125
883		119.140625
884		126.953125
885		117.187500
886		125.000000
887		115.234375
888		123.046875
889		113.281250
890		121.093750
891		111.328125
892		119.140625
893		109.375000
894		117.187500
895		107.421875
896		115.234375
897		107.421875
898		111.328125
899		101.562500
900		109.375000
901		99.609375
902		107.421875
903		95.703125
904		105.468750
905		93.750000
906		103.515625
907		89.843750
908		99.609375
909		87.890625
910		97.656250
911		83.984375
912		93.750000
913		83.984375
914		87.890625
915		82.031250
916		85.937500
917		76.171875
918		83.984375
919		72.265625
920		80.078125
921		68.359375
922		78.125000
923		66.406250
924		74.218750
925		62.500000
926		70.312500
927		58.593750
928		68.359375
929		56.640625
930		64.453125
931		52.734375
932		58.593750
933		48.828125
934		54.687500
935		42.968750
936		52.734375
937		39.062500
938		48.828125
939		35.156250
940		44.921875
941		33.203125
942		41.015625
943		27.343750
944		37.109375
945		25.390625
946		33.203125
947		21.484375
948		27.343750
949		17.578125
950		23.437500
951		11.718750
952		19.531250
953		7.812500
954		17.578125
955		1.953125
956		13.671875
957		0.000000
958		9.765625
959		-5.859375
960		3.906250
961		-9.765625
962		0.000000
963		-11.718750
964		-5.859375
965		-15.625000
966		-9.765625
967		-23.437500
968		-15.625000
969		-25.390625
970		-17.578125
971		-31.250000
972		-21.484375
973		-37.109375
974		-25.390625
975		-39.062500
976		-29.296875
977		-42.968750
978		-33.203125
979		-46.875000
980		-39.062500
981		-50.781250
982		-44.921875
983		-54.687500
984		-48.828125
985		-62.500000
986		-50.781250
987		-64.453125
988		-56.640625
989		-68.359375
990		-60.546875
991		-72.265625
992		-64.453125
993		-78.125000
994		-68.359375
995		-80.078125
996		-72.265625
997		-83.984375
998		-78.125000
999		-87.890625
1000		-82.031250
1001		-93.750000
1002		-85.937500
1003		-97.656250
1004		-87.890625
1005		-99.609375
1006		-89.843750
1007		-105.468750
1008		-95.703125
1009		-107.421875
1010		-97.656250
1011		-111.328125
1012		-101.562500
1013		-113.281250
1014		-105.468750
1015		-115.234375
1016		-111.328125
1017		-119.140625
1018		-115.234375
1019		-125.000000
1020		-115.234375
1021		-128.906250
1022		-119.140625
1023		-130.859375
1024		-123.046875
1025		-134.765625
1026		-125.000000
1027		-138.671875
1028		-126.953125
1029		-140.625000
1030		-130.859375
1031		-140.625000
1032		-136.718750
1033		-142.578125
1034		-138.671875
1035		-148.437500
1036		-140.625000
1037		-150.390625
1038		-142.578125
1039		-152.343750
1040		-144.531250
1041		-154.296875
1042		-146.484375
1043		-158.203125
1044		-148.437500
1045		-160.156250
1046		-150.390625
1047		-160.156250
1048		-152.343750
1049		-160.156250
1050		-158.203125
1051		-164.062500
1052		-158.203125
1053		-166.015625
1054		-158.203125
1055		-167.968750
1056		-160.156250
1057		-169.921875
1058		-162.109375
1059		-169.921875
1060		-162.109375
1061		-171.875000
1062		-164.062500
1063		-171.875000
1064		-164.062500
1065		-169.921875
1066		-167.968750
1067		-171.875000
1068		-167.968750
1069		-175.781250
1070		-167.968750
1071		-175.781250
1072		-167.968750
1073		-175.781250
1074		-167.968750
1075		-175.781250
1076		-167.968750
1077		-175.781250
1078		-167.968750
1079		-175.781250
1080		-167.968750
1081		-173.828125
1082		-169.921875
1083		-171.875000
1084		-169.921875
1085		-173.828125
1086		-167.968750
1087		-173.828125
1088		-166.015625
1089		-173.828125
1090		-166.015625
1091		-173.828125
1092		-164.062500
1093		-171.875000
1094		-164.062500
1095		-169.921875
1096		-162.109375
1097		-169.921875
1098		-162.109375
1099		-166.015625
1100		-162.109375
1101		-164.062500
1102		-160.156250
1103		-166.015625
1104		-156.250000
1105		-162.109375
1106		-154.296875
1107		-160.156250
1108		-152.343750
1109		-160.156250
1110		-150.390625
1111		-156.250000
1112		-148.437500
1113		-154.296875
1114		-146.484375
1115		-150.390625
1116		-146.484375
1117		-148.437500
1118		-144.531250
1119		-146.484375
1120		-138.671875
1121		-144.531250
1122		-134.765625
1123		-142.578125
1124		-132.812500
1125		-138.671875
1126		-130.859375
1127		-136.718750
1128		-126.953125
1129		-132.812500
1130		-125.000000
1131		-128.906250
1132		-123.046875
1133		-125.000000
1134		-119.140625
1135		-121.093750
1136		-113.281250
1137		-119.140625
1138		-111.328125
1139		-115.234375
1140		-107.421875
1141		-113.281250
1142		-103.515625
1143		-109.375000
1144		-99.609375
1145		-105.468750
1146		-95.703125
1147		-101.562500
1148		-93.750000
1149		-95.703125
1150		-89.843750
1151		-91.796875
1152		-85.937500
1153		-87.890625
1154		-80.078125
1155		-85.937500
1156		-76.171875
1157		-82.031250
1158		-72.265625
1159		-78.125000
1160		-66.406250
1161		-72.265625
1162		-62.500000
1163		-68.359375
1164		-60.546875
1165		-64.453125
1166		-56.640625
1167		-58.593750
1168		-52.734375
1169		-54.687500
1170		-44.921875
1171		-50.781250
1172		-41.015625
1173		-46.875000
1174		-37.109375
1175		-42.968750
1176		-35.156250
1177		-39.062500
1178		-27.343750
1179		-33.203125
1180		-25.390625
1181		-29.296875
1182		-21.484375
1183		-23.437500
1184		-17.578125
1185		-19.531250
1186		-11.718750
1187		-17.578125
1188		-7.812500
1189		-13.671875
1190		-1.953125
1191		-7.812500
1192		0.000000
1193		-3.906250
1194		5.859375
1195		1.953125
1196		9.765625
1197		3.906250
1198		13.671875
1199		11.718750
1200		17.578125
1201		15.625000
1202		21.484375
1203		17.578125
1204		27.343750
1205		21.484375
1206		31.250000
1207		25.390625
1208		35.156250
1209		27.343750
1210		39.062500
1211		33.203125
1212		42.968750
1213		37.109375
1214		46.875000
1215		41.015625
1216		48.828125
1217		46.875000
1218		52.734375
1219		50.781250
1220		56.640625
1221		50.781250
