Old_data/metingen laweit/1000Hz, 50.0cm/data_81_m400.txt

Channel              :		CH1
Frequency            :		1.061kHz
Period               :		0.942ms
PK-PK                :		132.8mV
Probe attenuation    :		1X
Voltage per ADC value:		0.122070mV
Time interval        :		2.00000us

index		CH1_Voltage(mV)
1		27.343750
2		27.343750
3		31.250000
4		25.390625
5		31.250000
6		23.437500
7		27.343750
8		23.437500
9		27.343750
10		21.484375
11		25.390625
12		19.531250
13		23.437500
14		17.578125
15		21.484375
16		17.578125
17		21.484375
18		15.625000
19		19.531250
20		13.671875
21		17.578125
22		13.671875
23		15.625000
24		11.718750
25		15.625000
26		9.765625
27		13.671875
28		7.812500
29		11.718750
30		5.859375
31		9.765625
32		5.859375
33		9.765625
34		3.906250
35		7.812500
36		1.953125
37		5.859375
38		0.000000
39		3.906250
40		-1.953125
41		1.953125
42		-3.906250
43		0.000000
44		-5.859375
45		0.000000
46		-5.859375
47		-1.953125
48		-7.812500
49		-3.906250
50		-9.765625
51		-5.859375
52		-11.718750
53		-7.812500
54		-11.718750
55		-7.812500
56		-13.671875
57		-9.765625
58		-15.625000
59		-11.718750
60		-17.578125
61		-13.671875
62		-19.531250
63		-13.671875
64		-19.531250
65		-15.625000
66		-21.484375
67		-17.578125
68		-23.437500
69		-19.531250
70		-25.390625
71		-21.484375
72		-27.343750
73		-21.484375
74		-27.343750
75		-23.437500
76		-29.296875
77		-25.390625
78		-31.250000
79		-25.390625
80		-31.250000
81		-27.343750
82		-33.203125
83		-29.296875
84		-35.156250
85		-31.250000
86		-35.156250
87		-31.250000
88		-37.109375
89		-33.203125
90		-37.109375
91		-35.156250
92		-39.062500
93		-35.156250
94		-41.015625
95		-37.109375
96		-41.015625
97		-37.109375
98		-42.968750
99		-39.062500
100		-44.921875
101		-41.015625
102		-44.921875
103		-41.015625
104		-44.921875
105		-42.968750
106		-46.875000
107		-42.968750
108		-46.875000
109		-44.921875
110		-48.828125
111		-44.921875
112		-50.781250
113		-46.875000
114		-50.781250
115		-46.875000
116		-50.781250
117		-48.828125
118		-52.734375
119		-48.828125
120		-52.734375
121		-48.828125
122		-54.687500
123		-50.781250
124		-54.687500
125		-50.781250
126		-54.687500
127		-50.781250
128		-54.687500
129		-50.781250
130		-54.687500
131		-52.734375
132		-56.640625
133		-52.734375
134		-56.640625
135		-52.734375
136		-56.640625
137		-54.687500
138		-56.640625
139		-54.687500
140		-56.640625
141		-54.687500
142		-58.593750
143		-54.687500
144		-58.593750
145		-54.687500
146		-58.593750
147		-54.687500
148		-58.593750
149		-54.687500
150		-58.593750
151		-54.687500
152		-58.593750
153		-54.687500
154		-58.593750
155		-54.687500
156		-58.593750
157		-54.687500
158		-58.593750
159		-54.687500
160		-58.593750
161		-54.687500
162		-58.593750
163		-54.687500
164		-58.593750
165		-54.687500
166		-56.640625
167		-54.687500
168		-58.593750
169		-52.734375
170		-56.640625
171		-52.734375
172		-56.640625
173		-52.734375
174		-54.687500
175		-52.734375
176		-54.687500
177		-52.734375
178		-54.687500
179		-50.781250
180		-54.687500
181		-50.781250
182		-52.734375
183		-50.781250
184		-52.734375
185		-48.828125
186		-52.734375
187		-48.828125
188		-50.781250
189		-48.828125
190		-50.781250
191		-46.875000
192		-50.781250
193		-46.875000
194		-48.828125
195		-44.921875
196		-48.828125
197		-44.921875
198		-46.875000
199		-42.968750
200		-46.875000
201		-42.968750
202		-46.875000
203		-41.015625
204		-44.921875
205		-41.015625
206		-42.968750
207		-39.062500
208		-42.968750
209		-39.062500
210		-41.015625
211		-37.109375
212		-39.062500
213		-35.156250
214		-39.062500
215		-35.156250
216		-37.109375
217		-33.203125
218		-35.156250
219		-31.250000
220		-35.156250
221		-31.250000
222		-33.203125
223		-29.296875
224		-31.250000
225		-27.343750
226		-31.250000
227		-27.343750
228		-29.296875
229		-25.390625
230		-29.296875
231		-23.437500
232		-27.343750
233		-23.437500
234		-25.390625
235		-21.484375
236		-23.437500
237		-19.531250
238		-23.437500
239		-17.578125
240		-21.484375
241		-17.578125
242		-19.531250
243		-15.625000
244		-17.578125
245		-13.671875
246		-15.625000
247		-11.718750
248		-15.625000
249		-9.765625
250		-13.671875
251		-9.765625
252		-11.718750
253		-7.812500
254		-9.765625
255		-5.859375
256		-9.765625
257		-3.906250
258		-7.812500
259		-3.906250
260		-5.859375
261		-1.953125
262		-3.906250
263		0.000000
264		-1.953125
265		1.953125
266		0.000000
267		3.906250
268		1.953125
269		3.906250
270		1.953125
271		5.859375
272		3.906250
273		7.812500
274		5.859375
275		9.765625
276		5.859375
277		11.718750
278		7.812500
279		11.718750
280		9.765625
281		15.625000
282		11.718750
283		15.625000
284		13.671875
285		17.578125
286		13.671875
287		17.578125
288		15.625000
289		19.531250
290		17.578125
291		21.484375
292		19.531250
293		23.437500
294		21.484375
295		23.437500
296		21.484375
297		25.390625
298		21.484375
299		27.343750
300		25.390625
301		29.296875
302		25.390625
303		31.250000
304		27.343750
305		31.250000
306		29.296875
307		33.203125
308		29.296875
309		33.203125
310		31.250000
311		35.156250
312		33.203125
313		37.109375
314		33.203125
315		39.062500
316		35.156250
317		39.062500
318		37.109375
319		41.015625
320		37.109375
321		41.015625
322		39.062500
323		42.968750
324		39.062500
325		42.968750
326		41.015625
327		44.921875
328		41.015625
329		44.921875
330		42.968750
331		46.875000
332		42.968750
333		46.875000
334		44.921875
335		48.828125
336		44.921875
337		48.828125
338		46.875000
339		50.781250
340		46.875000
341		52.734375
342		48.828125
343		52.734375
344		50.781250
345		52.734375
346		50.781250
347		54.687500
348		50.781250
349		54.687500
350		52.734375
351		54.687500
352		52.734375
353		56.640625
354		52.734375
355		56.640625
356		52.734375
357		56.640625
358		54.687500
359		58.593750
360		54.687500
361		58.593750
362		54.687500
363		58.593750
364		56.640625
365		60.546875
366		56.640625
367		60.546875
368		56.640625
369		60.546875
370		56.640625
371		62.500000
372		56.640625
373		62.500000
374		58.593750
375		60.546875
376		58.593750
377		62.500000
378		58.593750
379		60.546875
380		58.593750
381		62.500000
382		58.593750
383		62.500000
384		58.593750
385		62.500000
386		58.593750
387		62.500000
388		58.593750
389		62.500000
390		58.593750
391		62.500000
392		58.593750
393		62.500000
394		58.593750
395		62.500000
396		58.593750
397		62.500000
398		58.593750
399		62.500000
400		58.593750
401		60.546875
402		58.593750
403		60.546875
404		56.640625
405		60.546875
406		56.640625
407		60.546875
408		56.640625
409		60.546875
410		56.640625
411		60.546875
412		56.640625
413		60.546875
414		56.640625
415		58.593750
416		54.687500
417		58.593750
418		54.687500
419		58.593750
420		52.734375
421		58.593750
422		54.687500
423		56.640625
424		52.734375
425		56.640625
426		50.781250
427		56.640625
428		52.734375
429		54.687500
430		50.781250
431		54.687500
432		48.828125
433		52.734375
434		48.828125
435		52.734375
436		48.828125
437		50.781250
438		46.875000
439		50.781250
440		44.921875
441		50.781250
442		44.921875
443		48.828125
444		44.921875
445		48.828125
446		42.968750
447		46.875000
448		41.015625
449		46.875000
450		41.015625
451		46.875000
452		41.015625
453		42.968750
454		39.062500
455		42.968750
456		37.109375
457		41.015625
458		37.109375
459		41.015625
460		35.156250
461		39.062500
462		35.156250
463		39.062500
464		33.203125
465		37.109375
466		31.250000
467		37.109375
468		31.250000
469		33.203125
470		27.343750
471		33.203125
472		27.343750
473		31.250000
474		27.343750
475		29.296875
476		25.390625
477		29.296875
478		23.437500
479		27.343750
480		21.484375
481		25.390625
482		19.531250
483		25.390625
484		19.531250
485		23.437500
486		17.578125
487		21.484375
488		15.625000
489		21.484375
490		13.671875
491		19.531250
492		13.671875
493		17.578125
494		11.718750
495		15.625000
496		9.765625
497		13.671875
498		7.812500
499		11.718750
500		5.859375
501		11.718750
502		5.859375
503		9.765625
504		3.906250
505		7.812500
506		1.953125
507		5.859375
508		0.000000
509		3.906250
510		-1.953125
511		1.953125
512		-1.953125
513		1.953125
514		-3.906250
515		0.000000
516		-5.859375
517		-1.953125
518		-7.812500
519		-3.906250
520		-7.812500
521		-5.859375
522		-11.718750
523		-5.859375
524		-11.718750
525		-7.812500
526		-13.671875
527		-9.765625
528		-15.625000
529		-11.718750
530		-17.578125
531		-11.718750
532		-19.531250
533		-13.671875
534		-19.531250
535		-15.625000
536		-21.484375
537		-17.578125
538		-23.437500
539		-19.531250
540		-25.390625
541		-19.531250
542		-25.390625
543		-21.484375
544		-27.343750
545		-23.437500
546		-29.296875
547		-25.390625
548		-31.250000
549		-25.390625
550		-31.250000
551		-27.343750
552		-33.203125
553		-29.296875
554		-35.156250
555		-29.296875
556		-35.156250
557		-31.250000
558		-37.109375
559		-33.203125
560		-37.109375
561		-33.203125
562		-39.062500
563		-35.156250
564		-41.015625
565		-37.109375
566		-42.968750
567		-37.109375
568		-42.968750
569		-39.062500
570		-42.968750
571		-41.015625
572		-44.921875
573		-41.015625
574		-46.875000
575		-41.015625
576		-46.875000
577		-42.968750
578		-46.875000
579		-44.921875
580		-48.828125
581		-44.921875
582		-50.781250
583		-46.875000
584		-50.781250
585		-46.875000
586		-50.781250
587		-48.828125
588		-52.734375
589		-48.828125
590		-52.734375
591		-48.828125
592		-54.687500
593		-50.781250
594		-54.687500
595		-50.781250
596		-54.687500
597		-52.734375
598		-56.640625
599		-50.781250
600		-56.640625
601		-52.734375
602		-56.640625
603		-52.734375
604		-56.640625
605		-52.734375
606		-56.640625
607		-54.687500
608		-58.593750
609		-54.687500
610		-58.593750
611		-54.687500
612		-58.593750
613		-54.687500
614		-58.593750
615		-54.687500
616		-60.546875
617		-54.687500
618		-60.546875
619		-54.687500
620		-58.593750
621		-56.640625
622		-60.546875
623		-54.687500
624		-58.593750
625		-56.640625
626		-58.593750
627		-54.687500
628		-58.593750
629		-56.640625
630		-58.593750
631		-56.640625
632		-58.593750
633		-54.687500
634		-58.593750
635		-54.687500
636		-58.593750
637		-54.687500
638		-58.593750
639		-54.687500
640		-58.593750
641		-54.687500
642		-56.640625
643		-54.687500
644		-56.640625
645		-54.687500
646		-56.640625
647		-52.734375
648		-56.640625
649		-52.734375
650		-54.687500
651		-50.781250
652		-54.687500
653		-50.781250
654		-54.687500
655		-50.781250
656		-52.734375
657		-48.828125
658		-52.734375
659		-48.828125
660		-50.781250
661		-48.828125
662		-50.781250
663		-46.875000
664		-50.781250
665		-46.875000
666		-48.828125
667		-46.875000
668		-48.828125
669		-44.921875
670		-46.875000
671		-44.921875
672		-46.875000
673		-42.968750
674		-44.921875
675		-42.968750
676		-44.921875
677		-41.015625
678		-44.921875
679		-39.062500
680		-42.968750
681		-39.062500
682		-41.015625
683		-37.109375
684		-39.062500
685		-37.109375
686		-39.062500
687		-35.156250
688		-37.109375
689		-33.203125
690		-37.109375
691		-33.203125
692		-35.156250
693		-31.250000
694		-33.203125
695		-29.296875
696		-31.250000
697		-29.296875
698		-31.250000
699		-27.343750
700		-29.296875
701		-25.390625
702		-29.296875
703		-25.390625
704		-27.343750
705		-23.437500
706		-25.390625
707		-21.484375
708		-23.437500
709		-19.531250
710		-23.437500
711		-19.531250
712		-21.484375
713		-17.578125
714		-19.531250
715		-15.625000
716		-17.578125
717		-13.671875
718		-17.578125
719		-13.671875
720		-15.625000
721		-11.718750
722		-13.671875
723		-9.765625
724		-11.718750
725		-7.812500
726		-9.765625
727		-5.859375
728		-7.812500
729		-5.859375
730		-7.812500
731		-3.906250
732		-5.859375
733		-1.953125
734		-3.906250
735		0.000000
736		-1.953125
737		1.953125
738		0.000000
739		1.953125
740		1.953125
741		3.906250
742		1.953125
743		5.859375
744		3.906250
745		7.812500
746		5.859375
747		9.765625
748		5.859375
749		11.718750
750		7.812500
751		11.718750
752		9.765625
753		13.671875
754		11.718750
755		15.625000
756		13.671875
757		17.578125
758		13.671875
759		17.578125
760		15.625000
761		19.531250
762		17.578125
763		21.484375
764		17.578125
765		23.437500
766		21.484375
767		25.390625
768		21.484375
769		25.390625
770		23.437500
771		27.343750
772		25.390625
773		27.343750
774		25.390625
775		29.296875
776		27.343750
777		31.250000
778		27.343750
779		33.203125
780		29.296875
781		33.203125
782		31.250000
783		35.156250
784		33.203125
785		37.109375
786		33.203125
787		37.109375
788		35.156250
789		39.062500
790		37.109375
791		41.015625
792		37.109375
793		41.015625
794		39.062500
795		42.968750
796		39.062500
797		42.968750
798		41.015625
799		44.921875
800		41.015625
801		44.921875
802		42.968750
803		46.875000
804		44.921875
805		46.875000
806		44.921875
807		48.828125
808		46.875000
809		50.781250
810		46.875000
811		50.781250
812		48.828125
813		50.781250
814		48.828125
815		52.734375
816		48.828125
817		52.734375
818		48.828125
819		52.734375
820		50.781250
821		54.687500
822		50.781250
823		54.687500
824		52.734375
825		56.640625
826		52.734375
827		56.640625
828		52.734375
829		56.640625
830		54.687500
831		58.593750
832		54.687500
833		58.593750
834		54.687500
835		58.593750
836		54.687500
837		58.593750
838		56.640625
839		58.593750
840		56.640625
841		60.546875
842		56.640625
843		60.546875
844		58.593750
845		60.546875
846		58.593750
847		60.546875
848		58.593750
849		60.546875
850		58.593750
851		60.546875
852		58.593750
853		62.500000
854		58.593750
855		60.546875
856		58.593750
857		60.546875
858		58.593750
859		62.500000
860		58.593750
861		62.500000
862		58.593750
863		62.500000
864		58.593750
865		62.500000
866		58.593750
867		62.500000
868		58.593750
869		60.546875
870		58.593750
871		62.500000
872		58.593750
873		60.546875
874		56.640625
875		60.546875
876		56.640625
877		60.546875
878		56.640625
879		60.546875
880		56.640625
881		58.593750
882		56.640625
883		58.593750
884		54.687500
885		58.593750
886		54.687500
887		58.593750
888		54.687500
889		58.593750
890		54.687500
891		56.640625
892		52.734375
893		56.640625
894		52.734375
895		56.640625
896		52.734375
897		54.687500
898		50.781250
899		54.687500
900		50.781250
901		54.687500
902		50.781250
903		52.734375
904		48.828125
905		52.734375
906		48.828125
907		50.781250
908		46.875000
909		50.781250
910		46.875000
911		50.781250
912		44.921875
913		48.828125
914		44.921875
915		48.828125
916		42.968750
917		46.875000
918		42.968750
919		46.875000
920		41.015625
921		44.921875
922		41.015625
923		42.968750
924		39.062500
925		42.968750
926		37.109375
927		42.968750
928		37.109375
929		41.015625
930		35.156250
931		39.062500
932		35.156250
933		39.062500
934		33.203125
935		37.109375
936		31.250000
937		35.156250
938		31.250000
939		35.156250
940		29.296875
941		33.203125
942		27.343750
943		33.203125
944		27.343750
945		29.296875
946		25.390625
947		29.296875
948		23.437500
949		27.343750
950		23.437500
951		25.390625
952		21.484375
953		25.390625
954		19.531250
955		23.437500
956		17.578125
957		21.484375
958		15.625000
959		19.531250
960		13.671875
961		19.531250
962		13.671875
963		17.578125
964		11.718750
965		15.625000
966		9.765625
967		13.671875
968		9.765625
969		11.718750
970		5.859375
971		11.718750
972		5.859375
973		9.765625
974		3.906250
975		7.812500
976		1.953125
977		7.812500
978		0.000000
979		5.859375
980		-1.953125
981		3.906250
982		-1.953125
983		1.953125
984		-3.906250
985		0.000000
986		-5.859375
987		0.000000
988		-7.812500
989		-3.906250
990		-9.765625
991		-5.859375
992		-11.718750
993		-5.859375
994		-11.718750
995		-7.812500
996		-13.671875
997		-9.765625
998		-15.625000
999		-9.765625
1000		-15.625000
1001		-11.718750
1002		-17.578125
1003		-13.671875
1004		-19.531250
1005		-15.625000
1006		-21.484375
1007		-17.578125
1008		-23.437500
1009		-17.578125
1010		-23.437500
1011		-19.531250
1012		-25.390625
1013		-21.484375
1014		-27.343750
1015		-23.437500
1016		-29.296875
1017		-25.390625
1018		-31.250000
1019		-25.390625
1020		-33.203125
1021		-27.343750
1022		-33.203125
1023		-29.296875
1024		-33.203125
1025		-29.296875
1026		-35.156250
1027		-31.250000
1028		-37.109375
1029		-33.203125
1030		-39.062500
1031		-33.203125
1032		-39.062500
1033		-35.156250
1034		-41.015625
1035		-37.109375
1036		-41.015625
1037		-37.109375
1038		-42.968750
1039		-39.062500
1040		-42.968750
1041		-41.015625
1042		-46.875000
1043		-41.015625
1044		-46.875000
1045		-41.015625
1046		-46.875000
1047		-42.968750
1048		-46.875000
1049		-44.921875
1050		-48.828125
1051		-44.921875
1052		-48.828125
1053		-46.875000
1054		-50.781250
1055		-46.875000
1056		-50.781250
1057		-48.828125
1058		-52.734375
1059		-48.828125
1060		-52.734375
1061		-48.828125
1062		-54.687500
1063		-50.781250
1064		-54.687500
1065		-50.781250
1066		-54.687500
1067		-52.734375
1068		-56.640625
1069		-52.734375
1070		-56.640625
1071		-52.734375
1072		-56.640625
1073		-52.734375
1074		-56.640625
1075		-54.687500
1076		-58.593750
1077		-54.687500
1078		-58.593750
1079		-54.687500
1080		-58.593750
1081		-54.687500
1082		-58.593750
1083		-56.640625
1084		-58.593750
1085		-56.640625
1086		-58.593750
1087		-56.640625
1088		-60.546875
1089		-54.687500
1090		-58.593750
1091		-56.640625
1092		-58.593750
1093		-56.640625
1094		-60.546875
1095		-56.640625
1096		-58.593750
1097		-56.640625
1098		-60.546875
1099		-56.640625
1100		-58.593750
1101		-56.640625
1102		-60.546875
1103		-56.640625
1104		-58.593750
1105		-54.687500
1106		-58.593750
1107		-56.640625
1108		-58.593750
1109		-54.687500
1110		-58.593750
1111		-54.687500
1112		-56.640625
1113		-54.687500
1114		-56.640625
1115		-54.687500
1116		-58.593750
1117		-52.734375
1118		-56.640625
1119		-52.734375
1120		-56.640625
1121		-52.734375
1122		-56.640625
1123		-50.781250
1124		-54.687500
1125		-52.734375
1126		-54.687500
1127		-50.781250
1128		-52.734375
1129		-50.781250
1130		-52.734375
1131		-48.828125
1132		-52.734375
1133		-48.828125
1134		-50.781250
1135		-46.875000
1136		-50.781250
1137		-46.875000
1138		-48.828125
1139		-46.875000
1140		-48.828125
1141		-44.921875
1142		-46.875000
1143		-44.921875
1144		-46.875000
1145		-42.968750
1146		-44.921875
1147		-41.015625
1148		-44.921875
1149		-41.015625
1150		-42.968750
1151		-39.062500
1152		-42.968750
1153		-39.062500
1154		-41.015625
1155		-37.109375
1156		-41.015625
1157		-37.109375
1158		-39.062500
1159		-35.156250
1160		-37.109375
1161		-33.203125
1162		-35.156250
1163		-33.203125
1164		-35.156250
1165		-31.250000
1166		-33.203125
1167		-29.296875
1168		-33.203125
1169		-29.296875
1170		-31.250000
1171		-27.343750
1172		-29.296875
1173		-25.390625
1174		-27.343750
1175		-25.390625
1176		-27.343750
1177		-21.484375
1178		-27.343750
1179		-21.484375
1180		-23.437500
1181		-19.531250
1182		-21.484375
1183		-17.578125
1184		-21.484375
1185		-17.578125
1186		-19.531250
1187		-15.625000
1188		-17.578125
1189		-13.671875
1190		-15.625000
1191		-11.718750
1192		-15.625000
1193		-9.765625
1194		-13.671875
1195		-9.765625
1196		-11.718750
1197		-7.812500
1198		-9.765625
1199		-5.859375
1200		-7.812500
1201		-3.906250
1202		-7.812500
1203		-1.953125
1204		-5.859375
1205		-1.953125
1206		-3.906250
1207		0.000000
1208		-1.953125
1209		1.953125
1210		0.000000
1211		3.906250
1212		0.000000
1213		3.906250
1214		1.953125
1215		5.859375
1216		3.906250
1217		7.812500
1218		5.859375
1219		9.765625
1220		7.812500
1221		11.718750
1222		9.765625
1223		13.671875
1224		9.765625
1225		13.671875
1226		11.718750
1227		15.625000
1228		13.671875
1229		17.578125
1230		13.671875
1231		19.531250
1232		15.625000
1233		19.531250
1234		17.578125
1235		21.484375
1236		19.531250
1237		23.437500
1238		19.531250
1239		23.437500
1240		21.484375
1241		25.390625
1242		23.437500
1243		27.343750
1244		23.437500
1245		29.296875
1246		25.390625
1247		29.296875
1248		27.343750
1249		31.250000
1250		29.296875
1251		33.203125
1252		29.296875
1253		33.203125
1254		31.250000
1255		35.156250
1256		33.203125
1257		35.156250
1258		35.156250
1259		37.109375
1260		35.156250
1261		39.062500
1262		35.156250
1263		41.015625
1264		37.109375
1265		41.015625
1266		39.062500
1267		42.968750
1268		39.062500
1269		42.968750
1270		41.015625
1271		44.921875
1272		41.015625
