Old_data/metingen laweit/1000Hz, 50.0cm/data_81_m450.txt

Channel              :		CH1
Frequency            :		1.061kHz
Period               :		0.943ms
PK-PK                :		183.6mV
Probe attenuation    :		1X
Voltage per ADC value:		0.122070mV
Time interval        :		2.00000us

index		CH1_Voltage(mV)
1		27.343750
2		27.343750
3		31.250000
4		25.390625
5		29.296875
6		23.437500
7		27.343750
8		19.531250
9		23.437500
10		17.578125
11		23.437500
12		15.625000
13		19.531250
14		13.671875
15		17.578125
16		11.718750
17		15.625000
18		9.765625
19		13.671875
20		7.812500
21		11.718750
22		5.859375
23		9.765625
24		3.906250
25		7.812500
26		0.000000
27		3.906250
28		-1.953125
29		3.906250
30		-3.906250
31		0.000000
32		-5.859375
33		-1.953125
34		-9.765625
35		-3.906250
36		-11.718750
37		-5.859375
38		-13.671875
39		-7.812500
40		-15.625000
41		-11.718750
42		-17.578125
43		-13.671875
44		-21.484375
45		-15.625000
46		-23.437500
47		-17.578125
48		-25.390625
49		-21.484375
50		-27.343750
51		-23.437500
52		-29.296875
53		-25.390625
54		-33.203125
55		-27.343750
56		-35.156250
57		-29.296875
58		-37.109375
59		-33.203125
60		-39.062500
61		-35.156250
62		-42.968750
63		-37.109375
64		-42.968750
65		-39.062500
66		-44.921875
67		-41.015625
68		-48.828125
69		-42.968750
70		-50.781250
71		-44.921875
72		-52.734375
73		-46.875000
74		-54.687500
75		-50.781250
76		-56.640625
77		-52.734375
78		-58.593750
79		-54.687500
80		-60.546875
81		-56.640625
82		-62.500000
83		-58.593750
84		-64.453125
85		-60.546875
86		-66.406250
87		-62.500000
88		-68.359375
89		-64.453125
90		-70.312500
91		-64.453125
92		-72.265625
93		-68.359375
94		-74.218750
95		-68.359375
96		-74.218750
97		-70.312500
98		-76.171875
99		-72.265625
100		-78.125000
101		-74.218750
102		-80.078125
103		-76.171875
104		-80.078125
105		-78.125000
106		-82.031250
107		-78.125000
108		-83.984375
109		-80.078125
110		-83.984375
111		-82.031250
112		-85.937500
113		-82.031250
114		-89.843750
115		-83.984375
116		-89.843750
117		-85.937500
118		-89.843750
119		-85.937500
120		-89.843750
121		-87.890625
122		-91.796875
123		-87.890625
124		-91.796875
125		-89.843750
126		-93.750000
127		-89.843750
128		-93.750000
129		-91.796875
130		-95.703125
131		-91.796875
132		-95.703125
133		-91.796875
134		-95.703125
135		-93.750000
136		-95.703125
137		-93.750000
138		-97.656250
139		-93.750000
140		-97.656250
141		-93.750000
142		-97.656250
143		-95.703125
144		-99.609375
145		-95.703125
146		-97.656250
147		-95.703125
148		-97.656250
149		-95.703125
150		-99.609375
151		-93.750000
152		-99.609375
153		-95.703125
154		-99.609375
155		-95.703125
156		-99.609375
157		-93.750000
158		-97.656250
159		-95.703125
160		-97.656250
161		-93.750000
162		-97.656250
163		-93.750000
164		-97.656250
165		-93.750000
166		-97.656250
167		-93.750000
168		-95.703125
169		-91.796875
170		-95.703125
171		-91.796875
172		-93.750000
173		-91.796875
174		-95.703125
175		-89.843750
176		-91.796875
177		-89.843750
178		-91.796875
179		-87.890625
180		-91.796875
181		-87.890625
182		-89.843750
183		-85.937500
184		-89.843750
185		-85.937500
186		-87.890625
187		-83.984375
188		-87.890625
189		-82.031250
190		-85.937500
191		-82.031250
192		-83.984375
193		-80.078125
194		-82.031250
195		-80.078125
196		-82.031250
197		-78.125000
198		-80.078125
199		-76.171875
200		-78.125000
201		-74.218750
202		-76.171875
203		-72.265625
204		-74.218750
205		-70.312500
206		-74.218750
207		-70.312500
208		-72.265625
209		-68.359375
210		-70.312500
211		-66.406250
212		-68.359375
213		-64.453125
214		-66.406250
215		-62.500000
216		-64.453125
217		-60.546875
218		-62.500000
219		-56.640625
220		-60.546875
221		-56.640625
222		-58.593750
223		-54.687500
224		-56.640625
225		-52.734375
226		-54.687500
227		-50.781250
228		-52.734375
229		-46.875000
230		-50.781250
231		-44.921875
232		-48.828125
233		-44.921875
234		-46.875000
235		-41.015625
236		-42.968750
237		-39.062500
238		-42.968750
239		-37.109375
240		-39.062500
241		-35.156250
242		-37.109375
243		-33.203125
244		-35.156250
245		-31.250000
246		-33.203125
247		-27.343750
248		-29.296875
249		-25.390625
250		-27.343750
251		-23.437500
252		-25.390625
253		-21.484375
254		-23.437500
255		-19.531250
256		-21.484375
257		-15.625000
258		-19.531250
259		-13.671875
260		-15.625000
261		-11.718750
262		-13.671875
263		-9.765625
264		-11.718750
265		-5.859375
266		-9.765625
267		-5.859375
268		-7.812500
269		-1.953125
270		-3.906250
271		0.000000
272		-1.953125
273		1.953125
274		0.000000
275		3.906250
276		1.953125
277		5.859375
278		3.906250
279		7.812500
280		5.859375
281		11.718750
282		7.812500
283		13.671875
284		11.718750
285		15.625000
286		13.671875
287		17.578125
288		15.625000
289		19.531250
290		17.578125
291		21.484375
292		19.531250
293		23.437500
294		21.484375
295		25.390625
296		23.437500
297		27.343750
298		25.390625
299		31.250000
300		27.343750
301		31.250000
302		29.296875
303		33.203125
304		31.250000
305		35.156250
306		33.203125
307		37.109375
308		35.156250
309		39.062500
310		37.109375
311		41.015625
312		39.062500
313		42.968750
314		41.015625
315		44.921875
316		42.968750
317		46.875000
318		44.921875
319		48.828125
320		44.921875
321		48.828125
322		46.875000
323		50.781250
324		48.828125
325		52.734375
326		50.781250
327		54.687500
328		52.734375
329		54.687500
330		52.734375
331		56.640625
332		54.687500
333		58.593750
334		56.640625
335		60.546875
336		56.640625
337		60.546875
338		58.593750
339		62.500000
340		60.546875
341		62.500000
342		60.546875
343		64.453125
344		62.500000
345		66.406250
346		62.500000
347		66.406250
348		64.453125
349		68.359375
350		64.453125
351		68.359375
352		66.406250
353		70.312500
354		66.406250
355		70.312500
356		68.359375
357		70.312500
358		68.359375
359		72.265625
360		70.312500
361		72.265625
362		70.312500
363		74.218750
364		68.359375
365		74.218750
366		70.312500
367		74.218750
368		72.265625
369		74.218750
370		72.265625
371		76.171875
372		72.265625
373		76.171875
374		72.265625
375		76.171875
376		72.265625
377		76.171875
378		74.218750
379		76.171875
380		74.218750
381		78.125000
382		74.218750
383		76.171875
384		74.218750
385		76.171875
386		74.218750
387		78.125000
388		74.218750
389		78.125000
390		74.218750
391		78.125000
392		72.265625
393		78.125000
394		74.218750
395		76.171875
396		74.218750
397		76.171875
398		72.265625
399		76.171875
400		72.265625
401		76.171875
402		72.265625
403		76.171875
404		72.265625
405		74.218750
406		72.265625
407		74.218750
408		70.312500
409		74.218750
410		70.312500
411		74.218750
412		70.312500
413		72.265625
414		68.359375
415		72.265625
416		68.359375
417		72.265625
418		66.406250
419		70.312500
420		66.406250
421		70.312500
422		66.406250
423		70.312500
424		64.453125
425		68.359375
426		62.500000
427		68.359375
428		62.500000
429		66.406250
430		60.546875
431		64.453125
432		60.546875
433		64.453125
434		58.593750
435		62.500000
436		58.593750
437		62.500000
438		56.640625
439		60.546875
440		54.687500
441		58.593750
442		52.734375
443		58.593750
444		52.734375
445		56.640625
446		50.781250
447		54.687500
448		48.828125
449		52.734375
450		46.875000
451		50.781250
452		44.921875
453		50.781250
454		44.921875
455		48.828125
456		42.968750
457		46.875000
458		39.062500
459		44.921875
460		39.062500
461		42.968750
462		37.109375
463		41.015625
464		35.156250
465		39.062500
466		33.203125
467		37.109375
468		31.250000
469		35.156250
470		29.296875
471		33.203125
472		27.343750
473		31.250000
474		25.390625
475		29.296875
476		23.437500
477		27.343750
478		21.484375
479		25.390625
480		19.531250
481		23.437500
482		17.578125
483		21.484375
484		15.625000
485		19.531250
486		11.718750
487		17.578125
488		9.765625
489		15.625000
490		7.812500
491		11.718750
492		3.906250
493		9.765625
494		3.906250
495		7.812500
496		1.953125
497		5.859375
498		-1.953125
499		3.906250
500		-3.906250
501		1.953125
502		-5.859375
503		-1.953125
504		-7.812500
505		-3.906250
506		-9.765625
507		-5.859375
508		-13.671875
509		-7.812500
510		-15.625000
511		-11.718750
512		-17.578125
513		-13.671875
514		-19.531250
515		-15.625000
516		-21.484375
517		-17.578125
518		-25.390625
519		-19.531250
520		-27.343750
521		-21.484375
522		-29.296875
523		-25.390625
524		-31.250000
525		-27.343750
526		-35.156250
527		-29.296875
528		-37.109375
529		-31.250000
530		-39.062500
531		-33.203125
532		-41.015625
533		-37.109375
534		-42.968750
535		-39.062500
536		-44.921875
537		-41.015625
538		-46.875000
539		-42.968750
540		-48.828125
541		-44.921875
542		-52.734375
543		-46.875000
544		-54.687500
545		-48.828125
546		-54.687500
547		-50.781250
548		-58.593750
549		-52.734375
550		-60.546875
551		-56.640625
552		-62.500000
553		-58.593750
554		-64.453125
555		-60.546875
556		-66.406250
557		-60.546875
558		-68.359375
559		-64.453125
560		-70.312500
561		-64.453125
562		-72.265625
563		-66.406250
564		-72.265625
565		-68.359375
566		-74.218750
567		-70.312500
568		-76.171875
569		-72.265625
570		-78.125000
571		-74.218750
572		-80.078125
573		-76.171875
574		-82.031250
575		-76.171875
576		-82.031250
577		-78.125000
578		-83.984375
579		-80.078125
580		-85.937500
581		-82.031250
582		-87.890625
583		-82.031250
584		-87.890625
585		-83.984375
586		-87.890625
587		-85.937500
588		-89.843750
589		-85.937500
590		-91.796875
591		-87.890625
592		-91.796875
593		-87.890625
594		-93.750000
595		-89.843750
596		-93.750000
597		-89.843750
598		-95.703125
599		-89.843750
600		-95.703125
601		-91.796875
602		-95.703125
603		-91.796875
604		-95.703125
605		-93.750000
606		-97.656250
607		-93.750000
608		-99.609375
609		-93.750000
610		-99.609375
611		-95.703125
612		-99.609375
613		-95.703125
614		-99.609375
615		-95.703125
616		-99.609375
617		-95.703125
618		-99.609375
619		-95.703125
620		-99.609375
621		-95.703125
622		-99.609375
623		-95.703125
624		-99.609375
625		-95.703125
626		-99.609375
627		-95.703125
628		-99.609375
629		-93.750000
630		-99.609375
631		-95.703125
632		-99.609375
633		-95.703125
634		-97.656250
635		-95.703125
636		-97.656250
637		-93.750000
638		-97.656250
639		-93.750000
640		-95.703125
641		-93.750000
642		-95.703125
643		-91.796875
644		-95.703125
645		-91.796875
646		-93.750000
647		-91.796875
648		-93.750000
649		-89.843750
650		-93.750000
651		-89.843750
652		-91.796875
653		-87.890625
654		-89.843750
655		-87.890625
656		-89.843750
657		-85.937500
658		-87.890625
659		-83.984375
660		-87.890625
661		-83.984375
662		-85.937500
663		-82.031250
664		-83.984375
665		-80.078125
666		-83.984375
667		-78.125000
668		-82.031250
669		-78.125000
670		-80.078125
671		-76.171875
672		-78.125000
673		-74.218750
674		-78.125000
675		-72.265625
676		-76.171875
677		-70.312500
678		-74.218750
679		-70.312500
680		-72.265625
681		-68.359375
682		-70.312500
683		-64.453125
684		-68.359375
685		-64.453125
686		-66.406250
687		-62.500000
688		-64.453125
689		-60.546875
690		-62.500000
691		-58.593750
692		-60.546875
693		-56.640625
694		-58.593750
695		-52.734375
696		-56.640625
697		-52.734375
698		-54.687500
699		-50.781250
700		-52.734375
701		-46.875000
702		-50.781250
703		-46.875000
704		-48.828125
705		-42.968750
706		-46.875000
707		-41.015625
708		-44.921875
709		-39.062500
710		-41.015625
711		-37.109375
712		-39.062500
713		-35.156250
714		-37.109375
715		-33.203125
716		-35.156250
717		-29.296875
718		-33.203125
719		-27.343750
720		-31.250000
721		-25.390625
722		-27.343750
723		-23.437500
724		-25.390625
725		-19.531250
726		-23.437500
727		-19.531250
728		-21.484375
729		-15.625000
730		-19.531250
731		-13.671875
732		-15.625000
733		-11.718750
734		-13.671875
735		-9.765625
736		-11.718750
737		-7.812500
738		-9.765625
739		-3.906250
740		-7.812500
741		-1.953125
742		-3.906250
743		0.000000
744		-1.953125
745		1.953125
746		-1.953125
747		3.906250
748		1.953125
749		5.859375
750		3.906250
751		9.765625
752		5.859375
753		11.718750
754		9.765625
755		13.671875
756		11.718750
757		15.625000
758		13.671875
759		17.578125
760		15.625000
761		19.531250
762		17.578125
763		21.484375
764		19.531250
765		23.437500
766		21.484375
767		25.390625
768		23.437500
769		27.343750
770		25.390625
771		29.296875
772		27.343750
773		31.250000
774		29.296875
775		33.203125
776		31.250000
777		35.156250
778		33.203125
779		37.109375
780		35.156250
781		39.062500
782		37.109375
783		41.015625
784		37.109375
785		42.968750
786		41.015625
787		44.921875
788		42.968750
789		46.875000
790		44.921875
791		48.828125
792		44.921875
793		48.828125
794		46.875000
795		50.781250
796		48.828125
797		52.734375
798		50.781250
799		54.687500
800		50.781250
801		56.640625
802		52.734375
803		56.640625
804		54.687500
805		58.593750
806		56.640625
807		60.546875
808		56.640625
809		60.546875
810		58.593750
811		62.500000
812		58.593750
813		64.453125
814		60.546875
815		64.453125
816		62.500000
817		66.406250
818		62.500000
819		66.406250
820		64.453125
821		68.359375
822		64.453125
823		68.359375
824		66.406250
825		70.312500
826		66.406250
827		70.312500
828		66.406250
829		72.265625
830		68.359375
831		72.265625
832		68.359375
833		72.265625
834		70.312500
835		74.218750
836		70.312500
837		74.218750
838		70.312500
839		74.218750
840		70.312500
841		76.171875
842		72.265625
843		74.218750
844		72.265625
845		76.171875
846		72.265625
847		78.125000
848		72.265625
849		76.171875
850		72.265625
851		76.171875
852		74.218750
853		76.171875
854		74.218750
855		76.171875
856		72.265625
857		76.171875
858		74.218750
859		76.171875
860		74.218750
861		78.125000
862		72.265625
863		76.171875
864		74.218750
865		76.171875
866		72.265625
867		76.171875
868		72.265625
869		76.171875
870		72.265625
871		76.171875
872		72.265625
873		76.171875
874		72.265625
875		74.218750
876		70.312500
877		74.218750
878		70.312500
879		74.218750
880		70.312500
881		74.218750
882		70.312500
883		72.265625
884		68.359375
885		72.265625
886		68.359375
887		72.265625
888		68.359375
889		72.265625
890		66.406250
891		70.312500
892		64.453125
893		68.359375
894		64.453125
895		68.359375
896		62.500000
897		68.359375
898		62.500000
899		66.406250
900		60.546875
901		66.406250
902		60.546875
903		64.453125
904		58.593750
905		62.500000
906		58.593750
907		62.500000
908		56.640625
909		60.546875
910		54.687500
911		58.593750
912		54.687500
913		58.593750
914		52.734375
915		56.640625
916		50.781250
917		54.687500
918		48.828125
919		52.734375
920		46.875000
921		52.734375
922		46.875000
923		50.781250
924		44.921875
925		48.828125
926		42.968750
927		46.875000
928		41.015625
929		44.921875
930		39.062500
931		42.968750
932		37.109375
933		42.968750
934		35.156250
935		41.015625
936		33.203125
937		39.062500
938		31.250000
939		37.109375
940		29.296875
941		35.156250
942		27.343750
943		33.203125
944		25.390625
945		31.250000
946		23.437500
947		29.296875
948		21.484375
949		25.390625
950		19.531250
951		23.437500
952		17.578125
953		21.484375
954		15.625000
955		19.531250
956		13.671875
957		17.578125
958		9.765625
959		15.625000
960		7.812500
961		13.671875
962		5.859375
963		11.718750
964		3.906250
965		9.765625
966		1.953125
967		5.859375
968		0.000000
969		3.906250
970		-1.953125
971		1.953125
972		-5.859375
973		0.000000
974		-7.812500
975		-1.953125
976		-9.765625
977		-3.906250
978		-11.718750
979		-7.812500
980		-13.671875
981		-9.765625
982		-15.625000
983		-11.718750
984		-19.531250
985		-13.671875
986		-21.484375
987		-15.625000
988		-25.390625
989		-17.578125
990		-25.390625
991		-19.531250
992		-29.296875
993		-23.437500
994		-31.250000
995		-25.390625
996		-33.203125
997		-27.343750
998		-35.156250
999		-31.250000
1000		-37.109375
1001		-33.203125
1002		-41.015625
1003		-35.156250
1004		-42.968750
1005		-35.156250
1006		-46.875000
1007		-39.062500
1008		-48.828125
1009		-41.015625
1010		-48.828125
1011		-42.968750
1012		-52.734375
1013		-44.921875
1014		-52.734375
1015		-48.828125
1016		-54.687500
1017		-50.781250
1018		-56.640625
1019		-52.734375
1020		-60.546875
1021		-52.734375
1022		-64.453125
1023		-54.687500
1024		-64.453125
1025		-58.593750
1026		-66.406250
1027		-60.546875
1028		-68.359375
1029		-62.500000
1030		-70.312500
1031		-64.453125
1032		-70.312500
1033		-66.406250
1034		-72.265625
1035		-68.359375
1036		-76.171875
1037		-70.312500
1038		-78.125000
1039		-70.312500
1040		-78.125000
1041		-72.265625
1042		-80.078125
1043		-74.218750
1044		-83.984375
1045		-76.171875
1046		-83.984375
1047		-76.171875
1048		-83.984375
1049		-78.125000
1050		-83.984375
1051		-82.031250
1052		-87.890625
1053		-82.031250
1054		-89.843750
1055		-82.031250
1056		-89.843750
1057		-83.984375
1058		-91.796875
1059		-83.984375
1060		-93.750000
1061		-85.937500
1062		-93.750000
1063		-87.890625
1064		-93.750000
1065		-87.890625
1066		-93.750000
1067		-89.843750
1068		-93.750000
1069		-91.796875
1070		-97.656250
1071		-89.843750
1072		-97.656250
1073		-91.796875
1074		-99.609375
1075		-91.796875
1076		-99.609375
1077		-91.796875
1078		-99.609375
1079		-91.796875
1080		-99.609375
1081		-93.750000
1082		-97.656250
1083		-95.703125
1084		-99.609375
1085		-95.703125
1086		-99.609375
1087		-95.703125
1088		-101.562500
1089		-93.750000
1090		-101.562500
1091		-95.703125
1092		-101.562500
1093		-93.750000
1094		-101.562500
1095		-93.750000
1096		-101.562500
1097		-93.750000
1098		-101.562500
1099		-95.703125
1100		-99.609375
1101		-95.703125
1102		-99.609375
1103		-95.703125
1104		-101.562500
1105		-93.750000
1106		-99.609375
1107		-91.796875
1108		-99.609375
1109		-93.750000
1110		-99.609375
1111		-91.796875
1112		-97.656250
1113		-91.796875
1114		-97.656250
1115		-91.796875
1116		-95.703125
1117		-91.796875
1118		-93.750000
1119		-89.843750
1120		-93.750000
1121		-87.890625
1122		-95.703125
1123		-85.937500
1124		-93.750000
1125		-85.937500
1126		-91.796875
1127		-85.937500
1128		-89.843750
1129		-83.984375
1130		-89.843750
1131		-83.984375
1132		-89.843750
1133		-82.031250
1134		-85.937500
1135		-82.031250
1136		-85.937500
1137		-80.078125
1138		-83.984375
1139		-76.171875
1140		-83.984375
1141		-74.218750
1142		-82.031250
1143		-74.218750
1144		-80.078125
1145		-72.265625
1146		-80.078125
1147		-72.265625
1148		-76.171875
1149		-68.359375
1150		-74.218750
1151		-68.359375
1152		-70.312500
1153		-66.406250
1154		-72.265625
1155		-64.453125
1156		-70.312500
1157		-62.500000
1158		-68.359375
1159		-60.546875
1160		-66.406250
1161		-58.593750
1162		-64.453125
1163		-56.640625
1164		-62.500000
1165		-52.734375
1166		-58.593750
1167		-52.734375
1168		-56.640625
1169		-50.781250
1170		-54.687500
1171		-48.828125
1172		-54.687500
1173		-44.921875
1174		-50.781250
1175		-42.968750
1176		-48.828125
1177		-41.015625
1178		-46.875000
1179		-39.062500
1180		-44.921875
1181		-37.109375
1182		-42.968750
1183		-35.156250
1184		-39.062500
1185		-35.156250
1186		-37.109375
1187		-31.250000
1188		-35.156250
1189		-27.343750
1190		-33.203125
1191		-25.390625
1192		-31.250000
1193		-23.437500
1194		-29.296875
1195		-21.484375
1196		-27.343750
1197		-17.578125
1198		-23.437500
1199		-15.625000
1200		-21.484375
1201		-15.625000
1202		-17.578125
1203		-13.671875
1204		-15.625000
1205		-7.812500
1206		-13.671875
1207		-7.812500
1208		-13.671875
1209		-3.906250
1210		-11.718750
1211		-1.953125
1212		-7.812500
1213		0.000000
1214		-5.859375
1215		1.953125
1216		-3.906250
1217		3.906250
1218		0.000000
1219		5.859375
1220		3.906250
1221		9.765625
1222		3.906250
1223		11.718750
1224		5.859375
1225		13.671875
1226		7.812500
1227		15.625000
1228		9.765625
1229		17.578125
1230		11.718750
1231		19.531250
1232		13.671875
1233		21.484375
1234		17.578125
1235		23.437500
1236		19.531250
1237		25.390625
1238		21.484375
1239		29.296875
1240		23.437500
1241		31.250000
1242		25.390625
1243		33.203125
1244		27.343750
1245		33.203125
1246		29.296875
1247		37.109375
1248		29.296875
1249		37.109375
1250		33.203125
1251		39.062500
1252		35.156250
1253		41.015625
1254		37.109375
1255		42.968750
1256		37.109375
1257		44.921875
1258		39.062500
1259		46.875000
1260		41.015625
1261		48.828125
1262		42.968750
1263		50.781250
1264		44.921875
