Old_data/metingen laweit/1000Hz, 50.0cm/data_81_m297.txt

Channel              :		CH1
Frequency            :		1.047kHz
Period               :		0.955ms
PK-PK                :		244.1mV
Probe attenuation    :		1X
Voltage per ADC value:		0.122070mV
Time interval        :		2.00000us

index		CH1_Voltage(mV)
1		-37.109375
2		-37.109375
3		-44.921875
4		-41.015625
5		-48.828125
6		-42.968750
7		-50.781250
8		-46.875000
9		-54.687500
10		-50.781250
11		-56.640625
12		-52.734375
13		-60.546875
14		-54.687500
15		-62.500000
16		-58.593750
17		-66.406250
18		-62.500000
19		-68.359375
20		-64.453125
21		-72.265625
22		-66.406250
23		-74.218750
24		-70.312500
25		-78.125000
26		-72.265625
27		-80.078125
28		-74.218750
29		-82.031250
30		-78.125000
31		-83.984375
32		-80.078125
33		-85.937500
34		-83.984375
35		-89.843750
36		-85.937500
37		-91.796875
38		-87.890625
39		-93.750000
40		-89.843750
41		-95.703125
42		-91.796875
43		-99.609375
44		-93.750000
45		-101.562500
46		-95.703125
47		-103.515625
48		-97.656250
49		-103.515625
50		-101.562500
51		-105.468750
52		-103.515625
53		-109.375000
54		-103.515625
55		-109.375000
56		-105.468750
57		-111.328125
58		-107.421875
59		-115.234375
60		-109.375000
61		-115.234375
62		-111.328125
63		-117.187500
64		-113.281250
65		-117.187500
66		-113.281250
67		-119.140625
68		-115.234375
69		-121.093750
70		-117.187500
71		-121.093750
72		-117.187500
73		-123.046875
74		-119.140625
75		-125.000000
76		-119.140625
77		-125.000000
78		-121.093750
79		-125.000000
80		-121.093750
81		-125.000000
82		-123.046875
83		-126.953125
84		-123.046875
85		-126.953125
86		-125.000000
87		-128.906250
88		-123.046875
89		-128.906250
90		-125.000000
91		-128.906250
92		-125.000000
93		-128.906250
94		-125.000000
95		-128.906250
96		-125.000000
97		-128.906250
98		-125.000000
99		-128.906250
100		-125.000000
101		-126.953125
102		-125.000000
103		-128.906250
104		-123.046875
105		-128.906250
106		-125.000000
107		-126.953125
108		-125.000000
109		-126.953125
110		-123.046875
111		-126.953125
112		-123.046875
113		-125.000000
114		-123.046875
115		-126.953125
116		-121.093750
117		-123.046875
118		-121.093750
119		-123.046875
120		-119.140625
121		-123.046875
122		-117.187500
123		-121.093750
124		-117.187500
125		-121.093750
126		-117.187500
127		-119.140625
128		-115.234375
129		-117.187500
130		-113.281250
131		-115.234375
132		-111.328125
133		-113.281250
134		-111.328125
135		-113.281250
136		-109.375000
137		-113.281250
138		-107.421875
139		-109.375000
140		-105.468750
141		-107.421875
142		-103.515625
143		-107.421875
144		-101.562500
145		-103.515625
146		-99.609375
147		-101.562500
148		-97.656250
149		-99.609375
150		-95.703125
151		-97.656250
152		-93.750000
153		-95.703125
154		-89.843750
155		-91.796875
156		-87.890625
157		-89.843750
158		-85.937500
159		-87.890625
160		-83.984375
161		-85.937500
162		-80.078125
163		-82.031250
164		-78.125000
165		-80.078125
166		-76.171875
167		-78.125000
168		-74.218750
169		-74.218750
170		-70.312500
171		-74.218750
172		-68.359375
173		-70.312500
174		-64.453125
175		-66.406250
176		-62.500000
177		-64.453125
178		-58.593750
179		-60.546875
180		-56.640625
181		-58.593750
182		-52.734375
183		-56.640625
184		-50.781250
185		-52.734375
186		-48.828125
187		-48.828125
188		-44.921875
189		-46.875000
190		-41.015625
191		-42.968750
192		-39.062500
193		-41.015625
194		-35.156250
195		-37.109375
196		-33.203125
197		-35.156250
198		-29.296875
199		-31.250000
200		-25.390625
201		-27.343750
202		-23.437500
203		-25.390625
204		-19.531250
205		-23.437500
206		-15.625000
207		-19.531250
208		-13.671875
209		-15.625000
210		-11.718750
211		-11.718750
212		-7.812500
213		-11.718750
214		-5.859375
215		-7.812500
216		0.000000
217		-3.906250
218		0.000000
219		0.000000
220		3.906250
221		1.953125
222		5.859375
223		5.859375
224		9.765625
225		7.812500
226		11.718750
227		11.718750
228		15.625000
229		13.671875
230		17.578125
231		15.625000
232		21.484375
233		19.531250
234		23.437500
235		21.484375
236		27.343750
237		25.390625
238		29.296875
239		27.343750
240		31.250000
241		29.296875
242		35.156250
243		33.203125
244		37.109375
245		35.156250
246		41.015625
247		37.109375
248		42.968750
249		41.015625
250		44.921875
251		42.968750
252		46.875000
253		44.921875
254		50.781250
255		48.828125
256		52.734375
257		50.781250
258		54.687500
259		52.734375
260		56.640625
261		54.687500
262		58.593750
263		58.593750
264		60.546875
265		58.593750
266		64.453125
267		60.546875
268		66.406250
269		64.453125
270		68.359375
271		66.406250
272		70.312500
273		68.359375
274		72.265625
275		70.312500
276		74.218750
277		70.312500
278		76.171875
279		74.218750
280		76.171875
281		74.218750
282		80.078125
283		76.171875
284		82.031250
285		78.125000
286		82.031250
287		80.078125
288		83.984375
289		80.078125
290		85.937500
291		82.031250
292		85.937500
293		83.984375
294		87.890625
295		85.937500
296		89.843750
297		85.937500
298		91.796875
299		87.890625
300		91.796875
301		89.843750
302		91.796875
303		89.843750
304		93.750000
305		91.796875
306		95.703125
307		91.796875
308		95.703125
309		91.796875
310		95.703125
311		93.750000
312		97.656250
313		95.703125
314		97.656250
315		95.703125
316		99.609375
317		95.703125
318		99.609375
319		97.656250
320		99.609375
321		97.656250
322		99.609375
323		97.656250
324		101.562500
325		97.656250
326		101.562500
327		99.609375
328		101.562500
329		97.656250
330		103.515625
331		99.609375
332		103.515625
333		97.656250
334		103.515625
335		99.609375
336		101.562500
337		99.609375
338		101.562500
339		99.609375
340		101.562500
341		99.609375
342		101.562500
343		99.609375
344		103.515625
345		97.656250
346		101.562500
347		97.656250
348		101.562500
349		97.656250
350		101.562500
351		97.656250
352		101.562500
353		97.656250
354		99.609375
355		95.703125
356		99.609375
357		95.703125
358		99.609375
359		95.703125
360		97.656250
361		93.750000
362		97.656250
363		93.750000
364		97.656250
365		91.796875
366		95.703125
367		91.796875
368		93.750000
369		89.843750
370		93.750000
371		87.890625
372		91.796875
373		87.890625
374		91.796875
375		85.937500
376		89.843750
377		85.937500
378		89.843750
379		83.984375
380		87.890625
381		82.031250
382		87.890625
383		80.078125
384		83.984375
385		80.078125
386		82.031250
387		78.125000
388		82.031250
389		76.171875
390		80.078125
391		74.218750
392		78.125000
393		72.265625
394		76.171875
395		70.312500
396		74.218750
397		68.359375
398		74.218750
399		68.359375
400		70.312500
401		64.453125
402		70.312500
403		62.500000
404		66.406250
405		60.546875
406		64.453125
407		58.593750
408		62.500000
409		54.687500
410		60.546875
411		54.687500
412		58.593750
413		50.781250
414		56.640625
415		46.875000
416		52.734375
417		44.921875
418		50.781250
419		44.921875
420		48.828125
421		41.015625
422		44.921875
423		39.062500
424		42.968750
425		35.156250
426		41.015625
427		33.203125
428		37.109375
429		31.250000
430		35.156250
431		27.343750
432		33.203125
433		23.437500
434		31.250000
435		21.484375
436		27.343750
437		19.531250
438		23.437500
439		15.625000
440		21.484375
441		13.671875
442		17.578125
443		9.765625
444		15.625000
445		7.812500
446		11.718750
447		3.906250
448		9.765625
449		1.953125
450		5.859375
451		-1.953125
452		3.906250
453		-3.906250
454		0.000000
455		-7.812500
456		-3.906250
457		-11.718750
458		-5.859375
459		-13.671875
460		-9.765625
461		-17.578125
462		-11.718750
463		-19.531250
464		-15.625000
465		-23.437500
466		-17.578125
467		-27.343750
468		-21.484375
469		-29.296875
470		-23.437500
471		-33.203125
472		-27.343750
473		-35.156250
474		-31.250000
475		-39.062500
476		-33.203125
477		-42.968750
478		-37.109375
479		-44.921875
480		-39.062500
481		-46.875000
482		-42.968750
483		-50.781250
484		-44.921875
485		-52.734375
486		-46.875000
487		-56.640625
488		-52.734375
489		-60.546875
490		-54.687500
491		-62.500000
492		-56.640625
493		-64.453125
494		-60.546875
495		-68.359375
496		-62.500000
497		-70.312500
498		-64.453125
499		-72.265625
500		-68.359375
501		-76.171875
502		-70.312500
503		-78.125000
504		-74.218750
505		-80.078125
506		-76.171875
507		-83.984375
508		-78.125000
509		-85.937500
510		-82.031250
511		-87.890625
512		-83.984375
513		-91.796875
514		-85.937500
515		-91.796875
516		-89.843750
517		-97.656250
518		-89.843750
519		-97.656250
520		-91.796875
521		-99.609375
522		-95.703125
523		-101.562500
524		-97.656250
525		-103.515625
526		-99.609375
527		-105.468750
528		-101.562500
529		-107.421875
530		-103.515625
531		-109.375000
532		-105.468750
533		-111.328125
534		-105.468750
535		-113.281250
536		-107.421875
537		-113.281250
538		-111.328125
539		-115.234375
540		-111.328125
541		-117.187500
542		-113.281250
543		-117.187500
544		-113.281250
545		-119.140625
546		-115.234375
547		-121.093750
548		-117.187500
549		-123.046875
550		-119.140625
551		-125.000000
552		-117.187500
553		-123.046875
554		-121.093750
555		-123.046875
556		-121.093750
557		-125.000000
558		-121.093750
559		-126.953125
560		-123.046875
561		-126.953125
562		-123.046875
563		-126.953125
564		-125.000000
565		-126.953125
566		-123.046875
567		-126.953125
568		-125.000000
569		-130.859375
570		-123.046875
571		-126.953125
572		-125.000000
573		-128.906250
574		-123.046875
575		-128.906250
576		-125.000000
577		-128.906250
578		-125.000000
579		-126.953125
580		-125.000000
581		-126.953125
582		-125.000000
583		-126.953125
584		-125.000000
585		-126.953125
586		-121.093750
587		-125.000000
588		-123.046875
589		-125.000000
590		-123.046875
591		-125.000000
592		-121.093750
593		-123.046875
594		-121.093750
595		-123.046875
596		-119.140625
597		-121.093750
598		-119.140625
599		-121.093750
600		-117.187500
601		-121.093750
602		-115.234375
603		-119.140625
604		-113.281250
605		-117.187500
606		-113.281250
607		-115.234375
608		-111.328125
609		-113.281250
610		-111.328125
611		-113.281250
612		-107.421875
613		-111.328125
614		-107.421875
615		-109.375000
616		-105.468750
617		-107.421875
618		-103.515625
619		-107.421875
620		-99.609375
621		-103.515625
622		-99.609375
623		-101.562500
624		-97.656250
625		-99.609375
626		-95.703125
627		-97.656250
628		-93.750000
629		-95.703125
630		-91.796875
631		-93.750000
632		-87.890625
633		-89.843750
634		-85.937500
635		-89.843750
636		-82.031250
637		-85.937500
638		-82.031250
639		-82.031250
640		-78.125000
641		-80.078125
642		-76.171875
643		-78.125000
644		-72.265625
645		-76.171875
646		-70.312500
647		-74.218750
648		-68.359375
649		-70.312500
650		-64.453125
651		-68.359375
652		-62.500000
653		-66.406250
654		-58.593750
655		-60.546875
656		-56.640625
657		-58.593750
658		-52.734375
659		-56.640625
660		-50.781250
661		-52.734375
662		-48.828125
663		-50.781250
664		-44.921875
665		-46.875000
666		-41.015625
667		-44.921875
668		-37.109375
669		-42.968750
670		-35.156250
671		-37.109375
672		-33.203125
673		-35.156250
674		-29.296875
675		-31.250000
676		-27.343750
677		-29.296875
678		-23.437500
679		-25.390625
680		-21.484375
681		-23.437500
682		-17.578125
683		-19.531250
684		-13.671875
685		-17.578125
686		-9.765625
687		-15.625000
688		-7.812500
689		-9.765625
690		-5.859375
691		-7.812500
692		-1.953125
693		-3.906250
694		0.000000
695		-1.953125
696		3.906250
697		1.953125
698		5.859375
699		3.906250
700		11.718750
701		5.859375
702		13.671875
703		7.812500
704		15.625000
705		13.671875
706		17.578125
707		15.625000
708		21.484375
709		17.578125
710		23.437500
711		21.484375
712		25.390625
713		25.390625
714		29.296875
715		27.343750
716		33.203125
717		27.343750
718		37.109375
719		31.250000
720		39.062500
721		35.156250
722		39.062500
723		39.062500
724		42.968750
725		41.015625
726		44.921875
727		42.968750
728		48.828125
729		44.921875
730		52.734375
731		48.828125
732		52.734375
733		50.781250
734		56.640625
735		52.734375
736		58.593750
737		54.687500
738		60.546875
739		56.640625
740		60.546875
741		58.593750
742		64.453125
743		60.546875
744		68.359375
745		62.500000
746		70.312500
747		62.500000
748		70.312500
749		68.359375
750		72.265625
751		66.406250
752		76.171875
753		70.312500
754		78.125000
755		74.218750
756		76.171875
757		76.171875
758		78.125000
759		76.171875
760		82.031250
761		76.171875
762		83.984375
763		78.125000
764		85.937500
765		82.031250
766		85.937500
767		80.078125
768		87.890625
769		82.031250
770		89.843750
771		83.984375
772		89.843750
773		87.890625
774		89.843750
775		85.937500
776		93.750000
777		87.890625
778		95.703125
779		87.890625
780		95.703125
781		89.843750
782		97.656250
783		89.843750
784		97.656250
785		91.796875
786		99.609375
787		91.796875
788		99.609375
789		95.703125
790		97.656250
791		95.703125
792		99.609375
793		93.750000
794		101.562500
795		95.703125
796		103.515625
797		95.703125
798		103.515625
799		95.703125
800		103.515625
801		97.656250
802		103.515625
803		97.656250
804		105.468750
805		97.656250
806		103.515625
807		99.609375
808		101.562500
809		99.609375
810		103.515625
811		97.656250
812		105.468750
813		97.656250
814		103.515625
815		97.656250
816		103.515625
817		99.609375
818		103.515625
819		97.656250
820		103.515625
821		97.656250
822		103.515625
823		99.609375
824		101.562500
825		97.656250
826		103.515625
827		95.703125
828		103.515625
829		95.703125
830		103.515625
831		95.703125
832		103.515625
833		95.703125
834		101.562500
835		93.750000
836		101.562500
837		91.796875
838		99.609375
839		93.750000
840		97.656250
841		93.750000
842		97.656250
843		89.843750
844		97.656250
845		89.843750
846		97.656250
847		87.890625
848		95.703125
849		87.890625
850		95.703125
851		85.937500
852		93.750000
853		83.984375
854		91.796875
855		85.937500
856		91.796875
857		83.984375
858		87.890625
859		80.078125
860		87.890625
861		78.125000
862		87.890625
863		78.125000
864		85.937500
865		76.171875
866		83.984375
867		74.218750
868		82.031250
869		72.265625
870		80.078125
871		70.312500
872		78.125000
873		70.312500
874		74.218750
875		68.359375
876		72.265625
877		64.453125
878		72.265625
879		62.500000
880		70.312500
881		60.546875
882		70.312500
883		58.593750
884		66.406250
885		54.687500
886		64.453125
887		52.734375
888		62.500000
889		52.734375
890		58.593750
891		50.781250
892		54.687500
893		44.921875
894		54.687500
895		42.968750
896		52.734375
897		41.015625
898		50.781250
899		39.062500
900		46.875000
901		35.156250
902		44.921875
903		33.203125
904		42.968750
905		31.250000
906		39.062500
907		31.250000
908		35.156250
909		25.390625
910		31.250000
911		21.484375
912		31.250000
913		19.531250
914		29.296875
915		15.625000
916		25.390625
917		13.671875
918		19.531250
919		9.765625
920		19.531250
921		7.812500
922		15.625000
923		5.859375
924		11.718750
925		3.906250
926		7.812500
927		-1.953125
928		5.859375
929		-3.906250
930		5.859375
931		-7.812500
932		1.953125
933		-7.812500
934		-1.953125
935		-13.671875
936		-3.906250
937		-17.578125
938		-7.812500
939		-17.578125
940		-9.765625
941		-19.531250
942		-15.625000
943		-25.390625
944		-17.578125
945		-29.296875
946		-19.531250
947		-33.203125
948		-23.437500
949		-35.156250
950		-25.390625
951		-37.109375
952		-31.250000
953		-41.015625
954		-31.250000
955		-42.968750
956		-35.156250
957		-44.921875
958		-41.015625
959		-46.875000
960		-42.968750
961		-54.687500
962		-44.921875
963		-56.640625
964		-46.875000
965		-58.593750
966		-50.781250
967		-62.500000
968		-52.734375
969		-64.453125
970		-56.640625
971		-68.359375
972		-58.593750
973		-68.359375
974		-62.500000
975		-70.312500
976		-66.406250
977		-76.171875
978		-68.359375
979		-78.125000
980		-70.312500
981		-82.031250
982		-72.265625
983		-83.984375
984		-74.218750
985		-85.937500
986		-78.125000
987		-87.890625
988		-78.125000
989		-89.843750
990		-82.031250
991		-89.843750
992		-85.937500
993		-93.750000
994		-89.843750
995		-97.656250
996		-89.843750
997		-99.609375
998		-91.796875
999		-101.562500
1000		-93.750000
1001		-103.515625
1002		-93.750000
1003		-105.468750
1004		-97.656250
1005		-107.421875
1006		-99.609375
1007		-107.421875
1008		-103.515625
1009		-109.375000
1010		-105.468750
1011		-113.281250
1012		-105.468750
1013		-113.281250
1014		-105.468750
1015		-117.187500
1016		-107.421875
1017		-117.187500
1018		-109.375000
1019		-119.140625
1020		-111.328125
1021		-121.093750
1022		-111.328125
1023		-119.140625
1024		-113.281250
1025		-121.093750
1026		-117.187500
1027		-123.046875
1028		-117.187500
1029		-125.000000
1030		-117.187500
1031		-125.000000
1032		-117.187500
1033		-126.953125
1034		-119.140625
1035		-126.953125
1036		-119.140625
1037		-126.953125
1038		-119.140625
1039		-128.906250
1040		-119.140625
1041		-125.000000
1042		-123.046875
1043		-125.000000
1044		-123.046875
1045		-128.906250
1046		-121.093750
1047		-128.906250
1048		-121.093750
1049		-128.906250
1050		-121.093750
1051		-128.906250
1052		-121.093750
1053		-128.906250
1054		-121.093750
1055		-128.906250
1056		-121.093750
1057		-126.953125
1058		-123.046875
1059		-125.000000
1060		-123.046875
1061		-128.906250
1062		-121.093750
1063		-126.953125
1064		-119.140625
1065		-126.953125
1066		-119.140625
1067		-126.953125
1068		-119.140625
1069		-125.000000
1070		-117.187500
1071		-125.000000
1072		-115.234375
1073		-123.046875
1074		-115.234375
1075		-119.140625
1076		-117.187500
1077		-119.140625
1078		-115.234375
1079		-121.093750
1080		-111.328125
1081		-119.140625
1082		-111.328125
1083		-117.187500
1084		-109.375000
1085		-115.234375
1086		-107.421875
1087		-115.234375
1088		-105.468750
1089		-111.328125
1090		-105.468750
1091		-107.421875
1092		-105.468750
1093		-107.421875
1094		-103.515625
1095		-107.421875
1096		-99.609375
1097		-105.468750
1098		-95.703125
1099		-103.515625
1100		-95.703125
1101		-101.562500
1102		-93.750000
1103		-99.609375
1104		-91.796875
1105		-97.656250
1106		-87.890625
1107		-95.703125
1108		-87.890625
1109		-89.843750
1110		-85.937500
1111		-89.843750
1112		-82.031250
1113		-87.890625
1114		-80.078125
1115		-85.937500
1116		-78.125000
1117		-83.984375
1118		-74.218750
1119		-80.078125
1120		-72.265625
1121		-78.125000
1122		-68.359375
1123		-76.171875
1124		-66.406250
1125		-70.312500
1126		-66.406250
1127		-66.406250
1128		-62.500000
1129		-66.406250
1130		-58.593750
1131		-64.453125
1132		-54.687500
1133		-62.500000
1134		-52.734375
1135		-58.593750
1136		-48.828125
1137		-56.640625
1138		-46.875000
1139		-52.734375
1140		-42.968750
1141		-46.875000
1142		-42.968750
1143		-44.921875
1144		-41.015625
1145		-41.015625
1146		-35.156250
1147		-41.015625
1148		-31.250000
1149		-37.109375
1150		-29.296875
1151		-35.156250
1152		-27.343750
1153		-31.250000
1154		-21.484375
1155		-27.343750
1156		-19.531250
1157		-25.390625
1158		-17.578125
1159		-19.531250
1160		-15.625000
1161		-17.578125
1162		-11.718750
1163		-17.578125
1164		-7.812500
1165		-13.671875
1166		-3.906250
1167		-9.765625
1168		-1.953125
1169		-7.812500
1170		1.953125
1171		-3.906250
1172		5.859375
1173		-1.953125
1174		7.812500
1175		3.906250
1176		7.812500
1177		7.812500
1178		11.718750
1179		7.812500
1180		15.625000
1181		9.765625
1182		19.531250
1183		13.671875
1184		21.484375
1185		15.625000
1186		23.437500
1187		19.531250
1188		27.343750
1189		23.437500
1190		31.250000
1191		23.437500
1192		31.250000
1193		29.296875
1194		33.203125
1195		33.203125
1196		39.062500
1197		33.203125
1198		41.015625
1199		35.156250
1200		42.968750
1201		37.109375
1202		46.875000
1203		41.015625
1204		48.828125
1205		42.968750
1206		50.781250
1207		44.921875
1208		54.687500
1209		50.781250
1210		52.734375
1211		52.734375
1212		56.640625
1213		52.734375
1214		60.546875
1215		54.687500
1216		62.500000
1217		56.640625
1218		64.453125
1219		60.546875
1220		66.406250
1221		60.546875
1222		70.312500
1223		62.500000
1224		72.265625
1225		66.406250
1226		70.312500
1227		70.312500
1228		72.265625
1229		70.312500
1230		76.171875
1231		70.312500
1232		78.125000
1233		72.265625
1234		80.078125
1235		74.218750
1236		82.031250
1237		76.171875
1238		83.984375
1239		78.125000
1240		85.937500
1241		78.125000
1242		85.937500
1243		83.984375
1244		85.937500
