Old_data/metingen laweit/1000Hz, 50.0cm/data_81_m377.txt

Channel              :		CH1
Frequency            :		1.061kHz
Period               :		0.942ms
PK-PK                :		230.5mV
Probe attenuation    :		1X
Voltage per ADC value:		0.122070mV
Time interval        :		2.00000us

index		CH1_Voltage(mV)
1		58.593750
2		58.593750
3		62.500000
4		54.687500
5		62.500000
6		52.734375
7		60.546875
8		50.781250
9		58.593750
10		48.828125
11		56.640625
12		46.875000
13		54.687500
14		44.921875
15		50.781250
16		42.968750
17		46.875000
18		39.062500
19		44.921875
20		35.156250
21		42.968750
22		33.203125
23		41.015625
24		29.296875
25		39.062500
26		27.343750
27		37.109375
28		25.390625
29		33.203125
30		23.437500
31		29.296875
32		21.484375
33		27.343750
34		17.578125
35		23.437500
36		13.671875
37		19.531250
38		11.718750
39		17.578125
40		7.812500
41		15.625000
42		5.859375
43		11.718750
44		3.906250
45		9.765625
46		0.000000
47		5.859375
48		-1.953125
49		3.906250
50		-3.906250
51		0.000000
52		-7.812500
53		-3.906250
54		-13.671875
55		-5.859375
56		-15.625000
57		-7.812500
58		-19.531250
59		-9.765625
60		-21.484375
61		-13.671875
62		-25.390625
63		-17.578125
64		-27.343750
65		-19.531250
66		-29.296875
67		-21.484375
68		-31.250000
69		-27.343750
70		-37.109375
71		-29.296875
72		-39.062500
73		-31.250000
74		-42.968750
75		-33.203125
76		-44.921875
77		-39.062500
78		-46.875000
79		-39.062500
80		-50.781250
81		-42.968750
82		-52.734375
83		-44.921875
84		-54.687500
85		-50.781250
86		-58.593750
87		-52.734375
88		-60.546875
89		-54.687500
90		-64.453125
91		-56.640625
92		-66.406250
93		-60.546875
94		-70.312500
95		-62.500000
96		-72.265625
97		-64.453125
98		-74.218750
99		-64.453125
100		-74.218750
101		-70.312500
102		-78.125000
103		-72.265625
104		-82.031250
105		-74.218750
106		-83.984375
107		-76.171875
108		-85.937500
109		-78.125000
110		-87.890625
111		-82.031250
112		-89.843750
113		-83.984375
114		-91.796875
115		-83.984375
116		-91.796875
117		-87.890625
118		-93.750000
119		-89.843750
120		-97.656250
121		-91.796875
122		-99.609375
123		-91.796875
124		-101.562500
125		-93.750000
126		-103.515625
127		-95.703125
128		-103.515625
129		-95.703125
130		-105.468750
131		-99.609375
132		-107.421875
133		-99.609375
134		-107.421875
135		-103.515625
136		-107.421875
137		-103.515625
138		-111.328125
139		-105.468750
140		-113.281250
141		-105.468750
142		-111.328125
143		-105.468750
144		-113.281250
145		-107.421875
146		-115.234375
147		-107.421875
148		-115.234375
149		-109.375000
150		-115.234375
151		-109.375000
152		-115.234375
153		-111.328125
154		-117.187500
155		-111.328125
156		-117.187500
157		-111.328125
158		-117.187500
159		-111.328125
160		-117.187500
161		-111.328125
162		-119.140625
163		-111.328125
164		-117.187500
165		-111.328125
166		-117.187500
167		-111.328125
168		-115.234375
169		-113.281250
170		-117.187500
171		-113.281250
172		-119.140625
173		-111.328125
174		-117.187500
175		-111.328125
176		-117.187500
177		-109.375000
178		-117.187500
179		-109.375000
180		-115.234375
181		-109.375000
182		-115.234375
183		-109.375000
184		-111.328125
185		-109.375000
186		-111.328125
187		-109.375000
188		-111.328125
189		-105.468750
190		-111.328125
191		-105.468750
192		-109.375000
193		-103.515625
194		-109.375000
195		-101.562500
196		-107.421875
197		-101.562500
198		-107.421875
199		-99.609375
200		-105.468750
201		-99.609375
202		-101.562500
203		-97.656250
204		-99.609375
205		-95.703125
206		-99.609375
207		-93.750000
208		-99.609375
209		-91.796875
210		-97.656250
211		-89.843750
212		-95.703125
213		-87.890625
214		-93.750000
215		-85.937500
216		-91.796875
217		-83.984375
218		-87.890625
219		-83.984375
220		-83.984375
221		-80.078125
222		-83.984375
223		-76.171875
224		-82.031250
225		-74.218750
226		-80.078125
227		-72.265625
228		-78.125000
229		-70.312500
230		-76.171875
231		-68.359375
232		-72.265625
233		-64.453125
234		-70.312500
235		-64.453125
236		-66.406250
237		-60.546875
238		-62.500000
239		-56.640625
240		-62.500000
241		-54.687500
242		-58.593750
243		-50.781250
244		-56.640625
245		-48.828125
246		-54.687500
247		-46.875000
248		-50.781250
249		-42.968750
250		-48.828125
251		-41.015625
252		-42.968750
253		-39.062500
254		-41.015625
255		-35.156250
256		-41.015625
257		-31.250000
258		-37.109375
259		-29.296875
260		-33.203125
261		-25.390625
262		-31.250000
263		-23.437500
264		-29.296875
265		-19.531250
266		-25.390625
267		-17.578125
268		-19.531250
269		-15.625000
270		-17.578125
271		-11.718750
272		-15.625000
273		-7.812500
274		-13.671875
275		-3.906250
276		-9.765625
277		-1.953125
278		-5.859375
279		0.000000
280		-3.906250
281		3.906250
282		-1.953125
283		7.812500
284		1.953125
285		7.812500
286		5.859375
287		11.718750
288		9.765625
289		17.578125
290		9.765625
291		17.578125
292		13.671875
293		21.484375
294		15.625000
295		23.437500
296		19.531250
297		27.343750
298		21.484375
299		29.296875
300		25.390625
301		33.203125
302		29.296875
303		33.203125
304		31.250000
305		37.109375
306		33.203125
307		41.015625
308		35.156250
309		42.968750
310		37.109375
311		46.875000
312		41.015625
313		48.828125
314		42.968750
315		50.781250
316		46.875000
317		52.734375
318		48.828125
319		54.687500
320		52.734375
321		56.640625
322		54.687500
323		60.546875
324		54.687500
325		62.500000
326		58.593750
327		64.453125
328		60.546875
329		68.359375
330		62.500000
331		68.359375
332		62.500000
333		70.312500
334		66.406250
335		72.265625
336		70.312500
337		74.218750
338		72.265625
339		76.171875
340		72.265625
341		78.125000
342		72.265625
343		82.031250
344		74.218750
345		82.031250
346		78.125000
347		83.984375
348		78.125000
349		85.937500
350		80.078125
351		87.890625
352		83.984375
353		87.890625
354		85.937500
355		87.890625
356		85.937500
357		91.796875
358		85.937500
359		93.750000
360		87.890625
361		93.750000
362		89.843750
363		95.703125
364		89.843750
365		97.656250
366		91.796875
367		97.656250
368		91.796875
369		99.609375
370		95.703125
371		97.656250
372		95.703125
373		99.609375
374		93.750000
375		101.562500
376		95.703125
377		103.515625
378		97.656250
379		103.515625
380		97.656250
381		103.515625
382		97.656250
383		105.468750
384		99.609375
385		105.468750
386		101.562500
387		103.515625
388		101.562500
389		105.468750
390		99.609375
391		107.421875
392		99.609375
393		107.421875
394		101.562500
395		107.421875
396		101.562500
397		107.421875
398		101.562500
399		107.421875
400		101.562500
401		107.421875
402		101.562500
403		107.421875
404		103.515625
405		105.468750
406		101.562500
407		107.421875
408		101.562500
409		107.421875
410		99.609375
411		107.421875
412		101.562500
413		107.421875
414		99.609375
415		105.468750
416		97.656250
417		105.468750
418		99.609375
419		105.468750
420		99.609375
421		103.515625
422		99.609375
423		101.562500
424		97.656250
425		103.515625
426		95.703125
427		101.562500
428		95.703125
429		101.562500
430		93.750000
431		101.562500
432		93.750000
433		99.609375
434		91.796875
435		99.609375
436		91.796875
437		95.703125
438		91.796875
439		95.703125
440		87.890625
441		95.703125
442		87.890625
443		93.750000
444		85.937500
445		93.750000
446		83.984375
447		91.796875
448		82.031250
449		89.843750
450		82.031250
451		87.890625
452		80.078125
453		87.890625
454		80.078125
455		83.984375
456		76.171875
457		82.031250
458		74.218750
459		82.031250
460		72.265625
461		80.078125
462		70.312500
463		78.125000
464		68.359375
465		76.171875
466		68.359375
467		74.218750
468		64.453125
469		72.265625
470		64.453125
471		68.359375
472		62.500000
473		66.406250
474		58.593750
475		64.453125
476		56.640625
477		64.453125
478		52.734375
479		60.546875
480		50.781250
481		58.593750
482		48.828125
483		56.640625
484		46.875000
485		54.687500
486		44.921875
487		50.781250
488		42.968750
489		46.875000
490		39.062500
491		44.921875
492		35.156250
493		42.968750
494		33.203125
495		41.015625
496		31.250000
497		39.062500
498		27.343750
499		37.109375
500		25.390625
501		33.203125
502		23.437500
503		31.250000
504		21.484375
505		25.390625
506		17.578125
507		23.437500
508		15.625000
509		21.484375
510		11.718750
511		19.531250
512		9.765625
513		15.625000
514		5.859375
515		13.671875
516		1.953125
517		9.765625
518		0.000000
519		7.812500
520		-1.953125
521		3.906250
522		-5.859375
523		0.000000
524		-9.765625
525		-1.953125
526		-11.718750
527		-5.859375
528		-15.625000
529		-7.812500
530		-17.578125
531		-11.718750
532		-21.484375
533		-13.671875
534		-25.390625
535		-15.625000
536		-25.390625
537		-17.578125
538		-29.296875
539		-23.437500
540		-33.203125
541		-27.343750
542		-37.109375
543		-27.343750
544		-39.062500
545		-31.250000
546		-41.015625
547		-33.203125
548		-44.921875
549		-37.109375
550		-46.875000
551		-39.062500
552		-48.828125
553		-42.968750
554		-50.781250
555		-46.875000
556		-54.687500
557		-48.828125
558		-58.593750
559		-50.781250
560		-60.546875
561		-52.734375
562		-62.500000
563		-56.640625
564		-66.406250
565		-58.593750
566		-68.359375
567		-60.546875
568		-72.265625
569		-62.500000
570		-72.265625
571		-66.406250
572		-74.218750
573		-70.312500
574		-78.125000
575		-72.265625
576		-80.078125
577		-72.265625
578		-83.984375
579		-76.171875
580		-85.937500
581		-76.171875
582		-87.890625
583		-80.078125
584		-89.843750
585		-82.031250
586		-89.843750
587		-83.984375
588		-91.796875
589		-87.890625
590		-93.750000
591		-89.843750
592		-97.656250
593		-89.843750
594		-97.656250
595		-91.796875
596		-99.609375
597		-93.750000
598		-103.515625
599		-95.703125
600		-103.515625
601		-95.703125
602		-105.468750
603		-97.656250
604		-105.468750
605		-99.609375
606		-105.468750
607		-101.562500
608		-109.375000
609		-103.515625
610		-109.375000
611		-101.562500
612		-111.328125
613		-103.515625
614		-113.281250
615		-105.468750
616		-113.281250
617		-107.421875
618		-113.281250
619		-107.421875
620		-113.281250
621		-107.421875
622		-113.281250
623		-109.375000
624		-115.234375
625		-109.375000
626		-115.234375
627		-109.375000
628		-115.234375
629		-109.375000
630		-117.187500
631		-109.375000
632		-117.187500
633		-109.375000
634		-117.187500
635		-111.328125
636		-117.187500
637		-109.375000
638		-115.234375
639		-113.281250
640		-115.234375
641		-111.328125
642		-117.187500
643		-109.375000
644		-117.187500
645		-109.375000
646		-117.187500
647		-109.375000
648		-115.234375
649		-109.375000
650		-115.234375
651		-107.421875
652		-113.281250
653		-107.421875
654		-113.281250
655		-107.421875
656		-111.328125
657		-107.421875
658		-111.328125
659		-105.468750
660		-111.328125
661		-103.515625
662		-111.328125
663		-103.515625
664		-109.375000
665		-101.562500
666		-107.421875
667		-101.562500
668		-105.468750
669		-99.609375
670		-105.468750
671		-97.656250
672		-101.562500
673		-97.656250
674		-99.609375
675		-95.703125
676		-99.609375
677		-93.750000
678		-99.609375
679		-91.796875
680		-97.656250
681		-89.843750
682		-93.750000
683		-87.890625
684		-93.750000
685		-85.937500
686		-89.843750
687		-83.984375
688		-89.843750
689		-83.984375
690		-85.937500
691		-82.031250
692		-83.984375
693		-76.171875
694		-83.984375
695		-74.218750
696		-80.078125
697		-72.265625
698		-78.125000
699		-70.312500
700		-76.171875
701		-68.359375
702		-72.265625
703		-64.453125
704		-70.312500
705		-64.453125
706		-66.406250
707		-62.500000
708		-64.453125
709		-58.593750
710		-62.500000
711		-54.687500
712		-60.546875
713		-52.734375
714		-58.593750
715		-48.828125
716		-54.687500
717		-46.875000
718		-52.734375
719		-42.968750
720		-48.828125
721		-41.015625
722		-44.921875
723		-39.062500
724		-41.015625
725		-37.109375
726		-39.062500
727		-33.203125
728		-37.109375
729		-29.296875
730		-35.156250
731		-27.343750
732		-31.250000
733		-23.437500
734		-29.296875
735		-21.484375
736		-25.390625
737		-17.578125
738		-21.484375
739		-15.625000
740		-17.578125
741		-13.671875
742		-15.625000
743		-7.812500
744		-13.671875
745		-5.859375
746		-9.765625
747		-3.906250
748		-7.812500
749		0.000000
750		-5.859375
751		1.953125
752		-1.953125
753		7.812500
754		0.000000
755		7.812500
756		5.859375
757		9.765625
758		7.812500
759		13.671875
760		9.765625
761		17.578125
762		11.718750
763		19.531250
764		15.625000
765		23.437500
766		17.578125
767		25.390625
768		21.484375
769		27.343750
770		23.437500
771		31.250000
772		27.343750
773		33.203125
774		31.250000
775		35.156250
776		33.203125
777		39.062500
778		35.156250
779		41.015625
780		37.109375
781		44.921875
782		41.015625
783		46.875000
784		42.968750
785		48.828125
786		44.921875
787		52.734375
788		46.875000
789		54.687500
790		50.781250
791		54.687500
792		52.734375
793		58.593750
794		54.687500
795		60.546875
796		56.640625
797		64.453125
798		58.593750
799		66.406250
800		60.546875
801		68.359375
802		62.500000
803		70.312500
804		66.406250
805		72.265625
806		68.359375
807		72.265625
808		70.312500
809		74.218750
810		72.265625
811		78.125000
812		74.218750
813		80.078125
814		74.218750
815		82.031250
816		76.171875
817		83.984375
818		78.125000
819		85.937500
820		80.078125
821		87.890625
822		82.031250
823		87.890625
824		83.984375
825		87.890625
826		85.937500
827		91.796875
828		85.937500
829		93.750000
830		87.890625
831		93.750000
832		87.890625
833		95.703125
834		89.843750
835		97.656250
836		91.796875
837		97.656250
838		91.796875
839		99.609375
840		95.703125
841		97.656250
842		95.703125
843		99.609375
844		95.703125
845		101.562500
846		95.703125
847		103.515625
848		97.656250
849		103.515625
850		97.656250
851		105.468750
852		97.656250
853		105.468750
854		99.609375
855		105.468750
856		99.609375
857		105.468750
858		101.562500
859		105.468750
860		101.562500
861		107.421875
862		99.609375
863		107.421875
864		101.562500
865		107.421875
866		101.562500
867		107.421875
868		101.562500
869		107.421875
870		101.562500
871		107.421875
872		101.562500
873		107.421875
874		103.515625
875		107.421875
876		103.515625
877		105.468750
878		101.562500
879		109.375000
880		101.562500
881		107.421875
882		101.562500
883		107.421875
884		99.609375
885		107.421875
886		99.609375
887		105.468750
888		99.609375
889		105.468750
890		101.562500
891		103.515625
892		99.609375
893		103.515625
894		97.656250
895		103.515625
896		97.656250
897		103.515625
898		95.703125
899		103.515625
900		95.703125
901		101.562500
902		93.750000
903		101.562500
904		93.750000
905		99.609375
906		93.750000
907		97.656250
908		93.750000
909		95.703125
910		89.843750
911		95.703125
912		89.843750
913		95.703125
914		87.890625
915		95.703125
916		85.937500
917		93.750000
918		83.984375
919		91.796875
920		82.031250
921		89.843750
922		82.031250
923		87.890625
924		82.031250
925		85.937500
926		80.078125
927		83.984375
928		76.171875
929		82.031250
930		74.218750
931		80.078125
932		72.265625
933		80.078125
934		70.312500
935		78.125000
936		70.312500
937		76.171875
938		66.406250
939		74.218750
940		66.406250
941		72.265625
942		64.453125
943		68.359375
944		60.546875
945		66.406250
946		58.593750
947		64.453125
948		56.640625
949		64.453125
950		54.687500
951		60.546875
952		50.781250
953		58.593750
954		48.828125
955		56.640625
956		46.875000
957		54.687500
958		44.921875
959		50.781250
960		42.968750
961		46.875000
962		37.109375
963		46.875000
964		35.156250
965		44.921875
966		33.203125
967		41.015625
968		31.250000
969		37.109375
970		27.343750
971		37.109375
972		25.390625
973		33.203125
974		23.437500
975		29.296875
976		21.484375
977		25.390625
978		17.578125
979		23.437500
980		13.671875
981		21.484375
982		11.718750
983		19.531250
984		7.812500
985		15.625000
986		5.859375
987		13.671875
988		1.953125
989		9.765625
990		0.000000
991		7.812500
992		-1.953125
993		1.953125
994		-5.859375
995		0.000000
996		-9.765625
997		-1.953125
998		-13.671875
999		-3.906250
1000		-15.625000
1001		-7.812500
1002		-17.578125
1003		-11.718750
1004		-21.484375
1005		-13.671875
1006		-23.437500
1007		-15.625000
1008		-25.390625
1009		-21.484375
1010		-29.296875
1011		-23.437500
1012		-33.203125
1013		-25.390625
1014		-35.156250
1015		-29.296875
1016		-37.109375
1017		-31.250000
1018		-41.015625
1019		-33.203125
1020		-44.921875
1021		-37.109375
1022		-46.875000
1023		-39.062500
1024		-48.828125
1025		-42.968750
1026		-50.781250
1027		-46.875000
1028		-54.687500
1029		-48.828125
1030		-58.593750
1031		-50.781250
1032		-60.546875
1033		-52.734375
1034		-64.453125
1035		-54.687500
1036		-66.406250
1037		-58.593750
1038		-68.359375
1039		-60.546875
1040		-70.312500
1041		-62.500000
1042		-72.265625
1043		-68.359375
1044		-74.218750
1045		-70.312500
1046		-78.125000
1047		-70.312500
1048		-80.078125
1049		-72.265625
1050		-82.031250
1051		-76.171875
1052		-85.937500
1053		-78.125000
1054		-85.937500
1055		-80.078125
1056		-89.843750
1057		-82.031250
1058		-89.843750
1059		-85.937500
1060		-91.796875
1061		-87.890625
1062		-95.703125
1063		-87.890625
1064		-97.656250
1065		-87.890625
1066		-97.656250
1067		-91.796875
1068		-99.609375
1069		-91.796875
1070		-101.562500
1071		-93.750000
1072		-103.515625
1073		-95.703125
1074		-103.515625
1075		-97.656250
1076		-103.515625
1077		-99.609375
1078		-105.468750
1079		-101.562500
1080		-109.375000
1081		-101.562500
1082		-109.375000
1083		-101.562500
1084		-109.375000
1085		-103.515625
1086		-111.328125
1087		-105.468750
1088		-111.328125
1089		-105.468750
1090		-113.281250
1091		-105.468750
1092		-111.328125
1093		-109.375000
1094		-113.281250
1095		-107.421875
1096		-115.234375
1097		-109.375000
1098		-115.234375
1099		-109.375000
1100		-115.234375
1101		-109.375000
1102		-115.234375
1103		-109.375000
1104		-115.234375
1105		-109.375000
1106		-117.187500
1107		-109.375000
1108		-115.234375
1109		-109.375000
1110		-113.281250
1111		-111.328125
1112		-115.234375
1113		-109.375000
1114		-115.234375
1115		-109.375000
1116		-115.234375
1117		-109.375000
1118		-115.234375
1119		-109.375000
1120		-115.234375
1121		-107.421875
1122		-113.281250
1123		-107.421875
1124		-113.281250
1125		-105.468750
1126		-111.328125
1127		-107.421875
1128		-109.375000
1129		-105.468750
1130		-111.328125
1131		-103.515625
1132		-109.375000
1133		-103.515625
1134		-109.375000
1135		-101.562500
1136		-107.421875
1137		-99.609375
1138		-105.468750
1139		-99.609375
1140		-103.515625
1141		-97.656250
1142		-101.562500
1143		-97.656250
1144		-99.609375
1145		-95.703125
1146		-99.609375
1147		-93.750000
1148		-99.609375
1149		-91.796875
1150		-97.656250
1151		-89.843750
1152		-95.703125
1153		-87.890625
1154		-93.750000
1155		-85.937500
1156		-91.796875
1157		-83.984375
1158		-89.843750
1159		-83.984375
1160		-85.937500
1161		-82.031250
1162		-83.984375
1163		-78.125000
1164		-83.984375
1165		-76.171875
1166		-82.031250
1167		-72.265625
1168		-78.125000
1169		-72.265625
1170		-76.171875
1171		-68.359375
1172		-74.218750
1173		-66.406250
1174		-72.265625
1175		-64.453125
1176		-66.406250
1177		-62.500000
1178		-64.453125
1179		-60.546875
1180		-62.500000
1181		-56.640625
1182		-60.546875
1183		-52.734375
1184		-58.593750
1185		-50.781250
1186		-54.687500
1187		-46.875000
1188		-52.734375
1189		-44.921875
1190		-48.828125
1191		-42.968750
1192		-46.875000
1193		-41.015625
1194		-42.968750
1195		-39.062500
1196		-39.062500
1197		-33.203125
1198		-39.062500
1199		-31.250000
1200		-35.156250
1201		-27.343750
1202		-33.203125
1203		-25.390625
1204		-29.296875
1205		-23.437500
1206		-27.343750
1207		-19.531250
1208		-23.437500
1209		-17.578125
1210		-19.531250
1211		-13.671875
1212		-17.578125
1213		-11.718750
1214		-15.625000
1215		-7.812500
1216		-13.671875
1217		-3.906250
1218		-9.765625
1219		-1.953125
1220		-7.812500
1221		0.000000
1222		-3.906250
1223		5.859375
1224		-1.953125
1225		7.812500
1226		1.953125
1227		9.765625
1228		5.859375
1229		11.718750
1230		9.765625
1231		15.625000
1232		11.718750
1233		19.531250
1234		13.671875
1235		21.484375
1236		17.578125
1237		23.437500
1238		19.531250
1239		27.343750
1240		23.437500
1241		29.296875
1242		25.390625
1243		31.250000
1244		29.296875
1245		35.156250
1246		33.203125
1247		37.109375
1248		33.203125
