Old_data/metingen laweit/1000Hz, 50.0cm/data_81_m268.txt

Channel              :		CH1
Frequency            :		1.053kHz
Period               :		0.949ms
PK-PK                :		82.03mV
Probe attenuation    :		1X
Voltage per ADC value:		0.122070mV
Time interval        :		2.00000us

index		CH1_Voltage(mV)
1		-21.484375
2		-21.484375
3		-17.578125
4		-21.484375
5		-17.578125
6		-21.484375
7		-19.531250
8		-23.437500
9		-19.531250
10		-23.437500
11		-19.531250
12		-27.343750
13		-19.531250
14		-27.343750
15		-19.531250
16		-27.343750
17		-23.437500
18		-27.343750
19		-23.437500
20		-29.296875
21		-23.437500
22		-29.296875
23		-25.390625
24		-29.296875
25		-27.343750
26		-31.250000
27		-25.390625
28		-33.203125
29		-25.390625
30		-33.203125
31		-25.390625
32		-35.156250
33		-27.343750
34		-33.203125
35		-29.296875
36		-33.203125
37		-29.296875
38		-35.156250
39		-31.250000
40		-33.203125
41		-31.250000
42		-35.156250
43		-33.203125
44		-35.156250
45		-33.203125
46		-39.062500
47		-31.250000
48		-39.062500
49		-31.250000
50		-37.109375
51		-33.203125
52		-37.109375
53		-35.156250
54		-39.062500
55		-35.156250
56		-37.109375
57		-35.156250
58		-39.062500
59		-37.109375
60		-39.062500
61		-35.156250
62		-42.968750
63		-35.156250
64		-42.968750
65		-33.203125
66		-41.015625
67		-35.156250
68		-41.015625
69		-37.109375
70		-41.015625
71		-37.109375
72		-41.015625
73		-37.109375
74		-41.015625
75		-39.062500
76		-41.015625
77		-37.109375
78		-42.968750
79		-37.109375
80		-44.921875
81		-35.156250
82		-42.968750
83		-35.156250
84		-41.015625
85		-37.109375
86		-41.015625
87		-39.062500
88		-41.015625
89		-39.062500
90		-41.015625
91		-39.062500
92		-41.015625
93		-39.062500
94		-42.968750
95		-37.109375
96		-42.968750
97		-35.156250
98		-42.968750
99		-35.156250
100		-41.015625
101		-37.109375
102		-41.015625
103		-37.109375
104		-41.015625
105		-35.156250
106		-41.015625
107		-35.156250
108		-39.062500
109		-37.109375
110		-41.015625
111		-35.156250
112		-41.015625
113		-33.203125
114		-41.015625
115		-33.203125
116		-41.015625
117		-33.203125
118		-37.109375
119		-35.156250
120		-37.109375
121		-33.203125
122		-39.062500
123		-33.203125
124		-35.156250
125		-33.203125
126		-35.156250
127		-33.203125
128		-35.156250
129		-31.250000
130		-37.109375
131		-29.296875
132		-37.109375
133		-29.296875
134		-33.203125
135		-31.250000
136		-33.203125
137		-29.296875
138		-31.250000
139		-27.343750
140		-31.250000
141		-29.296875
142		-31.250000
143		-29.296875
144		-31.250000
145		-27.343750
146		-33.203125
147		-25.390625
148		-31.250000
149		-23.437500
150		-29.296875
151		-25.390625
152		-27.343750
153		-23.437500
154		-27.343750
155		-23.437500
156		-27.343750
157		-23.437500
158		-25.390625
159		-23.437500
160		-23.437500
161		-21.484375
162		-25.390625
163		-19.531250
164		-25.390625
165		-17.578125
166		-25.390625
167		-17.578125
168		-21.484375
169		-17.578125
170		-21.484375
171		-17.578125
172		-19.531250
173		-15.625000
174		-19.531250
175		-15.625000
176		-17.578125
177		-15.625000
178		-17.578125
179		-13.671875
180		-17.578125
181		-9.765625
182		-17.578125
183		-9.765625
184		-15.625000
185		-9.765625
186		-13.671875
187		-9.765625
188		-11.718750
189		-7.812500
190		-11.718750
191		-7.812500
192		-9.765625
193		-7.812500
194		-9.765625
195		-5.859375
196		-9.765625
197		-3.906250
198		-11.718750
199		-1.953125
200		-9.765625
201		-1.953125
202		-5.859375
203		-1.953125
204		-3.906250
205		-1.953125
206		-3.906250
207		0.000000
208		-1.953125
209		0.000000
210		-1.953125
211		0.000000
212		-1.953125
213		1.953125
214		-1.953125
215		5.859375
216		-1.953125
217		5.859375
218		1.953125
219		5.859375
220		1.953125
221		5.859375
222		3.906250
223		5.859375
224		3.906250
225		7.812500
226		5.859375
227		7.812500
228		3.906250
229		9.765625
230		3.906250
231		13.671875
232		3.906250
233		13.671875
234		5.859375
235		13.671875
236		9.765625
237		13.671875
238		9.765625
239		13.671875
240		9.765625
241		13.671875
242		11.718750
243		13.671875
244		11.718750
245		17.578125
246		11.718750
247		19.531250
248		11.718750
249		19.531250
250		11.718750
251		21.484375
252		15.625000
253		19.531250
254		15.625000
255		19.531250
256		17.578125
257		21.484375
258		17.578125
259		21.484375
260		19.531250
261		21.484375
262		19.531250
263		23.437500
264		17.578125
265		25.390625
266		17.578125
267		25.390625
268		19.531250
269		25.390625
270		21.484375
271		25.390625
272		21.484375
273		25.390625
274		23.437500
275		27.343750
276		23.437500
277		25.390625
278		23.437500
279		27.343750
280		21.484375
281		29.296875
282		21.484375
283		31.250000
284		23.437500
285		31.250000
286		25.390625
287		29.296875
288		27.343750
289		29.296875
290		25.390625
291		31.250000
292		27.343750
293		29.296875
294		27.343750
295		31.250000
296		27.343750
297		31.250000
298		25.390625
299		33.203125
300		25.390625
301		33.203125
302		29.296875
303		33.203125
304		29.296875
305		33.203125
306		29.296875
307		33.203125
308		27.343750
309		33.203125
310		29.296875
311		33.203125
312		29.296875
313		33.203125
314		27.343750
315		35.156250
316		27.343750
317		35.156250
318		27.343750
319		35.156250
320		31.250000
321		33.203125
322		29.296875
323		33.203125
324		29.296875
325		35.156250
326		29.296875
327		33.203125
328		31.250000
329		33.203125
330		27.343750
331		35.156250
332		27.343750
333		37.109375
334		27.343750
335		35.156250
336		29.296875
337		33.203125
338		29.296875
339		33.203125
340		29.296875
341		33.203125
342		29.296875
343		31.250000
344		29.296875
345		31.250000
346		29.296875
347		33.203125
348		27.343750
349		33.203125
350		25.390625
351		33.203125
352		27.343750
353		33.203125
354		29.296875
355		31.250000
356		27.343750
357		31.250000
358		27.343750
359		31.250000
360		27.343750
361		29.296875
362		25.390625
363		31.250000
364		23.437500
365		29.296875
366		23.437500
367		31.250000
368		23.437500
369		31.250000
370		25.390625
371		27.343750
372		23.437500
373		27.343750
374		23.437500
375		27.343750
376		23.437500
377		25.390625
378		23.437500
379		25.390625
380		21.484375
381		25.390625
382		19.531250
383		27.343750
384		17.578125
385		27.343750
386		19.531250
387		23.437500
388		19.531250
389		23.437500
390		19.531250
391		21.484375
392		17.578125
393		23.437500
394		17.578125
395		19.531250
396		15.625000
397		19.531250
398		13.671875
399		21.484375
400		11.718750
401		21.484375
402		11.718750
403		19.531250
404		13.671875
405		17.578125
406		11.718750
407		17.578125
408		11.718750
409		15.625000
410		11.718750
411		13.671875
412		7.812500
413		13.671875
414		5.859375
415		13.671875
416		5.859375
417		13.671875
418		3.906250
419		13.671875
420		5.859375
421		9.765625
422		5.859375
423		9.765625
424		3.906250
425		7.812500
426		3.906250
427		5.859375
428		1.953125
429		5.859375
430		0.000000
431		5.859375
432		0.000000
433		5.859375
434		-1.953125
435		5.859375
436		-1.953125
437		3.906250
438		-1.953125
439		1.953125
440		-3.906250
441		0.000000
442		-3.906250
443		0.000000
444		-3.906250
445		-1.953125
446		-5.859375
447		-1.953125
448		-9.765625
449		-3.906250
450		-9.765625
451		-1.953125
452		-11.718750
453		-1.953125
454		-9.765625
455		-5.859375
456		-11.718750
457		-5.859375
458		-13.671875
459		-7.812500
460		-11.718750
461		-9.765625
462		-13.671875
463		-9.765625
464		-15.625000
465		-11.718750
466		-17.578125
467		-9.765625
468		-19.531250
469		-9.765625
470		-17.578125
471		-13.671875
472		-17.578125
473		-13.671875
474		-19.531250
475		-13.671875
476		-19.531250
477		-15.625000
478		-21.484375
479		-17.578125
480		-21.484375
481		-17.578125
482		-25.390625
483		-17.578125
484		-25.390625
485		-17.578125
486		-27.343750
487		-17.578125
488		-25.390625
489		-21.484375
490		-25.390625
491		-23.437500
492		-27.343750
493		-21.484375
494		-27.343750
495		-25.390625
496		-29.296875
497		-25.390625
498		-29.296875
499		-25.390625
500		-31.250000
501		-23.437500
502		-33.203125
503		-25.390625
504		-31.250000
505		-27.343750
506		-31.250000
507		-29.296875
508		-33.203125
509		-29.296875
510		-33.203125
511		-31.250000
512		-33.203125
513		-31.250000
514		-35.156250
515		-29.296875
516		-37.109375
517		-29.296875
518		-37.109375
519		-29.296875
520		-37.109375
521		-31.250000
522		-37.109375
523		-33.203125
524		-37.109375
525		-33.203125
526		-39.062500
527		-33.203125
528		-37.109375
529		-35.156250
530		-37.109375
531		-35.156250
532		-39.062500
533		-33.203125
534		-41.015625
535		-33.203125
536		-41.015625
537		-33.203125
538		-39.062500
539		-35.156250
540		-39.062500
541		-37.109375
542		-41.015625
543		-35.156250
544		-39.062500
545		-37.109375
546		-39.062500
547		-37.109375
548		-41.015625
549		-37.109375
550		-42.968750
551		-35.156250
552		-42.968750
553		-35.156250
554		-42.968750
555		-37.109375
556		-41.015625
557		-37.109375
558		-41.015625
559		-37.109375
560		-41.015625
561		-37.109375
562		-41.015625
563		-39.062500
564		-42.968750
565		-37.109375
566		-42.968750
567		-37.109375
568		-42.968750
569		-35.156250
570		-42.968750
571		-35.156250
572		-41.015625
573		-37.109375
574		-41.015625
575		-37.109375
576		-41.015625
577		-37.109375
578		-39.062500
579		-37.109375
580		-41.015625
581		-37.109375
582		-41.015625
583		-35.156250
584		-42.968750
585		-33.203125
586		-41.015625
587		-33.203125
588		-39.062500
589		-35.156250
590		-39.062500
591		-35.156250
592		-39.062500
593		-33.203125
594		-37.109375
595		-33.203125
596		-37.109375
597		-33.203125
598		-37.109375
599		-33.203125
600		-39.062500
601		-29.296875
602		-39.062500
603		-31.250000
604		-37.109375
605		-29.296875
606		-35.156250
607		-31.250000
608		-35.156250
609		-31.250000
610		-35.156250
611		-29.296875
612		-33.203125
613		-29.296875
614		-33.203125
615		-27.343750
616		-33.203125
617		-25.390625
618		-33.203125
619		-25.390625
620		-33.203125
621		-23.437500
622		-29.296875
623		-27.343750
624		-29.296875
625		-25.390625
626		-29.296875
627		-23.437500
628		-27.343750
629		-23.437500
630		-25.390625
631		-23.437500
632		-27.343750
633		-21.484375
634		-27.343750
635		-19.531250
636		-27.343750
637		-17.578125
638		-25.390625
639		-17.578125
640		-23.437500
641		-19.531250
642		-21.484375
643		-17.578125
644		-21.484375
645		-17.578125
646		-19.531250
647		-17.578125
648		-19.531250
649		-13.671875
650		-19.531250
651		-13.671875
652		-19.531250
653		-11.718750
654		-19.531250
655		-11.718750
656		-15.625000
657		-11.718750
658		-15.625000
659		-11.718750
660		-13.671875
661		-9.765625
662		-11.718750
663		-9.765625
664		-11.718750
665		-7.812500
666		-11.718750
667		-7.812500
668		-13.671875
669		-3.906250
670		-11.718750
671		-3.906250
672		-9.765625
673		-3.906250
674		-7.812500
675		-3.906250
676		-5.859375
677		-1.953125
678		-5.859375
679		-1.953125
680		-3.906250
681		-1.953125
682		-3.906250
683		0.000000
684		-3.906250
685		3.906250
686		-3.906250
687		3.906250
688		-3.906250
689		3.906250
690		0.000000
691		3.906250
692		1.953125
693		3.906250
694		1.953125
695		5.859375
696		3.906250
697		5.859375
698		3.906250
699		7.812500
700		1.953125
701		7.812500
702		1.953125
703		11.718750
704		3.906250
705		11.718750
706		7.812500
707		11.718750
708		7.812500
709		11.718750
710		9.765625
711		11.718750
712		9.765625
713		13.671875
714		11.718750
715		13.671875
716		9.765625
717		15.625000
718		9.765625
719		17.578125
720		11.718750
721		19.531250
722		11.718750
723		19.531250
724		13.671875
725		17.578125
726		15.625000
727		19.531250
728		15.625000
729		19.531250
730		17.578125
731		19.531250
732		17.578125
733		21.484375
734		15.625000
735		23.437500
736		17.578125
737		25.390625
738		17.578125
739		25.390625
740		19.531250
741		23.437500
742		19.531250
743		23.437500
744		19.531250
745		25.390625
746		21.484375
747		25.390625
748		23.437500
749		27.343750
750		23.437500
751		27.343750
752		21.484375
753		29.296875
754		21.484375
755		29.296875
756		23.437500
757		29.296875
758		25.390625
759		29.296875
760		25.390625
761		31.250000
762		27.343750
763		29.296875
764		27.343750
765		29.296875
766		25.390625
767		31.250000
768		25.390625
769		31.250000
770		25.390625
771		33.203125
772		25.390625
773		33.203125
774		27.343750
775		31.250000
776		29.296875
777		31.250000
778		29.296875
779		31.250000
780		29.296875
781		31.250000
782		29.296875
783		33.203125
784		27.343750
785		33.203125
786		27.343750
787		35.156250
788		29.296875
789		35.156250
790		29.296875
791		33.203125
792		29.296875
793		33.203125
794		29.296875
795		33.203125
796		31.250000
797		33.203125
798		31.250000
799		33.203125
800		29.296875
801		35.156250
802		27.343750
803		35.156250
804		27.343750
805		35.156250
806		27.343750
807		35.156250
808		31.250000
809		33.203125
810		29.296875
811		33.203125
812		29.296875
813		33.203125
814		29.296875
815		33.203125
816		29.296875
817		33.203125
818		27.343750
819		33.203125
820		27.343750
821		35.156250
822		27.343750
823		35.156250
824		29.296875
825		31.250000
826		29.296875
827		31.250000
828		27.343750
829		31.250000
830		27.343750
831		31.250000
832		27.343750
833		29.296875
834		27.343750
835		31.250000
836		23.437500
837		31.250000
838		23.437500
839		31.250000
840		25.390625
841		31.250000
842		25.390625
843		29.296875
844		23.437500
845		29.296875
846		25.390625
847		27.343750
848		23.437500
849		27.343750
850		23.437500
851		27.343750
852		19.531250
853		27.343750
854		19.531250
855		27.343750
856		19.531250
857		27.343750
858		19.531250
859		23.437500
860		19.531250
861		23.437500
862		19.531250
863		23.437500
864		19.531250
865		21.484375
866		17.578125
867		21.484375
868		15.625000
869		21.484375
870		13.671875
871		21.484375
872		13.671875
873		21.484375
874		13.671875
875		21.484375
876		13.671875
877		17.578125
878		11.718750
879		17.578125
880		13.671875
881		15.625000
882		11.718750
883		15.625000
884		11.718750
885		13.671875
886		7.812500
887		15.625000
888		5.859375
889		15.625000
890		5.859375
891		13.671875
892		7.812500
893		11.718750
894		5.859375
895		9.765625
896		3.906250
897		11.718750
898		5.859375
899		7.812500
900		3.906250
901		7.812500
902		1.953125
903		7.812500
904		0.000000
905		7.812500
906		-1.953125
907		5.859375
908		0.000000
909		3.906250
910		0.000000
911		1.953125
912		-1.953125
913		1.953125
914		-1.953125
915		0.000000
916		-3.906250
917		0.000000
918		-5.859375
919		0.000000
920		-7.812500
921		0.000000
922		-9.765625
923		0.000000
924		-9.765625
925		-1.953125
926		-7.812500
927		-3.906250
928		-9.765625
929		-5.859375
930		-9.765625
931		-5.859375
932		-11.718750
933		-7.812500
934		-13.671875
935		-7.812500
936		-15.625000
937		-9.765625
938		-17.578125
939		-7.812500
940		-17.578125
941		-9.765625
942		-15.625000
943		-13.671875
944		-17.578125
945		-13.671875
946		-19.531250
947		-13.671875
948		-17.578125
949		-15.625000
950		-21.484375
951		-15.625000
952		-23.437500
953		-15.625000
954		-23.437500
955		-15.625000
956		-25.390625
957		-15.625000
958		-25.390625
959		-17.578125
960		-23.437500
961		-21.484375
962		-25.390625
963		-21.484375
964		-25.390625
965		-23.437500
966		-25.390625
967		-23.437500
968		-29.296875
969		-23.437500
970		-31.250000
971		-23.437500
972		-31.250000
973		-23.437500
974		-31.250000
975		-23.437500
976		-29.296875
977		-27.343750
978		-31.250000
979		-27.343750
980		-31.250000
981		-27.343750
982		-31.250000
983		-29.296875
984		-35.156250
985		-29.296875
986		-33.203125
987		-29.296875
988		-37.109375
989		-29.296875
990		-37.109375
991		-29.296875
992		-35.156250
993		-31.250000
994		-35.156250
995		-31.250000
996		-37.109375
997		-33.203125
998		-37.109375
999		-33.203125
1000		-37.109375
1001		-35.156250
1002		-39.062500
1003		-33.203125
1004		-41.015625
1005		-33.203125
1006		-41.015625
1007		-33.203125
1008		-41.015625
1009		-33.203125
1010		-39.062500
1011		-35.156250
1012		-39.062500
1013		-35.156250
1014		-41.015625
1015		-35.156250
1016		-39.062500
1017		-37.109375
1018		-41.015625
1019		-37.109375
1020		-42.968750
1021		-35.156250
1022		-42.968750
1023		-35.156250
1024		-42.968750
1025		-35.156250
1026		-41.015625
1027		-37.109375
1028		-41.015625
1029		-37.109375
1030		-42.968750
1031		-37.109375
1032		-41.015625
1033		-37.109375
1034		-42.968750
1035		-39.062500
1036		-41.015625
1037		-37.109375
1038		-42.968750
1039		-35.156250
1040		-42.968750
1041		-35.156250
1042		-42.968750
1043		-35.156250
1044		-41.015625
1045		-37.109375
1046		-41.015625
1047		-37.109375
1048		-41.015625
1049		-37.109375
1050		-39.062500
1051		-37.109375
1052		-41.015625
1053		-37.109375
1054		-41.015625
1055		-35.156250
1056		-42.968750
1057		-35.156250
1058		-42.968750
1059		-33.203125
1060		-39.062500
1061		-35.156250
1062		-39.062500
1063		-35.156250
1064		-39.062500
1065		-35.156250
1066		-37.109375
1067		-35.156250
1068		-39.062500
1069		-33.203125
1070		-39.062500
1071		-31.250000
1072		-39.062500
1073		-31.250000
1074		-39.062500
1075		-31.250000
1076		-35.156250
1077		-33.203125
1078		-35.156250
1079		-33.203125
1080		-35.156250
1081		-31.250000
1082		-33.203125
1083		-31.250000
1084		-33.203125
1085		-31.250000
1086		-33.203125
1087		-29.296875
1088		-35.156250
1089		-27.343750
1090		-35.156250
1091		-25.390625
1092		-33.203125
1093		-25.390625
1094		-31.250000
1095		-27.343750
1096		-29.296875
1097		-25.390625
1098		-29.296875
1099		-25.390625
1100		-27.343750
1101		-25.390625
1102		-27.343750
1103		-23.437500
1104		-29.296875
1105		-21.484375
1106		-29.296875
1107		-21.484375
1108		-29.296875
1109		-19.531250
1110		-25.390625
1111		-21.484375
1112		-23.437500
1113		-19.531250
1114		-23.437500
1115		-17.578125
1116		-21.484375
1117		-19.531250
1118		-21.484375
1119		-15.625000
1120		-21.484375
1121		-13.671875
1122		-19.531250
1123		-13.671875
1124		-19.531250
1125		-11.718750
1126		-19.531250
1127		-11.718750
1128		-17.578125
1129		-13.671875
1130		-15.625000
1131		-11.718750
1132		-15.625000
1133		-11.718750
1134		-13.671875
1135		-9.765625
1136		-13.671875
1137		-9.765625
1138		-13.671875
1139		-7.812500
1140		-13.671875
1141		-5.859375
1142		-13.671875
1143		-3.906250
1144		-9.765625
1145		-5.859375
1146		-7.812500
1147		-3.906250
1148		-7.812500
1149		-3.906250
1150		-5.859375
1151		-3.906250
1152		-5.859375
1153		-1.953125
1154		-5.859375
1155		0.000000
1156		-5.859375
1157		1.953125
1158		-5.859375
1159		3.906250
1160		-1.953125
1161		1.953125
1162		-1.953125
1163		1.953125
1164		0.000000
1165		3.906250
1166		1.953125
1167		3.906250
1168		1.953125
1169		3.906250
1170		1.953125
1171		5.859375
1172		0.000000
1173		9.765625
1174		1.953125
1175		9.765625
1176		3.906250
1177		11.718750
1178		5.859375
1179		9.765625
1180		5.859375
1181		9.765625
1182		7.812500
1183		11.718750
1184		9.765625
1185		11.718750
1186		9.765625
1187		13.671875
1188		9.765625
1189		15.625000
1190		9.765625
1191		17.578125
1192		9.765625
1193		17.578125
1194		13.671875
1195		15.625000
1196		13.671875
1197		17.578125
1198		13.671875
1199		17.578125
1200		15.625000
1201		17.578125
1202		15.625000
1203		21.484375
1204		17.578125
1205		21.484375
1206		15.625000
1207		21.484375
1208		15.625000
1209		23.437500
1210		15.625000
1211		23.437500
1212		19.531250
1213		23.437500
1214		19.531250
1215		23.437500
1216		21.484375
1217		23.437500
1218		21.484375
1219		23.437500
1220		21.484375
1221		25.390625
1222		19.531250
1223		27.343750
1224		19.531250
1225		29.296875
1226		21.484375
1227		29.296875
1228		23.437500
1229		27.343750
1230		25.390625
1231		27.343750
1232		23.437500
1233		29.296875
1234		25.390625
1235		27.343750
1236		27.343750
1237		29.296875
1238		23.437500
1239		31.250000
1240		25.390625
1241		33.203125
1242		25.390625
1243		33.203125
1244		27.343750
1245		31.250000
1246		27.343750
1247		31.250000
1248		27.343750
1249		33.203125
1250		29.296875
1251		31.250000
1252		29.296875
1253		31.250000
1254		27.343750
1255		33.203125
1256		27.343750
1257		35.156250
1258		27.343750
1259		35.156250
1260		27.343750
1261		35.156250
1262		29.296875
1263		33.203125
1264		29.296875
1265		33.203125
1266		31.250000
1267		33.203125
1268		31.250000
1269		33.203125
1270		29.296875
1271		33.203125
1272		29.296875
1273		35.156250
1274		27.343750
