Old_data/metingen laweit/1000Hz, 50.0cm/data_81_m206.txt

Channel              :		CH1
Frequency            :		1.053kHz
Period               :		0.949ms
PK-PK                :		283.2mV
Probe attenuation    :		1X
Voltage per ADC value:		0.122070mV
Time interval        :		2.00000us

index		CH1_Voltage(mV)
1		25.390625
2		25.390625
3		17.578125
4		23.437500
5		13.671875
6		19.531250
7		9.765625
8		15.625000
9		5.859375
10		13.671875
11		0.000000
12		9.765625
13		-1.953125
14		7.812500
15		-3.906250
16		1.953125
17		-7.812500
18		-1.953125
19		-13.671875
20		-5.859375
21		-15.625000
22		-7.812500
23		-19.531250
24		-13.671875
25		-23.437500
26		-17.578125
27		-29.296875
28		-19.531250
29		-31.250000
30		-21.484375
31		-33.203125
32		-27.343750
33		-37.109375
34		-29.296875
35		-41.015625
36		-35.156250
37		-44.921875
38		-39.062500
39		-48.828125
40		-42.968750
41		-50.781250
42		-46.875000
43		-58.593750
44		-48.828125
45		-62.500000
46		-48.828125
47		-62.500000
48		-52.734375
49		-66.406250
50		-60.546875
51		-68.359375
52		-62.500000
53		-72.265625
54		-66.406250
55		-76.171875
56		-70.312500
57		-78.125000
58		-74.218750
59		-82.031250
60		-76.171875
61		-87.890625
62		-78.125000
63		-89.843750
64		-82.031250
65		-91.796875
66		-85.937500
67		-95.703125
68		-89.843750
69		-97.656250
70		-93.750000
71		-99.609375
72		-95.703125
73		-103.515625
74		-97.656250
75		-105.468750
76		-101.562500
77		-111.328125
78		-103.515625
79		-113.281250
80		-103.515625
81		-113.281250
82		-109.375000
83		-115.234375
84		-111.328125
85		-119.140625
86		-115.234375
87		-121.093750
88		-117.187500
89		-125.000000
90		-117.187500
91		-126.953125
92		-121.093750
93		-126.953125
94		-123.046875
95		-132.812500
96		-123.046875
97		-132.812500
98		-125.000000
99		-134.765625
100		-128.906250
101		-134.765625
102		-130.859375
103		-136.718750
104		-130.859375
105		-138.671875
106		-134.765625
107		-138.671875
108		-136.718750
109		-142.578125
110		-136.718750
111		-144.531250
112		-136.718750
113		-146.484375
114		-136.718750
115		-144.531250
116		-138.671875
117		-144.531250
118		-140.625000
119		-144.531250
120		-142.578125
121		-146.484375
122		-142.578125
123		-146.484375
124		-144.531250
125		-146.484375
126		-144.531250
127		-148.437500
128		-142.578125
129		-148.437500
130		-142.578125
131		-148.437500
132		-142.578125
133		-148.437500
134		-144.531250
135		-148.437500
136		-144.531250
137		-148.437500
138		-144.531250
139		-148.437500
140		-142.578125
141		-146.484375
142		-144.531250
143		-146.484375
144		-142.578125
145		-148.437500
146		-140.625000
147		-148.437500
148		-138.671875
149		-144.531250
150		-138.671875
151		-144.531250
152		-138.671875
153		-142.578125
154		-138.671875
155		-142.578125
156		-136.718750
157		-138.671875
158		-136.718750
159		-138.671875
160		-134.765625
161		-138.671875
162		-130.859375
163		-138.671875
164		-128.906250
165		-134.765625
166		-128.906250
167		-132.812500
168		-128.906250
169		-128.906250
170		-126.953125
171		-128.906250
172		-125.000000
173		-126.953125
174		-123.046875
175		-125.000000
176		-119.140625
177		-123.046875
178		-117.187500
179		-121.093750
180		-113.281250
181		-119.140625
182		-111.328125
183		-115.234375
184		-111.328125
185		-111.328125
186		-107.421875
187		-111.328125
188		-103.515625
189		-107.421875
190		-101.562500
191		-103.515625
192		-99.609375
193		-101.562500
194		-95.703125
195		-99.609375
196		-89.843750
197		-97.656250
198		-87.890625
199		-93.750000
200		-85.937500
201		-87.890625
202		-83.984375
203		-85.937500
204		-80.078125
205		-82.031250
206		-78.125000
207		-78.125000
208		-74.218750
209		-76.171875
210		-70.312500
211		-74.218750
212		-66.406250
213		-72.265625
214		-60.546875
215		-68.359375
216		-58.593750
217		-62.500000
218		-56.640625
219		-58.593750
220		-52.734375
221		-54.687500
222		-48.828125
223		-52.734375
224		-46.875000
225		-46.875000
226		-42.968750
227		-42.968750
228		-39.062500
229		-41.015625
230		-33.203125
231		-39.062500
232		-29.296875
233		-33.203125
234		-27.343750
235		-31.250000
236		-23.437500
237		-25.390625
238		-19.531250
239		-21.484375
240		-15.625000
241		-17.578125
242		-13.671875
243		-13.671875
244		-9.765625
245		-11.718750
246		-3.906250
247		-7.812500
248		0.000000
249		-5.859375
250		1.953125
251		0.000000
252		5.859375
253		3.906250
254		9.765625
255		5.859375
256		11.718750
257		9.765625
258		15.625000
259		13.671875
260		19.531250
261		17.578125
262		23.437500
263		19.531250
264		29.296875
265		21.484375
266		33.203125
267		27.343750
268		33.203125
269		31.250000
270		37.109375
271		33.203125
272		41.015625
273		37.109375
274		42.968750
275		41.015625
276		46.875000
277		44.921875
278		50.781250
279		46.875000
280		54.687500
281		48.828125
282		58.593750
283		52.734375
284		60.546875
285		56.640625
286		60.546875
287		60.546875
288		64.453125
289		62.500000
290		68.359375
291		66.406250
292		70.312500
293		68.359375
294		72.265625
295		70.312500
296		76.171875
297		70.312500
298		80.078125
299		74.218750
300		82.031250
301		78.125000
302		83.984375
303		82.031250
304		85.937500
305		83.984375
306		87.890625
307		83.984375
308		89.843750
309		87.890625
310		91.796875
311		89.843750
312		95.703125
313		91.796875
314		99.609375
315		91.796875
316		101.562500
317		93.750000
318		101.562500
319		97.656250
320		103.515625
321		99.609375
322		103.515625
323		101.562500
324		105.468750
325		103.515625
326		107.421875
327		105.468750
328		109.375000
329		105.468750
330		113.281250
331		105.468750
332		115.234375
333		107.421875
334		115.234375
335		111.328125
336		115.234375
337		113.281250
338		115.234375
339		113.281250
340		117.187500
341		113.281250
342		119.140625
343		115.234375
344		121.093750
345		117.187500
346		121.093750
347		115.234375
348		123.046875
349		117.187500
350		125.000000
351		119.140625
352		123.046875
353		121.093750
354		125.000000
355		119.140625
356		125.000000
357		121.093750
358		125.000000
359		123.046875
360		125.000000
361		123.046875
362		126.953125
363		121.093750
364		128.906250
365		121.093750
366		128.906250
367		121.093750
368		128.906250
369		123.046875
370		126.953125
371		123.046875
372		126.953125
373		123.046875
374		126.953125
375		123.046875
376		126.953125
377		123.046875
378		126.953125
379		123.046875
380		125.000000
381		121.093750
382		128.906250
383		121.093750
384		126.953125
385		123.046875
386		125.000000
387		121.093750
388		125.000000
389		119.140625
390		125.000000
391		121.093750
392		125.000000
393		119.140625
394		121.093750
395		117.187500
396		123.046875
397		115.234375
398		123.046875
399		113.281250
400		123.046875
401		115.234375
402		121.093750
403		113.281250
404		117.187500
405		113.281250
406		115.234375
407		111.328125
408		115.234375
409		111.328125
410		113.281250
411		107.421875
412		111.328125
413		105.468750
414		111.328125
415		103.515625
416		111.328125
417		101.562500
418		111.328125
419		101.562500
420		105.468750
421		99.609375
422		105.468750
423		97.656250
424		101.562500
425		95.703125
426		101.562500
427		93.750000
428		97.656250
429		91.796875
430		95.703125
431		87.890625
432		97.656250
433		85.937500
434		93.750000
435		83.984375
436		89.843750
437		82.031250
438		87.890625
439		80.078125
440		83.984375
441		78.125000
442		82.031250
443		76.171875
444		80.078125
445		72.265625
446		76.171875
447		68.359375
448		74.218750
449		64.453125
450		74.218750
451		62.500000
452		70.312500
453		60.546875
454		66.406250
455		56.640625
456		62.500000
457		52.734375
458		58.593750
459		52.734375
460		56.640625
461		48.828125
462		54.687500
463		42.968750
464		50.781250
465		41.015625
466		48.828125
467		37.109375
468		46.875000
469		35.156250
470		41.015625
471		31.250000
472		37.109375
473		29.296875
474		35.156250
475		25.390625
476		33.203125
477		21.484375
478		27.343750
479		17.578125
480		23.437500
481		13.671875
482		21.484375
483		7.812500
484		17.578125
485		7.812500
486		15.625000
487		3.906250
488		9.765625
489		0.000000
490		5.859375
491		-3.906250
492		3.906250
493		-5.859375
494		-1.953125
495		-11.718750
496		-5.859375
497		-17.578125
498		-7.812500
499		-19.531250
500		-11.718750
501		-23.437500
502		-13.671875
503		-25.390625
504		-19.531250
505		-29.296875
506		-23.437500
507		-33.203125
508		-27.343750
509		-35.156250
510		-29.296875
511		-39.062500
512		-33.203125
513		-42.968750
514		-37.109375
515		-48.828125
516		-39.062500
517		-52.734375
518		-42.968750
519		-54.687500
520		-48.828125
521		-56.640625
522		-52.734375
523		-60.546875
524		-56.640625
525		-64.453125
526		-58.593750
527		-68.359375
528		-62.500000
529		-72.265625
530		-66.406250
531		-76.171875
532		-68.359375
533		-80.078125
534		-70.312500
535		-80.078125
536		-74.218750
537		-83.984375
538		-80.078125
539		-87.890625
540		-82.031250
541		-91.796875
542		-85.937500
543		-93.750000
544		-87.890625
545		-95.703125
546		-91.796875
547		-101.562500
548		-93.750000
549		-105.468750
550		-95.703125
551		-107.421875
552		-97.656250
553		-107.421875
554		-103.515625
555		-111.328125
556		-105.468750
557		-113.281250
558		-109.375000
559		-115.234375
560		-107.421875
561		-117.187500
562		-113.281250
563		-121.093750
564		-115.234375
565		-123.046875
566		-115.234375
567		-126.953125
568		-117.187500
569		-126.953125
570		-121.093750
571		-128.906250
572		-125.000000
573		-130.859375
574		-126.953125
575		-132.812500
576		-126.953125
577		-134.765625
578		-128.906250
579		-134.765625
580		-130.859375
581		-140.625000
582		-130.859375
583		-140.625000
584		-132.812500
585		-142.578125
586		-132.812500
587		-140.625000
588		-136.718750
589		-142.578125
590		-138.671875
591		-144.531250
592		-138.671875
593		-142.578125
594		-138.671875
595		-144.531250
596		-140.625000
597		-146.484375
598		-138.671875
599		-148.437500
600		-140.625000
601		-148.437500
602		-138.671875
603		-148.437500
604		-140.625000
605		-146.484375
606		-142.578125
607		-146.484375
608		-142.578125
609		-148.437500
610		-140.625000
611		-146.484375
612		-142.578125
613		-146.484375
614		-142.578125
615		-146.484375
616		-140.625000
617		-148.437500
618		-138.671875
619		-146.484375
620		-140.625000
621		-144.531250
622		-140.625000
623		-142.578125
624		-138.671875
625		-144.531250
626		-136.718750
627		-142.578125
628		-138.671875
629		-140.625000
630		-136.718750
631		-140.625000
632		-132.812500
633		-140.625000
634		-130.859375
635		-138.671875
636		-130.859375
637		-136.718750
638		-128.906250
639		-132.812500
640		-128.906250
641		-130.859375
642		-126.953125
643		-132.812500
644		-125.000000
645		-128.906250
646		-123.046875
647		-126.953125
648		-121.093750
649		-125.000000
650		-119.140625
651		-125.000000
652		-115.234375
653		-121.093750
654		-113.281250
655		-117.187500
656		-113.281250
657		-115.234375
658		-107.421875
659		-113.281250
660		-105.468750
661		-109.375000
662		-105.468750
663		-107.421875
664		-101.562500
665		-105.468750
666		-99.609375
667		-101.562500
668		-93.750000
669		-101.562500
670		-91.796875
671		-95.703125
672		-89.843750
673		-93.750000
674		-87.890625
675		-89.843750
676		-80.078125
677		-85.937500
678		-80.078125
679		-82.031250
680		-78.125000
681		-80.078125
682		-72.265625
683		-78.125000
684		-68.359375
685		-76.171875
686		-64.453125
687		-70.312500
688		-64.453125
689		-66.406250
690		-60.546875
691		-62.500000
692		-56.640625
693		-60.546875
694		-54.687500
695		-54.687500
696		-50.781250
697		-52.734375
698		-46.875000
699		-48.828125
700		-41.015625
701		-46.875000
702		-37.109375
703		-44.921875
704		-33.203125
705		-37.109375
706		-33.203125
707		-33.203125
708		-29.296875
709		-29.296875
710		-23.437500
711		-27.343750
712		-21.484375
713		-23.437500
714		-15.625000
715		-19.531250
716		-11.718750
717		-17.578125
718		-7.812500
719		-13.671875
720		-3.906250
721		-11.718750
722		-1.953125
723		-3.906250
724		1.953125
725		-1.953125
726		3.906250
727		0.000000
728		7.812500
729		5.859375
730		11.718750
731		9.765625
732		15.625000
733		11.718750
734		19.531250
735		13.671875
736		25.390625
737		19.531250
738		27.343750
739		23.437500
740		29.296875
741		27.343750
742		33.203125
743		29.296875
744		37.109375
745		35.156250
746		39.062500
747		37.109375
748		42.968750
749		39.062500
750		46.875000
751		41.015625
752		50.781250
753		44.921875
754		54.687500
755		48.828125
756		54.687500
757		52.734375
758		56.640625
759		54.687500
760		62.500000
761		58.593750
762		64.453125
763		62.500000
764		66.406250
765		64.453125
766		70.312500
767		64.453125
768		74.218750
769		68.359375
770		76.171875
771		70.312500
772		78.125000
773		76.171875
774		80.078125
775		78.125000
776		82.031250
777		78.125000
778		85.937500
779		83.984375
780		87.890625
781		85.937500
782		89.843750
783		85.937500
784		93.750000
785		87.890625
786		97.656250
787		89.843750
788		97.656250
789		93.750000
790		97.656250
791		95.703125
792		99.609375
793		97.656250
794		105.468750
795		97.656250
796		103.515625
797		101.562500
798		105.468750
799		101.562500
800		109.375000
801		103.515625
802		111.328125
803		103.515625
804		113.281250
805		107.421875
806		113.281250
807		109.375000
808		113.281250
809		111.328125
810		115.234375
811		111.328125
812		117.187500
813		113.281250
814		117.187500
815		115.234375
816		121.093750
817		113.281250
818		121.093750
819		115.234375
820		123.046875
821		115.234375
822		125.000000
823		119.140625
824		123.046875
825		119.140625
826		125.000000
827		119.140625
828		125.000000
829		121.093750
830		125.000000
831		123.046875
832		125.000000
833		119.140625
834		128.906250
835		121.093750
836		128.906250
837		121.093750
838		128.906250
839		121.093750
840		126.953125
841		123.046875
842		126.953125
843		121.093750
844		128.906250
845		123.046875
846		126.953125
847		123.046875
848		126.953125
849		125.000000
850		128.906250
851		121.093750
852		128.906250
853		121.093750
854		128.906250
855		121.093750
856		128.906250
857		123.046875
858		126.953125
859		121.093750
860		125.000000
861		121.093750
862		126.953125
863		121.093750
864		123.046875
865		121.093750
866		123.046875
867		117.187500
868		125.000000
869		117.187500
870		125.000000
871		115.234375
872		125.000000
873		117.187500
874		121.093750
875		115.234375
876		119.140625
877		113.281250
878		119.140625
879		113.281250
880		117.187500
881		111.328125
882		115.234375
883		107.421875
884		115.234375
885		105.468750
886		115.234375
887		105.468750
888		113.281250
889		105.468750
890		111.328125
891		105.468750
892		107.421875
893		103.515625
894		107.421875
895		99.609375
896		105.468750
897		99.609375
898		103.515625
899		95.703125
900		101.562500
901		93.750000
902		101.562500
903		89.843750
904		99.609375
905		89.843750
906		97.656250
907		87.890625
908		91.796875
909		85.937500
910		89.843750
911		82.031250
912		89.843750
913		82.031250
914		85.937500
915		78.125000
916		83.984375
917		74.218750
918		82.031250
919		70.312500
920		80.078125
921		68.359375
922		78.125000
923		68.359375
924		74.218750
925		64.453125
926		70.312500
927		60.546875
928		66.406250
929		58.593750
930		66.406250
931		56.640625
932		60.546875
933		52.734375
934		56.640625
935		48.828125
936		56.640625
937		44.921875
938		54.687500
939		42.968750
940		50.781250
941		41.015625
942		44.921875
943		37.109375
944		41.015625
945		33.203125
946		41.015625
947		31.250000
948		35.156250
949		27.343750
950		31.250000
951		21.484375
952		29.296875
953		15.625000
954		27.343750
955		13.671875
956		23.437500
957		11.718750
958		17.578125
959		9.765625
960		15.625000
961		3.906250
962		11.718750
963		1.953125
964		7.812500
965		-1.953125
966		3.906250
967		-7.812500
968		0.000000
969		-11.718750
970		-1.953125
971		-13.671875
972		-5.859375
973		-15.625000
974		-9.765625
975		-19.531250
976		-13.671875
977		-23.437500
978		-17.578125
979		-27.343750
980		-21.484375
981		-31.250000
982		-25.390625
983		-35.156250
984		-29.296875
985		-41.015625
986		-31.250000
987		-44.921875
988		-35.156250
989		-46.875000
990		-37.109375
991		-48.828125
992		-42.968750
993		-52.734375
994		-46.875000
995		-58.593750
996		-48.828125
997		-58.593750
998		-54.687500
999		-62.500000
1000		-58.593750
1001		-68.359375
1002		-60.546875
1003		-72.265625
1004		-62.500000
1005		-76.171875
1006		-64.453125
1007		-78.125000
1008		-70.312500
1009		-80.078125
1010		-74.218750
1011		-83.984375
1012		-78.125000
1013		-85.937500
1014		-78.125000
1015		-89.843750
1016		-83.984375
1017		-93.750000
1018		-87.890625
1019		-95.703125
1020		-87.890625
1021		-101.562500
1022		-89.843750
1023		-101.562500
1024		-93.750000
1025		-103.515625
1026		-97.656250
1027		-105.468750
1028		-101.562500
1029		-109.375000
1030		-103.515625
1031		-111.328125
1032		-107.421875
1033		-113.281250
1034		-109.375000
1035		-119.140625
1036		-111.328125
1037		-121.093750
1038		-113.281250
1039		-125.000000
1040		-113.281250
1041		-125.000000
1042		-117.187500
1043		-125.000000
1044		-121.093750
1045		-128.906250
1046		-123.046875
1047		-128.906250
1048		-125.000000
1049		-130.859375
1050		-126.953125
1051		-134.765625
1052		-126.953125
1053		-136.718750
1054		-128.906250
1055		-138.671875
1056		-130.859375
1057		-138.671875
1058		-130.859375
1059		-138.671875
1060		-134.765625
1061		-140.625000
1062		-136.718750
1063		-142.578125
1064		-134.765625
1065		-142.578125
1066		-138.671875
1067		-144.531250
1068		-140.625000
1069		-146.484375
1070		-138.671875
1071		-146.484375
1072		-138.671875
1073		-148.437500
1074		-138.671875
1075		-146.484375
1076		-140.625000
1077		-146.484375
1078		-142.578125
1079		-148.437500
1080		-140.625000
1081		-146.484375
1082		-142.578125
1083		-146.484375
1084		-144.531250
1085		-148.437500
1086		-140.625000
1087		-148.437500
1088		-140.625000
1089		-148.437500
1090		-140.625000
1091		-148.437500
1092		-140.625000
1093		-146.484375
1094		-142.578125
1095		-144.531250
1096		-140.625000
1097		-144.531250
1098		-138.671875
1099		-142.578125
1100		-140.625000
1101		-142.578125
1102		-138.671875
1103		-144.531250
1104		-136.718750
1105		-142.578125
1106		-134.765625
1107		-142.578125
1108		-132.812500
1109		-138.671875
1110		-132.812500
1111		-136.718750
1112		-132.812500
1113		-136.718750
1114		-130.859375
1115		-132.812500
1116		-128.906250
1117		-130.859375
1118		-126.953125
1119		-130.859375
1120		-123.046875
1121		-128.906250
1122		-121.093750
1123		-128.906250
1124		-119.140625
1125		-123.046875
1126		-119.140625
1127		-121.093750
1128		-117.187500
1129		-119.140625
1130		-111.328125
1131		-117.187500
1132		-111.328125
1133		-115.234375
1134		-107.421875
1135		-111.328125
1136		-103.515625
1137		-111.328125
1138		-103.515625
1139		-107.421875
1140		-99.609375
1141		-107.421875
1142		-97.656250
1143		-101.562500
1144		-95.703125
1145		-97.656250
1146		-91.796875
1147		-97.656250
1148		-87.890625
1149		-91.796875
1150		-85.937500
1151		-87.890625
1152		-83.984375
1153		-85.937500
1154		-78.125000
1155		-83.984375
1156		-76.171875
1157		-80.078125
1158		-72.265625
1159		-76.171875
1160		-68.359375
1161		-72.265625
1162		-66.406250
1163		-68.359375
1164		-60.546875
1165		-64.453125
1166		-60.546875
1167		-62.500000
1168		-56.640625
1169		-58.593750
1170		-50.781250
1171		-56.640625
1172		-46.875000
1173		-50.781250
1174		-42.968750
1175		-48.828125
1176		-39.062500
1177		-42.968750
1178		-37.109375
1179		-39.062500
1180		-35.156250
1181		-37.109375
1182		-31.250000
1183		-31.250000
1184		-27.343750
1185		-27.343750
1186		-21.484375
1187		-27.343750
1188		-17.578125
1189		-23.437500
1190		-13.671875
1191		-19.531250
1192		-9.765625
1193		-13.671875
1194		-7.812500
1195		-9.765625
1196		-5.859375
1197		-7.812500
1198		0.000000
1199		-1.953125
1200		1.953125
1201		1.953125
1202		5.859375
1203		3.906250
1204		11.718750
1205		7.812500
1206		13.671875
1207		9.765625
1208		19.531250
1209		15.625000
1210		21.484375
1211		17.578125
1212		23.437500
1213		21.484375
1214		29.296875
1215		25.390625
1216		29.296875
1217		29.296875
1218		33.203125
1219		31.250000
1220		39.062500
1221		33.203125
1222		42.968750
1223		35.156250
1224		46.875000
1225		39.062500
1226		48.828125
1227		42.968750
1228		50.781250
1229		48.828125
