Old_data/metingen laweit/1000Hz, 50.0cm/data_81_m478.txt

Channel              :		CH1
Frequency            :		1.061kHz
Period               :		0.942ms
PK-PK                :		294.9mV
Probe attenuation    :		1X
Voltage per ADC value:		0.122070mV
Time interval        :		2.00000us

index		CH1_Voltage(mV)
1		70.312500
2		70.312500
3		60.546875
4		68.359375
5		58.593750
6		66.406250
7		54.687500
8		62.500000
9		50.781250
10		60.546875
11		46.875000
12		56.640625
13		44.921875
14		54.687500
15		42.968750
16		50.781250
17		41.015625
18		44.921875
19		35.156250
20		42.968750
21		31.250000
22		41.015625
23		29.296875
24		37.109375
25		25.390625
26		33.203125
27		21.484375
28		29.296875
29		17.578125
30		27.343750
31		13.671875
32		21.484375
33		11.718750
34		17.578125
35		7.812500
36		13.671875
37		1.953125
38		9.765625
39		-1.953125
40		7.812500
41		-3.906250
42		3.906250
43		-9.765625
44		1.953125
45		-13.671875
46		-3.906250
47		-17.578125
48		-7.812500
49		-19.531250
50		-11.718750
51		-21.484375
52		-17.578125
53		-29.296875
54		-21.484375
55		-33.203125
56		-23.437500
57		-35.156250
58		-27.343750
59		-39.062500
60		-29.296875
61		-42.968750
62		-35.156250
63		-46.875000
64		-39.062500
65		-50.781250
66		-41.015625
67		-52.734375
68		-46.875000
69		-56.640625
70		-50.781250
71		-62.500000
72		-54.687500
73		-66.406250
74		-56.640625
75		-70.312500
76		-60.546875
77		-76.171875
78		-64.453125
79		-76.171875
80		-68.359375
81		-80.078125
82		-72.265625
83		-82.031250
84		-76.171875
85		-85.937500
86		-82.031250
87		-91.796875
88		-83.984375
89		-95.703125
90		-85.937500
91		-99.609375
92		-89.843750
93		-103.515625
94		-93.750000
95		-105.468750
96		-97.656250
97		-109.375000
98		-101.562500
99		-109.375000
100		-103.515625
101		-113.281250
102		-107.421875
103		-117.187500
104		-111.328125
105		-121.093750
106		-113.281250
107		-123.046875
108		-115.234375
109		-126.953125
110		-119.140625
111		-128.906250
112		-121.093750
113		-132.812500
114		-125.000000
115		-134.765625
116		-126.953125
117		-134.765625
118		-130.859375
119		-138.671875
120		-132.812500
121		-142.578125
122		-134.765625
123		-144.531250
124		-136.718750
125		-146.484375
126		-138.671875
127		-150.390625
128		-140.625000
129		-150.390625
130		-142.578125
131		-154.296875
132		-144.531250
133		-152.343750
134		-146.484375
135		-154.296875
136		-150.390625
137		-158.203125
138		-150.390625
139		-160.156250
140		-152.343750
141		-160.156250
142		-152.343750
143		-162.109375
144		-154.296875
145		-162.109375
146		-156.250000
147		-164.062500
148		-156.250000
149		-164.062500
150		-158.203125
151		-164.062500
152		-160.156250
153		-164.062500
154		-160.156250
155		-166.015625
156		-160.156250
157		-166.015625
158		-160.156250
159		-167.968750
160		-160.156250
161		-167.968750
162		-160.156250
163		-167.968750
164		-162.109375
165		-167.968750
166		-160.156250
167		-166.015625
168		-160.156250
169		-166.015625
170		-162.109375
171		-166.015625
172		-160.156250
173		-166.015625
174		-158.203125
175		-166.015625
176		-158.203125
177		-166.015625
178		-158.203125
179		-164.062500
180		-158.203125
181		-164.062500
182		-156.250000
183		-162.109375
184		-156.250000
185		-158.203125
186		-156.250000
187		-158.203125
188		-154.296875
189		-158.203125
190		-150.390625
191		-156.250000
192		-150.390625
193		-156.250000
194		-148.437500
195		-154.296875
196		-144.531250
197		-152.343750
198		-144.531250
199		-150.390625
200		-142.578125
201		-146.484375
202		-140.625000
203		-144.531250
204		-138.671875
205		-142.578125
206		-136.718750
207		-140.625000
208		-132.812500
209		-138.671875
210		-130.859375
211		-136.718750
212		-126.953125
213		-134.765625
214		-125.000000
215		-130.859375
216		-123.046875
217		-126.953125
218		-121.093750
219		-123.046875
220		-117.187500
221		-119.140625
222		-113.281250
223		-119.140625
224		-111.328125
225		-115.234375
226		-107.421875
227		-113.281250
228		-103.515625
229		-109.375000
230		-101.562500
231		-107.421875
232		-97.656250
233		-103.515625
234		-93.750000
235		-97.656250
236		-91.796875
237		-93.750000
238		-87.890625
239		-89.843750
240		-83.984375
241		-89.843750
242		-80.078125
243		-83.984375
244		-76.171875
245		-82.031250
246		-72.265625
247		-78.125000
248		-68.359375
249		-74.218750
250		-64.453125
251		-68.359375
252		-62.500000
253		-64.453125
254		-58.593750
255		-60.546875
256		-52.734375
257		-58.593750
258		-48.828125
259		-52.734375
260		-44.921875
261		-50.781250
262		-41.015625
263		-44.921875
264		-37.109375
265		-42.968750
266		-33.203125
267		-37.109375
268		-29.296875
269		-31.250000
270		-25.390625
271		-29.296875
272		-23.437500
273		-25.390625
274		-17.578125
275		-21.484375
276		-13.671875
277		-17.578125
278		-9.765625
279		-13.671875
280		-5.859375
281		-9.765625
282		-1.953125
283		-5.859375
284		0.000000
285		-3.906250
286		3.906250
287		1.953125
288		7.812500
289		5.859375
290		13.671875
291		7.812500
292		17.578125
293		11.718750
294		21.484375
295		15.625000
296		25.390625
297		19.531250
298		27.343750
299		23.437500
300		31.250000
301		27.343750
302		33.203125
303		31.250000
304		37.109375
305		35.156250
306		41.015625
307		35.156250
308		44.921875
309		41.015625
310		48.828125
311		42.968750
312		50.781250
313		44.921875
314		54.687500
315		50.781250
316		56.640625
317		52.734375
318		60.546875
319		56.640625
320		62.500000
321		60.546875
322		64.453125
323		62.500000
324		68.359375
325		64.453125
326		72.265625
327		68.359375
328		74.218750
329		68.359375
330		78.125000
331		72.265625
332		80.078125
333		74.218750
334		82.031250
335		78.125000
336		83.984375
337		82.031250
338		85.937500
339		82.031250
340		89.843750
341		83.984375
342		91.796875
343		85.937500
344		93.750000
345		89.843750
346		95.703125
347		89.843750
348		99.609375
349		93.750000
350		99.609375
351		93.750000
352		101.562500
353		97.656250
354		103.515625
355		99.609375
356		103.515625
357		99.609375
358		107.421875
359		101.562500
360		109.375000
361		103.515625
362		109.375000
363		103.515625
364		111.328125
365		105.468750
366		113.281250
367		107.421875
368		115.234375
369		109.375000
370		115.234375
371		111.328125
372		115.234375
373		111.328125
374		117.187500
375		111.328125
376		117.187500
377		111.328125
378		119.140625
379		113.281250
380		121.093750
381		113.281250
382		121.093750
383		115.234375
384		123.046875
385		115.234375
386		123.046875
387		117.187500
388		121.093750
389		117.187500
390		123.046875
391		117.187500
392		123.046875
393		117.187500
394		125.000000
395		117.187500
396		123.046875
397		117.187500
398		125.000000
399		117.187500
400		125.000000
401		117.187500
402		125.000000
403		119.140625
404		123.046875
405		119.140625
406		121.093750
407		117.187500
408		123.046875
409		115.234375
410		123.046875
411		115.234375
412		123.046875
413		115.234375
414		121.093750
415		115.234375
416		121.093750
417		113.281250
418		121.093750
419		113.281250
420		119.140625
421		113.281250
422		117.187500
423		111.328125
424		117.187500
425		109.375000
426		117.187500
427		109.375000
428		117.187500
429		107.421875
430		115.234375
431		107.421875
432		113.281250
433		105.468750
434		113.281250
435		103.515625
436		111.328125
437		105.468750
438		107.421875
439		103.515625
440		107.421875
441		99.609375
442		105.468750
443		97.656250
444		103.515625
445		95.703125
446		103.515625
447		93.750000
448		101.562500
449		91.796875
450		99.609375
451		89.843750
452		95.703125
453		89.843750
454		93.750000
455		85.937500
456		91.796875
457		82.031250
458		89.843750
459		82.031250
460		87.890625
461		78.125000
462		85.937500
463		76.171875
464		83.984375
465		72.265625
466		80.078125
467		70.312500
468		78.125000
469		68.359375
470		74.218750
471		66.406250
472		72.265625
473		62.500000
474		68.359375
475		58.593750
476		68.359375
477		54.687500
478		64.453125
479		52.734375
480		60.546875
481		50.781250
482		58.593750
483		46.875000
484		54.687500
485		44.921875
486		50.781250
487		41.015625
488		46.875000
489		39.062500
490		42.968750
491		33.203125
492		41.015625
493		29.296875
494		37.109375
495		25.390625
496		35.156250
497		23.437500
498		31.250000
499		19.531250
500		27.343750
501		15.625000
502		23.437500
503		13.671875
504		21.484375
505		9.765625
506		15.625000
507		3.906250
508		11.718750
509		0.000000
510		9.765625
511		-3.906250
512		5.859375
513		-5.859375
514		1.953125
515		-11.718750
516		-1.953125
517		-15.625000
518		-5.859375
519		-17.578125
520		-9.765625
521		-21.484375
522		-15.625000
523		-25.390625
524		-19.531250
525		-29.296875
526		-21.484375
527		-33.203125
528		-25.390625
529		-39.062500
530		-29.296875
531		-41.015625
532		-33.203125
533		-46.875000
534		-35.156250
535		-48.828125
536		-41.015625
537		-52.734375
538		-42.968750
539		-54.687500
540		-48.828125
541		-62.500000
542		-52.734375
543		-64.453125
544		-56.640625
545		-70.312500
546		-58.593750
547		-72.265625
548		-64.453125
549		-76.171875
550		-66.406250
551		-78.125000
552		-70.312500
553		-82.031250
554		-74.218750
555		-83.984375
556		-80.078125
557		-89.843750
558		-83.984375
559		-93.750000
560		-83.984375
561		-97.656250
562		-89.843750
563		-101.562500
564		-91.796875
565		-103.515625
566		-95.703125
567		-107.421875
568		-99.609375
569		-111.328125
570		-101.562500
571		-111.328125
572		-105.468750
573		-115.234375
574		-109.375000
575		-121.093750
576		-111.328125
577		-123.046875
578		-115.234375
579		-126.953125
580		-117.187500
581		-128.906250
582		-121.093750
583		-130.859375
584		-123.046875
585		-132.812500
586		-126.953125
587		-134.765625
588		-126.953125
589		-136.718750
590		-132.812500
591		-140.625000
592		-134.765625
593		-144.531250
594		-136.718750
595		-146.484375
596		-136.718750
597		-148.437500
598		-140.625000
599		-150.390625
600		-142.578125
601		-152.343750
602		-144.531250
603		-152.343750
604		-146.484375
605		-154.296875
606		-148.437500
607		-154.296875
608		-150.390625
609		-158.203125
610		-150.390625
611		-160.156250
612		-152.343750
613		-162.109375
614		-154.296875
615		-162.109375
616		-156.250000
617		-164.062500
618		-156.250000
619		-164.062500
620		-158.203125
621		-164.062500
622		-158.203125
623		-164.062500
624		-160.156250
625		-167.968750
626		-160.156250
627		-167.968750
628		-160.156250
629		-167.968750
630		-160.156250
631		-167.968750
632		-162.109375
633		-167.968750
634		-160.156250
635		-167.968750
636		-162.109375
637		-167.968750
638		-160.156250
639		-166.015625
640		-162.109375
641		-166.015625
642		-162.109375
643		-167.968750
644		-160.156250
645		-167.968750
646		-158.203125
647		-166.015625
648		-158.203125
649		-166.015625
650		-158.203125
651		-164.062500
652		-158.203125
653		-162.109375
654		-156.250000
655		-162.109375
656		-156.250000
657		-160.156250
658		-154.296875
659		-160.156250
660		-152.343750
661		-158.203125
662		-150.390625
663		-156.250000
664		-150.390625
665		-156.250000
666		-146.484375
667		-152.343750
668		-146.484375
669		-152.343750
670		-142.578125
671		-148.437500
672		-142.578125
673		-144.531250
674		-140.625000
675		-142.578125
676		-138.671875
677		-142.578125
678		-134.765625
679		-140.625000
680		-132.812500
681		-138.671875
682		-130.859375
683		-134.765625
684		-126.953125
685		-132.812500
686		-125.000000
687		-128.906250
688		-121.093750
689		-125.000000
690		-121.093750
691		-123.046875
692		-117.187500
693		-119.140625
694		-111.328125
695		-117.187500
696		-109.375000
697		-115.234375
698		-107.421875
699		-111.328125
700		-103.515625
701		-109.375000
702		-99.609375
703		-105.468750
704		-95.703125
705		-101.562500
706		-93.750000
707		-95.703125
708		-89.843750
709		-91.796875
710		-85.937500
711		-91.796875
712		-82.031250
713		-85.937500
714		-78.125000
715		-83.984375
716		-74.218750
717		-80.078125
718		-70.312500
719		-76.171875
720		-66.406250
721		-70.312500
722		-64.453125
723		-66.406250
724		-60.546875
725		-62.500000
726		-56.640625
727		-60.546875
728		-50.781250
729		-54.687500
730		-46.875000
731		-52.734375
732		-42.968750
733		-46.875000
734		-39.062500
735		-44.921875
736		-37.109375
737		-41.015625
738		-31.250000
739		-37.109375
740		-29.296875
741		-31.250000
742		-25.390625
743		-27.343750
744		-19.531250
745		-25.390625
746		-15.625000
747		-21.484375
748		-11.718750
749		-17.578125
750		-7.812500
751		-11.718750
752		-3.906250
753		-9.765625
754		0.000000
755		-5.859375
756		1.953125
757		0.000000
758		5.859375
759		3.906250
760		11.718750
761		5.859375
762		13.671875
763		7.812500
764		17.578125
765		13.671875
766		21.484375
767		17.578125
768		25.390625
769		19.531250
770		29.296875
771		23.437500
772		31.250000
773		29.296875
774		35.156250
775		33.203125
776		37.109375
777		35.156250
778		42.968750
779		39.062500
780		46.875000
781		41.015625
782		48.828125
783		42.968750
784		52.734375
785		46.875000
786		56.640625
787		50.781250
788		58.593750
789		54.687500
790		60.546875
791		58.593750
792		64.453125
793		60.546875
794		68.359375
795		62.500000
796		70.312500
797		64.453125
798		72.265625
799		68.359375
800		76.171875
801		70.312500
802		78.125000
803		72.265625
804		82.031250
805		76.171875
806		82.031250
807		80.078125
808		83.984375
809		82.031250
810		87.890625
811		83.984375
812		89.843750
813		85.937500
814		91.796875
815		85.937500
816		95.703125
817		89.843750
818		95.703125
819		91.796875
820		99.609375
821		91.796875
822		101.562500
823		97.656250
824		101.562500
825		97.656250
826		103.515625
827		99.609375
828		105.468750
829		99.609375
830		107.421875
831		101.562500
832		109.375000
833		103.515625
834		111.328125
835		105.468750
836		111.328125
837		105.468750
838		113.281250
839		107.421875
840		113.281250
841		109.375000
842		113.281250
843		109.375000
844		117.187500
845		109.375000
846		117.187500
847		111.328125
848		119.140625
849		111.328125
850		119.140625
851		113.281250
852		119.140625
853		113.281250
854		121.093750
855		113.281250
856		121.093750
857		117.187500
858		119.140625
859		117.187500
860		121.093750
861		115.234375
862		123.046875
863		115.234375
864		123.046875
865		117.187500
866		123.046875
867		115.234375
868		123.046875
869		117.187500
870		123.046875
871		117.187500
872		123.046875
873		117.187500
874		123.046875
875		117.187500
876		123.046875
877		115.234375
878		123.046875
879		115.234375
880		123.046875
881		115.234375
882		123.046875
883		115.234375
884		121.093750
885		113.281250
886		121.093750
887		113.281250
888		121.093750
889		113.281250
890		119.140625
891		113.281250
892		117.187500
893		113.281250
894		117.187500
895		109.375000
896		117.187500
897		109.375000
898		115.234375
899		109.375000
900		115.234375
901		105.468750
902		113.281250
903		105.468750
904		113.281250
905		103.515625
906		111.328125
907		105.468750
908		109.375000
909		103.515625
910		107.421875
911		99.609375
912		105.468750
913		97.656250
914		105.468750
915		97.656250
916		103.515625
917		93.750000
918		101.562500
919		91.796875
920		99.609375
921		89.843750
922		97.656250
923		87.890625
924		95.703125
925		87.890625
926		91.796875
927		83.984375
928		89.843750
929		82.031250
930		89.843750
931		78.125000
932		87.890625
933		78.125000
934		83.984375
935		74.218750
936		82.031250
937		72.265625
938		80.078125
939		68.359375
940		76.171875
941		68.359375
942		72.265625
943		64.453125
944		70.312500
945		60.546875
946		66.406250
947		56.640625
948		66.406250
949		54.687500
950		62.500000
951		50.781250
952		60.546875
953		48.828125
954		56.640625
955		44.921875
956		52.734375
957		42.968750
958		48.828125
959		39.062500
960		44.921875
961		35.156250
962		41.015625
963		31.250000
964		39.062500
965		27.343750
966		37.109375
967		23.437500
968		33.203125
969		21.484375
970		29.296875
971		17.578125
972		23.437500
973		15.625000
974		21.484375
975		11.718750
976		17.578125
977		7.812500
978		13.671875
979		1.953125
980		9.765625
981		-1.953125
982		7.812500
983		-5.859375
984		3.906250
985		-9.765625
986		0.000000
987		-13.671875
988		-3.906250
989		-15.625000
990		-7.812500
991		-19.531250
992		-11.718750
993		-23.437500
994		-17.578125
995		-27.343750
996		-21.484375
997		-31.250000
998		-23.437500
999		-35.156250
1000		-27.343750
1001		-41.015625
1002		-31.250000
1003		-44.921875
1004		-35.156250
1005		-46.875000
1006		-39.062500
1007		-50.781250
1008		-42.968750
1009		-54.687500
1010		-46.875000
1011		-58.593750
1012		-50.781250
1013		-64.453125
1014		-54.687500
1015		-68.359375
1016		-56.640625
1017		-70.312500
1018		-62.500000
1019		-76.171875
1020		-66.406250
1021		-80.078125
1022		-70.312500
1023		-82.031250
1024		-72.265625
1025		-83.984375
1026		-78.125000
1027		-87.890625
1028		-82.031250
1029		-93.750000
1030		-85.937500
1031		-95.703125
1032		-85.937500
1033		-99.609375
1034		-91.796875
1035		-101.562500
1036		-93.750000
1037		-107.421875
1038		-97.656250
1039		-109.375000
1040		-101.562500
1041		-111.328125
1042		-103.515625
1043		-113.281250
1044		-109.375000
1045		-119.140625
1046		-111.328125
1047		-121.093750
1048		-113.281250
1049		-125.000000
1050		-115.234375
1051		-126.953125
1052		-119.140625
1053		-130.859375
1054		-123.046875
1055		-132.812500
1056		-125.000000
1057		-134.765625
1058		-126.953125
1059		-136.718750
1060		-130.859375
1061		-138.671875
1062		-134.765625
1063		-142.578125
1064		-134.765625
1065		-144.531250
1066		-136.718750
1067		-146.484375
1068		-138.671875
1069		-148.437500
1070		-142.578125
1071		-150.390625
1072		-144.531250
1073		-152.343750
1074		-144.531250
1075		-152.343750
1076		-148.437500
1077		-154.296875
1078		-150.390625
1079		-158.203125
1080		-152.343750
1081		-160.156250
1082		-152.343750
1083		-160.156250
1084		-154.296875
1085		-162.109375
1086		-156.250000
1087		-164.062500
1088		-156.250000
1089		-164.062500
1090		-158.203125
1091		-164.062500
1092		-158.203125
1093		-164.062500
1094		-160.156250
1095		-166.015625
1096		-160.156250
1097		-167.968750
1098		-160.156250
1099		-167.968750
1100		-160.156250
1101		-167.968750
1102		-160.156250
1103		-167.968750
1104		-162.109375
1105		-167.968750
1106		-162.109375
1107		-167.968750
1108		-160.156250
1109		-166.015625
1110		-164.062500
1111		-166.015625
1112		-164.062500
1113		-167.968750
1114		-160.156250
1115		-167.968750
1116		-160.156250
1117		-167.968750
1118		-158.203125
1119		-166.015625
1120		-158.203125
1121		-166.015625
1122		-158.203125
1123		-166.015625
1124		-156.250000
1125		-164.062500
1126		-156.250000
1127		-160.156250
1128		-156.250000
1129		-160.156250
1130		-152.343750
1131		-160.156250
1132		-152.343750
1133		-158.203125
1134		-150.390625
1135		-156.250000
1136		-148.437500
1137		-154.296875
1138		-146.484375
1139		-152.343750
1140		-144.531250
1141		-152.343750
1142		-144.531250
1143		-146.484375
1144		-142.578125
1145		-144.531250
1146		-140.625000
1147		-144.531250
1148		-136.718750
1149		-142.578125
1150		-134.765625
1151		-140.625000
1152		-130.859375
1153		-136.718750
1154		-128.906250
1155		-134.765625
1156		-126.953125
1157		-130.859375
1158		-123.046875
1159		-128.906250
1160		-123.046875
1161		-125.000000
1162		-119.140625
1163		-121.093750
1164		-115.234375
1165		-119.140625
1166		-111.328125
1167		-117.187500
1168		-107.421875
1169		-113.281250
1170		-105.468750
1171		-111.328125
1172		-101.562500
1173		-107.421875
1174		-97.656250
1175		-103.515625
1176		-95.703125
1177		-99.609375
1178		-93.750000
1179		-95.703125
1180		-87.890625
1181		-93.750000
1182		-83.984375
1183		-89.843750
1184		-82.031250
1185		-85.937500
1186		-76.171875
1187		-82.031250
1188		-74.218750
1189		-78.125000
1190		-70.312500
1191		-74.218750
1192		-66.406250
1193		-68.359375
1194		-62.500000
1195		-64.453125
1196		-58.593750
1197		-60.546875
1198		-52.734375
1199		-58.593750
1200		-50.781250
1201		-56.640625
1202		-44.921875
1203		-50.781250
1204		-42.968750
1205		-46.875000
1206		-37.109375
1207		-42.968750
1208		-33.203125
1209		-39.062500
1210		-31.250000
1211		-33.203125
1212		-27.343750
1213		-29.296875
1214		-21.484375
1215		-27.343750
1216		-17.578125
1217		-21.484375
1218		-15.625000
1219		-19.531250
1220		-11.718750
1221		-15.625000
1222		-7.812500
1223		-13.671875
1224		-3.906250
1225		-7.812500
