metingen laweit/30cm, resfreq1/data_81_238.txt

Channel              :		CH1
Frequency            :		  ?
Period               :		  ?
PK-PK                :		17.58mV
Probe attenuation    :		1X
Voltage per ADC value:		0.122070mV
Time interval        :		2.00000us

index		CH1_Voltage(mV)
1		5.859375
2		5.859375
3		1.953125
4		5.859375
5		1.953125
6		5.859375
7		1.953125
8		5.859375
9		1.953125
10		5.859375
11		1.953125
12		5.859375
13		1.953125
14		5.859375
15		1.953125
16		5.859375
17		1.953125
18		5.859375
19		1.953125
20		5.859375
21		1.953125
22		5.859375
23		1.953125
24		5.859375
25		1.953125
26		5.859375
27		1.953125
28		5.859375
29		3.906250
30		5.859375
31		1.953125
32		5.859375
33		1.953125
34		5.859375
35		1.953125
36		5.859375
37		1.953125
38		5.859375
39		3.906250
40		5.859375
41		1.953125
42		5.859375
43		1.953125
44		5.859375
45		1.953125
46		5.859375
47		3.906250
48		5.859375
49		1.953125
50		7.812500
51		1.953125
52		5.859375
53		1.953125
54		5.859375
55		1.953125
56		5.859375
57		1.953125
58		7.812500
59		1.953125
60		5.859375
61		1.953125
62		5.859375
63		3.906250
64		5.859375
65		1.953125
66		5.859375
67		3.906250
68		5.859375
69		1.953125
70		5.859375
71		1.953125
72		5.859375
73		1.953125
74		5.859375
75		1.953125
76		5.859375
77		1.953125
78		5.859375
79		1.953125
80		5.859375
81		3.906250
82		5.859375
83		1.953125
84		5.859375
85		1.953125
86		5.859375
87		1.953125
88		5.859375
89		1.953125
90		7.812500
91		3.906250
92		5.859375
93		1.953125
94		5.859375
95		1.953125
96		7.812500
97		3.906250
98		5.859375
99		1.953125
100		5.859375
101		1.953125
102		5.859375
103		1.953125
104		5.859375
105		1.953125
106		5.859375
107		1.953125
108		5.859375
109		1.953125
110		5.859375
111		1.953125
112		5.859375
113		1.953125
114		5.859375
115		1.953125
116		5.859375
117		1.953125
118		5.859375
119		1.953125
120		5.859375
121		1.953125
122		5.859375
123		1.953125
124		7.812500
125		1.953125
126		5.859375
127		1.953125
128		5.859375
129		1.953125
130		5.859375
131		1.953125
132		5.859375
133		1.953125
134		5.859375
135		1.953125
136		5.859375
137		1.953125
138		5.859375
139		1.953125
140		5.859375
141		1.953125
142		5.859375
143		1.953125
144		5.859375
145		1.953125
146		5.859375
147		1.953125
148		5.859375
149		1.953125
150		5.859375
151		1.953125
152		5.859375
153		1.953125
154		5.859375
155		1.953125
156		5.859375
157		1.953125
158		5.859375
159		1.953125
160		5.859375
161		1.953125
162		5.859375
163		1.953125
164		5.859375
165		1.953125
166		3.906250
167		0.000000
168		5.859375
169		1.953125
170		3.906250
171		1.953125
172		3.906250
173		0.000000
174		5.859375
175		1.953125
176		3.906250
177		0.000000
178		5.859375
179		0.000000
180		3.906250
181		1.953125
182		3.906250
183		0.000000
184		3.906250
185		0.000000
186		3.906250
187		0.000000
188		3.906250
189		0.000000
190		3.906250
191		0.000000
192		3.906250
193		0.000000
194		3.906250
195		0.000000
196		3.906250
197		-1.953125
198		3.906250
199		0.000000
200		1.953125
201		0.000000
202		3.906250
203		0.000000
204		3.906250
205		0.000000
206		1.953125
207		-1.953125
208		1.953125
209		0.000000
210		3.906250
211		-1.953125
212		1.953125
213		-1.953125
214		3.906250
215		0.000000
216		1.953125
217		-1.953125
218		3.906250
219		-1.953125
220		1.953125
221		-1.953125
222		1.953125
223		-1.953125
224		1.953125
225		-1.953125
226		1.953125
227		-1.953125
228		1.953125
229		-1.953125
230		1.953125
231		-1.953125
232		1.953125
233		-1.953125
234		0.000000
235		-1.953125
236		1.953125
237		-1.953125
238		1.953125
239		-1.953125
240		1.953125
241		-1.953125
242		1.953125
243		-1.953125
244		1.953125
245		-1.953125
246		1.953125
247		-1.953125
248		0.000000
249		-1.953125
250		0.000000
251		-3.906250
252		1.953125
253		-1.953125
254		0.000000
255		-3.906250
256		0.000000
257		-3.906250
258		0.000000
259		-3.906250
260		0.000000
261		-3.906250
262		1.953125
263		-3.906250
264		0.000000
265		-3.906250
266		0.000000
267		-3.906250
268		0.000000
269		-3.906250
270		0.000000
271		-3.906250
272		0.000000
273		-3.906250
274		0.000000
275		-3.906250
276		0.000000
277		-3.906250
278		0.000000
279		-3.906250
280		0.000000
281		-3.906250
282		0.000000
283		-3.906250
284		-1.953125
285		-3.906250
286		-1.953125
287		-5.859375
288		-1.953125
289		-3.906250
290		-1.953125
291		-3.906250
292		-1.953125
293		-5.859375
294		0.000000
295		-3.906250
296		-1.953125
297		-5.859375
298		-1.953125
299		-3.906250
300		0.000000
301		-5.859375
302		-1.953125
303		-5.859375
304		-1.953125
305		-3.906250
306		-1.953125
307		-3.906250
308		-1.953125
309		-5.859375
310		-1.953125
311		-5.859375
312		-1.953125
313		-5.859375
314		-1.953125
315		-5.859375
316		-1.953125
317		-3.906250
318		-1.953125
319		-5.859375
320		-1.953125
321		-5.859375
322		-1.953125
323		-5.859375
324		-1.953125
325		-5.859375
326		-1.953125
327		-5.859375
328		-1.953125
329		-5.859375
330		-1.953125
331		-5.859375
332		-1.953125
333		-5.859375
334		-3.906250
335		-5.859375
336		-1.953125
337		-5.859375
338		-1.953125
339		-5.859375
340		-1.953125
341		-5.859375
342		-3.906250
343		-5.859375
344		-1.953125
345		-5.859375
346		-1.953125
347		-5.859375
348		-1.953125
349		-5.859375
350		-3.906250
351		-5.859375
352		-3.906250
353		-5.859375
354		-1.953125
355		-5.859375
356		-3.906250
357		-5.859375
358		-3.906250
359		-5.859375
360		-3.906250
361		-5.859375
362		-3.906250
363		-7.812500
364		-3.906250
365		-5.859375
366		-3.906250
367		-5.859375
368		-3.906250
369		-7.812500
370		-1.953125
371		-5.859375
372		-3.906250
373		-5.859375
374		-3.906250
375		-7.812500
376		-3.906250
377		-7.812500
378		-3.906250
379		-5.859375
380		-3.906250
381		-7.812500
382		-3.906250
383		-5.859375
384		-3.906250
385		-7.812500
386		-3.906250
387		-7.812500
388		-3.906250
389		-7.812500
390		-3.906250
391		-7.812500
392		-3.906250
393		-5.859375
394		-3.906250
395		-7.812500
396		-3.906250
397		-7.812500
398		-3.906250
399		-5.859375
400		-3.906250
401		-5.859375
402		-3.906250
403		-7.812500
404		-1.953125
405		-5.859375
406		-3.906250
407		-7.812500
408		-3.906250
409		-7.812500
410		-3.906250
411		-5.859375
412		-3.906250
413		-7.812500
414		-3.906250
415		-7.812500
416		-3.906250
417		-5.859375
418		-3.906250
419		-7.812500
420		-3.906250
421		-5.859375
422		-3.906250
423		-5.859375
424		-3.906250
425		-5.859375
426		-3.906250
427		-5.859375
428		-3.906250
429		-7.812500
430		-1.953125
431		-7.812500
432		-1.953125
433		-5.859375
434		-3.906250
435		-5.859375
436		-1.953125
437		-5.859375
438		-1.953125
439		-5.859375
440		-1.953125
441		-5.859375
442		-3.906250
443		-5.859375
444		-1.953125
445		-5.859375
446		-1.953125
447		-5.859375
448		-3.906250
449		-5.859375
450		-3.906250
451		-5.859375
452		-1.953125
453		-5.859375
454		-1.953125
455		-5.859375
456		-1.953125
457		-5.859375
458		-1.953125
459		-5.859375
460		-1.953125
461		-5.859375
462		-1.953125
463		-5.859375
464		-1.953125
465		-7.812500
466		-1.953125
467		-5.859375
468		-3.906250
469		-5.859375
470		-1.953125
471		-5.859375
472		-1.953125
473		-5.859375
474		-1.953125
475		-5.859375
476		-1.953125
477		-5.859375
478		-1.953125
479		-5.859375
480		-1.953125
481		-5.859375
482		-1.953125
483		-5.859375
484		-1.953125
485		-5.859375
486		-1.953125
487		-5.859375
488		-1.953125
489		-5.859375
490		-1.953125
491		-5.859375
492		-1.953125
493		-5.859375
494		-1.953125
495		-5.859375
496		-1.953125
497		-5.859375
498		-1.953125
499		-5.859375
500		-1.953125
501		-3.906250
502		-1.953125
503		-5.859375
504		-1.953125
505		-5.859375
506		-1.953125
507		-5.859375
508		-1.953125
509		-5.859375
510		-1.953125
511		-5.859375
512		-1.953125
513		-5.859375
514		-1.953125
515		-3.906250
516		-1.953125
517		-3.906250
518		-1.953125
519		-5.859375
520		-1.953125
521		-5.859375
522		0.000000
523		-3.906250
524		0.000000
525		-5.859375
526		-1.953125
527		-3.906250
528		-1.953125
529		-3.906250
530		-1.953125
531		-5.859375
532		0.000000
533		-3.906250
534		-1.953125
535		-3.906250
536		-1.953125
537		-3.906250
538		0.000000
539		-3.906250
540		0.000000
541		-3.906250
542		0.000000
543		-3.906250
544		0.000000
545		-3.906250
546		0.000000
547		-3.906250
548		0.000000
549		-3.906250
550		0.000000
551		-3.906250
552		-1.953125
553		-3.906250
554		1.953125
555		-3.906250
556		0.000000
557		-3.906250
558		0.000000
559		-3.906250
560		0.000000
561		-1.953125
562		0.000000
563		-3.906250
564		0.000000
565		-3.906250
566		0.000000
567		-1.953125
568		0.000000
569		-1.953125
570		0.000000
571		-3.906250
572		1.953125
573		-1.953125
574		0.000000
575		-1.953125
576		1.953125
577		-1.953125
578		1.953125
579		-1.953125
580		1.953125
581		-1.953125
582		1.953125
583		-1.953125
584		1.953125
585		-1.953125
586		0.000000
587		-1.953125
588		1.953125
589		-1.953125
590		1.953125
591		-1.953125
592		1.953125
593		-1.953125
594		1.953125
595		-1.953125
596		1.953125
597		-1.953125
598		1.953125
599		-1.953125
600		1.953125
601		0.000000
602		1.953125
603		0.000000
604		1.953125
605		-1.953125
606		1.953125
607		-1.953125
608		1.953125
609		0.000000
610		1.953125
611		-1.953125
612		1.953125
613		0.000000
614		1.953125
615		-1.953125
616		1.953125
617		-1.953125
618		1.953125
619		0.000000
620		1.953125
621		-1.953125
622		3.906250
623		0.000000
624		1.953125
625		0.000000
626		1.953125
627		0.000000
628		3.906250
629		0.000000
630		1.953125
631		0.000000
632		1.953125
633		-1.953125
634		3.906250
635		0.000000
636		1.953125
637		0.000000
638		1.953125
639		0.000000
640		3.906250
641		0.000000
642		1.953125
643		0.000000
644		1.953125
645		0.000000
646		1.953125
647		0.000000
648		3.906250
649		0.000000
650		3.906250
651		0.000000
652		1.953125
653		0.000000
654		3.906250
655		0.000000
656		3.906250
657		0.000000
658		3.906250
659		0.000000
660		3.906250
661		0.000000
662		1.953125
663		0.000000
664		3.906250
665		0.000000
666		3.906250
667		0.000000
668		3.906250
669		0.000000
670		3.906250
671		0.000000
672		3.906250
673		0.000000
674		3.906250
675		0.000000
676		3.906250
677		0.000000
678		3.906250
679		0.000000
680		3.906250
681		0.000000
682		3.906250
683		0.000000
684		3.906250
685		1.953125
686		3.906250
687		0.000000
688		3.906250
689		1.953125
690		3.906250
691		0.000000
692		5.859375
693		0.000000
694		3.906250
695		0.000000
696		3.906250
697		0.000000
698		3.906250
699		1.953125
700		3.906250
701		0.000000
702		5.859375
703		1.953125
704		5.859375
705		1.953125
706		3.906250
707		1.953125
708		5.859375
709		1.953125
710		5.859375
711		1.953125
712		5.859375
713		1.953125
714		3.906250
715		1.953125
716		5.859375
717		1.953125
718		5.859375
719		1.953125
720		3.906250
721		1.953125
722		3.906250
723		1.953125
724		5.859375
725		1.953125
726		5.859375
727		1.953125
728		5.859375
729		1.953125
730		5.859375
731		1.953125
732		5.859375
733		1.953125
734		5.859375
735		1.953125
736		5.859375
737		1.953125
738		5.859375
739		1.953125
740		5.859375
741		1.953125
742		5.859375
743		1.953125
744		5.859375
745		1.953125
746		5.859375
747		1.953125
748		5.859375
749		1.953125
750		5.859375
751		1.953125
752		5.859375
753		3.906250
754		5.859375
755		1.953125
756		5.859375
757		1.953125
758		5.859375
759		1.953125
760		5.859375
761		1.953125
762		5.859375
763		3.906250
764		5.859375
765		1.953125
766		5.859375
767		1.953125
768		5.859375
769		3.906250
770		5.859375
771		3.906250
772		5.859375
773		1.953125
774		5.859375
775		3.906250
776		5.859375
777		1.953125
778		5.859375
779		1.953125
780		5.859375
781		3.906250
782		5.859375
783		3.906250
784		5.859375
785		1.953125
786		7.812500
787		3.906250
788		5.859375
789		1.953125
790		5.859375
791		1.953125
792		5.859375
793		3.906250
794		5.859375
795		1.953125
796		5.859375
797		3.906250
798		7.812500
799		3.906250
800		5.859375
801		1.953125
802		7.812500
803		1.953125
804		5.859375
805		3.906250
806		5.859375
807		1.953125
808		7.812500
809		1.953125
810		5.859375
811		3.906250
812		5.859375
813		3.906250
814		5.859375
815		3.906250
816		5.859375
817		1.953125
818		5.859375
819		1.953125
820		5.859375
821		3.906250
822		5.859375
823		3.906250
824		7.812500
825		1.953125
826		7.812500
827		3.906250
828		5.859375
829		1.953125
830		5.859375
831		1.953125
832		7.812500
833		3.906250
834		5.859375
835		1.953125
836		5.859375
837		3.906250
838		5.859375
839		1.953125
840		5.859375
841		3.906250
842		5.859375
843		3.906250
844		5.859375
845		3.906250
846		5.859375
847		1.953125
848		7.812500
849		3.906250
850		5.859375
851		1.953125
852		5.859375
853		1.953125
854		5.859375
855		3.906250
856		5.859375
857		1.953125
858		5.859375
859		1.953125
860		5.859375
861		1.953125
862		5.859375
863		1.953125
864		7.812500
865		1.953125
866		5.859375
867		1.953125
868		5.859375
869		1.953125
870		7.812500
871		3.906250
872		5.859375
873		1.953125
874		5.859375
875		1.953125
876		5.859375
877		1.953125
878		5.859375
879		1.953125
880		5.859375
881		1.953125
882		5.859375
883		1.953125
884		5.859375
885		1.953125
886		5.859375
887		1.953125
888		5.859375
889		1.953125
890		5.859375
891		1.953125
892		5.859375
893		1.953125
894		5.859375
895		1.953125
896		5.859375
897		1.953125
898		5.859375
899		1.953125
900		5.859375
901		1.953125
902		5.859375
903		1.953125
904		5.859375
905		1.953125
906		3.906250
907		1.953125
908		5.859375
909		1.953125
910		5.859375
911		1.953125
912		5.859375
913		0.000000
914		5.859375
915		1.953125
916		3.906250
917		0.000000
918		3.906250
919		1.953125
920		5.859375
921		1.953125
922		3.906250
923		0.000000
924		5.859375
925		0.000000
926		3.906250
927		0.000000
928		3.906250
929		0.000000
930		3.906250
931		0.000000
932		3.906250
933		0.000000
934		3.906250
935		0.000000
936		3.906250
937		0.000000
938		3.906250
939		0.000000
940		3.906250
941		-1.953125
942		5.859375
943		0.000000
944		3.906250
945		0.000000
946		3.906250
947		0.000000
948		3.906250
949		0.000000
950		3.906250
951		0.000000
952		3.906250
953		0.000000
954		1.953125
955		0.000000
956		1.953125
957		-1.953125
958		3.906250
959		-3.906250
960		3.906250
961		-1.953125
962		3.906250
963		-1.953125
964		1.953125
965		-1.953125
966		1.953125
967		-1.953125
968		1.953125
969		-1.953125
970		1.953125
971		0.000000
972		1.953125
973		-1.953125
974		1.953125
975		-3.906250
976		3.906250
977		-3.906250
978		3.906250
979		-3.906250
980		1.953125
981		-1.953125
982		1.953125
983		-1.953125
984		1.953125
985		-1.953125
986		3.906250
987		-1.953125
988		1.953125
989		-1.953125
990		1.953125
991		-3.906250
992		1.953125
993		-3.906250
994		1.953125
995		-3.906250
996		3.906250
997		-3.906250
998		1.953125
999		-5.859375
1000		1.953125
1001		-3.906250
1002		1.953125
1003		-3.906250
1004		1.953125
1005		-1.953125
1006		1.953125
1007		-3.906250
1008		1.953125
1009		-3.906250
1010		1.953125
1011		-3.906250
1012		1.953125
1013		-3.906250
1014		1.953125
1015		-3.906250
1016		1.953125
1017		-3.906250
1018		1.953125
1019		-3.906250
1020		1.953125
1021		-3.906250
1022		0.000000
1023		-1.953125
1024		0.000000
1025		-5.859375
1026		1.953125
1027		-5.859375
1028		1.953125
1029		-5.859375
1030		1.953125
1031		-5.859375
1032		1.953125
1033		-5.859375
1034		1.953125
1035		-5.859375
1036		1.953125
1037		-3.906250
1038		0.000000
1039		-3.906250
1040		0.000000
1041		-5.859375
1042		0.000000
1043		-5.859375
1044		0.000000
1045		-5.859375
1046		0.000000
1047		-5.859375
1048		1.953125
1049		-5.859375
1050		0.000000
1051		-5.859375
1052		0.000000
1053		-5.859375
1054		0.000000
1055		-3.906250
1056		-1.953125
1057		-3.906250
1058		-1.953125
1059		-5.859375
1060		0.000000
1061		-5.859375
1062		0.000000
1063		-7.812500
1064		0.000000
1065		-7.812500
1066		0.000000
1067		-5.859375
1068		0.000000
1069		-5.859375
1070		0.000000
1071		-5.859375
1072		-1.953125
1073		-5.859375
1074		-1.953125
1075		-7.812500
1076		0.000000
1077		-7.812500
1078		0.000000
1079		-7.812500
1080		0.000000
1081		-7.812500
1082		-1.953125
1083		-7.812500
1084		0.000000
1085		-7.812500
1086		0.000000
1087		-5.859375
1088		0.000000
1089		-5.859375
1090		-1.953125
1091		-5.859375
1092		-1.953125
1093		-7.812500
1094		0.000000
1095		-7.812500
1096		0.000000
1097		-7.812500
1098		-1.953125
1099		-7.812500
1100		-1.953125
1101		-7.812500
1102		-1.953125
1103		-7.812500
1104		-1.953125
1105		-5.859375
1106		-3.906250
1107		-7.812500
1108		-1.953125
1109		-7.812500
1110		-1.953125
1111		-7.812500
1112		-1.953125
1113		-7.812500
1114		-1.953125
1115		-7.812500
1116		-1.953125
1117		-7.812500
1118		-1.953125
1119		-9.765625
1120		-1.953125
1121		-7.812500
1122		-1.953125
1123		-7.812500
1124		-3.906250
1125		-7.812500
1126		-1.953125
1127		-7.812500
1128		-1.953125
1129		-7.812500
1130		-1.953125
1131		-7.812500
1132		-1.953125
1133		-7.812500
1134		-1.953125
1135		-9.765625
1136		0.000000
1137		-7.812500
1138		-1.953125
1139		-5.859375
1140		-3.906250
1141		-9.765625
1142		-1.953125
1143		-7.812500
1144		-1.953125
1145		-7.812500
1146		-1.953125
1147		-7.812500
1148		-1.953125
1149		-7.812500
1150		-1.953125
1151		-7.812500
1152		-1.953125
1153		-7.812500
1154		-1.953125
1155		-5.859375
1156		-3.906250
1157		-5.859375
1158		-3.906250
1159		-7.812500
1160		-1.953125
1161		-7.812500
1162		-1.953125
1163		-7.812500
1164		-1.953125
1165		-7.812500
1166		-1.953125
1167		-7.812500
1168		-1.953125
1169		-9.765625
1170		-1.953125
1171		-7.812500
1172		-1.953125
1173		-5.859375
1174		-1.953125
1175		-5.859375
1176		-1.953125
1177		-7.812500
1178		-1.953125
1179		-7.812500
1180		-1.953125
1181		-7.812500
1182		-1.953125
1183		-7.812500
1184		0.000000
1185		-7.812500
1186		-1.953125
1187		-7.812500
1188		-1.953125
1189		-7.812500
1190		-1.953125
1191		-5.859375
1192		-3.906250
1193		-7.812500
1194		-1.953125
1195		-7.812500
1196		-1.953125
1197		-7.812500
1198		0.000000
1199		-7.812500
1200		-1.953125
1201		-7.812500
1202		0.000000
1203		-7.812500
1204		-1.953125
1205		-7.812500
1206		0.000000
1207		-5.859375
1208		-1.953125
1209		-5.859375
1210		-1.953125
1211		-7.812500
1212		0.000000
1213		-7.812500
1214		0.000000
1215		-7.812500
1216		0.000000
1217		-7.812500
1218		0.000000
1219		-7.812500
1220		0.000000
1221		-7.812500
1222		-1.953125
1223		-3.906250
1224		-1.953125
1225		-5.859375
1226		-1.953125
1227		-5.859375
1228		-1.953125
1229		-5.859375
1230		0.000000
1231		-7.812500
1232		0.000000
1233		-5.859375
1234		0.000000
1235		-7.812500
1236		0.000000
1237		-5.859375
1238		0.000000
1239		-7.812500
1240		0.000000
1241		-3.906250
1242		-1.953125
1243		-5.859375
1244		-1.953125
1245		-5.859375
1246		0.000000
1247		-3.906250
1248		-1.953125
1249		-5.859375
1250		0.000000
1251		-5.859375
1252		0.000000
1253		-5.859375
1254		0.000000
1255		-5.859375
1256		0.000000
1257		-3.906250
1258		-1.953125
1259		-5.859375
1260		0.000000
1261		-3.906250
1262		-1.953125
1263		-3.906250
1264		0.000000
1265		-5.859375
1266		0.000000
1267		-3.906250
1268		0.000000
1269		-3.906250
1270		0.000000
1271		-5.859375
1272		0.000000
1273		-3.906250
1274		0.000000
1275		-3.906250
1276		0.000000
1277		-3.906250
1278		0.000000
1279		-3.906250
1280		0.000000
1281		-3.906250
1282		0.000000
1283		-1.953125
1284		0.000000
1285		-3.906250
1286		0.000000
1287		-3.906250
1288		0.000000
1289		-3.906250
1290		1.953125
1291		-1.953125
1292		0.000000
1293		-3.906250
1294		1.953125
1295		-1.953125
1296		1.953125
1297		-3.906250
1298		0.000000
1299		-3.906250
1300		1.953125
1301		-1.953125
1302		1.953125
1303		-1.953125
1304		1.953125
1305		-3.906250
1306		1.953125
1307		-1.953125
1308		1.953125
1309		-1.953125
1310		0.000000
1311		-1.953125
1312		1.953125
1313		-3.906250
1314		1.953125
1315		-1.953125
1316		1.953125
1317		-1.953125
1318		1.953125
1319		-1.953125
1320		1.953125
1321		-1.953125
1322		1.953125
1323		-1.953125
1324		1.953125
1325		-1.953125
1326		1.953125
1327		-1.953125
1328		1.953125
1329		-1.953125
1330		1.953125
1331		-1.953125
1332		1.953125
1333		0.000000
1334		1.953125
1335		-1.953125
1336		1.953125
1337		-1.953125
1338		1.953125
1339		0.000000
1340		3.906250
1341		0.000000
1342		1.953125
1343		-1.953125
1344		1.953125
1345		-1.953125
1346		1.953125
1347		0.000000
1348		3.906250
1349		0.000000
1350		1.953125
1351		0.000000
1352		3.906250
