Old_data/metingen laweit/1000Hz, 66.4cm/data_81_m376.txt

Channel              :		CH1
Frequency            :		1.061kHz
Period               :		0.942ms
PK-PK                :		242.2mV
Probe attenuation    :		1X
Voltage per ADC value:		0.122070mV
Time interval        :		2.00000us

index		CH1_Voltage(mV)
1		83.984375
2		83.984375
3		87.890625
4		82.031250
5		85.937500
6		80.078125
7		83.984375
8		78.125000
9		82.031250
10		76.171875
11		80.078125
12		74.218750
13		78.125000
14		70.312500
15		76.171875
16		68.359375
17		74.218750
18		66.406250
19		70.312500
20		64.453125
21		68.359375
22		60.546875
23		66.406250
24		58.593750
25		64.453125
26		56.640625
27		60.546875
28		52.734375
29		58.593750
30		50.781250
31		54.687500
32		46.875000
33		52.734375
34		44.921875
35		50.781250
36		42.968750
37		46.875000
38		39.062500
39		44.921875
40		37.109375
41		41.015625
42		33.203125
43		39.062500
44		31.250000
45		37.109375
46		27.343750
47		33.203125
48		25.390625
49		29.296875
50		21.484375
51		27.343750
52		19.531250
53		23.437500
54		15.625000
55		21.484375
56		13.671875
57		17.578125
58		9.765625
59		15.625000
60		7.812500
61		11.718750
62		3.906250
63		9.765625
64		0.000000
65		5.859375
66		-1.953125
67		3.906250
68		-5.859375
69		0.000000
70		-7.812500
71		-3.906250
72		-11.718750
73		-5.859375
74		-15.625000
75		-9.765625
76		-17.578125
77		-11.718750
78		-21.484375
79		-15.625000
80		-23.437500
81		-17.578125
82		-27.343750
83		-21.484375
84		-29.296875
85		-25.390625
86		-33.203125
87		-27.343750
88		-35.156250
89		-31.250000
90		-39.062500
91		-33.203125
92		-41.015625
93		-37.109375
94		-44.921875
95		-39.062500
96		-46.875000
97		-41.015625
98		-50.781250
99		-44.921875
100		-52.734375
101		-46.875000
102		-54.687500
103		-50.781250
104		-58.593750
105		-52.734375
106		-60.546875
107		-56.640625
108		-62.500000
109		-58.593750
110		-66.406250
111		-60.546875
112		-68.359375
113		-64.453125
114		-70.312500
115		-66.406250
116		-74.218750
117		-68.359375
118		-76.171875
119		-70.312500
120		-78.125000
121		-74.218750
122		-80.078125
123		-74.218750
124		-82.031250
125		-78.125000
126		-83.984375
127		-80.078125
128		-85.937500
129		-82.031250
130		-87.890625
131		-83.984375
132		-89.843750
133		-85.937500
134		-91.796875
135		-87.890625
136		-93.750000
137		-89.843750
138		-95.703125
139		-91.796875
140		-97.656250
141		-93.750000
142		-97.656250
143		-93.750000
144		-99.609375
145		-95.703125
146		-101.562500
147		-97.656250
148		-101.562500
149		-97.656250
150		-103.515625
151		-99.609375
152		-105.468750
153		-99.609375
154		-105.468750
155		-101.562500
156		-107.421875
157		-103.515625
158		-107.421875
159		-103.515625
160		-109.375000
161		-105.468750
162		-109.375000
163		-105.468750
164		-109.375000
165		-105.468750
166		-109.375000
167		-105.468750
168		-111.328125
169		-107.421875
170		-111.328125
171		-107.421875
172		-111.328125
173		-107.421875
174		-111.328125
175		-107.421875
176		-111.328125
177		-107.421875
178		-111.328125
179		-107.421875
180		-111.328125
181		-107.421875
182		-111.328125
183		-107.421875
184		-109.375000
185		-107.421875
186		-109.375000
187		-107.421875
188		-109.375000
189		-105.468750
190		-109.375000
191		-105.468750
192		-109.375000
193		-105.468750
194		-109.375000
195		-103.515625
196		-107.421875
197		-103.515625
198		-105.468750
199		-103.515625
200		-105.468750
201		-101.562500
202		-103.515625
203		-99.609375
204		-103.515625
205		-99.609375
206		-101.562500
207		-97.656250
208		-99.609375
209		-95.703125
210		-99.609375
211		-93.750000
212		-97.656250
213		-93.750000
214		-95.703125
215		-91.796875
216		-93.750000
217		-89.843750
218		-91.796875
219		-87.890625
220		-89.843750
221		-85.937500
222		-87.890625
223		-83.984375
224		-85.937500
225		-82.031250
226		-83.984375
227		-80.078125
228		-82.031250
229		-78.125000
230		-80.078125
231		-76.171875
232		-78.125000
233		-74.218750
234		-76.171875
235		-70.312500
236		-72.265625
237		-68.359375
238		-70.312500
239		-66.406250
240		-68.359375
241		-62.500000
242		-66.406250
243		-60.546875
244		-62.500000
245		-58.593750
246		-60.546875
247		-56.640625
248		-58.593750
249		-52.734375
250		-54.687500
251		-50.781250
252		-52.734375
253		-46.875000
254		-48.828125
255		-44.921875
256		-46.875000
257		-41.015625
258		-42.968750
259		-39.062500
260		-41.015625
261		-35.156250
262		-37.109375
263		-33.203125
264		-35.156250
265		-29.296875
266		-31.250000
267		-25.390625
268		-29.296875
269		-23.437500
270		-25.390625
271		-19.531250
272		-23.437500
273		-17.578125
274		-19.531250
275		-13.671875
276		-17.578125
277		-11.718750
278		-13.671875
279		-7.812500
280		-9.765625
281		-5.859375
282		-7.812500
283		-1.953125
284		-3.906250
285		1.953125
286		-1.953125
287		3.906250
288		1.953125
289		7.812500
290		3.906250
291		9.765625
292		7.812500
293		13.671875
294		11.718750
295		15.625000
296		13.671875
297		19.531250
298		17.578125
299		21.484375
300		19.531250
301		25.390625
302		23.437500
303		27.343750
304		25.390625
305		31.250000
306		29.296875
307		35.156250
308		31.250000
309		37.109375
310		35.156250
311		39.062500
312		37.109375
313		42.968750
314		41.015625
315		44.921875
316		42.968750
317		48.828125
318		44.921875
319		50.781250
320		48.828125
321		54.687500
322		50.781250
323		56.640625
324		54.687500
325		58.593750
326		56.640625
327		60.546875
328		58.593750
329		64.453125
330		60.546875
331		66.406250
332		64.453125
333		68.359375
334		66.406250
335		70.312500
336		68.359375
337		74.218750
338		70.312500
339		76.171875
340		72.265625
341		78.125000
342		76.171875
343		80.078125
344		78.125000
345		82.031250
346		80.078125
347		83.984375
348		82.031250
349		85.937500
350		83.984375
351		87.890625
352		85.937500
353		89.843750
354		87.890625
355		91.796875
356		89.843750
357		93.750000
358		91.796875
359		95.703125
360		91.796875
361		97.656250
362		93.750000
363		99.609375
364		95.703125
365		99.609375
366		97.656250
367		101.562500
368		99.609375
369		103.515625
370		99.609375
371		105.468750
372		101.562500
373		105.468750
374		103.515625
375		107.421875
376		103.515625
377		107.421875
378		105.468750
379		109.375000
380		107.421875
381		109.375000
382		107.421875
383		111.328125
384		109.375000
385		113.281250
386		109.375000
387		113.281250
388		109.375000
389		113.281250
390		111.328125
391		115.234375
392		111.328125
393		115.234375
394		113.281250
395		115.234375
396		113.281250
397		117.187500
398		113.281250
399		117.187500
400		113.281250
401		117.187500
402		113.281250
403		117.187500
404		113.281250
405		117.187500
406		115.234375
407		117.187500
408		115.234375
409		119.140625
410		115.234375
411		119.140625
412		115.234375
413		119.140625
414		115.234375
415		117.187500
416		115.234375
417		117.187500
418		115.234375
419		117.187500
420		115.234375
421		117.187500
422		113.281250
423		117.187500
424		113.281250
425		117.187500
426		113.281250
427		117.187500
428		113.281250
429		117.187500
430		111.328125
431		115.234375
432		111.328125
433		115.234375
434		109.375000
435		113.281250
436		109.375000
437		113.281250
438		109.375000
439		113.281250
440		107.421875
441		111.328125
442		107.421875
443		111.328125
444		105.468750
445		109.375000
446		105.468750
447		109.375000
448		103.515625
449		107.421875
450		103.515625
451		107.421875
452		99.609375
453		105.468750
454		99.609375
455		103.515625
456		97.656250
457		103.515625
458		95.703125
459		101.562500
460		95.703125
461		99.609375
462		93.750000
463		97.656250
464		91.796875
465		95.703125
466		89.843750
467		93.750000
468		87.890625
469		93.750000
470		85.937500
471		91.796875
472		83.984375
473		89.843750
474		82.031250
475		87.890625
476		80.078125
477		85.937500
478		78.125000
479		83.984375
480		76.171875
481		80.078125
482		74.218750
483		78.125000
484		72.265625
485		76.171875
486		70.312500
487		74.218750
488		66.406250
489		72.265625
490		64.453125
491		70.312500
492		62.500000
493		66.406250
494		60.546875
495		64.453125
496		56.640625
497		62.500000
498		54.687500
499		60.546875
500		52.734375
501		56.640625
502		48.828125
503		54.687500
504		46.875000
505		50.781250
506		44.921875
507		48.828125
508		41.015625
509		46.875000
510		37.109375
511		42.968750
512		35.156250
513		41.015625
514		33.203125
515		37.109375
516		29.296875
517		33.203125
518		25.390625
519		31.250000
520		23.437500
521		29.296875
522		19.531250
523		25.390625
524		17.578125
525		23.437500
526		13.671875
527		19.531250
528		11.718750
529		17.578125
530		7.812500
531		13.671875
532		5.859375
533		9.765625
534		1.953125
535		7.812500
536		0.000000
537		3.906250
538		-3.906250
539		1.953125
540		-7.812500
541		-1.953125
542		-9.765625
543		-5.859375
544		-13.671875
545		-7.812500
546		-15.625000
547		-11.718750
548		-19.531250
549		-13.671875
550		-21.484375
551		-17.578125
552		-25.390625
553		-19.531250
554		-27.343750
555		-23.437500
556		-31.250000
557		-25.390625
558		-33.203125
559		-29.296875
560		-37.109375
561		-31.250000
562		-41.015625
563		-35.156250
564		-42.968750
565		-37.109375
566		-44.921875
567		-41.015625
568		-48.828125
569		-44.921875
570		-50.781250
571		-46.875000
572		-54.687500
573		-48.828125
574		-56.640625
575		-52.734375
576		-58.593750
577		-54.687500
578		-62.500000
579		-56.640625
580		-64.453125
581		-60.546875
582		-66.406250
583		-62.500000
584		-70.312500
585		-64.453125
586		-72.265625
587		-66.406250
588		-76.171875
589		-70.312500
590		-78.125000
591		-70.312500
592		-78.125000
593		-74.218750
594		-82.031250
595		-76.171875
596		-83.984375
597		-78.125000
598		-85.937500
599		-82.031250
600		-87.890625
601		-83.984375
602		-89.843750
603		-85.937500
604		-91.796875
605		-85.937500
606		-95.703125
607		-87.890625
608		-93.750000
609		-89.843750
610		-95.703125
611		-91.796875
612		-97.656250
613		-93.750000
614		-101.562500
615		-95.703125
616		-99.609375
617		-97.656250
618		-101.562500
619		-97.656250
620		-105.468750
621		-97.656250
622		-105.468750
623		-99.609375
624		-107.421875
625		-99.609375
626		-107.421875
627		-101.562500
628		-107.421875
629		-101.562500
630		-107.421875
631		-105.468750
632		-109.375000
633		-105.468750
634		-109.375000
635		-105.468750
636		-111.328125
637		-105.468750
638		-113.281250
639		-105.468750
640		-111.328125
641		-105.468750
642		-113.281250
643		-105.468750
644		-111.328125
645		-105.468750
646		-111.328125
647		-107.421875
648		-111.328125
649		-107.421875
650		-111.328125
651		-109.375000
652		-111.328125
653		-107.421875
654		-111.328125
655		-105.468750
656		-113.281250
657		-105.468750
658		-113.281250
659		-105.468750
660		-111.328125
661		-105.468750
662		-111.328125
663		-105.468750
664		-109.375000
665		-103.515625
666		-107.421875
667		-103.515625
668		-107.421875
669		-103.515625
670		-107.421875
671		-99.609375
672		-107.421875
673		-99.609375
674		-105.468750
675		-97.656250
676		-103.515625
677		-97.656250
678		-103.515625
679		-95.703125
680		-101.562500
681		-93.750000
682		-99.609375
683		-93.750000
684		-97.656250
685		-93.750000
686		-95.703125
687		-91.796875
688		-95.703125
689		-87.890625
690		-93.750000
691		-85.937500
692		-89.843750
693		-83.984375
694		-89.843750
695		-82.031250
696		-87.890625
697		-80.078125
698		-85.937500
699		-78.125000
700		-82.031250
701		-78.125000
702		-80.078125
703		-76.171875
704		-78.125000
705		-70.312500
706		-76.171875
707		-68.359375
708		-74.218750
709		-66.406250
710		-72.265625
711		-64.453125
712		-68.359375
713		-60.546875
714		-66.406250
715		-60.546875
716		-64.453125
717		-58.593750
718		-58.593750
719		-54.687500
720		-56.640625
721		-50.781250
722		-54.687500
723		-48.828125
724		-52.734375
725		-44.921875
726		-50.781250
727		-42.968750
728		-46.875000
729		-39.062500
730		-42.968750
731		-37.109375
732		-41.015625
733		-35.156250
734		-37.109375
735		-31.250000
736		-33.203125
737		-29.296875
738		-31.250000
739		-23.437500
740		-29.296875
741		-21.484375
742		-27.343750
743		-17.578125
744		-23.437500
745		-15.625000
746		-21.484375
747		-11.718750
748		-17.578125
749		-9.765625
750		-13.671875
751		-7.812500
752		-9.765625
753		-3.906250
754		-5.859375
755		0.000000
756		-3.906250
757		3.906250
758		-1.953125
759		5.859375
760		0.000000
761		9.765625
762		3.906250
763		11.718750
764		5.859375
765		15.625000
766		11.718750
767		17.578125
768		15.625000
769		19.531250
770		17.578125
771		23.437500
772		19.531250
773		27.343750
774		21.484375
775		31.250000
776		25.390625
777		33.203125
778		27.343750
779		35.156250
780		31.250000
781		41.015625
782		35.156250
783		41.015625
784		39.062500
785		42.968750
786		41.015625
787		46.875000
788		42.968750
789		50.781250
790		44.921875
791		52.734375
792		46.875000
793		56.640625
794		50.781250
795		58.593750
796		54.687500
797		60.546875
798		54.687500
799		64.453125
800		58.593750
801		64.453125
802		62.500000
803		66.406250
804		64.453125
805		72.265625
806		64.453125
807		72.265625
808		68.359375
809		76.171875
810		70.312500
811		78.125000
812		70.312500
813		80.078125
814		74.218750
815		82.031250
816		76.171875
817		83.984375
818		80.078125
819		83.984375
820		82.031250
821		85.937500
822		82.031250
823		89.843750
824		83.984375
825		91.796875
826		85.937500
827		93.750000
828		87.890625
829		95.703125
830		89.843750
831		97.656250
832		91.796875
833		99.609375
834		93.750000
835		99.609375
836		95.703125
837		99.609375
838		97.656250
839		103.515625
840		97.656250
841		105.468750
842		99.609375
843		107.421875
844		99.609375
845		107.421875
846		101.562500
847		109.375000
848		103.515625
849		109.375000
850		103.515625
851		111.328125
852		107.421875
853		109.375000
854		107.421875
855		111.328125
856		107.421875
857		113.281250
858		109.375000
859		115.234375
860		109.375000
861		115.234375
862		109.375000
863		117.187500
864		109.375000
865		117.187500
866		111.328125
867		117.187500
868		113.281250
869		117.187500
870		113.281250
871		117.187500
872		113.281250
873		119.140625
874		113.281250
875		121.093750
876		113.281250
877		119.140625
878		113.281250
879		121.093750
880		113.281250
881		119.140625
882		113.281250
883		121.093750
884		113.281250
885		119.140625
886		115.234375
887		119.140625
888		115.234375
889		119.140625
890		113.281250
891		121.093750
892		113.281250
893		121.093750
894		111.328125
895		119.140625
896		111.328125
897		119.140625
898		111.328125
899		119.140625
900		111.328125
901		119.140625
902		113.281250
903		115.234375
904		113.281250
905		115.234375
906		109.375000
907		115.234375
908		109.375000
909		117.187500
910		107.421875
911		115.234375
912		107.421875
913		113.281250
914		107.421875
915		113.281250
916		105.468750
917		113.281250
918		105.468750
919		111.328125
920		105.468750
921		107.421875
922		101.562500
923		107.421875
924		99.609375
925		107.421875
926		99.609375
927		105.468750
928		97.656250
929		105.468750
930		95.703125
931		103.515625
932		93.750000
933		101.562500
934		93.750000
935		99.609375
936		91.796875
937		97.656250
938		91.796875
939		95.703125
940		87.890625
941		95.703125
942		85.937500
943		93.750000
944		83.984375
945		91.796875
946		82.031250
947		87.890625
948		78.125000
949		87.890625
950		78.125000
951		83.984375
952		76.171875
953		82.031250
954		74.218750
955		80.078125
956		72.265625
957		78.125000
958		68.359375
959		76.171875
960		66.406250
961		74.218750
962		64.453125
963		70.312500
964		62.500000
965		68.359375
966		60.546875
967		66.406250
968		58.593750
969		62.500000
970		54.687500
971		60.546875
972		52.734375
973		58.593750
974		48.828125
975		58.593750
976		44.921875
977		54.687500
978		42.968750
979		50.781250
980		39.062500
981		48.828125
982		37.109375
983		44.921875
984		35.156250
985		42.968750
986		33.203125
987		39.062500
988		31.250000
989		35.156250
990		25.390625
991		33.203125
992		23.437500
993		31.250000
994		19.531250
995		27.343750
996		15.625000
997		25.390625
998		13.671875
999		21.484375
1000		11.718750
1001		19.531250
1002		9.765625
1003		15.625000
1004		5.859375
1005		11.718750
1006		0.000000
1007		7.812500
1008		-1.953125
1009		7.812500
1010		-3.906250
1011		3.906250
1012		-5.859375
1013		0.000000
1014		-9.765625
1015		-1.953125
1016		-13.671875
1017		-5.859375
1018		-15.625000
1019		-7.812500
1020		-17.578125
1021		-13.671875
1022		-21.484375
1023		-15.625000
1024		-27.343750
1025		-17.578125
1026		-29.296875
1027		-21.484375
1028		-31.250000
1029		-23.437500
1030		-35.156250
1031		-27.343750
1032		-39.062500
1033		-29.296875
1034		-41.015625
1035		-33.203125
1036		-42.968750
1037		-37.109375
1038		-44.921875
1039		-41.015625
1040		-50.781250
1041		-42.968750
1042		-52.734375
1043		-44.921875
1044		-56.640625
1045		-46.875000
1046		-58.593750
1047		-50.781250
1048		-60.546875
1049		-52.734375
1050		-64.453125
1051		-56.640625
1052		-64.453125
1053		-58.593750
1054		-66.406250
1055		-62.500000
1056		-70.312500
1057		-64.453125
1058		-74.218750
1059		-66.406250
1060		-76.171875
1061		-68.359375
1062		-78.125000
1063		-70.312500
1064		-80.078125
1065		-72.265625
1066		-82.031250
1067		-76.171875
1068		-83.984375
1069		-76.171875
1070		-85.937500
1071		-82.031250
1072		-87.890625
1073		-83.984375
1074		-91.796875
1075		-83.984375
1076		-93.750000
1077		-85.937500
1078		-95.703125
1079		-87.890625
1080		-97.656250
1081		-89.843750
1082		-99.609375
1083		-91.796875
1084		-99.609375
1085		-93.750000
1086		-101.562500
1087		-93.750000
1088		-101.562500
1089		-97.656250
1090		-105.468750
1091		-97.656250
1092		-105.468750
1093		-99.609375
1094		-105.468750
1095		-99.609375
1096		-109.375000
1097		-101.562500
1098		-109.375000
1099		-101.562500
1100		-109.375000
1101		-103.515625
1102		-111.328125
1103		-103.515625
1104		-109.375000
1105		-105.468750
1106		-111.328125
1107		-107.421875
1108		-113.281250
1109		-105.468750
1110		-113.281250
1111		-107.421875
1112		-113.281250
1113		-107.421875
1114		-115.234375
1115		-107.421875
1116		-115.234375
1117		-107.421875
1118		-115.234375
1119		-107.421875
1120		-113.281250
1121		-109.375000
1122		-113.281250
1123		-109.375000
1124		-113.281250
1125		-107.421875
1126		-115.234375
1127		-107.421875
1128		-115.234375
1129		-107.421875
1130		-113.281250
1131		-107.421875
1132		-113.281250
1133		-105.468750
1134		-113.281250
1135		-105.468750
1136		-113.281250
1137		-105.468750
1138		-109.375000
1139		-105.468750
1140		-107.421875
1141		-103.515625
1142		-109.375000
1143		-101.562500
1144		-107.421875
1145		-101.562500
1146		-107.421875
1147		-99.609375
1148		-105.468750
1149		-99.609375
1150		-105.468750
1151		-97.656250
1152		-103.515625
1153		-95.703125
1154		-99.609375
1155		-95.703125
1156		-97.656250
1157		-93.750000
1158		-97.656250
1159		-91.796875
1160		-97.656250
1161		-89.843750
1162		-95.703125
1163		-87.890625
1164		-93.750000
1165		-85.937500
1166		-91.796875
1167		-83.984375
1168		-89.843750
1169		-82.031250
1170		-85.937500
1171		-80.078125
1172		-83.984375
1173		-80.078125
1174		-82.031250
1175		-76.171875
1176		-80.078125
1177		-72.265625
1178		-78.125000
1179		-70.312500
1180		-76.171875
1181		-68.359375
1182		-74.218750
1183		-64.453125
1184		-72.265625
1185		-64.453125
1186		-68.359375
1187		-62.500000
1188		-64.453125
1189		-60.546875
1190		-62.500000
1191		-56.640625
1192		-60.546875
1193		-52.734375
1194		-58.593750
1195		-48.828125
1196		-54.687500
1197		-46.875000
1198		-52.734375
1199		-44.921875
1200		-48.828125
1201		-41.015625
1202		-46.875000
1203		-39.062500
1204		-41.015625
1205		-37.109375
1206		-39.062500
1207		-33.203125
1208		-35.156250
1209		-29.296875
1210		-35.156250
1211		-25.390625
1212		-31.250000
1213		-23.437500
1214		-29.296875
1215		-19.531250
1216		-25.390625
1217		-17.578125
1218		-23.437500
1219		-13.671875
1220		-19.531250
1221		-11.718750
1222		-13.671875
1223		-9.765625
1224		-11.718750
1225		-5.859375
1226		-9.765625
1227		-1.953125
1228		-5.859375
1229		1.953125
1230		-1.953125
1231		3.906250
1232		0.000000
1233		7.812500
1234		1.953125
1235		9.765625
1236		5.859375
1237		13.671875
1238		9.765625
1239		15.625000
1240		13.671875
1241		17.578125
1242		15.625000
1243		21.484375
1244		17.578125
1245		27.343750
1246		19.531250
