Old_data/metingen laweit/1000Hz, 66.4cm/data_81_m516.txt

Channel              :		CH1
Frequency            :		1.061kHz
Period               :		0.942ms
PK-PK                :		320.3mV
Probe attenuation    :		1X
Voltage per ADC value:		0.122070mV
Time interval        :		2.00000us

index		CH1_Voltage(mV)
1		103.515625
2		103.515625
3		95.703125
4		101.562500
5		91.796875
6		97.656250
7		87.890625
8		93.750000
9		85.937500
10		91.796875
11		82.031250
12		87.890625
13		78.125000
14		83.984375
15		76.171875
16		82.031250
17		72.265625
18		78.125000
19		68.359375
20		74.218750
21		64.453125
22		72.265625
23		60.546875
24		68.359375
25		58.593750
26		64.453125
27		54.687500
28		60.546875
29		50.781250
30		56.640625
31		46.875000
32		52.734375
33		42.968750
34		48.828125
35		39.062500
36		44.921875
37		35.156250
38		41.015625
39		31.250000
40		37.109375
41		27.343750
42		33.203125
43		23.437500
44		29.296875
45		19.531250
46		25.390625
47		15.625000
48		21.484375
49		9.765625
50		17.578125
51		5.859375
52		13.671875
53		1.953125
54		11.718750
55		-3.906250
56		5.859375
57		-7.812500
58		0.000000
59		-9.765625
60		-3.906250
61		-15.625000
62		-7.812500
63		-19.531250
64		-11.718750
65		-23.437500
66		-17.578125
67		-27.343750
68		-21.484375
69		-31.250000
70		-21.484375
71		-37.109375
72		-29.296875
73		-41.015625
74		-33.203125
75		-46.875000
76		-37.109375
77		-48.828125
78		-41.015625
79		-54.687500
80		-46.875000
81		-56.640625
82		-50.781250
83		-60.546875
84		-54.687500
85		-66.406250
86		-58.593750
87		-70.312500
88		-60.546875
89		-74.218750
90		-64.453125
91		-76.171875
92		-70.312500
93		-82.031250
94		-74.218750
95		-85.937500
96		-78.125000
97		-87.890625
98		-80.078125
99		-91.796875
100		-85.937500
101		-97.656250
102		-89.843750
103		-99.609375
104		-93.750000
105		-103.515625
106		-95.703125
107		-107.421875
108		-99.609375
109		-109.375000
110		-103.515625
111		-113.281250
112		-107.421875
113		-117.187500
114		-111.328125
115		-119.140625
116		-113.281250
117		-123.046875
118		-117.187500
119		-126.953125
120		-121.093750
121		-130.859375
122		-121.093750
123		-132.812500
124		-125.000000
125		-134.765625
126		-126.953125
127		-138.671875
128		-130.859375
129		-142.578125
130		-132.812500
131		-142.578125
132		-136.718750
133		-144.531250
134		-140.625000
135		-148.437500
136		-142.578125
137		-152.343750
138		-142.578125
139		-152.343750
140		-144.531250
141		-154.296875
142		-146.484375
143		-156.250000
144		-148.437500
145		-158.203125
146		-150.390625
147		-160.156250
148		-152.343750
149		-160.156250
150		-156.250000
151		-162.109375
152		-158.203125
153		-164.062500
154		-158.203125
155		-166.015625
156		-158.203125
157		-166.015625
158		-160.156250
159		-167.968750
160		-160.156250
161		-167.968750
162		-162.109375
163		-167.968750
164		-162.109375
165		-167.968750
166		-164.062500
167		-167.968750
168		-164.062500
169		-169.921875
170		-162.109375
171		-169.921875
172		-162.109375
173		-169.921875
174		-162.109375
175		-169.921875
176		-162.109375
177		-169.921875
178		-162.109375
179		-169.921875
180		-162.109375
181		-167.968750
182		-162.109375
183		-166.015625
184		-162.109375
185		-166.015625
186		-160.156250
187		-167.968750
188		-158.203125
189		-166.015625
190		-158.203125
191		-166.015625
192		-158.203125
193		-162.109375
194		-156.250000
195		-160.156250
196		-156.250000
197		-160.156250
198		-154.296875
199		-156.250000
200		-152.343750
201		-154.296875
202		-150.390625
203		-154.296875
204		-146.484375
205		-152.343750
206		-142.578125
207		-150.390625
208		-142.578125
209		-148.437500
210		-140.625000
211		-146.484375
212		-138.671875
213		-144.531250
214		-134.765625
215		-140.625000
216		-134.765625
217		-136.718750
218		-130.859375
219		-134.765625
220		-126.953125
221		-132.812500
222		-125.000000
223		-128.906250
224		-121.093750
225		-126.953125
226		-119.140625
227		-123.046875
228		-115.234375
229		-119.140625
230		-111.328125
231		-117.187500
232		-109.375000
233		-111.328125
234		-105.468750
235		-109.375000
236		-101.562500
237		-107.421875
238		-95.703125
239		-101.562500
240		-93.750000
241		-99.609375
242		-89.843750
243		-93.750000
244		-83.984375
245		-89.843750
246		-82.031250
247		-85.937500
248		-78.125000
249		-82.031250
250		-76.171875
251		-78.125000
252		-70.312500
253		-74.218750
254		-64.453125
255		-70.312500
256		-62.500000
257		-68.359375
258		-56.640625
259		-62.500000
260		-52.734375
261		-56.640625
262		-48.828125
263		-52.734375
264		-44.921875
265		-48.828125
266		-41.015625
267		-44.921875
268		-37.109375
269		-39.062500
270		-31.250000
271		-37.109375
272		-27.343750
273		-35.156250
274		-23.437500
275		-29.296875
276		-17.578125
277		-23.437500
278		-15.625000
279		-21.484375
280		-11.718750
281		-15.625000
282		-5.859375
283		-9.765625
284		-3.906250
285		-5.859375
286		1.953125
287		-1.953125
288		5.859375
289		1.953125
290		11.718750
291		5.859375
292		15.625000
293		9.765625
294		17.578125
295		13.671875
296		23.437500
297		17.578125
298		27.343750
299		23.437500
300		29.296875
301		27.343750
302		33.203125
303		31.250000
304		39.062500
305		33.203125
306		42.968750
307		37.109375
308		46.875000
309		41.015625
310		50.781250
311		44.921875
312		54.687500
313		50.781250
314		58.593750
315		52.734375
316		60.546875
317		58.593750
318		64.453125
319		62.500000
320		68.359375
321		64.453125
322		74.218750
323		68.359375
324		76.171875
325		70.312500
326		78.125000
327		74.218750
328		82.031250
329		78.125000
330		85.937500
331		80.078125
332		87.890625
333		85.937500
334		89.843750
335		87.890625
336		93.750000
337		91.796875
338		97.656250
339		91.796875
340		101.562500
341		95.703125
342		103.515625
343		97.656250
344		107.421875
345		101.562500
346		107.421875
347		103.515625
348		111.328125
349		105.468750
350		113.281250
351		109.375000
352		115.234375
353		111.328125
354		119.140625
355		111.328125
356		121.093750
357		115.234375
358		123.046875
359		117.187500
360		125.000000
361		119.140625
362		126.953125
363		121.093750
364		128.906250
365		123.046875
366		128.906250
367		126.953125
368		130.859375
369		126.953125
370		132.812500
371		128.906250
372		134.765625
373		128.906250
374		136.718750
375		130.859375
376		138.671875
377		132.812500
378		138.671875
379		132.812500
380		142.578125
381		134.765625
382		142.578125
383		136.718750
384		142.578125
385		138.671875
386		142.578125
387		136.718750
388		144.531250
389		138.671875
390		146.484375
391		138.671875
392		146.484375
393		138.671875
394		146.484375
395		140.625000
396		148.437500
397		140.625000
398		148.437500
399		142.578125
400		148.437500
401		144.531250
402		146.484375
403		144.531250
404		148.437500
405		142.578125
406		148.437500
407		142.578125
408		150.390625
409		142.578125
410		148.437500
411		142.578125
412		148.437500
413		142.578125
414		148.437500
415		142.578125
416		148.437500
417		142.578125
418		146.484375
419		142.578125
420		146.484375
421		140.625000
422		146.484375
423		138.671875
424		146.484375
425		140.625000
426		146.484375
427		138.671875
428		146.484375
429		138.671875
430		144.531250
431		136.718750
432		144.531250
433		136.718750
434		142.578125
435		136.718750
436		140.625000
437		134.765625
438		138.671875
439		132.812500
440		138.671875
441		130.859375
442		138.671875
443		128.906250
444		136.718750
445		126.953125
446		134.765625
447		126.953125
448		134.765625
449		125.000000
450		130.859375
451		123.046875
452		128.906250
453		123.046875
454		126.953125
455		119.140625
456		125.000000
457		117.187500
458		123.046875
459		113.281250
460		121.093750
461		113.281250
462		119.140625
463		109.375000
464		117.187500
465		107.421875
466		115.234375
467		105.468750
468		113.281250
469		103.515625
470		109.375000
471		99.609375
472		105.468750
473		95.703125
474		103.515625
475		93.750000
476		101.562500
477		91.796875
478		99.609375
479		87.890625
480		95.703125
481		83.984375
482		93.750000
483		83.984375
484		89.843750
485		80.078125
486		85.937500
487		76.171875
488		82.031250
489		70.312500
490		80.078125
491		68.359375
492		76.171875
493		64.453125
494		74.218750
495		60.546875
496		70.312500
497		58.593750
498		64.453125
499		52.734375
500		62.500000
501		50.781250
502		58.593750
503		46.875000
504		52.734375
505		41.015625
506		48.828125
507		39.062500
508		46.875000
509		33.203125
510		42.968750
511		31.250000
512		39.062500
513		27.343750
514		35.156250
515		21.484375
516		31.250000
517		19.531250
518		27.343750
519		15.625000
520		21.484375
521		11.718750
522		17.578125
523		5.859375
524		13.671875
525		0.000000
526		9.765625
527		-3.906250
528		5.859375
529		-7.812500
530		1.953125
531		-11.718750
532		-1.953125
533		-15.625000
534		-5.859375
535		-17.578125
536		-11.718750
537		-23.437500
538		-15.625000
539		-29.296875
540		-21.484375
541		-33.203125
542		-23.437500
543		-35.156250
544		-27.343750
545		-41.015625
546		-31.250000
547		-44.921875
548		-35.156250
549		-48.828125
550		-41.015625
551		-52.734375
552		-44.921875
553		-56.640625
554		-50.781250
555		-62.500000
556		-54.687500
557		-64.453125
558		-56.640625
559		-68.359375
560		-60.546875
561		-74.218750
562		-64.453125
563		-78.125000
564		-68.359375
565		-82.031250
566		-74.218750
567		-83.984375
568		-76.171875
569		-87.890625
570		-82.031250
571		-91.796875
572		-85.937500
573		-97.656250
574		-87.890625
575		-101.562500
576		-91.796875
577		-103.515625
578		-95.703125
579		-107.421875
580		-99.609375
581		-109.375000
582		-101.562500
583		-115.234375
584		-105.468750
585		-115.234375
586		-109.375000
587		-119.140625
588		-113.281250
589		-123.046875
590		-117.187500
591		-126.953125
592		-117.187500
593		-130.859375
594		-121.093750
595		-132.812500
596		-125.000000
597		-134.765625
598		-126.953125
599		-138.671875
600		-128.906250
601		-138.671875
602		-132.812500
603		-140.625000
604		-136.718750
605		-144.531250
606		-138.671875
607		-146.484375
608		-138.671875
609		-150.390625
610		-142.578125
611		-150.390625
612		-144.531250
613		-154.296875
614		-144.531250
615		-154.296875
616		-148.437500
617		-156.250000
618		-150.390625
619		-156.250000
620		-152.343750
621		-158.203125
622		-154.296875
623		-160.156250
624		-154.296875
625		-162.109375
626		-154.296875
627		-164.062500
628		-154.296875
629		-164.062500
630		-156.250000
631		-166.015625
632		-158.203125
633		-166.015625
634		-160.156250
635		-166.015625
636		-160.156250
637		-164.062500
638		-162.109375
639		-166.015625
640		-160.156250
641		-167.968750
642		-160.156250
643		-167.968750
644		-160.156250
645		-167.968750
646		-160.156250
647		-167.968750
648		-162.109375
649		-167.968750
650		-160.156250
651		-167.968750
652		-160.156250
653		-164.062500
654		-162.109375
655		-164.062500
656		-160.156250
657		-164.062500
658		-158.203125
659		-164.062500
660		-156.250000
661		-164.062500
662		-156.250000
663		-162.109375
664		-154.296875
665		-160.156250
666		-154.296875
667		-160.156250
668		-150.390625
669		-156.250000
670		-152.343750
671		-154.296875
672		-150.390625
673		-152.343750
674		-146.484375
675		-152.343750
676		-144.531250
677		-150.390625
678		-142.578125
679		-148.437500
680		-140.625000
681		-146.484375
682		-138.671875
683		-142.578125
684		-136.718750
685		-140.625000
686		-134.765625
687		-136.718750
688		-130.859375
689		-134.765625
690		-128.906250
691		-134.765625
692		-123.046875
693		-128.906250
694		-121.093750
695		-126.953125
696		-119.140625
697		-123.046875
698		-115.234375
699		-121.093750
700		-111.328125
701		-115.234375
702		-109.375000
703		-113.281250
704		-105.468750
705		-109.375000
706		-101.562500
707		-105.468750
708		-97.656250
709		-103.515625
710		-93.750000
711		-99.609375
712		-89.843750
713		-95.703125
714		-85.937500
715		-91.796875
716		-83.984375
717		-87.890625
718		-80.078125
719		-85.937500
720		-76.171875
721		-78.125000
722		-72.265625
723		-74.218750
724		-66.406250
725		-72.265625
726		-62.500000
727		-68.359375
728		-58.593750
729		-64.453125
730		-54.687500
731		-58.593750
732		-50.781250
733		-54.687500
734		-46.875000
735		-52.734375
736		-42.968750
737		-44.921875
738		-39.062500
739		-41.015625
740		-35.156250
741		-39.062500
742		-29.296875
743		-35.156250
744		-25.390625
745		-29.296875
746		-19.531250
747		-25.390625
748		-15.625000
749		-21.484375
750		-11.718750
751		-15.625000
752		-7.812500
753		-11.718750
754		-3.906250
755		-5.859375
756		0.000000
757		-1.953125
758		3.906250
759		0.000000
760		9.765625
761		3.906250
762		13.671875
763		7.812500
764		17.578125
765		11.718750
766		21.484375
767		15.625000
768		25.390625
769		21.484375
770		29.296875
771		25.390625
772		33.203125
773		31.250000
774		37.109375
775		33.203125
776		42.968750
777		37.109375
778		44.921875
779		41.015625
780		48.828125
781		42.968750
782		52.734375
783		48.828125
784		56.640625
785		52.734375
786		60.546875
787		56.640625
788		62.500000
789		60.546875
790		66.406250
791		64.453125
792		72.265625
793		68.359375
794		76.171875
795		70.312500
796		78.125000
797		72.265625
798		80.078125
799		76.171875
800		83.984375
801		80.078125
802		87.890625
803		82.031250
804		89.843750
805		87.890625
806		91.796875
807		89.843750
808		95.703125
809		89.843750
810		99.609375
811		93.750000
812		101.562500
813		97.656250
814		105.468750
815		99.609375
816		107.421875
817		101.562500
818		109.375000
819		105.468750
820		113.281250
821		109.375000
822		113.281250
823		111.328125
824		115.234375
825		111.328125
826		119.140625
827		113.281250
828		121.093750
829		117.187500
830		123.046875
831		119.140625
832		125.000000
833		121.093750
834		126.953125
835		123.046875
836		130.859375
837		125.000000
838		130.859375
839		126.953125
840		132.812500
841		128.906250
842		136.718750
843		128.906250
844		136.718750
845		130.859375
846		138.671875
847		132.812500
848		138.671875
849		132.812500
850		140.625000
851		134.765625
852		142.578125
853		136.718750
854		142.578125
855		138.671875
856		142.578125
857		138.671875
858		142.578125
859		138.671875
860		146.484375
861		138.671875
862		148.437500
863		138.671875
864		146.484375
865		140.625000
866		148.437500
867		140.625000
868		148.437500
869		140.625000
870		148.437500
871		144.531250
872		148.437500
873		144.531250
874		148.437500
875		142.578125
876		150.390625
877		142.578125
878		150.390625
879		142.578125
880		150.390625
881		142.578125
882		150.390625
883		142.578125
884		150.390625
885		142.578125
886		150.390625
887		142.578125
888		150.390625
889		144.531250
890		148.437500
891		142.578125
892		148.437500
893		140.625000
894		148.437500
895		140.625000
896		148.437500
897		140.625000
898		146.484375
899		138.671875
900		146.484375
901		138.671875
902		146.484375
903		138.671875
904		144.531250
905		138.671875
906		142.578125
907		136.718750
908		140.625000
909		132.812500
910		140.625000
911		132.812500
912		140.625000
913		130.859375
914		138.671875
915		128.906250
916		136.718750
917		128.906250
918		134.765625
919		126.953125
920		134.765625
921		126.953125
922		130.859375
923		125.000000
924		128.906250
925		121.093750
926		128.906250
927		119.140625
928		126.953125
929		117.187500
930		125.000000
931		115.234375
932		123.046875
933		113.281250
934		121.093750
935		109.375000
936		117.187500
937		109.375000
938		115.234375
939		107.421875
940		111.328125
941		103.515625
942		109.375000
943		99.609375
944		107.421875
945		95.703125
946		103.515625
947		95.703125
948		101.562500
949		89.843750
950		97.656250
951		87.890625
952		95.703125
953		85.937500
954		91.796875
955		83.984375
956		89.843750
957		80.078125
958		85.937500
959		74.218750
960		82.031250
961		70.312500
962		80.078125
963		66.406250
964		76.171875
965		64.453125
966		74.218750
967		60.546875
968		68.359375
969		58.593750
970		64.453125
971		54.687500
972		62.500000
973		50.781250
974		56.640625
975		44.921875
976		52.734375
977		41.015625
978		50.781250
979		39.062500
980		46.875000
981		35.156250
982		42.968750
983		31.250000
984		39.062500
985		25.390625
986		35.156250
987		23.437500
988		31.250000
989		19.531250
990		25.390625
991		15.625000
992		21.484375
993		9.765625
994		17.578125
995		5.859375
996		15.625000
997		1.953125
998		9.765625
999		-1.953125
1000		7.812500
1001		-7.812500
1002		1.953125
1003		-11.718750
1004		-1.953125
1005		-13.671875
1006		-5.859375
1007		-17.578125
1008		-11.718750
1009		-23.437500
1010		-15.625000
1011		-29.296875
1012		-19.531250
1013		-33.203125
1014		-23.437500
1015		-37.109375
1016		-27.343750
1017		-39.062500
1018		-33.203125
1019		-44.921875
1020		-37.109375
1021		-46.875000
1022		-39.062500
1023		-50.781250
1024		-44.921875
1025		-56.640625
1026		-48.828125
1027		-60.546875
1028		-52.734375
1029		-66.406250
1030		-56.640625
1031		-68.359375
1032		-60.546875
1033		-72.265625
1034		-64.453125
1035		-76.171875
1036		-68.359375
1037		-80.078125
1038		-72.265625
1039		-83.984375
1040		-76.171875
1041		-87.890625
1042		-82.031250
1043		-91.796875
1044		-83.984375
1045		-95.703125
1046		-87.890625
1047		-99.609375
1048		-89.843750
1049		-103.515625
1050		-93.750000
1051		-107.421875
1052		-97.656250
1053		-109.375000
1054		-99.609375
1055		-111.328125
1056		-105.468750
1057		-115.234375
1058		-109.375000
1059		-119.140625
1060		-113.281250
1061		-123.046875
1062		-115.234375
1063		-125.000000
1064		-117.187500
1065		-128.906250
1066		-121.093750
1067		-130.859375
1068		-123.046875
1069		-134.765625
1070		-125.000000
1071		-136.718750
1072		-128.906250
1073		-136.718750
1074		-132.812500
1075		-140.625000
1076		-134.765625
1077		-144.531250
1078		-136.718750
1079		-148.437500
1080		-138.671875
1081		-146.484375
1082		-140.625000
1083		-150.390625
1084		-142.578125
1085		-152.343750
1086		-144.531250
1087		-154.296875
1088		-146.484375
1089		-154.296875
1090		-148.437500
1091		-156.250000
1092		-152.343750
1093		-158.203125
1094		-152.343750
1095		-160.156250
1096		-152.343750
1097		-162.109375
1098		-154.296875
1099		-162.109375
1100		-156.250000
1101		-162.109375
1102		-156.250000
1103		-164.062500
1104		-156.250000
1105		-164.062500
1106		-158.203125
1107		-164.062500
1108		-160.156250
1109		-164.062500
1110		-160.156250
1111		-166.015625
1112		-158.203125
1113		-166.015625
1114		-160.156250
1115		-166.015625
1116		-160.156250
1117		-166.015625
1118		-160.156250
1119		-166.015625
1120		-160.156250
1121		-166.015625
1122		-158.203125
1123		-164.062500
1124		-160.156250
1125		-162.109375
1126		-160.156250
1127		-164.062500
1128		-156.250000
1129		-164.062500
1130		-156.250000
1131		-162.109375
1132		-154.296875
1133		-162.109375
1134		-154.296875
1135		-160.156250
1136		-152.343750
1137		-158.203125
1138		-152.343750
1139		-158.203125
1140		-150.390625
1141		-154.296875
1142		-150.390625
1143		-152.343750
1144		-146.484375
1145		-152.343750
1146		-144.531250
1147		-150.390625
1148		-142.578125
1149		-148.437500
1150		-140.625000
1151		-144.531250
1152		-138.671875
1153		-144.531250
1154		-136.718750
1155		-140.625000
1156		-134.765625
1157		-136.718750
1158		-132.812500
1159		-134.765625
1160		-128.906250
1161		-132.812500
1162		-125.000000
1163		-130.859375
1164		-123.046875
1165		-126.953125
1166		-119.140625
1167		-125.000000
1168		-115.234375
1169		-123.046875
1170		-113.281250
1171		-117.187500
1172		-109.375000
1173		-113.281250
1174		-107.421875
1175		-111.328125
1176		-103.515625
1177		-107.421875
1178		-99.609375
1179		-105.468750
1180		-95.703125
1181		-101.562500
1182		-93.750000
1183		-97.656250
1184		-87.890625
1185		-93.750000
1186		-85.937500
1187		-89.843750
1188		-80.078125
1189		-85.937500
1190		-78.125000
1191		-80.078125
1192		-74.218750
1193		-76.171875
1194		-70.312500
1195		-74.218750
1196		-64.453125
1197		-68.359375
1198		-60.546875
1199		-64.453125
1200		-56.640625
1201		-60.546875
1202		-52.734375
1203		-58.593750
1204		-48.828125
1205		-52.734375
1206		-44.921875
1207		-48.828125
1208		-41.015625
1209		-42.968750
1210		-37.109375
1211		-39.062500
1212		-31.250000
1213		-37.109375
1214		-27.343750
1215		-31.250000
1216		-23.437500
1217		-27.343750
1218		-19.531250
1219		-23.437500
1220		-15.625000
1221		-19.531250
1222		-9.765625
1223		-15.625000
