Old_data/metingen laweit/1000Hz, 66.4cm/data_81_m328.txt

Channel              :		CH1
Frequency            :		1.061kHz
Period               :		0.942ms
PK-PK                :		349.6mV
Probe attenuation    :		1X
Voltage per ADC value:		0.122070mV
Time interval        :		2.00000us

index		CH1_Voltage(mV)
1		93.750000
2		93.750000
3		85.937500
4		91.796875
5		82.031250
6		87.890625
7		78.125000
8		83.984375
9		74.218750
10		80.078125
11		70.312500
12		76.171875
13		68.359375
14		74.218750
15		64.453125
16		70.312500
17		60.546875
18		66.406250
19		56.640625
20		62.500000
21		52.734375
22		58.593750
23		48.828125
24		54.687500
25		44.921875
26		50.781250
27		39.062500
28		46.875000
29		35.156250
30		42.968750
31		31.250000
32		37.109375
33		27.343750
34		33.203125
35		23.437500
36		29.296875
37		17.578125
38		25.390625
39		13.671875
40		21.484375
41		9.765625
42		15.625000
43		5.859375
44		11.718750
45		0.000000
46		7.812500
47		-3.906250
48		1.953125
49		-7.812500
50		-1.953125
51		-13.671875
52		-5.859375
53		-17.578125
54		-9.765625
55		-21.484375
56		-15.625000
57		-29.296875
58		-19.531250
59		-31.250000
60		-25.390625
61		-37.109375
62		-29.296875
63		-41.015625
64		-33.203125
65		-44.921875
66		-39.062500
67		-48.828125
68		-42.968750
69		-54.687500
70		-46.875000
71		-58.593750
72		-52.734375
73		-64.453125
74		-56.640625
75		-68.359375
76		-60.546875
77		-74.218750
78		-66.406250
79		-76.171875
80		-68.359375
81		-82.031250
82		-74.218750
83		-85.937500
84		-80.078125
85		-89.843750
86		-83.984375
87		-93.750000
88		-87.890625
89		-99.609375
90		-91.796875
91		-103.515625
92		-95.703125
93		-107.421875
94		-99.609375
95		-111.328125
96		-103.515625
97		-115.234375
98		-107.421875
99		-117.187500
100		-111.328125
101		-123.046875
102		-115.234375
103		-125.000000
104		-119.140625
105		-130.859375
106		-123.046875
107		-132.812500
108		-126.953125
109		-136.718750
110		-130.859375
111		-140.625000
112		-134.765625
113		-142.578125
114		-138.671875
115		-146.484375
116		-140.625000
117		-150.390625
118		-144.531250
119		-152.343750
120		-148.437500
121		-156.250000
122		-148.437500
123		-160.156250
124		-152.343750
125		-162.109375
126		-154.296875
127		-164.062500
128		-158.203125
129		-167.968750
130		-160.156250
131		-169.921875
132		-164.062500
133		-171.875000
134		-166.015625
135		-173.828125
136		-167.968750
137		-175.781250
138		-169.921875
139		-179.687500
140		-171.875000
141		-179.687500
142		-173.828125
143		-181.640625
144		-173.828125
145		-183.593750
146		-175.781250
147		-183.593750
148		-177.734375
149		-185.546875
150		-179.687500
151		-187.500000
152		-181.640625
153		-187.500000
154		-181.640625
155		-189.453125
156		-183.593750
157		-191.406250
158		-183.593750
159		-189.453125
160		-183.593750
161		-191.406250
162		-185.546875
163		-189.453125
164		-185.546875
165		-189.453125
166		-185.546875
167		-191.406250
168		-187.500000
169		-191.406250
170		-185.546875
171		-191.406250
172		-185.546875
173		-193.359375
174		-183.593750
175		-189.453125
176		-183.593750
177		-189.453125
178		-183.593750
179		-189.453125
180		-181.640625
181		-187.500000
182		-183.593750
183		-185.546875
184		-181.640625
185		-185.546875
186		-179.687500
187		-185.546875
188		-177.734375
189		-181.640625
190		-175.781250
191		-181.640625
192		-173.828125
193		-179.687500
194		-173.828125
195		-177.734375
196		-169.921875
197		-177.734375
198		-169.921875
199		-171.875000
200		-167.968750
201		-169.921875
202		-164.062500
203		-169.921875
204		-162.109375
205		-166.015625
206		-160.156250
207		-164.062500
208		-156.250000
209		-160.156250
210		-152.343750
211		-158.203125
212		-150.390625
213		-156.250000
214		-148.437500
215		-150.390625
216		-144.531250
217		-148.437500
218		-142.578125
219		-146.484375
220		-136.718750
221		-142.578125
222		-132.812500
223		-138.671875
224		-130.859375
225		-134.765625
226		-125.000000
227		-130.859375
228		-123.046875
229		-126.953125
230		-119.140625
231		-123.046875
232		-115.234375
233		-119.140625
234		-111.328125
235		-113.281250
236		-107.421875
237		-111.328125
238		-101.562500
239		-107.421875
240		-97.656250
241		-101.562500
242		-93.750000
243		-97.656250
244		-89.843750
245		-93.750000
246		-85.937500
247		-89.843750
248		-82.031250
249		-83.984375
250		-78.125000
251		-80.078125
252		-72.265625
253		-76.171875
254		-66.406250
255		-70.312500
256		-60.546875
257		-66.406250
258		-58.593750
259		-62.500000
260		-52.734375
261		-56.640625
262		-46.875000
263		-52.734375
264		-42.968750
265		-46.875000
266		-41.015625
267		-41.015625
268		-35.156250
269		-37.109375
270		-29.296875
271		-33.203125
272		-23.437500
273		-27.343750
274		-19.531250
275		-23.437500
276		-13.671875
277		-19.531250
278		-9.765625
279		-15.625000
280		-5.859375
281		-11.718750
282		-1.953125
283		-3.906250
284		1.953125
285		0.000000
286		9.765625
287		3.906250
288		11.718750
289		7.812500
290		15.625000
291		13.671875
292		21.484375
293		15.625000
294		27.343750
295		21.484375
296		29.296875
297		25.390625
298		33.203125
299		31.250000
300		37.109375
301		35.156250
302		41.015625
303		37.109375
304		44.921875
305		41.015625
306		50.781250
307		44.921875
308		54.687500
309		50.781250
310		58.593750
311		54.687500
312		62.500000
313		56.640625
314		66.406250
315		62.500000
316		68.359375
317		66.406250
318		72.265625
319		70.312500
320		76.171875
321		72.265625
322		80.078125
323		76.171875
324		85.937500
325		80.078125
326		87.890625
327		82.031250
328		89.843750
329		85.937500
330		93.750000
331		87.890625
332		95.703125
333		93.750000
334		99.609375
335		97.656250
336		101.562500
337		97.656250
338		105.468750
339		101.562500
340		109.375000
341		105.468750
342		111.328125
343		105.468750
344		113.281250
345		109.375000
346		115.234375
347		111.328125
348		119.140625
349		115.234375
350		121.093750
351		117.187500
352		123.046875
353		119.140625
354		125.000000
355		121.093750
356		126.953125
357		123.046875
358		130.859375
359		125.000000
360		130.859375
361		126.953125
362		134.765625
363		128.906250
364		134.765625
365		128.906250
366		136.718750
367		132.812500
368		136.718750
369		134.765625
370		140.625000
371		134.765625
372		140.625000
373		134.765625
374		142.578125
375		136.718750
376		144.531250
377		136.718750
378		146.484375
379		138.671875
380		146.484375
381		138.671875
382		146.484375
383		142.578125
384		146.484375
385		144.531250
386		146.484375
387		142.578125
388		148.437500
389		142.578125
390		150.390625
391		144.531250
392		150.390625
393		144.531250
394		150.390625
395		144.531250
396		152.343750
397		144.531250
398		152.343750
399		146.484375
400		150.390625
401		146.484375
402		150.390625
403		146.484375
404		150.390625
405		144.531250
406		152.343750
407		144.531250
408		150.390625
409		142.578125
410		150.390625
411		144.531250
412		150.390625
413		144.531250
414		150.390625
415		142.578125
416		150.390625
417		144.531250
418		148.437500
419		142.578125
420		146.484375
421		140.625000
422		148.437500
423		140.625000
424		148.437500
425		138.671875
426		146.484375
427		138.671875
428		144.531250
429		136.718750
430		144.531250
431		136.718750
432		142.578125
433		136.718750
434		140.625000
435		134.765625
436		138.671875
437		130.859375
438		138.671875
439		128.906250
440		136.718750
441		128.906250
442		134.765625
443		126.953125
444		132.812500
445		123.046875
446		130.859375
447		123.046875
448		128.906250
449		121.093750
450		126.953125
451		119.140625
452		125.000000
453		115.234375
454		121.093750
455		113.281250
456		121.093750
457		111.328125
458		119.140625
459		107.421875
460		115.234375
461		105.468750
462		113.281250
463		103.515625
464		111.328125
465		101.562500
466		107.421875
467		97.656250
468		103.515625
469		95.703125
470		99.609375
471		91.796875
472		97.656250
473		87.890625
474		95.703125
475		83.984375
476		91.796875
477		80.078125
478		89.843750
479		78.125000
480		85.937500
481		74.218750
482		82.031250
483		72.265625
484		78.125000
485		68.359375
486		74.218750
487		62.500000
488		70.312500
489		58.593750
490		66.406250
491		54.687500
492		62.500000
493		52.734375
494		60.546875
495		46.875000
496		56.640625
497		42.968750
498		50.781250
499		39.062500
500		46.875000
501		35.156250
502		42.968750
503		31.250000
504		37.109375
505		27.343750
506		35.156250
507		21.484375
508		29.296875
509		17.578125
510		25.390625
511		11.718750
512		23.437500
513		7.812500
514		17.578125
515		3.906250
516		11.718750
517		1.953125
518		7.812500
519		-3.906250
520		3.906250
521		-9.765625
522		-1.953125
523		-13.671875
524		-3.906250
525		-17.578125
526		-9.765625
527		-23.437500
528		-15.625000
529		-27.343750
530		-19.531250
531		-33.203125
532		-23.437500
533		-35.156250
534		-27.343750
535		-41.015625
536		-33.203125
537		-46.875000
538		-39.062500
539		-50.781250
540		-41.015625
541		-54.687500
542		-46.875000
543		-60.546875
544		-50.781250
545		-66.406250
546		-54.687500
547		-68.359375
548		-60.546875
549		-72.265625
550		-62.500000
551		-76.171875
552		-70.312500
553		-80.078125
554		-74.218750
555		-85.937500
556		-78.125000
557		-91.796875
558		-82.031250
559		-93.750000
560		-87.890625
561		-99.609375
562		-91.796875
563		-103.515625
564		-95.703125
565		-109.375000
566		-99.609375
567		-111.328125
568		-103.515625
569		-115.234375
570		-107.421875
571		-119.140625
572		-111.328125
573		-123.046875
574		-115.234375
575		-126.953125
576		-119.140625
577		-130.859375
578		-121.093750
579		-134.765625
580		-126.953125
581		-136.718750
582		-130.859375
583		-140.625000
584		-132.812500
585		-142.578125
586		-138.671875
587		-146.484375
588		-140.625000
589		-150.390625
590		-142.578125
591		-154.296875
592		-146.484375
593		-156.250000
594		-148.437500
595		-160.156250
596		-150.390625
597		-162.109375
598		-154.296875
599		-164.062500
600		-158.203125
601		-166.015625
602		-160.156250
603		-167.968750
604		-164.062500
605		-171.875000
606		-164.062500
607		-173.828125
608		-167.968750
609		-175.781250
610		-167.968750
611		-179.687500
612		-171.875000
613		-179.687500
614		-171.875000
615		-181.640625
616		-173.828125
617		-181.640625
618		-175.781250
619		-183.593750
620		-179.687500
621		-185.546875
622		-179.687500
623		-187.500000
624		-179.687500
625		-187.500000
626		-179.687500
627		-189.453125
628		-181.640625
629		-189.453125
630		-181.640625
631		-189.453125
632		-181.640625
633		-189.453125
634		-183.593750
635		-189.453125
636		-185.546875
637		-189.453125
638		-185.546875
639		-191.406250
640		-183.593750
641		-189.453125
642		-183.593750
643		-191.406250
644		-183.593750
645		-189.453125
646		-183.593750
647		-189.453125
648		-181.640625
649		-189.453125
650		-181.640625
651		-187.500000
652		-181.640625
653		-185.546875
654		-181.640625
655		-185.546875
656		-179.687500
657		-183.593750
658		-175.781250
659		-183.593750
660		-175.781250
661		-181.640625
662		-173.828125
663		-179.687500
664		-173.828125
665		-177.734375
666		-171.875000
667		-175.781250
668		-169.921875
669		-171.875000
670		-167.968750
671		-169.921875
672		-166.015625
673		-169.921875
674		-162.109375
675		-166.015625
676		-160.156250
677		-166.015625
678		-156.250000
679		-160.156250
680		-152.343750
681		-158.203125
682		-150.390625
683		-156.250000
684		-148.437500
685		-152.343750
686		-146.484375
687		-148.437500
688		-142.578125
689		-144.531250
690		-136.718750
691		-142.578125
692		-134.765625
693		-140.625000
694		-130.859375
695		-136.718750
696		-126.953125
697		-130.859375
698		-125.000000
699		-128.906250
700		-119.140625
701		-125.000000
702		-117.187500
703		-119.140625
704		-113.281250
705		-115.234375
706		-107.421875
707		-113.281250
708		-103.515625
709		-109.375000
710		-99.609375
711		-105.468750
712		-95.703125
713		-99.609375
714		-91.796875
715		-97.656250
716		-85.937500
717		-89.843750
718		-83.984375
719		-85.937500
720		-80.078125
721		-82.031250
722		-74.218750
723		-76.171875
724		-68.359375
725		-72.265625
726		-62.500000
727		-68.359375
728		-60.546875
729		-64.453125
730		-56.640625
731		-60.546875
732		-50.781250
733		-54.687500
734		-46.875000
735		-50.781250
736		-42.968750
737		-44.921875
738		-37.109375
739		-39.062500
740		-31.250000
741		-35.156250
742		-27.343750
743		-31.250000
744		-23.437500
745		-27.343750
746		-17.578125
747		-23.437500
748		-13.671875
749		-17.578125
750		-7.812500
751		-13.671875
752		-5.859375
753		-7.812500
754		0.000000
755		-1.953125
756		3.906250
757		0.000000
758		9.765625
759		3.906250
760		13.671875
761		9.765625
762		19.531250
763		13.671875
764		21.484375
765		19.531250
766		27.343750
767		21.484375
768		31.250000
769		27.343750
770		35.156250
771		33.203125
772		39.062500
773		37.109375
774		44.921875
775		39.062500
776		48.828125
777		42.968750
778		52.734375
779		48.828125
780		56.640625
781		50.781250
782		60.546875
783		56.640625
784		64.453125
785		58.593750
786		66.406250
787		64.453125
788		70.312500
789		68.359375
790		74.218750
791		70.312500
792		78.125000
793		72.265625
794		82.031250
795		78.125000
796		85.937500
797		80.078125
798		87.890625
799		83.984375
800		91.796875
801		85.937500
802		93.750000
803		91.796875
804		97.656250
805		93.750000
806		99.609375
807		95.703125
808		103.515625
809		99.609375
810		107.421875
811		101.562500
812		109.375000
813		103.515625
814		111.328125
815		107.421875
816		115.234375
817		109.375000
818		117.187500
819		113.281250
820		117.187500
821		115.234375
822		121.093750
823		117.187500
824		125.000000
825		119.140625
826		126.953125
827		121.093750
828		128.906250
829		123.046875
830		128.906250
831		125.000000
832		132.812500
833		126.953125
834		134.765625
835		126.953125
836		134.765625
837		130.859375
838		134.765625
839		132.812500
840		136.718750
841		132.812500
842		140.625000
843		134.765625
844		140.625000
845		134.765625
846		142.578125
847		136.718750
848		142.578125
849		138.671875
850		144.531250
851		138.671875
852		146.484375
853		140.625000
854		144.531250
855		142.578125
856		146.484375
857		142.578125
858		148.437500
859		142.578125
860		148.437500
861		142.578125
862		150.390625
863		142.578125
864		150.390625
865		142.578125
866		150.390625
867		144.531250
868		150.390625
869		144.531250
870		150.390625
871		146.484375
872		148.437500
873		146.484375
874		150.390625
875		144.531250
876		150.390625
877		144.531250
878		150.390625
879		144.531250
880		150.390625
881		142.578125
882		150.390625
883		142.578125
884		150.390625
885		142.578125
886		150.390625
887		144.531250
888		148.437500
889		142.578125
890		146.484375
891		142.578125
892		146.484375
893		140.625000
894		146.484375
895		140.625000
896		146.484375
897		138.671875
898		144.531250
899		136.718750
900		144.531250
901		136.718750
902		142.578125
903		136.718750
904		140.625000
905		134.765625
906		138.671875
907		132.812500
908		136.718750
909		130.859375
910		138.671875
911		128.906250
912		134.765625
913		126.953125
914		134.765625
915		125.000000
916		132.812500
917		123.046875
918		128.906250
919		121.093750
920		128.906250
921		119.140625
922		125.000000
923		117.187500
924		123.046875
925		113.281250
926		121.093750
927		113.281250
928		119.140625
929		109.375000
930		117.187500
931		105.468750
932		115.234375
933		103.515625
934		111.328125
935		101.562500
936		109.375000
937		99.609375
938		105.468750
939		95.703125
940		101.562500
941		93.750000
942		99.609375
943		89.843750
944		97.656250
945		87.890625
946		93.750000
947		83.984375
948		89.843750
949		80.078125
950		85.937500
951		76.171875
952		83.984375
953		74.218750
954		80.078125
955		68.359375
956		76.171875
957		66.406250
958		72.265625
959		60.546875
960		70.312500
961		56.640625
962		64.453125
963		54.687500
964		60.546875
965		50.781250
966		58.593750
967		44.921875
968		52.734375
969		41.015625
970		48.828125
971		39.062500
972		44.921875
973		33.203125
974		41.015625
975		27.343750
976		35.156250
977		23.437500
978		33.203125
979		19.531250
980		29.296875
981		15.625000
982		25.390625
983		9.765625
984		19.531250
985		5.859375
986		15.625000
987		3.906250
988		11.718750
989		-1.953125
990		5.859375
991		-5.859375
992		0.000000
993		-11.718750
994		-3.906250
995		-17.578125
996		-7.812500
997		-21.484375
998		-11.718750
999		-25.390625
1000		-17.578125
1001		-29.296875
1002		-21.484375
1003		-33.203125
1004		-25.390625
1005		-37.109375
1006		-31.250000
1007		-42.968750
1008		-35.156250
1009		-46.875000
1010		-41.015625
1011		-52.734375
1012		-42.968750
1013		-56.640625
1014		-46.875000
1015		-62.500000
1016		-52.734375
1017		-66.406250
1018		-56.640625
1019		-72.265625
1020		-62.500000
1021		-74.218750
1022		-66.406250
1023		-78.125000
1024		-72.265625
1025		-83.984375
1026		-76.171875
1027		-87.890625
1028		-78.125000
1029		-93.750000
1030		-83.984375
1031		-97.656250
1032		-87.890625
1033		-99.609375
1034		-91.796875
1035		-105.468750
1036		-95.703125
1037		-107.421875
1038		-99.609375
1039		-111.328125
1040		-105.468750
1041		-115.234375
1042		-109.375000
1043		-121.093750
1044		-111.328125
1045		-125.000000
1046		-115.234375
1047		-126.953125
1048		-119.140625
1049		-132.812500
1050		-123.046875
1051		-136.718750
1052		-126.953125
1053		-138.671875
1054		-130.859375
1055		-140.625000
1056		-134.765625
1057		-144.531250
1058		-138.671875
1059		-148.437500
1060		-140.625000
1061		-152.343750
1062		-144.531250
1063		-154.296875
1064		-146.484375
1065		-156.250000
1066		-148.437500
1067		-160.156250
1068		-152.343750
1069		-162.109375
1070		-154.296875
1071		-164.062500
1072		-158.203125
1073		-166.015625
1074		-162.109375
1075		-169.921875
1076		-164.062500
1077		-171.875000
1078		-166.015625
1079		-173.828125
1080		-166.015625
1081		-177.734375
1082		-167.968750
1083		-177.734375
1084		-171.875000
1085		-179.687500
1086		-173.828125
1087		-181.640625
1088		-173.828125
1089		-181.640625
1090		-177.734375
1091		-181.640625
1092		-177.734375
1093		-185.546875
1094		-177.734375
1095		-185.546875
1096		-179.687500
1097		-187.500000
1098		-179.687500
1099		-189.453125
1100		-181.640625
1101		-187.500000
1102		-181.640625
1103		-189.453125
1104		-181.640625
1105		-187.500000
1106		-183.593750
1107		-187.500000
1108		-183.593750
1109		-189.453125
1110		-183.593750
1111		-189.453125
1112		-183.593750
1113		-189.453125
1114		-183.593750
1115		-189.453125
1116		-181.640625
1117		-189.453125
1118		-181.640625
1119		-187.500000
1120		-181.640625
1121		-187.500000
1122		-181.640625
1123		-183.593750
1124		-181.640625
1125		-183.593750
1126		-179.687500
1127		-183.593750
1128		-177.734375
1129		-183.593750
1130		-175.781250
1131		-181.640625
1132		-173.828125
1133		-179.687500
1134		-171.875000
1135		-177.734375
1136		-169.921875
1137		-175.781250
1138		-169.921875
1139		-173.828125
1140		-167.968750
1141		-169.921875
1142		-166.015625
1143		-167.968750
1144		-162.109375
1145		-167.968750
1146		-158.203125
1147		-166.015625
1148		-156.250000
1149		-162.109375
1150		-154.296875
1151		-160.156250
1152		-152.343750
1153		-158.203125
1154		-148.437500
1155		-154.296875
1156		-146.484375
1157		-148.437500
1158		-142.578125
1159		-146.484375
1160		-140.625000
1161		-144.531250
1162		-136.718750
1163		-140.625000
1164		-132.812500
1165		-136.718750
1166		-128.906250
1167		-132.812500
1168		-123.046875
1169		-130.859375
1170		-121.093750
1171		-126.953125
1172		-119.140625
1173		-121.093750
1174		-115.234375
1175		-117.187500
1176		-111.328125
1177		-113.281250
1178		-105.468750
1179		-109.375000
1180		-101.562500
1181		-105.468750
1182		-97.656250
1183		-101.562500
1184		-93.750000
1185		-97.656250
1186		-87.890625
1187		-93.750000
1188		-83.984375
1189		-87.890625
1190		-80.078125
1191		-82.031250
1192		-76.171875
1193		-78.125000
1194		-70.312500
1195		-76.171875
1196		-66.406250
1197		-72.265625
1198		-60.546875
1199		-66.406250
1200		-56.640625
1201		-62.500000
1202		-52.734375
1203		-56.640625
1204		-46.875000
1205		-52.734375
1206		-42.968750
1207		-46.875000
1208		-39.062500
1209		-41.015625
1210		-35.156250
1211		-37.109375
1212		-29.296875
1213		-33.203125
1214		-23.437500
1215		-29.296875
1216		-19.531250
1217		-25.390625
1218		-13.671875
1219		-19.531250
