Old_data/metingen laweit/1000Hz, 66.4cm/data_81_m530.txt

Channel              :		CH1
Frequency            :		1.061kHz
Period               :		0.942ms
PK-PK                :		275.4mV
Probe attenuation    :		1X
Voltage per ADC value:		0.122070mV
Time interval        :		2.00000us

index		CH1_Voltage(mV)
1		89.843750
2		89.843750
3		82.031250
4		87.890625
5		80.078125
6		83.984375
7		76.171875
8		82.031250
9		74.218750
10		80.078125
11		72.265625
12		78.125000
13		68.359375
14		74.218750
15		66.406250
16		70.312500
17		62.500000
18		68.359375
19		58.593750
20		64.453125
21		56.640625
22		62.500000
23		52.734375
24		58.593750
25		50.781250
26		56.640625
27		46.875000
28		52.734375
29		44.921875
30		50.781250
31		41.015625
32		46.875000
33		37.109375
34		42.968750
35		33.203125
36		41.015625
37		31.250000
38		37.109375
39		27.343750
40		33.203125
41		23.437500
42		29.296875
43		21.484375
44		25.390625
45		17.578125
46		23.437500
47		13.671875
48		19.531250
49		9.765625
50		15.625000
51		5.859375
52		13.671875
53		3.906250
54		9.765625
55		0.000000
56		5.859375
57		-3.906250
58		1.953125
59		-7.812500
60		-1.953125
61		-11.718750
62		-5.859375
63		-15.625000
64		-7.812500
65		-17.578125
66		-11.718750
67		-21.484375
68		-15.625000
69		-25.390625
70		-19.531250
71		-29.296875
72		-23.437500
73		-31.250000
74		-27.343750
75		-35.156250
76		-29.296875
77		-39.062500
78		-33.203125
79		-42.968750
80		-37.109375
81		-46.875000
82		-41.015625
83		-48.828125
84		-42.968750
85		-52.734375
86		-46.875000
87		-56.640625
88		-50.781250
89		-58.593750
90		-54.687500
91		-62.500000
92		-56.640625
93		-66.406250
94		-60.546875
95		-70.312500
96		-62.500000
97		-72.265625
98		-66.406250
99		-74.218750
100		-70.312500
101		-78.125000
102		-72.265625
103		-80.078125
104		-76.171875
105		-83.984375
106		-78.125000
107		-85.937500
108		-82.031250
109		-89.843750
110		-83.984375
111		-91.796875
112		-85.937500
113		-95.703125
114		-89.843750
115		-97.656250
116		-91.796875
117		-99.609375
118		-95.703125
119		-101.562500
120		-97.656250
121		-105.468750
122		-99.609375
123		-107.421875
124		-101.562500
125		-109.375000
126		-103.515625
127		-111.328125
128		-105.468750
129		-113.281250
130		-107.421875
131		-115.234375
132		-109.375000
133		-117.187500
134		-111.328125
135		-119.140625
136		-113.281250
137		-119.140625
138		-115.234375
139		-121.093750
140		-117.187500
141		-123.046875
142		-119.140625
143		-125.000000
144		-119.140625
145		-125.000000
146		-121.093750
147		-126.953125
148		-123.046875
149		-126.953125
150		-123.046875
151		-128.906250
152		-125.000000
153		-130.859375
154		-125.000000
155		-130.859375
156		-126.953125
157		-130.859375
158		-126.953125
159		-130.859375
160		-126.953125
161		-132.812500
162		-128.906250
163		-132.812500
164		-128.906250
165		-132.812500
166		-128.906250
167		-132.812500
168		-128.906250
169		-134.765625
170		-128.906250
171		-132.812500
172		-128.906250
173		-132.812500
174		-128.906250
175		-132.812500
176		-128.906250
177		-132.812500
178		-128.906250
179		-132.812500
180		-126.953125
181		-130.859375
182		-126.953125
183		-130.859375
184		-126.953125
185		-128.906250
186		-125.000000
187		-128.906250
188		-125.000000
189		-126.953125
190		-123.046875
191		-126.953125
192		-123.046875
193		-125.000000
194		-121.093750
195		-125.000000
196		-119.140625
197		-123.046875
198		-119.140625
199		-121.093750
200		-117.187500
201		-119.140625
202		-115.234375
203		-117.187500
204		-113.281250
205		-115.234375
206		-111.328125
207		-113.281250
208		-109.375000
209		-113.281250
210		-107.421875
211		-109.375000
212		-105.468750
213		-107.421875
214		-103.515625
215		-105.468750
216		-101.562500
217		-103.515625
218		-97.656250
219		-101.562500
220		-95.703125
221		-99.609375
222		-93.750000
223		-95.703125
224		-89.843750
225		-93.750000
226		-87.890625
227		-89.843750
228		-85.937500
229		-87.890625
230		-82.031250
231		-83.984375
232		-80.078125
233		-82.031250
234		-76.171875
235		-80.078125
236		-74.218750
237		-76.171875
238		-70.312500
239		-74.218750
240		-66.406250
241		-70.312500
242		-64.453125
243		-66.406250
244		-60.546875
245		-64.453125
246		-56.640625
247		-60.546875
248		-54.687500
249		-56.640625
250		-50.781250
251		-52.734375
252		-46.875000
253		-48.828125
254		-42.968750
255		-46.875000
256		-39.062500
257		-42.968750
258		-37.109375
259		-39.062500
260		-33.203125
261		-35.156250
262		-29.296875
263		-33.203125
264		-25.390625
265		-29.296875
266		-23.437500
267		-25.390625
268		-19.531250
269		-21.484375
270		-15.625000
271		-17.578125
272		-11.718750
273		-15.625000
274		-7.812500
275		-11.718750
276		-3.906250
277		-7.812500
278		-1.953125
279		-3.906250
280		1.953125
281		0.000000
282		5.859375
283		1.953125
284		9.765625
285		7.812500
286		11.718750
287		9.765625
288		15.625000
289		13.671875
290		19.531250
291		17.578125
292		23.437500
293		21.484375
294		27.343750
295		23.437500
296		29.296875
297		27.343750
298		33.203125
299		31.250000
300		37.109375
301		35.156250
302		39.062500
303		37.109375
304		42.968750
305		41.015625
306		46.875000
307		44.921875
308		48.828125
309		46.875000
310		52.734375
311		50.781250
312		54.687500
313		52.734375
314		58.593750
315		56.640625
316		62.500000
317		58.593750
318		66.406250
319		62.500000
320		68.359375
321		64.453125
322		70.312500
323		68.359375
324		74.218750
325		70.312500
326		76.171875
327		72.265625
328		80.078125
329		76.171875
330		82.031250
331		78.125000
332		83.984375
333		82.031250
334		85.937500
335		83.984375
336		89.843750
337		85.937500
338		91.796875
339		87.890625
340		93.750000
341		91.796875
342		95.703125
343		91.796875
344		99.609375
345		95.703125
346		101.562500
347		97.656250
348		101.562500
349		99.609375
350		105.468750
351		101.562500
352		105.468750
353		103.515625
354		107.421875
355		105.468750
356		109.375000
357		107.421875
358		111.328125
359		105.468750
360		115.234375
361		109.375000
362		115.234375
363		111.328125
364		117.187500
365		113.281250
366		117.187500
367		115.234375
368		119.140625
369		117.187500
370		121.093750
371		117.187500
372		123.046875
373		119.140625
374		123.046875
375		119.140625
376		126.953125
377		119.140625
378		126.953125
379		119.140625
380		126.953125
381		123.046875
382		126.953125
383		123.046875
384		126.953125
385		125.000000
386		128.906250
387		125.000000
388		128.906250
389		125.000000
390		130.859375
391		123.046875
392		132.812500
393		125.000000
394		130.859375
395		126.953125
396		130.859375
397		126.953125
398		132.812500
399		126.953125
400		130.859375
401		126.953125
402		132.812500
403		128.906250
404		130.859375
405		126.953125
406		132.812500
407		126.953125
408		132.812500
409		125.000000
410		132.812500
411		126.953125
412		132.812500
413		126.953125
414		132.812500
415		126.953125
416		130.859375
417		126.953125
418		130.859375
419		126.953125
420		130.859375
421		125.000000
422		128.906250
423		123.046875
424		130.859375
425		121.093750
426		130.859375
427		121.093750
428		128.906250
429		121.093750
430		126.953125
431		121.093750
432		126.953125
433		119.140625
434		125.000000
435		119.140625
436		123.046875
437		119.140625
438		121.093750
439		115.234375
440		123.046875
441		113.281250
442		121.093750
443		113.281250
444		119.140625
445		111.328125
446		119.140625
447		109.375000
448		117.187500
449		107.421875
450		117.187500
451		107.421875
452		111.328125
453		105.468750
454		109.375000
455		101.562500
456		109.375000
457		101.562500
458		107.421875
459		97.656250
460		105.468750
461		95.703125
462		103.515625
463		93.750000
464		101.562500
465		91.796875
466		99.609375
467		89.843750
468		97.656250
469		89.843750
470		93.750000
471		85.937500
472		91.796875
473		83.984375
474		89.843750
475		80.078125
476		89.843750
477		76.171875
478		83.984375
479		74.218750
480		82.031250
481		72.265625
482		80.078125
483		68.359375
484		78.125000
485		68.359375
486		74.218750
487		64.453125
488		70.312500
489		60.546875
490		66.406250
491		56.640625
492		66.406250
493		54.687500
494		62.500000
495		50.781250
496		60.546875
497		48.828125
498		56.640625
499		44.921875
500		54.687500
501		42.968750
502		48.828125
503		39.062500
504		44.921875
505		37.109375
506		42.968750
507		31.250000
508		39.062500
509		29.296875
510		35.156250
511		25.390625
512		35.156250
513		21.484375
514		31.250000
515		17.578125
516		27.343750
517		15.625000
518		23.437500
519		13.671875
520		19.531250
521		9.765625
522		15.625000
523		3.906250
524		11.718750
525		1.953125
526		9.765625
527		-3.906250
528		5.859375
529		-7.812500
530		1.953125
531		-11.718750
532		-1.953125
533		-13.671875
534		-3.906250
535		-15.625000
536		-7.812500
537		-19.531250
538		-13.671875
539		-25.390625
540		-17.578125
541		-27.343750
542		-17.578125
543		-31.250000
544		-21.484375
545		-35.156250
546		-27.343750
547		-39.062500
548		-29.296875
549		-41.015625
550		-33.203125
551		-44.921875
552		-35.156250
553		-46.875000
554		-41.015625
555		-50.781250
556		-44.921875
557		-54.687500
558		-46.875000
559		-58.593750
560		-50.781250
561		-62.500000
562		-52.734375
563		-64.453125
564		-56.640625
565		-70.312500
566		-58.593750
567		-72.265625
568		-62.500000
569		-72.265625
570		-66.406250
571		-76.171875
572		-70.312500
573		-82.031250
574		-72.265625
575		-83.984375
576		-74.218750
577		-87.890625
578		-78.125000
579		-87.890625
580		-80.078125
581		-93.750000
582		-83.984375
583		-95.703125
584		-85.937500
585		-95.703125
586		-89.843750
587		-97.656250
588		-93.750000
589		-99.609375
590		-95.703125
591		-105.468750
592		-95.703125
593		-107.421875
594		-97.656250
595		-109.375000
596		-99.609375
597		-111.328125
598		-103.515625
599		-113.281250
600		-105.468750
601		-115.234375
602		-107.421875
603		-115.234375
604		-111.328125
605		-117.187500
606		-113.281250
607		-121.093750
608		-113.281250
609		-121.093750
610		-115.234375
611		-125.000000
612		-115.234375
613		-125.000000
614		-117.187500
615		-126.953125
616		-119.140625
617		-126.953125
618		-119.140625
619		-128.906250
620		-121.093750
621		-128.906250
622		-125.000000
623		-130.859375
624		-125.000000
625		-132.812500
626		-123.046875
627		-132.812500
628		-125.000000
629		-132.812500
630		-126.953125
631		-134.765625
632		-126.953125
633		-134.765625
634		-126.953125
635		-134.765625
636		-126.953125
637		-132.812500
638		-128.906250
639		-132.812500
640		-128.906250
641		-134.765625
642		-126.953125
643		-134.765625
644		-126.953125
645		-134.765625
646		-126.953125
647		-134.765625
648		-126.953125
649		-134.765625
650		-126.953125
651		-132.812500
652		-126.953125
653		-130.859375
654		-126.953125
655		-130.859375
656		-126.953125
657		-130.859375
658		-123.046875
659		-130.859375
660		-123.046875
661		-128.906250
662		-123.046875
663		-128.906250
664		-121.093750
665		-126.953125
666		-119.140625
667		-125.000000
668		-117.187500
669		-125.000000
670		-117.187500
671		-121.093750
672		-117.187500
673		-119.140625
674		-115.234375
675		-119.140625
676		-111.328125
677		-119.140625
678		-109.375000
679		-115.234375
680		-107.421875
681		-113.281250
682		-105.468750
683		-111.328125
684		-103.515625
685		-109.375000
686		-101.562500
687		-105.468750
688		-99.609375
689		-103.515625
690		-97.656250
691		-101.562500
692		-93.750000
693		-99.609375
694		-91.796875
695		-97.656250
696		-87.890625
697		-93.750000
698		-85.937500
699		-91.796875
700		-83.984375
701		-89.843750
702		-82.031250
703		-85.937500
704		-80.078125
705		-82.031250
706		-76.171875
707		-78.125000
708		-72.265625
709		-78.125000
710		-68.359375
711		-74.218750
712		-66.406250
713		-70.312500
714		-62.500000
715		-68.359375
716		-58.593750
717		-64.453125
718		-56.640625
719		-60.546875
720		-52.734375
721		-56.640625
722		-50.781250
723		-52.734375
724		-46.875000
725		-50.781250
726		-41.015625
727		-48.828125
728		-39.062500
729		-42.968750
730		-35.156250
731		-41.015625
732		-31.250000
733		-37.109375
734		-27.343750
735		-33.203125
736		-23.437500
737		-29.296875
738		-21.484375
739		-25.390625
740		-19.531250
741		-21.484375
742		-13.671875
743		-19.531250
744		-9.765625
745		-15.625000
746		-7.812500
747		-13.671875
748		-1.953125
749		-7.812500
750		1.953125
751		-3.906250
752		3.906250
753		0.000000
754		5.859375
755		3.906250
756		9.765625
757		7.812500
758		13.671875
759		9.765625
760		19.531250
761		13.671875
762		21.484375
763		15.625000
764		25.390625
765		19.531250
766		29.296875
767		23.437500
768		31.250000
769		27.343750
770		35.156250
771		31.250000
772		37.109375
773		35.156250
774		41.015625
775		37.109375
776		44.921875
777		41.015625
778		48.828125
779		42.968750
780		52.734375
781		46.875000
782		54.687500
783		48.828125
784		56.640625
785		52.734375
786		60.546875
787		56.640625
788		62.500000
789		60.546875
790		66.406250
791		62.500000
792		70.312500
793		64.453125
794		72.265625
795		66.406250
796		76.171875
797		70.312500
798		78.125000
799		72.265625
800		80.078125
801		74.218750
802		83.984375
803		78.125000
804		85.937500
805		82.031250
806		87.890625
807		83.984375
808		89.843750
809		85.937500
810		93.750000
811		87.890625
812		97.656250
813		89.843750
814		97.656250
815		91.796875
816		99.609375
817		93.750000
818		103.515625
819		95.703125
820		105.468750
821		97.656250
822		105.468750
823		101.562500
824		107.421875
825		103.515625
826		109.375000
827		103.515625
828		111.328125
829		105.468750
830		113.281250
831		107.421875
832		115.234375
833		109.375000
834		117.187500
835		109.375000
836		117.187500
837		111.328125
838		119.140625
839		115.234375
840		119.140625
841		117.187500
842		121.093750
843		117.187500
844		123.046875
845		117.187500
846		125.000000
847		119.140625
848		125.000000
849		119.140625
850		126.953125
851		119.140625
852		126.953125
853		121.093750
854		128.906250
855		123.046875
856		128.906250
857		125.000000
858		128.906250
859		123.046875
860		130.859375
861		125.000000
862		130.859375
863		125.000000
864		132.812500
865		125.000000
866		132.812500
867		125.000000
868		132.812500
869		125.000000
870		132.812500
871		126.953125
872		134.765625
873		128.906250
874		130.859375
875		128.906250
876		132.812500
877		125.000000
878		134.765625
879		125.000000
880		132.812500
881		125.000000
882		132.812500
883		125.000000
884		132.812500
885		125.000000
886		132.812500
887		125.000000
888		132.812500
889		126.953125
890		130.859375
891		126.953125
892		128.906250
893		123.046875
894		130.859375
895		123.046875
896		128.906250
897		123.046875
898		128.906250
899		121.093750
900		128.906250
901		119.140625
902		126.953125
903		119.140625
904		126.953125
905		119.140625
906		125.000000
907		119.140625
908		123.046875
909		115.234375
910		123.046875
911		113.281250
912		123.046875
913		113.281250
914		121.093750
915		111.328125
916		119.140625
917		111.328125
918		117.187500
919		109.375000
920		117.187500
921		107.421875
922		115.234375
923		107.421875
924		111.328125
925		105.468750
926		109.375000
927		101.562500
928		109.375000
929		99.609375
930		107.421875
931		97.656250
932		107.421875
933		95.703125
934		103.515625
935		93.750000
936		101.562500
937		91.796875
938		97.656250
939		91.796875
940		95.703125
941		87.890625
942		93.750000
943		85.937500
944		91.796875
945		82.031250
946		89.843750
947		80.078125
948		85.937500
949		78.125000
950		83.984375
951		74.218750
952		82.031250
953		72.265625
954		80.078125
955		68.359375
956		76.171875
957		66.406250
958		72.265625
959		64.453125
960		70.312500
961		60.546875
962		68.359375
963		56.640625
964		64.453125
965		54.687500
966		62.500000
967		50.781250
968		60.546875
969		46.875000
970		56.640625
971		44.921875
972		52.734375
973		42.968750
974		48.828125
975		39.062500
976		44.921875
977		33.203125
978		41.015625
979		31.250000
980		39.062500
981		29.296875
982		37.109375
983		23.437500
984		33.203125
985		19.531250
986		29.296875
987		17.578125
988		25.390625
989		15.625000
990		23.437500
991		11.718750
992		17.578125
993		5.859375
994		13.671875
995		3.906250
996		11.718750
997		0.000000
998		9.765625
999		-3.906250
1000		3.906250
1001		-7.812500
1002		0.000000
1003		-9.765625
1004		-1.953125
1005		-13.671875
1006		-5.859375
1007		-15.625000
1008		-9.765625
1009		-19.531250
1010		-13.671875
1011		-23.437500
1012		-15.625000
1013		-29.296875
1014		-17.578125
1015		-33.203125
1016		-23.437500
1017		-35.156250
1018		-27.343750
1019		-39.062500
1020		-31.250000
1021		-44.921875
1022		-33.203125
1023		-44.921875
1024		-39.062500
1025		-46.875000
1026		-41.015625
1027		-50.781250
1028		-44.921875
1029		-56.640625
1030		-46.875000
1031		-58.593750
1032		-50.781250
1033		-64.453125
1034		-52.734375
1035		-66.406250
1036		-56.640625
1037		-68.359375
1038		-60.546875
1039		-72.265625
1040		-64.453125
1041		-74.218750
1042		-68.359375
1043		-76.171875
1044		-70.312500
1045		-82.031250
1046		-72.265625
1047		-83.984375
1048		-76.171875
1049		-85.937500
1050		-78.125000
1051		-89.843750
1052		-80.078125
1053		-91.796875
1054		-83.984375
1055		-95.703125
1056		-85.937500
1057		-95.703125
1058		-91.796875
1059		-99.609375
1060		-93.750000
1061		-103.515625
1062		-95.703125
1063		-105.468750
1064		-97.656250
1065		-107.421875
1066		-99.609375
1067		-111.328125
1068		-101.562500
1069		-113.281250
1070		-105.468750
1071		-115.234375
1072		-107.421875
1073		-115.234375
1074		-109.375000
1075		-117.187500
1076		-111.328125
1077		-119.140625
1078		-113.281250
1079		-123.046875
1080		-113.281250
1081		-123.046875
1082		-115.234375
1083		-125.000000
1084		-117.187500
1085		-126.953125
1086		-119.140625
1087		-128.906250
1088		-119.140625
1089		-128.906250
1090		-121.093750
1091		-128.906250
1092		-123.046875
1093		-128.906250
1094		-125.000000
1095		-132.812500
1096		-125.000000
1097		-132.812500
1098		-125.000000
1099		-134.765625
1100		-126.953125
1101		-134.765625
1102		-126.953125
1103		-134.765625
1104		-126.953125
1105		-134.765625
1106		-128.906250
1107		-134.765625
1108		-128.906250
1109		-132.812500
1110		-130.859375
1111		-134.765625
1112		-126.953125
1113		-136.718750
1114		-128.906250
1115		-136.718750
1116		-128.906250
1117		-134.765625
1118		-128.906250
1119		-134.765625
1120		-126.953125
1121		-134.765625
1122		-126.953125
1123		-134.765625
1124		-126.953125
1125		-132.812500
1126		-128.906250
1127		-130.859375
1128		-126.953125
1129		-132.812500
1130		-125.000000
1131		-130.859375
1132		-123.046875
1133		-128.906250
1134		-123.046875
1135		-128.906250
1136		-121.093750
1137		-128.906250
1138		-119.140625
1139		-126.953125
1140		-119.140625
1141		-123.046875
1142		-119.140625
1143		-121.093750
1144		-117.187500
1145		-121.093750
1146		-115.234375
1147		-121.093750
1148		-113.281250
1149		-119.140625
1150		-109.375000
1151		-117.187500
1152		-107.421875
1153		-115.234375
1154		-105.468750
1155		-111.328125
1156		-103.515625
1157		-111.328125
1158		-103.515625
1159		-105.468750
1160		-101.562500
1161		-103.515625
1162		-97.656250
1163		-103.515625
1164		-95.703125
1165		-101.562500
1166		-91.796875
1167		-97.656250
1168		-89.843750
1169		-95.703125
1170		-87.890625
1171		-93.750000
1172		-83.984375
1173		-87.890625
1174		-82.031250
1175		-85.937500
1176		-80.078125
1177		-82.031250
1178		-76.171875
1179		-80.078125
1180		-72.265625
1181		-78.125000
1182		-68.359375
1183		-74.218750
1184		-66.406250
1185		-72.265625
1186		-64.453125
1187		-68.359375
1188		-58.593750
1189		-64.453125
1190		-56.640625
1191		-60.546875
1192		-54.687500
1193		-56.640625
1194		-50.781250
1195		-52.734375
1196		-46.875000
1197		-52.734375
1198		-41.015625
1199		-46.875000
1200		-39.062500
1201		-44.921875
1202		-35.156250
1203		-41.015625
1204		-31.250000
1205		-37.109375
1206		-29.296875
1207		-33.203125
1208		-25.390625
1209		-29.296875
1210		-23.437500
1211		-25.390625
1212		-19.531250
1213		-23.437500
1214		-13.671875
1215		-19.531250
1216		-9.765625
1217		-17.578125
1218		-5.859375
1219		-11.718750
1220		-3.906250
1221		-7.812500
1222		0.000000
1223		-5.859375
1224		3.906250
1225		-1.953125
1226		5.859375
1227		3.906250
1228		9.765625
1229		7.812500
1230		13.671875
1231		7.812500
1232		17.578125
1233		11.718750
1234		21.484375
