metingen laweit/1000Hz, 66.4cm/shitty data/data_81_m256.txt

Channel              :		CH1
Frequency            :		918.1Hz
Period               :		1.089ms
PK-PK                :		33.20mV
Probe attenuation    :		1X
Voltage per ADC value:		0.122070mV
Time interval        :		2.00000us

index		CH1_Voltage(mV)
1		-1.953125
2		-1.953125
3		1.953125
4		-3.906250
5		1.953125
6		-1.953125
7		0.000000
8		-3.906250
9		0.000000
10		-3.906250
11		0.000000
12		-3.906250
13		0.000000
14		-3.906250
15		0.000000
16		-3.906250
17		0.000000
18		-3.906250
19		0.000000
20		-3.906250
21		0.000000
22		-3.906250
23		-1.953125
24		-3.906250
25		-1.953125
26		-3.906250
27		-1.953125
28		-3.906250
29		-1.953125
30		-5.859375
31		-1.953125
32		-5.859375
33		-1.953125
34		-5.859375
35		-1.953125
36		-5.859375
37		-1.953125
38		-5.859375
39		-1.953125
40		-5.859375
41		-1.953125
42		-5.859375
43		-1.953125
44		-5.859375
45		-1.953125
46		-5.859375
47		-1.953125
48		-5.859375
49		-1.953125
50		-5.859375
51		-1.953125
52		-5.859375
53		-1.953125
54		-5.859375
55		-1.953125
56		-5.859375
57		-1.953125
58		-5.859375
59		-1.953125
60		-5.859375
61		-1.953125
62		-5.859375
63		-1.953125
64		-5.859375
65		-1.953125
66		-5.859375
67		-1.953125
68		-5.859375
69		-1.953125
70		-5.859375
71		-1.953125
72		-5.859375
73		-1.953125
74		-5.859375
75		-1.953125
76		-5.859375
77		-1.953125
78		-5.859375
79		-1.953125
80		-5.859375
81		-1.953125
82		-5.859375
83		-1.953125
84		-5.859375
85		-1.953125
86		-5.859375
87		-1.953125
88		-5.859375
89		-1.953125
90		-5.859375
91		-1.953125
92		-5.859375
93		-1.953125
94		-5.859375
95		-1.953125
96		-3.906250
97		-1.953125
98		-5.859375
99		-1.953125
100		-3.906250
101		-1.953125
102		-3.906250
103		-1.953125
104		-3.906250
105		-1.953125
106		-3.906250
107		-1.953125
108		-3.906250
109		0.000000
110		-3.906250
111		0.000000
112		-3.906250
113		0.000000
114		-3.906250
115		0.000000
116		-3.906250
117		0.000000
118		-3.906250
119		0.000000
120		-1.953125
121		0.000000
122		-3.906250
123		0.000000
124		-3.906250
125		0.000000
126		-1.953125
127		1.953125
128		-1.953125
129		0.000000
130		-1.953125
131		1.953125
132		-1.953125
133		1.953125
134		-1.953125
135		1.953125
136		-1.953125
137		1.953125
138		-1.953125
139		1.953125
140		-1.953125
141		1.953125
142		-1.953125
143		3.906250
144		0.000000
145		1.953125
146		0.000000
147		1.953125
148		0.000000
149		3.906250
150		0.000000
151		3.906250
152		0.000000
153		3.906250
154		0.000000
155		3.906250
156		1.953125
157		3.906250
158		1.953125
159		3.906250
160		1.953125
161		3.906250
162		1.953125
163		3.906250
164		1.953125
165		5.859375
166		1.953125
167		5.859375
168		1.953125
169		5.859375
170		1.953125
171		5.859375
172		3.906250
173		5.859375
174		3.906250
175		7.812500
176		3.906250
177		7.812500
178		3.906250
179		7.812500
180		3.906250
181		7.812500
182		3.906250
183		7.812500
184		3.906250
185		7.812500
186		3.906250
187		7.812500
188		3.906250
189		7.812500
190		5.859375
191		9.765625
192		5.859375
193		9.765625
194		5.859375
195		9.765625
196		5.859375
197		9.765625
198		5.859375
199		9.765625
200		5.859375
201		9.765625
202		5.859375
203		9.765625
204		7.812500
205		9.765625
206		7.812500
207		11.718750
208		7.812500
209		11.718750
210		7.812500
211		11.718750
212		7.812500
213		11.718750
214		7.812500
215		11.718750
216		9.765625
217		13.671875
218		9.765625
219		13.671875
220		9.765625
221		13.671875
222		9.765625
223		13.671875
224		9.765625
225		13.671875
226		9.765625
227		13.671875
228		11.718750
229		13.671875
230		11.718750
231		13.671875
232		9.765625
233		13.671875
234		11.718750
235		15.625000
236		11.718750
237		15.625000
238		11.718750
239		15.625000
240		11.718750
241		15.625000
242		11.718750
243		15.625000
244		11.718750
245		15.625000
246		13.671875
247		15.625000
248		13.671875
249		17.578125
250		11.718750
251		15.625000
252		13.671875
253		17.578125
254		13.671875
255		17.578125
256		13.671875
257		17.578125
258		13.671875
259		17.578125
260		13.671875
261		17.578125
262		13.671875
263		17.578125
264		13.671875
265		17.578125
266		13.671875
267		19.531250
268		15.625000
269		17.578125
270		15.625000
271		17.578125
272		15.625000
273		17.578125
274		15.625000
275		19.531250
276		15.625000
277		19.531250
278		15.625000
279		19.531250
280		15.625000
281		19.531250
282		15.625000
283		19.531250
284		15.625000
285		19.531250
286		15.625000
287		19.531250
288		15.625000
289		19.531250
290		15.625000
291		19.531250
292		15.625000
293		19.531250
294		15.625000
295		19.531250
296		15.625000
297		19.531250
298		17.578125
299		19.531250
300		15.625000
301		19.531250
302		15.625000
303		19.531250
304		15.625000
305		19.531250
306		15.625000
307		19.531250
308		15.625000
309		19.531250
310		15.625000
311		21.484375
312		15.625000
313		19.531250
314		17.578125
315		19.531250
316		15.625000
317		19.531250
318		15.625000
319		19.531250
320		15.625000
321		19.531250
322		15.625000
323		19.531250
324		15.625000
325		19.531250
326		15.625000
327		19.531250
328		15.625000
329		19.531250
330		15.625000
331		19.531250
332		15.625000
333		19.531250
334		15.625000
335		19.531250
336		15.625000
337		19.531250
338		15.625000
339		19.531250
340		15.625000
341		19.531250
342		15.625000
343		19.531250
344		15.625000
345		17.578125
346		15.625000
347		17.578125
348		15.625000
349		17.578125
350		13.671875
351		19.531250
352		13.671875
353		17.578125
354		15.625000
355		17.578125
356		13.671875
357		17.578125
358		13.671875
359		17.578125
360		13.671875
361		17.578125
362		13.671875
363		17.578125
364		13.671875
365		17.578125
366		11.718750
367		17.578125
368		13.671875
369		15.625000
370		13.671875
371		15.625000
372		13.671875
373		15.625000
374		11.718750
375		15.625000
376		11.718750
377		15.625000
378		11.718750
379		15.625000
380		11.718750
381		15.625000
382		9.765625
383		15.625000
384		9.765625
385		15.625000
386		11.718750
387		13.671875
388		9.765625
389		13.671875
390		9.765625
391		13.671875
392		9.765625
393		13.671875
394		9.765625
395		13.671875
396		9.765625
397		13.671875
398		9.765625
399		11.718750
400		7.812500
401		13.671875
402		7.812500
403		11.718750
404		7.812500
405		11.718750
406		7.812500
407		11.718750
408		7.812500
409		9.765625
410		7.812500
411		9.765625
412		5.859375
413		9.765625
414		7.812500
415		9.765625
416		5.859375
417		9.765625
418		5.859375
419		9.765625
420		5.859375
421		9.765625
422		5.859375
423		9.765625
424		5.859375
425		7.812500
426		3.906250
427		7.812500
428		3.906250
429		7.812500
430		3.906250
431		7.812500
432		3.906250
433		7.812500
434		1.953125
435		7.812500
436		1.953125
437		7.812500
438		3.906250
439		5.859375
440		1.953125
441		5.859375
442		1.953125
443		5.859375
444		1.953125
445		5.859375
446		1.953125
447		5.859375
448		1.953125
449		3.906250
450		0.000000
451		5.859375
452		0.000000
453		3.906250
454		0.000000
455		3.906250
456		0.000000
457		3.906250
458		0.000000
459		3.906250
460		0.000000
461		1.953125
462		0.000000
463		1.953125
464		0.000000
465		1.953125
466		-1.953125
467		1.953125
468		-1.953125
469		3.906250
470		-1.953125
471		1.953125
472		-1.953125
473		1.953125
474		-1.953125
475		1.953125
476		-1.953125
477		0.000000
478		-1.953125
479		0.000000
480		-3.906250
481		1.953125
482		-3.906250
483		0.000000
484		-3.906250
485		0.000000
486		-3.906250
487		0.000000
488		-5.859375
489		0.000000
490		-3.906250
491		0.000000
492		-3.906250
493		0.000000
494		-3.906250
495		0.000000
496		-3.906250
497		0.000000
498		-3.906250
499		-1.953125
500		-5.859375
501		-1.953125
502		-3.906250
503		-1.953125
504		-5.859375
505		-1.953125
506		-5.859375
507		-1.953125
508		-3.906250
509		-1.953125
510		-5.859375
511		-1.953125
512		-5.859375
513		-1.953125
514		-5.859375
515		-1.953125
516		-5.859375
517		-1.953125
518		-5.859375
519		-1.953125
520		-5.859375
521		-1.953125
522		-5.859375
523		-1.953125
524		-5.859375
525		-1.953125
526		-5.859375
527		-1.953125
528		-5.859375
529		-1.953125
530		-5.859375
531		-1.953125
532		-5.859375
533		-1.953125
534		-5.859375
535		-1.953125
536		-5.859375
537		-1.953125
538		-5.859375
539		-1.953125
540		-5.859375
541		-1.953125
542		-5.859375
543		-1.953125
544		-5.859375
545		-1.953125
546		-5.859375
547		-1.953125
548		-5.859375
549		-1.953125
550		-5.859375
551		-1.953125
552		-5.859375
553		-1.953125
554		-5.859375
555		-1.953125
556		-5.859375
557		-1.953125
558		-5.859375
559		-1.953125
560		-5.859375
561		-1.953125
562		-5.859375
563		-1.953125
564		-5.859375
565		-1.953125
566		-3.906250
567		-1.953125
568		-3.906250
569		-1.953125
570		-5.859375
571		0.000000
572		-3.906250
573		0.000000
574		-3.906250
575		0.000000
576		-3.906250
577		0.000000
578		-3.906250
579		0.000000
580		-3.906250
581		0.000000
582		-3.906250
583		0.000000
584		-3.906250
585		0.000000
586		-3.906250
587		0.000000
588		-3.906250
589		0.000000
590		-3.906250
591		0.000000
592		-3.906250
593		0.000000
594		-1.953125
595		0.000000
596		-1.953125
597		1.953125
598		-1.953125
599		0.000000
600		-1.953125
601		1.953125
602		-1.953125
603		1.953125
604		-1.953125
605		1.953125
606		-1.953125
607		1.953125
608		-1.953125
609		1.953125
610		-1.953125
611		1.953125
612		0.000000
613		3.906250
614		0.000000
615		1.953125
616		0.000000
617		1.953125
618		0.000000
619		3.906250
620		0.000000
621		3.906250
622		0.000000
623		3.906250
624		1.953125
625		3.906250
626		0.000000
627		3.906250
628		0.000000
629		3.906250
630		1.953125
631		3.906250
632		1.953125
633		5.859375
634		1.953125
635		3.906250
636		1.953125
637		5.859375
638		1.953125
639		5.859375
640		1.953125
641		5.859375
642		3.906250
643		5.859375
644		3.906250
645		5.859375
646		3.906250
647		5.859375
648		3.906250
649		7.812500
650		3.906250
651		7.812500
652		3.906250
653		7.812500
654		3.906250
655		7.812500
656		5.859375
657		7.812500
658		5.859375
659		9.765625
660		5.859375
661		9.765625
662		5.859375
663		9.765625
664		5.859375
665		9.765625
666		5.859375
667		9.765625
668		5.859375
669		9.765625
670		7.812500
671		9.765625
672		7.812500
673		9.765625
674		7.812500
675		11.718750
676		7.812500
677		11.718750
678		7.812500
679		11.718750
680		5.859375
681		13.671875
682		7.812500
683		11.718750
684		9.765625
685		11.718750
686		9.765625
687		11.718750
688		9.765625
689		13.671875
690		9.765625
691		13.671875
692		9.765625
693		13.671875
694		9.765625
695		13.671875
696		11.718750
697		13.671875
698		9.765625
699		13.671875
700		11.718750
701		13.671875
702		11.718750
703		13.671875
704		11.718750
705		15.625000
706		11.718750
707		15.625000
708		11.718750
709		15.625000
710		11.718750
711		15.625000
712		11.718750
713		15.625000
714		11.718750
715		15.625000
716		13.671875
717		15.625000
718		13.671875
719		15.625000
720		11.718750
721		17.578125
722		13.671875
723		17.578125
724		13.671875
725		17.578125
726		13.671875
727		17.578125
728		13.671875
729		17.578125
730		13.671875
731		17.578125
732		13.671875
733		17.578125
734		15.625000
735		17.578125
736		15.625000
737		17.578125
738		15.625000
739		17.578125
740		15.625000
741		17.578125
742		15.625000
743		19.531250
744		15.625000
745		19.531250
746		15.625000
747		19.531250
748		15.625000
749		19.531250
750		15.625000
751		19.531250
752		15.625000
753		19.531250
754		15.625000
755		19.531250
756		15.625000
757		19.531250
758		15.625000
759		19.531250
760		15.625000
761		19.531250
762		17.578125
763		19.531250
764		15.625000
765		19.531250
766		17.578125
767		19.531250
768		17.578125
769		19.531250
770		17.578125
771		21.484375
772		15.625000
773		21.484375
774		17.578125
775		21.484375
776		17.578125
777		19.531250
778		17.578125
779		19.531250
780		17.578125
781		21.484375
782		17.578125
783		21.484375
784		17.578125
785		19.531250
786		15.625000
787		19.531250
788		17.578125
789		21.484375
790		15.625000
791		21.484375
792		17.578125
793		19.531250
794		15.625000
795		19.531250
796		17.578125
797		19.531250
798		15.625000
799		19.531250
800		17.578125
801		19.531250
802		17.578125
803		19.531250
804		15.625000
805		19.531250
806		15.625000
807		19.531250
808		15.625000
809		19.531250
810		15.625000
811		19.531250
812		15.625000
813		19.531250
814		15.625000
815		19.531250
816		15.625000
817		19.531250
818		15.625000
819		17.578125
820		13.671875
821		19.531250
822		15.625000
823		17.578125
824		13.671875
825		19.531250
826		15.625000
827		17.578125
828		15.625000
829		17.578125
830		13.671875
831		17.578125
832		13.671875
833		17.578125
834		13.671875
835		17.578125
836		13.671875
837		17.578125
838		13.671875
839		17.578125
840		13.671875
841		17.578125
842		11.718750
843		17.578125
844		13.671875
845		15.625000
846		13.671875
847		15.625000
848		11.718750
849		15.625000
850		11.718750
851		15.625000
852		11.718750
853		15.625000
854		11.718750
855		15.625000
856		11.718750
857		15.625000
858		11.718750
859		13.671875
860		9.765625
861		13.671875
862		9.765625
863		13.671875
864		9.765625
865		13.671875
866		9.765625
867		13.671875
868		9.765625
869		13.671875
870		7.812500
871		13.671875
872		9.765625
873		11.718750
874		9.765625
875		11.718750
876		7.812500
877		11.718750
878		7.812500
879		11.718750
880		7.812500
881		11.718750
882		7.812500
883		9.765625
884		7.812500
885		9.765625
886		7.812500
887		9.765625
888		5.859375
889		9.765625
890		5.859375
891		9.765625
892		5.859375
893		9.765625
894		5.859375
895		7.812500
896		5.859375
897		7.812500
898		3.906250
899		7.812500
900		3.906250
901		7.812500
902		3.906250
903		7.812500
904		3.906250
905		7.812500
906		3.906250
907		7.812500
908		1.953125
909		5.859375
910		1.953125
911		5.859375
912		3.906250
913		5.859375
914		1.953125
915		5.859375
916		1.953125
917		5.859375
918		1.953125
919		3.906250
920		1.953125
921		3.906250
922		1.953125
923		3.906250
924		1.953125
925		3.906250
926		0.000000
927		3.906250
928		0.000000
929		3.906250
930		0.000000
931		3.906250
932		0.000000
933		3.906250
934		0.000000
935		1.953125
936		0.000000
937		1.953125
938		-1.953125
939		1.953125
940		-1.953125
941		1.953125
942		-1.953125
943		1.953125
944		-1.953125
945		1.953125
946		-1.953125
947		1.953125
948		-1.953125
949		1.953125
950		-1.953125
951		0.000000
952		-1.953125
953		0.000000
954		-3.906250
955		0.000000
956		-3.906250
957		0.000000
958		-3.906250
959		0.000000
960		-3.906250
961		0.000000
962		-3.906250
963		0.000000
964		-3.906250
965		0.000000
966		-3.906250
967		0.000000
968		-3.906250
969		0.000000
970		-3.906250
971		0.000000
972		-3.906250
973		-1.953125
974		-3.906250
975		-1.953125
976		-3.906250
977		0.000000
978		-3.906250
979		-1.953125
980		-5.859375
981		-1.953125
982		-3.906250
983		-1.953125
984		-3.906250
985		-1.953125
986		-3.906250
987		-1.953125
988		-5.859375
989		-1.953125
990		-3.906250
991		-1.953125
992		-5.859375
993		-1.953125
994		-5.859375
995		-1.953125
996		-5.859375
997		-1.953125
998		-5.859375
999		-1.953125
1000		-5.859375
1001		-1.953125
1002		-5.859375
1003		-1.953125
1004		-5.859375
1005		-1.953125
1006		-5.859375
1007		-1.953125
1008		-5.859375
1009		-1.953125
1010		-5.859375
1011		-1.953125
1012		-5.859375
1013		-1.953125
1014		-5.859375
1015		-1.953125
1016		-5.859375
1017		-1.953125
1018		-5.859375
1019		-1.953125
1020		-5.859375
1021		-1.953125
1022		-5.859375
1023		-1.953125
1024		-5.859375
1025		-1.953125
1026		-5.859375
1027		-1.953125
1028		-5.859375
1029		-1.953125
1030		-3.906250
1031		-1.953125
1032		-5.859375
1033		-1.953125
1034		-5.859375
1035		-1.953125
1036		-3.906250
1037		-1.953125
1038		-3.906250
1039		-1.953125
1040		-3.906250
1041		-1.953125
1042		-3.906250
1043		-1.953125
1044		-3.906250
1045		-1.953125
1046		-3.906250
1047		0.000000
1048		-3.906250
1049		0.000000
1050		-3.906250
1051		0.000000
1052		-3.906250
1053		0.000000
1054		-3.906250
1055		0.000000
1056		-3.906250
1057		0.000000
1058		-3.906250
1059		0.000000
1060		-1.953125
1061		0.000000
1062		-1.953125
1063		0.000000
1064		-1.953125
1065		0.000000
1066		-1.953125
1067		0.000000
1068		-1.953125
1069		1.953125
1070		-1.953125
1071		1.953125
1072		-1.953125
1073		1.953125
1074		-1.953125
1075		1.953125
1076		0.000000
1077		1.953125
1078		-1.953125
1079		1.953125
1080		-1.953125
1081		1.953125
1082		0.000000
1083		1.953125
1084		0.000000
1085		3.906250
1086		0.000000
1087		1.953125
1088		0.000000
1089		3.906250
1090		0.000000
1091		3.906250
1092		0.000000
1093		3.906250
1094		0.000000
1095		3.906250
1096		1.953125
1097		3.906250
1098		1.953125
1099		3.906250
1100		1.953125
1101		3.906250
1102		1.953125
1103		5.859375
1104		1.953125
1105		5.859375
1106		1.953125
1107		5.859375
1108		1.953125
1109		5.859375
1110		3.906250
1111		5.859375
1112		3.906250
1113		5.859375
1114		3.906250
1115		5.859375
1116		3.906250
1117		7.812500
1118		3.906250
1119		7.812500
1120		3.906250
1121		7.812500
1122		3.906250
1123		7.812500
1124		3.906250
1125		7.812500
1126		5.859375
1127		7.812500
1128		5.859375
1129		7.812500
1130		5.859375
1131		9.765625
1132		5.859375
1133		9.765625
1134		5.859375
1135		9.765625
1136		5.859375
1137		9.765625
1138		7.812500
1139		9.765625
1140		5.859375
1141		9.765625
1142		7.812500
1143		9.765625
1144		7.812500
1145		11.718750
1146		7.812500
1147		11.718750
1148		7.812500
1149		11.718750
1150		7.812500
1151		11.718750
1152		9.765625
1153		11.718750
1154		9.765625
1155		11.718750
1156		9.765625
1157		13.671875
1158		9.765625
1159		11.718750
1160		9.765625
1161		13.671875
1162		9.765625
1163		13.671875
1164		9.765625
1165		13.671875
1166		9.765625
1167		13.671875
1168		9.765625
1169		13.671875
1170		11.718750
1171		13.671875
1172		11.718750
1173		13.671875
1174		11.718750
1175		15.625000
1176		11.718750
1177		15.625000
1178		11.718750
1179		15.625000
1180		11.718750
1181		15.625000
1182		11.718750
1183		15.625000
1184		11.718750
1185		15.625000
1186		11.718750
1187		15.625000
1188		13.671875
1189		15.625000
1190		13.671875
1191		17.578125
1192		13.671875
1193		17.578125
1194		13.671875
1195		17.578125
1196		13.671875
1197		17.578125
1198		13.671875
1199		17.578125
1200		13.671875
1201		17.578125
1202		13.671875
1203		17.578125
1204		13.671875
1205		17.578125
1206		15.625000
1207		17.578125
1208		15.625000
1209		19.531250
1210		13.671875
1211		19.531250
1212		15.625000
1213		19.531250
1214		15.625000
1215		19.531250
1216		15.625000
1217		19.531250
1218		15.625000
1219		19.531250
1220		15.625000
1221		19.531250
1222		15.625000
1223		19.531250
1224		15.625000
1225		19.531250
1226		17.578125
1227		19.531250
1228		17.578125
1229		19.531250
1230		17.578125
1231		19.531250
1232		17.578125
1233		19.531250
1234		17.578125
1235		19.531250
1236		15.625000
1237		21.484375
1238		17.578125
1239		19.531250
1240		17.578125
1241		19.531250
1242		15.625000
1243		19.531250
1244		17.578125
1245		21.484375
1246		17.578125
1247		19.531250
1248		17.578125
1249		19.531250
1250		17.578125
1251		19.531250
1252		15.625000
1253		21.484375
1254		17.578125
1255		19.531250
1256		17.578125
1257		19.531250
1258		17.578125
1259		19.531250
1260		17.578125
1261		19.531250
1262		17.578125
1263		21.484375
1264		17.578125
1265		21.484375
1266		17.578125
1267		19.531250
1268		17.578125
1269		19.531250
1270		15.625000
1271		21.484375
1272		17.578125
1273		19.531250
1274		15.625000
1275		19.531250
1276		17.578125
1277		19.531250
1278		17.578125
1279		19.531250
1280		15.625000
1281		19.531250
1282		15.625000
1283		19.531250
1284		15.625000
1285		19.531250
1286		15.625000
1287		19.531250
1288		15.625000
1289		19.531250
1290		15.625000
1291		19.531250
1292		15.625000
1293		19.531250
1294		15.625000
1295		19.531250
1296		15.625000
1297		19.531250
1298		15.625000
1299		19.531250
1300		15.625000
1301		17.578125
1302		15.625000
1303		17.578125
1304		13.671875
1305		17.578125
1306		13.671875
1307		17.578125
1308		13.671875
1309		17.578125
1310		13.671875
1311		17.578125
1312		13.671875
1313		17.578125
1314		13.671875
1315		17.578125
1316		13.671875
1317		15.625000
1318		13.671875
1319		15.625000
1320		11.718750
1321		15.625000
1322		13.671875
1323		15.625000
1324		11.718750
1325		15.625000
1326		11.718750
1327		15.625000
1328		11.718750
1329		15.625000
1330		11.718750
1331		13.671875
1332		11.718750
