metingen laweit/30cm, resfreq2/data_81_248.txt

Channel              :		CH1
Frequency            :		1.240kHz
Period               :		0.807ms
PK-PK                :		378.9mV
Probe attenuation    :		1X
Voltage per ADC value:		0.244141mV
Time interval        :		2.00000us

index		CH1_Voltage(mV)
1		-35.156250
2		-35.156250
3		-50.781250
4		-42.968750
5		-54.687500
6		-46.875000
7		-62.500000
8		-54.687500
9		-66.406250
10		-58.593750
11		-70.312500
12		-62.500000
13		-78.125000
14		-70.312500
15		-82.031250
16		-74.218750
17		-85.937500
18		-82.031250
19		-93.750000
20		-85.937500
21		-97.656250
22		-89.843750
23		-101.562500
24		-93.750000
25		-105.468750
26		-97.656250
27		-109.375000
28		-105.468750
29		-113.281250
30		-109.375000
31		-117.187500
32		-113.281250
33		-121.093750
34		-117.187500
35		-125.000000
36		-121.093750
37		-128.906250
38		-125.000000
39		-132.812500
40		-128.906250
41		-136.718750
42		-132.812500
43		-140.625000
44		-132.812500
45		-140.625000
46		-136.718750
47		-144.531250
48		-140.625000
49		-148.437500
50		-144.531250
51		-148.437500
52		-144.531250
53		-152.343750
54		-148.437500
55		-152.343750
56		-148.437500
57		-156.250000
58		-152.343750
59		-156.250000
60		-152.343750
61		-160.156250
62		-156.250000
63		-160.156250
64		-156.250000
65		-160.156250
66		-156.250000
67		-160.156250
68		-160.156250
69		-160.156250
70		-160.156250
71		-164.062500
72		-160.156250
73		-164.062500
74		-160.156250
75		-164.062500
76		-160.156250
77		-164.062500
78		-160.156250
79		-164.062500
80		-156.250000
81		-164.062500
82		-156.250000
83		-160.156250
84		-156.250000
85		-160.156250
86		-156.250000
87		-160.156250
88		-156.250000
89		-156.250000
90		-152.343750
91		-156.250000
92		-152.343750
93		-152.343750
94		-148.437500
95		-152.343750
96		-144.531250
97		-148.437500
98		-144.531250
99		-148.437500
100		-140.625000
101		-144.531250
102		-140.625000
103		-140.625000
104		-136.718750
105		-136.718750
106		-132.812500
107		-132.812500
108		-128.906250
109		-132.812500
110		-125.000000
111		-128.906250
112		-121.093750
113		-125.000000
114		-117.187500
115		-121.093750
116		-113.281250
117		-117.187500
118		-109.375000
119		-109.375000
120		-105.468750
121		-105.468750
122		-101.562500
123		-101.562500
124		-93.750000
125		-97.656250
126		-89.843750
127		-93.750000
128		-85.937500
129		-85.937500
130		-82.031250
131		-82.031250
132		-74.218750
133		-78.125000
134		-70.312500
135		-74.218750
136		-66.406250
137		-66.406250
138		-58.593750
139		-62.500000
140		-50.781250
141		-54.687500
142		-46.875000
143		-50.781250
144		-42.968750
145		-42.968750
146		-35.156250
147		-39.062500
148		-27.343750
149		-31.250000
150		-23.437500
151		-27.343750
152		-19.531250
153		-19.531250
154		-11.718750
155		-15.625000
156		-7.812500
157		-7.812500
158		0.000000
159		0.000000
160		3.906250
161		3.906250
162		11.718750
163		11.718750
164		19.531250
165		15.625000
166		23.437500
167		23.437500
168		31.250000
169		27.343750
170		35.156250
171		35.156250
172		42.968750
173		39.062500
174		46.875000
175		46.875000
176		54.687500
177		50.781250
178		58.593750
179		58.593750
180		66.406250
181		62.500000
182		70.312500
183		66.406250
184		74.218750
185		74.218750
186		82.031250
187		78.125000
188		85.937500
189		85.937500
190		93.750000
191		89.843750
192		97.656250
193		97.656250
194		101.562500
195		101.562500
196		109.375000
197		105.468750
198		113.281250
199		109.375000
200		117.187500
201		117.187500
202		121.093750
203		121.093750
204		128.906250
205		125.000000
206		132.812500
207		128.906250
208		136.718750
209		132.812500
210		140.625000
211		136.718750
212		144.531250
213		140.625000
214		148.437500
215		144.531250
216		152.343750
217		148.437500
218		156.250000
219		152.343750
220		160.156250
221		156.250000
222		164.062500
223		160.156250
224		164.062500
225		164.062500
226		167.968750
227		167.968750
228		171.875000
229		167.968750
230		175.781250
231		171.875000
232		179.687500
233		175.781250
234		179.687500
235		179.687500
236		183.593750
237		179.687500
238		187.500000
239		183.593750
240		187.500000
241		187.500000
242		191.406250
243		187.500000
244		191.406250
245		191.406250
246		195.312500
247		191.406250
248		195.312500
249		195.312500
250		199.218750
251		195.312500
252		199.218750
253		199.218750
254		199.218750
255		199.218750
256		203.125000
257		199.218750
258		203.125000
259		199.218750
260		207.031250
261		203.125000
262		207.031250
263		203.125000
264		207.031250
265		203.125000
266		207.031250
267		203.125000
268		207.031250
269		203.125000
270		207.031250
271		203.125000
272		210.937500
273		203.125000
274		207.031250
275		207.031250
276		207.031250
277		207.031250
278		207.031250
279		203.125000
280		207.031250
281		203.125000
282		207.031250
283		203.125000
284		207.031250
285		203.125000
286		207.031250
287		203.125000
288		207.031250
289		203.125000
290		207.031250
291		199.218750
292		203.125000
293		199.218750
294		203.125000
295		199.218750
296		203.125000
297		199.218750
298		203.125000
299		195.312500
300		199.218750
301		195.312500
302		199.218750
303		191.406250
304		199.218750
305		191.406250
306		195.312500
307		187.500000
308		195.312500
309		187.500000
310		191.406250
311		183.593750
312		187.500000
313		183.593750
314		187.500000
315		179.687500
316		183.593750
317		175.781250
318		183.593750
319		175.781250
320		179.687500
321		171.875000
322		175.781250
323		167.968750
324		171.875000
325		164.062500
326		175.781250
327		160.156250
328		167.968750
329		156.250000
330		164.062500
331		152.343750
332		160.156250
333		148.437500
334		156.250000
335		144.531250
336		152.343750
337		140.625000
338		148.437500
339		136.718750
340		144.531250
341		132.812500
342		140.625000
343		128.906250
344		136.718750
345		125.000000
346		132.812500
347		121.093750
348		125.000000
349		113.281250
350		121.093750
351		109.375000
352		117.187500
353		105.468750
354		113.281250
355		97.656250
356		105.468750
357		93.750000
358		101.562500
359		89.843750
360		97.656250
361		82.031250
362		89.843750
363		78.125000
364		85.937500
365		70.312500
366		78.125000
367		66.406250
368		74.218750
369		62.500000
370		66.406250
371		54.687500
372		62.500000
373		50.781250
374		58.593750
375		42.968750
376		50.781250
377		39.062500
378		42.968750
379		31.250000
380		39.062500
381		27.343750
382		35.156250
383		19.531250
384		27.343750
385		11.718750
386		19.531250
387		7.812500
388		15.625000
389		0.000000
390		7.812500
391		-3.906250
392		3.906250
393		-11.718750
394		-3.906250
395		-15.625000
396		-7.812500
397		-23.437500
398		-15.625000
399		-27.343750
400		-19.531250
401		-35.156250
402		-27.343750
403		-39.062500
404		-31.250000
405		-46.875000
406		-39.062500
407		-50.781250
408		-42.968750
409		-58.593750
410		-50.781250
411		-62.500000
412		-54.687500
413		-66.406250
414		-62.500000
415		-74.218750
416		-66.406250
417		-78.125000
418		-70.312500
419		-82.031250
420		-78.125000
421		-89.843750
422		-82.031250
423		-93.750000
424		-85.937500
425		-97.656250
426		-89.843750
427		-101.562500
428		-97.656250
429		-109.375000
430		-101.562500
431		-113.281250
432		-105.468750
433		-117.187500
434		-109.375000
435		-121.093750
436		-113.281250
437		-125.000000
438		-117.187500
439		-128.906250
440		-121.093750
441		-132.812500
442		-125.000000
443		-132.812500
444		-128.906250
445		-136.718750
446		-132.812500
447		-140.625000
448		-136.718750
449		-144.531250
450		-140.625000
451		-148.437500
452		-140.625000
453		-148.437500
454		-144.531250
455		-152.343750
456		-148.437500
457		-152.343750
458		-148.437500
459		-156.250000
460		-152.343750
461		-156.250000
462		-152.343750
463		-160.156250
464		-156.250000
465		-160.156250
466		-156.250000
467		-164.062500
468		-156.250000
469		-164.062500
470		-160.156250
471		-164.062500
472		-160.156250
473		-164.062500
474		-160.156250
475		-164.062500
476		-160.156250
477		-164.062500
478		-160.156250
479		-164.062500
480		-160.156250
481		-164.062500
482		-160.156250
483		-164.062500
484		-160.156250
485		-164.062500
486		-160.156250
487		-160.156250
488		-156.250000
489		-160.156250
490		-156.250000
491		-160.156250
492		-156.250000
493		-160.156250
494		-152.343750
495		-156.250000
496		-152.343750
497		-156.250000
498		-148.437500
499		-152.343750
500		-148.437500
501		-148.437500
502		-144.531250
503		-148.437500
504		-140.625000
505		-144.531250
506		-140.625000
507		-144.531250
508		-136.718750
509		-136.718750
510		-132.812500
511		-136.718750
512		-128.906250
513		-132.812500
514		-125.000000
515		-128.906250
516		-121.093750
517		-125.000000
518		-117.187500
519		-121.093750
520		-113.281250
521		-117.187500
522		-109.375000
523		-109.375000
524		-105.468750
525		-105.468750
526		-101.562500
527		-101.562500
528		-97.656250
529		-97.656250
530		-89.843750
531		-93.750000
532		-85.937500
533		-89.843750
534		-78.125000
535		-82.031250
536		-74.218750
537		-78.125000
538		-70.312500
539		-70.312500
540		-62.500000
541		-66.406250
542		-58.593750
543		-58.593750
544		-54.687500
545		-54.687500
546		-46.875000
547		-50.781250
548		-42.968750
549		-42.968750
550		-35.156250
551		-39.062500
552		-27.343750
553		-31.250000
554		-23.437500
555		-27.343750
556		-19.531250
557		-19.531250
558		-11.718750
559		-15.625000
560		-7.812500
561		-7.812500
562		0.000000
563		0.000000
564		7.812500
565		3.906250
566		11.718750
567		11.718750
568		19.531250
569		15.625000
570		23.437500
571		23.437500
572		31.250000
573		27.343750
574		35.156250
575		31.250000
576		42.968750
577		39.062500
578		46.875000
579		46.875000
580		54.687500
581		50.781250
582		58.593750
583		58.593750
584		66.406250
585		62.500000
586		70.312500
587		70.312500
588		74.218750
589		74.218750
590		82.031250
591		78.125000
592		85.937500
593		85.937500
594		93.750000
595		89.843750
596		97.656250
597		93.750000
598		101.562500
599		101.562500
600		109.375000
601		105.468750
602		113.281250
603		109.375000
604		117.187500
605		113.281250
606		121.093750
607		121.093750
608		128.906250
609		125.000000
610		132.812500
611		128.906250
612		136.718750
613		132.812500
614		140.625000
615		136.718750
616		144.531250
617		140.625000
618		148.437500
619		144.531250
620		152.343750
621		148.437500
622		156.250000
623		152.343750
624		160.156250
625		156.250000
626		164.062500
627		160.156250
628		167.968750
629		164.062500
630		167.968750
631		167.968750
632		171.875000
633		167.968750
634		175.781250
635		171.875000
636		179.687500
637		175.781250
638		179.687500
639		179.687500
640		183.593750
641		179.687500
642		187.500000
643		183.593750
644		187.500000
645		187.500000
646		191.406250
647		187.500000
648		195.312500
649		191.406250
650		195.312500
651		191.406250
652		195.312500
653		191.406250
654		199.218750
655		195.312500
656		199.218750
657		195.312500
658		203.125000
659		199.218750
660		203.125000
661		199.218750
662		203.125000
663		199.218750
664		207.031250
665		199.218750
666		207.031250
667		203.125000
668		207.031250
669		203.125000
670		207.031250
671		203.125000
672		207.031250
673		203.125000
674		207.031250
675		203.125000
676		207.031250
677		203.125000
678		210.937500
679		207.031250
680		207.031250
681		207.031250
682		210.937500
683		203.125000
684		207.031250
685		203.125000
686		207.031250
687		203.125000
688		207.031250
689		203.125000
690		207.031250
691		203.125000
692		207.031250
693		203.125000
694		207.031250
695		199.218750
696		203.125000
697		199.218750
698		203.125000
699		199.218750
700		203.125000
701		195.312500
702		203.125000
703		195.312500
704		199.218750
705		195.312500
706		199.218750
707		191.406250
708		195.312500
709		191.406250
710		195.312500
711		187.500000
712		191.406250
713		187.500000
714		191.406250
715		183.593750
716		187.500000
717		179.687500
718		187.500000
719		179.687500
720		183.593750
721		175.781250
722		179.687500
723		171.875000
724		179.687500
725		171.875000
726		175.781250
727		167.968750
728		171.875000
729		164.062500
730		167.968750
731		160.156250
732		167.968750
733		156.250000
734		164.062500
735		152.343750
736		160.156250
737		148.437500
738		156.250000
739		144.531250
740		152.343750
741		140.625000
742		148.437500
743		136.718750
744		144.531250
745		132.812500
746		136.718750
747		128.906250
748		132.812500
749		121.093750
750		128.906250
751		117.187500
752		125.000000
753		113.281250
754		121.093750
755		109.375000
756		117.187500
757		105.468750
758		109.375000
759		97.656250
760		105.468750
761		93.750000
762		101.562500
763		89.843750
764		93.750000
765		78.125000
766		89.843750
767		78.125000
768		85.937500
769		70.312500
770		78.125000
771		66.406250
772		74.218750
773		58.593750
774		66.406250
775		54.687500
776		62.500000
777		46.875000
778		58.593750
779		42.968750
780		50.781250
781		35.156250
782		42.968750
783		27.343750
784		39.062500
785		23.437500
786		31.250000
787		19.531250
788		27.343750
789		11.718750
790		19.531250
791		7.812500
792		15.625000
793		-3.906250
794		7.812500
795		-7.812500
796		3.906250
797		-11.718750
798		-3.906250
799		-19.531250
800		-7.812500
801		-23.437500
802		-15.625000
803		-31.250000
804		-19.531250
805		-35.156250
806		-27.343750
807		-42.968750
808		-35.156250
809		-46.875000
810		-39.062500
811		-54.687500
812		-42.968750
813		-58.593750
814		-50.781250
815		-66.406250
816		-54.687500
817		-70.312500
818		-62.500000
819		-74.218750
820		-66.406250
821		-78.125000
822		-70.312500
823		-85.937500
824		-78.125000
825		-89.843750
826		-82.031250
827		-93.750000
828		-85.937500
829		-101.562500
830		-89.843750
831		-105.468750
832		-93.750000
833		-109.375000
834		-101.562500
835		-113.281250
836		-105.468750
837		-117.187500
838		-109.375000
839		-121.093750
840		-113.281250
841		-125.000000
842		-117.187500
843		-128.906250
844		-121.093750
845		-132.812500
846		-125.000000
847		-136.718750
848		-128.906250
849		-140.625000
850		-132.812500
851		-144.531250
852		-136.718750
853		-148.437500
854		-140.625000
855		-148.437500
856		-140.625000
857		-148.437500
858		-144.531250
859		-152.343750
860		-148.437500
861		-156.250000
862		-148.437500
863		-156.250000
864		-152.343750
865		-160.156250
866		-152.343750
867		-160.156250
868		-152.343750
869		-164.062500
870		-156.250000
871		-164.062500
872		-156.250000
873		-164.062500
874		-160.156250
875		-164.062500
876		-160.156250
877		-167.968750
878		-156.250000
879		-164.062500
880		-160.156250
881		-167.968750
882		-160.156250
883		-164.062500
884		-160.156250
885		-164.062500
886		-156.250000
887		-164.062500
888		-156.250000
889		-164.062500
890		-156.250000
891		-160.156250
892		-156.250000
893		-160.156250
894		-156.250000
895		-160.156250
896		-152.343750
897		-156.250000
898		-152.343750
899		-156.250000
900		-148.437500
901		-156.250000
902		-148.437500
903		-152.343750
904		-144.531250
905		-148.437500
906		-144.531250
907		-144.531250
908		-140.625000
909		-144.531250
910		-136.718750
911		-144.531250
912		-136.718750
913		-140.625000
914		-132.812500
915		-136.718750
916		-125.000000
917		-132.812500
918		-125.000000
919		-128.906250
920		-117.187500
921		-125.000000
922		-117.187500
923		-117.187500
924		-113.281250
925		-113.281250
926		-109.375000
927		-109.375000
928		-101.562500
929		-109.375000
930		-97.656250
931		-101.562500
932		-93.750000
933		-97.656250
934		-89.843750
935		-93.750000
936		-82.031250
937		-89.843750
938		-78.125000
939		-82.031250
940		-74.218750
941		-78.125000
942		-70.312500
943		-70.312500
944		-62.500000
945		-66.406250
946		-54.687500
947		-62.500000
948		-50.781250
949		-54.687500
950		-46.875000
951		-50.781250
952		-39.062500
953		-46.875000
954		-31.250000
955		-39.062500
956		-27.343750
957		-31.250000
958		-23.437500
959		-23.437500
960		-15.625000
961		-19.531250
962		-7.812500
963		-11.718750
964		-3.906250
965		-7.812500
966		3.906250
967		-3.906250
968		7.812500
969		3.906250
970		11.718750
971		7.812500
972		19.531250
973		15.625000
974		23.437500
975		23.437500
976		31.250000
977		27.343750
978		39.062500
979		31.250000
980		42.968750
981		39.062500
982		50.781250
983		46.875000
984		54.687500
985		50.781250
986		62.500000
987		54.687500
988		66.406250
989		62.500000
990		70.312500
991		70.312500
992		78.125000
993		74.218750
994		82.031250
995		78.125000
996		89.843750
997		85.937500
998		93.750000
999		89.843750
1000		101.562500
1001		93.750000
1002		105.468750
1003		101.562500
1004		109.375000
1005		105.468750
1006		113.281250
1007		113.281250
1008		117.187500
1009		113.281250
1010		125.000000
1011		121.093750
1012		128.906250
1013		125.000000
1014		132.812500
1015		128.906250
1016		136.718750
1017		132.812500
1018		144.531250
1019		136.718750
1020		148.437500
1021		140.625000
1022		152.343750
1023		144.531250
1024		152.343750
1025		152.343750
1026		156.250000
1027		156.250000
1028		160.156250
1029		156.250000
1030		164.062500
1031		160.156250
1032		167.968750
1033		164.062500
1034		171.875000
1035		167.968750
1036		175.781250
1037		167.968750
1038		179.687500
1039		171.875000
1040		179.687500
1041		175.781250
1042		183.593750
1043		179.687500
1044		183.593750
1045		179.687500
1046		187.500000
1047		183.593750
1048		191.406250
1049		183.593750
1050		191.406250
1051		187.500000
1052		195.312500
1053		191.406250
1054		195.312500
1055		191.406250
1056		199.218750
1057		195.312500
1058		199.218750
1059		195.312500
1060		199.218750
1061		195.312500
1062		203.125000
1063		195.312500
1064		203.125000
1065		199.218750
1066		207.031250
1067		199.218750
1068		207.031250
1069		199.218750
1070		207.031250
1071		203.125000
1072		207.031250
1073		203.125000
1074		210.937500
1075		203.125000
1076		207.031250
1077		203.125000
1078		210.937500
1079		203.125000
1080		210.937500
1081		203.125000
1082		210.937500
1083		203.125000
1084		210.937500
1085		203.125000
1086		210.937500
1087		203.125000
1088		210.937500
1089		203.125000
1090		210.937500
1091		203.125000
1092		207.031250
1093		203.125000
1094		207.031250
1095		203.125000
1096		210.937500
1097		199.218750
1098		207.031250
1099		199.218750
1100		207.031250
1101		199.218750
1102		207.031250
1103		199.218750
1104		207.031250
1105		195.312500
1106		203.125000
1107		195.312500
1108		203.125000
1109		195.312500
1110		199.218750
1111		191.406250
1112		199.218750
1113		187.500000
1114		195.312500
1115		187.500000
1116		195.312500
1117		183.593750
1118		191.406250
1119		183.593750
1120		191.406250
1121		179.687500
1122		187.500000
1123		179.687500
1124		187.500000
1125		175.781250
1126		183.593750
1127		175.781250
1128		179.687500
1129		167.968750
1130		175.781250
1131		164.062500
1132		175.781250
1133		164.062500
1134		171.875000
1135		160.156250
1136		167.968750
1137		156.250000
1138		164.062500
1139		152.343750
1140		160.156250
1141		148.437500
1142		156.250000
1143		144.531250
1144		152.343750
1145		140.625000
1146		148.437500
1147		136.718750
1148		144.531250
1149		128.906250
1150		140.625000
1151		125.000000
1152		136.718750
1153		121.093750
1154		132.812500
1155		117.187500
1156		125.000000
1157		113.281250
1158		121.093750
1159		109.375000
1160		117.187500
1161		101.562500
1162		109.375000
1163		97.656250
1164		105.468750
1165		89.843750
1166		101.562500
1167		85.937500
1168		97.656250
1169		82.031250
1170		89.843750
1171		74.218750
1172		85.937500
1173		70.312500
1174		82.031250
1175		66.406250
1176		74.218750
1177		58.593750
1178		66.406250
1179		54.687500
1180		62.500000
1181		46.875000
1182		58.593750
1183		39.062500
1184		50.781250
1185		35.156250
1186		46.875000
1187		27.343750
1188		39.062500
1189		23.437500
1190		35.156250
1191		19.531250
1192		27.343750
1193		11.718750
1194		19.531250
1195		3.906250
1196		15.625000
1197		0.000000
1198		11.718750
1199		-7.812500
1200		3.906250
1201		-11.718750
1202		-3.906250
1203		-19.531250
1204		-7.812500
1205		-23.437500
1206		-15.625000
1207		-27.343750
1208		-19.531250
1209		-35.156250
1210		-27.343750
1211		-39.062500
1212		-31.250000
1213		-46.875000
1214		-39.062500
1215		-54.687500
1216		-42.968750
1217		-58.593750
1218		-46.875000
1219		-66.406250
1220		-54.687500
1221		-66.406250
1222		-62.500000
1223		-74.218750
1224		-66.406250
