metingen laweit/30cm, resfreq2/data_81_252.txt

Channel              :		CH1
Frequency            :		1.240kHz
Period               :		0.807ms
PK-PK                :		460.9mV
Probe attenuation    :		1X
Voltage per ADC value:		0.244141mV
Time interval        :		2.00000us

index		CH1_Voltage(mV)
1		-128.906250
2		-128.906250
3		-121.093750
4		-132.812500
5		-125.000000
6		-140.625000
7		-132.812500
8		-148.437500
9		-136.718750
10		-152.343750
11		-144.531250
12		-160.156250
13		-148.437500
14		-164.062500
15		-156.250000
16		-171.875000
17		-160.156250
18		-175.781250
19		-167.968750
20		-179.687500
21		-175.781250
22		-187.500000
23		-179.687500
24		-195.312500
25		-183.593750
26		-199.218750
27		-187.500000
28		-203.125000
29		-195.312500
30		-207.031250
31		-195.312500
32		-210.937500
33		-203.125000
34		-214.843750
35		-207.031250
36		-218.750000
37		-210.937500
38		-222.656250
39		-214.843750
40		-226.562500
41		-218.750000
42		-230.468750
43		-218.750000
44		-230.468750
45		-222.656250
46		-234.375000
47		-226.562500
48		-238.281250
49		-230.468750
50		-238.281250
51		-230.468750
52		-238.281250
53		-234.375000
54		-242.187500
55		-238.281250
56		-242.187500
57		-238.281250
58		-246.093750
59		-238.281250
60		-246.093750
61		-238.281250
62		-246.093750
63		-238.281250
64		-246.093750
65		-238.281250
66		-246.093750
67		-238.281250
68		-246.093750
69		-238.281250
70		-246.093750
71		-242.187500
72		-246.093750
73		-238.281250
74		-246.093750
75		-238.281250
76		-242.187500
77		-234.375000
78		-242.187500
79		-234.375000
80		-242.187500
81		-230.468750
82		-238.281250
83		-230.468750
84		-234.375000
85		-230.468750
86		-234.375000
87		-226.562500
88		-230.468750
89		-226.562500
90		-226.562500
91		-218.750000
92		-226.562500
93		-218.750000
94		-222.656250
95		-214.843750
96		-218.750000
97		-210.937500
98		-214.843750
99		-207.031250
100		-210.937500
101		-203.125000
102		-207.031250
103		-199.218750
104		-199.218750
105		-191.406250
106		-195.312500
107		-187.500000
108		-191.406250
109		-183.593750
110		-187.500000
111		-175.781250
112		-179.687500
113		-171.875000
114		-175.781250
115		-164.062500
116		-167.968750
117		-156.250000
118		-164.062500
119		-156.250000
120		-156.250000
121		-148.437500
122		-152.343750
123		-140.625000
124		-144.531250
125		-132.812500
126		-136.718750
127		-128.906250
128		-132.812500
129		-121.093750
130		-125.000000
131		-113.281250
132		-117.187500
133		-105.468750
134		-109.375000
135		-101.562500
136		-105.468750
137		-93.750000
138		-93.750000
139		-85.937500
140		-89.843750
141		-78.125000
142		-82.031250
143		-70.312500
144		-74.218750
145		-62.500000
146		-70.312500
147		-54.687500
148		-58.593750
149		-46.875000
150		-50.781250
151		-39.062500
152		-42.968750
153		-35.156250
154		-35.156250
155		-27.343750
156		-27.343750
157		-19.531250
158		-23.437500
159		-11.718750
160		-15.625000
161		-3.906250
162		-7.812500
163		3.906250
164		0.000000
165		11.718750
166		7.812500
167		19.531250
168		15.625000
169		23.437500
170		23.437500
171		31.250000
172		27.343750
173		39.062500
174		35.156250
175		46.875000
176		42.968750
177		54.687500
178		46.875000
179		58.593750
180		54.687500
181		66.406250
182		62.500000
183		70.312500
184		66.406250
185		78.125000
186		74.218750
187		82.031250
188		82.031250
189		89.843750
190		89.843750
191		97.656250
192		89.843750
193		101.562500
194		97.656250
195		109.375000
196		101.562500
197		113.281250
198		109.375000
199		121.093750
200		113.281250
201		125.000000
202		117.187500
203		128.906250
204		125.000000
205		132.812500
206		128.906250
207		136.718750
208		136.718750
209		144.531250
210		140.625000
211		148.437500
212		144.531250
213		152.343750
214		148.437500
215		156.250000
216		152.343750
217		160.156250
218		156.250000
219		164.062500
220		160.156250
221		167.968750
222		164.062500
223		171.875000
224		167.968750
225		175.781250
226		167.968750
227		179.687500
228		171.875000
229		179.687500
230		175.781250
231		183.593750
232		179.687500
233		187.500000
234		179.687500
235		187.500000
236		183.593750
237		191.406250
238		187.500000
239		191.406250
240		191.406250
241		195.312500
242		191.406250
243		199.218750
244		191.406250
245		199.218750
246		191.406250
247		199.218750
248		195.312500
249		203.125000
250		195.312500
251		203.125000
252		195.312500
253		203.125000
254		199.218750
255		203.125000
256		203.125000
257		203.125000
258		199.218750
259		207.031250
260		199.218750
261		207.031250
262		203.125000
263		207.031250
264		203.125000
265		210.937500
266		199.218750
267		210.937500
268		203.125000
269		210.937500
270		203.125000
271		207.031250
272		203.125000
273		207.031250
274		203.125000
275		207.031250
276		199.218750
277		207.031250
278		199.218750
279		207.031250
280		199.218750
281		207.031250
282		199.218750
283		207.031250
284		199.218750
285		203.125000
286		195.312500
287		203.125000
288		195.312500
289		203.125000
290		195.312500
291		199.218750
292		191.406250
293		199.218750
294		191.406250
295		199.218750
296		187.500000
297		195.312500
298		183.593750
299		195.312500
300		183.593750
301		191.406250
302		179.687500
303		187.500000
304		179.687500
305		187.500000
306		175.781250
307		183.593750
308		171.875000
309		179.687500
310		167.968750
311		179.687500
312		164.062500
313		175.781250
314		160.156250
315		171.875000
316		160.156250
317		167.968750
318		152.343750
319		164.062500
320		152.343750
321		160.156250
322		148.437500
323		152.343750
324		144.531250
325		148.437500
326		136.718750
327		144.531250
328		132.812500
329		140.625000
330		128.906250
331		136.718750
332		121.093750
333		132.812500
334		117.187500
335		125.000000
336		109.375000
337		121.093750
338		105.468750
339		117.187500
340		101.562500
341		109.375000
342		93.750000
343		101.562500
344		85.937500
345		97.656250
346		78.125000
347		93.750000
348		74.218750
349		85.937500
350		70.312500
351		78.125000
352		62.500000
353		74.218750
354		58.593750
355		66.406250
356		50.781250
357		58.593750
358		42.968750
359		50.781250
360		35.156250
361		46.875000
362		27.343750
363		39.062500
364		19.531250
365		31.250000
366		11.718750
367		23.437500
368		7.812500
369		15.625000
370		0.000000
371		11.718750
372		-7.812500
373		0.000000
374		-15.625000
375		-7.812500
376		-23.437500
377		-11.718750
378		-31.250000
379		-19.531250
380		-39.062500
381		-27.343750
382		-46.875000
383		-35.156250
384		-54.687500
385		-42.968750
386		-58.593750
387		-46.875000
388		-66.406250
389		-54.687500
390		-74.218750
391		-66.406250
392		-82.031250
393		-70.312500
394		-89.843750
395		-78.125000
396		-97.656250
397		-85.937500
398		-105.468750
399		-89.843750
400		-109.375000
401		-97.656250
402		-117.187500
403		-105.468750
404		-121.093750
405		-113.281250
406		-128.906250
407		-121.093750
408		-136.718750
409		-128.906250
410		-144.531250
411		-132.812500
412		-148.437500
413		-136.718750
414		-156.250000
415		-144.531250
416		-164.062500
417		-152.343750
418		-167.968750
419		-156.250000
420		-171.875000
421		-164.062500
422		-175.781250
423		-167.968750
424		-183.593750
425		-175.781250
426		-187.500000
427		-179.687500
428		-195.312500
429		-183.593750
430		-199.218750
431		-187.500000
432		-203.125000
433		-195.312500
434		-207.031250
435		-199.218750
436		-210.937500
437		-203.125000
438		-214.843750
439		-207.031250
440		-218.750000
441		-210.937500
442		-222.656250
443		-214.843750
444		-226.562500
445		-214.843750
446		-230.468750
447		-218.750000
448		-230.468750
449		-222.656250
450		-234.375000
451		-226.562500
452		-234.375000
453		-230.468750
454		-238.281250
455		-230.468750
456		-238.281250
457		-234.375000
458		-238.281250
459		-234.375000
460		-242.187500
461		-238.281250
462		-242.187500
463		-238.281250
464		-246.093750
465		-238.281250
466		-246.093750
467		-238.281250
468		-246.093750
469		-238.281250
470		-246.093750
471		-238.281250
472		-246.093750
473		-238.281250
474		-242.187500
475		-238.281250
476		-242.187500
477		-238.281250
478		-242.187500
479		-234.375000
480		-242.187500
481		-234.375000
482		-242.187500
483		-234.375000
484		-238.281250
485		-230.468750
486		-238.281250
487		-230.468750
488		-238.281250
489		-226.562500
490		-230.468750
491		-226.562500
492		-226.562500
493		-222.656250
494		-226.562500
495		-218.750000
496		-226.562500
497		-214.843750
498		-218.750000
499		-210.937500
500		-218.750000
501		-207.031250
502		-214.843750
503		-203.125000
504		-210.937500
505		-199.218750
506		-203.125000
507		-195.312500
508		-199.218750
509		-191.406250
510		-195.312500
511		-183.593750
512		-191.406250
513		-179.687500
514		-183.593750
515		-175.781250
516		-179.687500
517		-167.968750
518		-171.875000
519		-164.062500
520		-167.968750
521		-156.250000
522		-160.156250
523		-152.343750
524		-156.250000
525		-148.437500
526		-148.437500
527		-140.625000
528		-144.531250
529		-132.812500
530		-136.718750
531		-125.000000
532		-128.906250
533		-117.187500
534		-121.093750
535		-113.281250
536		-117.187500
537		-105.468750
538		-109.375000
539		-97.656250
540		-101.562500
541		-89.843750
542		-93.750000
543		-85.937500
544		-85.937500
545		-74.218750
546		-82.031250
547		-70.312500
548		-70.312500
549		-62.500000
550		-66.406250
551		-54.687500
552		-58.593750
553		-42.968750
554		-50.781250
555		-39.062500
556		-42.968750
557		-31.250000
558		-35.156250
559		-23.437500
560		-27.343750
561		-15.625000
562		-19.531250
563		-7.812500
564		-11.718750
565		0.000000
566		-3.906250
567		3.906250
568		0.000000
569		11.718750
570		7.812500
571		19.531250
572		15.625000
573		27.343750
574		23.437500
575		31.250000
576		31.250000
577		39.062500
578		39.062500
579		46.875000
580		42.968750
581		54.687500
582		50.781250
583		62.500000
584		58.593750
585		66.406250
586		62.500000
587		74.218750
588		70.312500
589		82.031250
590		78.125000
591		85.937500
592		82.031250
593		89.843750
594		89.843750
595		97.656250
596		93.750000
597		105.468750
598		101.562500
599		109.375000
600		105.468750
601		117.187500
602		109.375000
603		121.093750
604		117.187500
605		125.000000
606		121.093750
607		128.906250
608		128.906250
609		132.812500
610		132.812500
611		140.625000
612		136.718750
613		144.531250
614		140.625000
615		152.343750
616		144.531250
617		152.343750
618		148.437500
619		156.250000
620		152.343750
621		164.062500
622		156.250000
623		164.062500
624		160.156250
625		167.968750
626		164.062500
627		171.875000
628		167.968750
629		175.781250
630		171.875000
631		179.687500
632		171.875000
633		183.593750
634		175.781250
635		183.593750
636		179.687500
637		187.500000
638		183.593750
639		187.500000
640		183.593750
641		191.406250
642		187.500000
643		191.406250
644		187.500000
645		195.312500
646		191.406250
647		199.218750
648		191.406250
649		199.218750
650		195.312500
651		203.125000
652		195.312500
653		203.125000
654		195.312500
655		203.125000
656		199.218750
657		207.031250
658		199.218750
659		203.125000
660		203.125000
661		207.031250
662		199.218750
663		207.031250
664		203.125000
665		207.031250
666		203.125000
667		210.937500
668		203.125000
669		210.937500
670		203.125000
671		210.937500
672		203.125000
673		210.937500
674		203.125000
675		207.031250
676		203.125000
677		207.031250
678		203.125000
679		207.031250
680		203.125000
681		207.031250
682		199.218750
683		207.031250
684		199.218750
685		207.031250
686		199.218750
687		207.031250
688		199.218750
689		207.031250
690		195.312500
691		203.125000
692		195.312500
693		199.218750
694		195.312500
695		199.218750
696		191.406250
697		199.218750
698		191.406250
699		199.218750
700		187.500000
701		195.312500
702		187.500000
703		195.312500
704		183.593750
705		191.406250
706		179.687500
707		187.500000
708		179.687500
709		183.593750
710		175.781250
711		179.687500
712		171.875000
713		179.687500
714		167.968750
715		179.687500
716		164.062500
717		171.875000
718		160.156250
719		171.875000
720		156.250000
721		167.968750
722		156.250000
723		164.062500
724		152.343750
725		160.156250
726		148.437500
727		152.343750
728		140.625000
729		148.437500
730		136.718750
731		144.531250
732		128.906250
733		140.625000
734		125.000000
735		136.718750
736		121.093750
737		128.906250
738		113.281250
739		125.000000
740		113.281250
741		121.093750
742		105.468750
743		113.281250
744		101.562500
745		105.468750
746		93.750000
747		101.562500
748		85.937500
749		97.656250
750		82.031250
751		89.843750
752		74.218750
753		85.937500
754		66.406250
755		78.125000
756		62.500000
757		74.218750
758		54.687500
759		66.406250
760		50.781250
761		58.593750
762		42.968750
763		50.781250
764		35.156250
765		46.875000
766		27.343750
767		39.062500
768		19.531250
769		31.250000
770		11.718750
771		23.437500
772		3.906250
773		15.625000
774		0.000000
775		11.718750
776		-7.812500
777		0.000000
778		-15.625000
779		-7.812500
780		-23.437500
781		-11.718750
782		-31.250000
783		-19.531250
784		-39.062500
785		-27.343750
786		-46.875000
787		-35.156250
788		-54.687500
789		-42.968750
790		-62.500000
791		-50.781250
792		-66.406250
793		-58.593750
794		-74.218750
795		-66.406250
796		-82.031250
797		-74.218750
798		-89.843750
799		-78.125000
800		-97.656250
801		-85.937500
802		-105.468750
803		-93.750000
804		-113.281250
805		-101.562500
806		-117.187500
807		-105.468750
808		-125.000000
809		-113.281250
810		-128.906250
811		-121.093750
812		-136.718750
813		-128.906250
814		-144.531250
815		-132.812500
816		-148.437500
817		-140.625000
818		-156.250000
819		-144.531250
820		-164.062500
821		-152.343750
822		-167.968750
823		-156.250000
824		-171.875000
825		-164.062500
826		-179.687500
827		-171.875000
828		-183.593750
829		-175.781250
830		-191.406250
831		-179.687500
832		-195.312500
833		-183.593750
834		-199.218750
835		-191.406250
836		-203.125000
837		-195.312500
838		-207.031250
839		-199.218750
840		-214.843750
841		-203.125000
842		-214.843750
843		-207.031250
844		-218.750000
845		-210.937500
846		-222.656250
847		-214.843750
848		-226.562500
849		-218.750000
850		-230.468750
851		-222.656250
852		-230.468750
853		-222.656250
854		-234.375000
855		-226.562500
856		-238.281250
857		-226.562500
858		-238.281250
859		-230.468750
860		-238.281250
861		-234.375000
862		-242.187500
863		-238.281250
864		-242.187500
865		-234.375000
866		-242.187500
867		-238.281250
868		-246.093750
869		-238.281250
870		-246.093750
871		-238.281250
872		-246.093750
873		-238.281250
874		-246.093750
875		-238.281250
876		-242.187500
877		-238.281250
878		-242.187500
879		-238.281250
880		-242.187500
881		-238.281250
882		-242.187500
883		-234.375000
884		-242.187500
885		-234.375000
886		-238.281250
887		-234.375000
888		-238.281250
889		-230.468750
890		-234.375000
891		-230.468750
892		-234.375000
893		-226.562500
894		-230.468750
895		-222.656250
896		-226.562500
897		-222.656250
898		-226.562500
899		-218.750000
900		-222.656250
901		-214.843750
902		-218.750000
903		-210.937500
904		-214.843750
905		-207.031250
906		-210.937500
907		-203.125000
908		-207.031250
909		-199.218750
910		-203.125000
911		-195.312500
912		-195.312500
913		-191.406250
914		-191.406250
915		-183.593750
916		-187.500000
917		-179.687500
918		-183.593750
919		-171.875000
920		-179.687500
921		-167.968750
922		-171.875000
923		-160.156250
924		-167.968750
925		-156.250000
926		-160.156250
927		-152.343750
928		-152.343750
929		-144.531250
930		-144.531250
931		-136.718750
932		-140.625000
933		-128.906250
934		-136.718750
935		-125.000000
936		-128.906250
937		-117.187500
938		-121.093750
939		-109.375000
940		-113.281250
941		-101.562500
942		-109.375000
943		-97.656250
944		-97.656250
945		-89.843750
946		-93.750000
947		-82.031250
948		-85.937500
949		-74.218750
950		-78.125000
951		-66.406250
952		-70.312500
953		-58.593750
954		-62.500000
955		-50.781250
956		-54.687500
957		-42.968750
958		-50.781250
959		-35.156250
960		-42.968750
961		-31.250000
962		-31.250000
963		-23.437500
964		-23.437500
965		-15.625000
966		-19.531250
967		-7.812500
968		-11.718750
969		0.000000
970		-3.906250
971		7.812500
972		3.906250
973		15.625000
974		7.812500
975		23.437500
976		15.625000
977		27.343750
978		27.343750
979		35.156250
980		31.250000
981		42.968750
982		39.062500
983		50.781250
984		46.875000
985		54.687500
986		50.781250
987		62.500000
988		58.593750
989		70.312500
990		66.406250
991		74.218750
992		70.312500
993		82.031250
994		78.125000
995		85.937500
996		85.937500
997		93.750000
998		89.843750
999		101.562500
1000		97.656250
1001		105.468750
1002		101.562500
1003		113.281250
1004		109.375000
1005		117.187500
1006		113.281250
1007		121.093750
1008		117.187500
1009		125.000000
1010		121.093750
1011		128.906250
1012		128.906250
1013		136.718750
1014		132.812500
1015		144.531250
1016		136.718750
1017		144.531250
1018		140.625000
1019		152.343750
1020		144.531250
1021		156.250000
1022		148.437500
1023		160.156250
1024		152.343750
1025		164.062500
1026		156.250000
1027		164.062500
1028		164.062500
1029		167.968750
1030		164.062500
1031		171.875000
1032		167.968750
1033		175.781250
1034		171.875000
1035		179.687500
1036		175.781250
1037		183.593750
1038		179.687500
1039		183.593750
1040		179.687500
1041		187.500000
1042		183.593750
1043		191.406250
1044		187.500000
1045		191.406250
1046		187.500000
1047		191.406250
1048		187.500000
1049		195.312500
1050		191.406250
1051		199.218750
1052		191.406250
1053		199.218750
1054		195.312500
1055		203.125000
1056		195.312500
1057		203.125000
1058		195.312500
1059		203.125000
1060		199.218750
1061		203.125000
1062		199.218750
1063		203.125000
1064		203.125000
1065		207.031250
1066		199.218750
1067		207.031250
1068		203.125000
1069		207.031250
1070		203.125000
1071		210.937500
1072		203.125000
1073		210.937500
1074		203.125000
1075		210.937500
1076		203.125000
1077		210.937500
1078		203.125000
1079		207.031250
1080		203.125000
1081		207.031250
1082		199.218750
1083		207.031250
1084		199.218750
1085		207.031250
1086		199.218750
1087		207.031250
1088		199.218750
1089		207.031250
1090		199.218750
1091		207.031250
1092		195.312500
1093		203.125000
1094		195.312500
1095		203.125000
1096		195.312500
1097		199.218750
1098		191.406250
1099		199.218750
1100		191.406250
1101		199.218750
1102		187.500000
1103		195.312500
1104		187.500000
1105		195.312500
1106		183.593750
1107		191.406250
1108		183.593750
1109		191.406250
1110		179.687500
1111		187.500000
1112		179.687500
1113		183.593750
1114		175.781250
1115		179.687500
1116		171.875000
1117		179.687500
1118		167.968750
1119		175.781250
1120		164.062500
1121		171.875000
1122		160.156250
1123		167.968750
1124		156.250000
1125		164.062500
1126		152.343750
1127		160.156250
1128		148.437500
1129		156.250000
1130		144.531250
1131		152.343750
1132		140.625000
1133		148.437500
1134		132.812500
1135		144.531250
1136		128.906250
1137		140.625000
1138		125.000000
1139		132.812500
1140		121.093750
1141		128.906250
1142		113.281250
1143		125.000000
1144		109.375000
1145		121.093750
1146		105.468750
1147		113.281250
1148		97.656250
1149		105.468750
1150		89.843750
1151		101.562500
1152		82.031250
1153		97.656250
1154		78.125000
1155		89.843750
1156		70.312500
1157		82.031250
1158		66.406250
1159		78.125000
1160		58.593750
1161		70.312500
1162		54.687500
1163		62.500000
1164		46.875000
1165		54.687500
1166		39.062500
1167		46.875000
1168		31.250000
1169		42.968750
1170		23.437500
1171		35.156250
1172		15.625000
1173		31.250000
1174		11.718750
1175		23.437500
1176		3.906250
1177		15.625000
1178		-3.906250
1179		7.812500
1180		-11.718750
1181		0.000000
1182		-19.531250
1183		-7.812500
1184		-27.343750
1185		-15.625000
1186		-31.250000
1187		-19.531250
1188		-39.062500
1189		-31.250000
1190		-50.781250
1191		-35.156250
1192		-54.687500
1193		-42.968750
1194		-62.500000
1195		-50.781250
1196		-70.312500
1197		-58.593750
1198		-78.125000
1199		-66.406250
1200		-85.937500
1201		-74.218750
1202		-93.750000
1203		-82.031250
1204		-101.562500
1205		-85.937500
1206		-105.468750
1207		-93.750000
1208		-113.281250
1209		-101.562500
1210		-121.093750
1211		-109.375000
1212		-125.000000
1213		-113.281250
1214		-132.812500
