metingen laweit/30cm, resfreq2/data_81_254.txt

Channel              :		CH1
Frequency            :		1.240kHz
Period               :		0.807ms
PK-PK                :		492.2mV
Probe attenuation    :		1X
Voltage per ADC value:		0.244141mV
Time interval        :		2.00000us

index		CH1_Voltage(mV)
1		-70.312500
2		-70.312500
3		-89.843750
4		-78.125000
5		-97.656250
6		-85.937500
7		-105.468750
8		-93.750000
9		-109.375000
10		-101.562500
11		-117.187500
12		-109.375000
13		-125.000000
14		-117.187500
15		-128.906250
16		-121.093750
17		-136.718750
18		-128.906250
19		-144.531250
20		-136.718750
21		-148.437500
22		-140.625000
23		-156.250000
24		-148.437500
25		-164.062500
26		-156.250000
27		-167.968750
28		-160.156250
29		-171.875000
30		-167.968750
31		-179.687500
32		-171.875000
33		-183.593750
34		-175.781250
35		-187.500000
36		-183.593750
37		-195.312500
38		-187.500000
39		-199.218750
40		-191.406250
41		-203.125000
42		-195.312500
43		-207.031250
44		-199.218750
45		-210.937500
46		-203.125000
47		-214.843750
48		-207.031250
49		-218.750000
50		-210.937500
51		-218.750000
52		-214.843750
53		-222.656250
54		-218.750000
55		-226.562500
56		-218.750000
57		-226.562500
58		-222.656250
59		-230.468750
60		-226.562500
61		-230.468750
62		-226.562500
63		-234.375000
64		-226.562500
65		-234.375000
66		-230.468750
67		-234.375000
68		-230.468750
69		-234.375000
70		-230.468750
71		-238.281250
72		-230.468750
73		-234.375000
74		-230.468750
75		-234.375000
76		-230.468750
77		-234.375000
78		-230.468750
79		-238.281250
80		-230.468750
81		-234.375000
82		-230.468750
83		-234.375000
84		-226.562500
85		-230.468750
86		-226.562500
87		-230.468750
88		-222.656250
89		-226.562500
90		-222.656250
91		-226.562500
92		-218.750000
93		-222.656250
94		-218.750000
95		-218.750000
96		-214.843750
97		-214.843750
98		-210.937500
99		-214.843750
100		-207.031250
101		-210.937500
102		-203.125000
103		-207.031250
104		-199.218750
105		-203.125000
106		-195.312500
107		-199.218750
108		-191.406250
109		-191.406250
110		-187.500000
111		-187.500000
112		-179.687500
113		-183.593750
114		-175.781250
115		-175.781250
116		-167.968750
117		-171.875000
118		-164.062500
119		-167.968750
120		-156.250000
121		-160.156250
122		-152.343750
123		-152.343750
124		-144.531250
125		-148.437500
126		-140.625000
127		-140.625000
128		-132.812500
129		-132.812500
130		-125.000000
131		-128.906250
132		-117.187500
133		-121.093750
134		-109.375000
135		-113.281250
136		-105.468750
137		-105.468750
138		-93.750000
139		-97.656250
140		-89.843750
141		-89.843750
142		-82.031250
143		-82.031250
144		-74.218750
145		-74.218750
146		-66.406250
147		-66.406250
148		-58.593750
149		-58.593750
150		-50.781250
151		-50.781250
152		-42.968750
153		-42.968750
154		-31.250000
155		-35.156250
156		-23.437500
157		-27.343750
158		-15.625000
159		-19.531250
160		-7.812500
161		-11.718750
162		0.000000
163		-3.906250
164		7.812500
165		3.906250
166		15.625000
167		11.718750
168		23.437500
169		19.531250
170		31.250000
171		27.343750
172		39.062500
173		35.156250
174		46.875000
175		42.968750
176		54.687500
177		50.781250
178		62.500000
179		58.593750
180		70.312500
181		66.406250
182		74.218750
183		74.218750
184		85.937500
185		82.031250
186		89.843750
187		89.843750
188		97.656250
189		97.656250
190		105.468750
191		101.562500
192		113.281250
193		109.375000
194		117.187500
195		117.187500
196		125.000000
197		121.093750
198		128.906250
199		128.906250
200		136.718750
201		132.812500
202		144.531250
203		140.625000
204		148.437500
205		144.531250
206		152.343750
207		152.343750
208		160.156250
209		156.250000
210		164.062500
211		164.062500
212		171.875000
213		167.968750
214		175.781250
215		171.875000
216		179.687500
217		179.687500
218		183.593750
219		183.593750
220		187.500000
221		187.500000
222		195.312500
223		191.406250
224		195.312500
225		195.312500
226		199.218750
227		199.218750
228		203.125000
229		203.125000
230		207.031250
231		207.031250
232		210.937500
233		207.031250
234		214.843750
235		210.937500
236		218.750000
237		214.843750
238		218.750000
239		218.750000
240		222.656250
241		218.750000
242		226.562500
243		222.656250
244		226.562500
245		226.562500
246		230.468750
247		226.562500
248		230.468750
249		230.468750
250		234.375000
251		230.468750
252		234.375000
253		234.375000
254		238.281250
255		234.375000
256		238.281250
257		234.375000
258		238.281250
259		238.281250
260		242.187500
261		238.281250
262		242.187500
263		238.281250
264		242.187500
265		238.281250
266		242.187500
267		238.281250
268		242.187500
269		242.187500
270		242.187500
271		242.187500
272		246.093750
273		242.187500
274		246.093750
275		242.187500
276		246.093750
277		242.187500
278		246.093750
279		238.281250
280		246.093750
281		242.187500
282		242.187500
283		238.281250
284		242.187500
285		238.281250
286		242.187500
287		238.281250
288		242.187500
289		238.281250
290		242.187500
291		234.375000
292		238.281250
293		234.375000
294		238.281250
295		234.375000
296		238.281250
297		230.468750
298		234.375000
299		230.468750
300		234.375000
301		226.562500
302		230.468750
303		226.562500
304		230.468750
305		222.656250
306		230.468750
307		222.656250
308		226.562500
309		218.750000
310		222.656250
311		214.843750
312		222.656250
313		214.843750
314		218.750000
315		210.937500
316		214.843750
317		207.031250
318		210.937500
319		203.125000
320		207.031250
321		199.218750
322		203.125000
323		195.312500
324		203.125000
325		191.406250
326		199.218750
327		187.500000
328		191.406250
329		183.593750
330		187.500000
331		175.781250
332		183.593750
333		171.875000
334		179.687500
335		167.968750
336		175.781250
337		160.156250
338		167.968750
339		156.250000
340		164.062500
341		152.343750
342		160.156250
343		144.531250
344		152.343750
345		140.625000
346		148.437500
347		132.812500
348		140.625000
349		125.000000
350		136.718750
351		121.093750
352		128.906250
353		113.281250
354		121.093750
355		105.468750
356		117.187500
357		101.562500
358		109.375000
359		93.750000
360		101.562500
361		85.937500
362		93.750000
363		78.125000
364		85.937500
365		70.312500
366		82.031250
367		62.500000
368		74.218750
369		54.687500
370		66.406250
371		46.875000
372		58.593750
373		39.062500
374		50.781250
375		31.250000
376		42.968750
377		23.437500
378		35.156250
379		15.625000
380		27.343750
381		7.812500
382		19.531250
383		0.000000
384		11.718750
385		-7.812500
386		3.906250
387		-15.625000
388		-3.906250
389		-23.437500
390		-11.718750
391		-31.250000
392		-19.531250
393		-39.062500
394		-27.343750
395		-46.875000
396		-35.156250
397		-54.687500
398		-42.968750
399		-62.500000
400		-50.781250
401		-70.312500
402		-58.593750
403		-78.125000
404		-66.406250
405		-85.937500
406		-74.218750
407		-89.843750
408		-82.031250
409		-97.656250
410		-89.843750
411		-105.468750
412		-97.656250
413		-113.281250
414		-105.468750
415		-121.093750
416		-109.375000
417		-125.000000
418		-117.187500
419		-132.812500
420		-125.000000
421		-140.625000
422		-132.812500
423		-148.437500
424		-136.718750
425		-152.343750
426		-144.531250
427		-160.156250
428		-152.343750
429		-164.062500
430		-156.250000
431		-171.875000
432		-164.062500
433		-175.781250
434		-167.968750
435		-179.687500
436		-171.875000
437		-187.500000
438		-179.687500
439		-191.406250
440		-183.593750
441		-195.312500
442		-187.500000
443		-199.218750
444		-191.406250
445		-203.125000
446		-199.218750
447		-207.031250
448		-203.125000
449		-210.937500
450		-207.031250
451		-214.843750
452		-210.937500
453		-218.750000
454		-210.937500
455		-222.656250
456		-214.843750
457		-222.656250
458		-218.750000
459		-226.562500
460		-222.656250
461		-230.468750
462		-222.656250
463		-230.468750
464		-226.562500
465		-234.375000
466		-226.562500
467		-234.375000
468		-230.468750
469		-234.375000
470		-230.468750
471		-234.375000
472		-230.468750
473		-234.375000
474		-234.375000
475		-238.281250
476		-230.468750
477		-234.375000
478		-234.375000
479		-238.281250
480		-234.375000
481		-234.375000
482		-230.468750
483		-234.375000
484		-230.468750
485		-234.375000
486		-230.468750
487		-234.375000
488		-226.562500
489		-230.468750
490		-226.562500
491		-230.468750
492		-222.656250
493		-226.562500
494		-222.656250
495		-226.562500
496		-218.750000
497		-222.656250
498		-214.843750
499		-218.750000
500		-214.843750
501		-214.843750
502		-210.937500
503		-210.937500
504		-207.031250
505		-210.937500
506		-203.125000
507		-203.125000
508		-199.218750
509		-199.218750
510		-195.312500
511		-195.312500
512		-187.500000
513		-191.406250
514		-183.593750
515		-187.500000
516		-179.687500
517		-179.687500
518		-171.875000
519		-175.781250
520		-167.968750
521		-167.968750
522		-160.156250
523		-164.062500
524		-156.250000
525		-156.250000
526		-148.437500
527		-152.343750
528		-144.531250
529		-148.437500
530		-136.718750
531		-140.625000
532		-128.906250
533		-132.812500
534		-121.093750
535		-125.000000
536		-113.281250
537		-117.187500
538		-109.375000
539		-109.375000
540		-101.562500
541		-101.562500
542		-93.750000
543		-93.750000
544		-85.937500
545		-85.937500
546		-78.125000
547		-82.031250
548		-70.312500
549		-70.312500
550		-62.500000
551		-62.500000
552		-50.781250
553		-54.687500
554		-46.875000
555		-46.875000
556		-39.062500
557		-39.062500
558		-31.250000
559		-31.250000
560		-19.531250
561		-23.437500
562		-11.718750
563		-15.625000
564		-3.906250
565		-7.812500
566		3.906250
567		0.000000
568		11.718750
569		7.812500
570		19.531250
571		15.625000
572		27.343750
573		23.437500
574		35.156250
575		31.250000
576		42.968750
577		39.062500
578		50.781250
579		46.875000
580		58.593750
581		54.687500
582		66.406250
583		62.500000
584		74.218750
585		70.312500
586		82.031250
587		78.125000
588		85.937500
589		85.937500
590		93.750000
591		89.843750
592		101.562500
593		97.656250
594		109.375000
595		105.468750
596		113.281250
597		109.375000
598		121.093750
599		117.187500
600		128.906250
601		125.000000
602		132.812500
603		128.906250
604		140.625000
605		136.718750
606		144.531250
607		144.531250
608		152.343750
609		148.437500
610		156.250000
611		152.343750
612		164.062500
613		160.156250
614		167.968750
615		164.062500
616		171.875000
617		167.968750
618		179.687500
619		175.781250
620		183.593750
621		179.687500
622		187.500000
623		183.593750
624		191.406250
625		187.500000
626		195.312500
627		191.406250
628		199.218750
629		195.312500
630		203.125000
631		199.218750
632		207.031250
633		203.125000
634		210.937500
635		207.031250
636		214.843750
637		207.031250
638		218.750000
639		214.843750
640		218.750000
641		218.750000
642		222.656250
643		218.750000
644		226.562500
645		218.750000
646		226.562500
647		222.656250
648		230.468750
649		226.562500
650		230.468750
651		226.562500
652		234.375000
653		230.468750
654		234.375000
655		230.468750
656		238.281250
657		234.375000
658		238.281250
659		234.375000
660		238.281250
661		234.375000
662		242.187500
663		238.281250
664		242.187500
665		238.281250
666		246.093750
667		238.281250
668		246.093750
669		238.281250
670		246.093750
671		238.281250
672		246.093750
673		242.187500
674		246.093750
675		242.187500
676		246.093750
677		238.281250
678		246.093750
679		238.281250
680		246.093750
681		238.281250
682		246.093750
683		238.281250
684		246.093750
685		238.281250
686		246.093750
687		238.281250
688		246.093750
689		238.281250
690		242.187500
691		238.281250
692		242.187500
693		234.375000
694		242.187500
695		234.375000
696		242.187500
697		234.375000
698		242.187500
699		230.468750
700		238.281250
701		230.468750
702		238.281250
703		230.468750
704		238.281250
705		226.562500
706		234.375000
707		226.562500
708		230.468750
709		222.656250
710		230.468750
711		218.750000
712		226.562500
713		214.843750
714		226.562500
715		214.843750
716		222.656250
717		210.937500
718		218.750000
719		207.031250
720		218.750000
721		207.031250
722		214.843750
723		203.125000
724		207.031250
725		199.218750
726		207.031250
727		195.312500
728		203.125000
729		187.500000
730		199.218750
731		183.593750
732		195.312500
733		179.687500
734		191.406250
735		175.781250
736		183.593750
737		171.875000
738		179.687500
739		167.968750
740		175.781250
741		160.156250
742		167.968750
743		156.250000
744		164.062500
745		148.437500
746		160.156250
747		144.531250
748		156.250000
749		136.718750
750		148.437500
751		128.906250
752		140.625000
753		125.000000
754		136.718750
755		121.093750
756		128.906250
757		113.281250
758		121.093750
759		105.468750
760		113.281250
761		97.656250
762		109.375000
763		89.843750
764		101.562500
765		82.031250
766		93.750000
767		74.218750
768		89.843750
769		66.406250
770		78.125000
771		62.500000
772		70.312500
773		54.687500
774		62.500000
775		46.875000
776		54.687500
777		35.156250
778		50.781250
779		31.250000
780		42.968750
781		23.437500
782		35.156250
783		15.625000
784		27.343750
785		7.812500
786		19.531250
787		0.000000
788		11.718750
789		-7.812500
790		3.906250
791		-15.625000
792		-7.812500
793		-23.437500
794		-15.625000
795		-31.250000
796		-19.531250
797		-42.968750
798		-27.343750
799		-46.875000
800		-39.062500
801		-54.687500
802		-42.968750
803		-62.500000
804		-50.781250
805		-70.312500
806		-58.593750
807		-78.125000
808		-66.406250
809		-85.937500
810		-74.218750
811		-93.750000
812		-82.031250
813		-101.562500
814		-89.843750
815		-109.375000
816		-97.656250
817		-113.281250
818		-105.468750
819		-121.093750
820		-113.281250
821		-128.906250
822		-117.187500
823		-132.812500
824		-125.000000
825		-140.625000
826		-132.812500
827		-148.437500
828		-136.718750
829		-156.250000
830		-144.531250
831		-160.156250
832		-148.437500
833		-167.968750
834		-156.250000
835		-171.875000
836		-164.062500
837		-179.687500
838		-167.968750
839		-183.593750
840		-171.875000
841		-187.500000
842		-179.687500
843		-191.406250
844		-183.593750
845		-199.218750
846		-187.500000
847		-203.125000
848		-191.406250
849		-207.031250
850		-195.312500
851		-210.937500
852		-199.218750
853		-214.843750
854		-203.125000
855		-218.750000
856		-207.031250
857		-218.750000
858		-214.843750
859		-222.656250
860		-214.843750
861		-226.562500
862		-218.750000
863		-226.562500
864		-218.750000
865		-230.468750
866		-222.656250
867		-230.468750
868		-222.656250
869		-234.375000
870		-226.562500
871		-234.375000
872		-226.562500
873		-234.375000
874		-226.562500
875		-234.375000
876		-230.468750
877		-234.375000
878		-230.468750
879		-238.281250
880		-230.468750
881		-238.281250
882		-230.468750
883		-238.281250
884		-230.468750
885		-234.375000
886		-230.468750
887		-234.375000
888		-226.562500
889		-234.375000
890		-226.562500
891		-230.468750
892		-226.562500
893		-230.468750
894		-226.562500
895		-230.468750
896		-222.656250
897		-226.562500
898		-218.750000
899		-226.562500
900		-214.843750
901		-222.656250
902		-214.843750
903		-218.750000
904		-210.937500
905		-214.843750
906		-207.031250
907		-210.937500
908		-203.125000
909		-207.031250
910		-199.218750
911		-203.125000
912		-195.312500
913		-199.218750
914		-191.406250
915		-195.312500
916		-183.593750
917		-191.406250
918		-179.687500
919		-187.500000
920		-175.781250
921		-179.687500
922		-167.968750
923		-171.875000
924		-164.062500
925		-167.968750
926		-160.156250
927		-160.156250
928		-152.343750
929		-156.250000
930		-144.531250
931		-148.437500
932		-140.625000
933		-140.625000
934		-132.812500
935		-136.718750
936		-125.000000
937		-128.906250
938		-117.187500
939		-121.093750
940		-109.375000
941		-113.281250
942		-105.468750
943		-105.468750
944		-97.656250
945		-97.656250
946		-85.937500
947		-93.750000
948		-82.031250
949		-82.031250
950		-74.218750
951		-78.125000
952		-66.406250
953		-70.312500
954		-58.593750
955		-62.500000
956		-46.875000
957		-54.687500
958		-42.968750
959		-42.968750
960		-35.156250
961		-35.156250
962		-27.343750
963		-31.250000
964		-15.625000
965		-19.531250
966		-7.812500
967		-11.718750
968		0.000000
969		-3.906250
970		7.812500
971		3.906250
972		15.625000
973		11.718750
974		23.437500
975		19.531250
976		31.250000
977		27.343750
978		39.062500
979		35.156250
980		46.875000
981		42.968750
982		54.687500
983		50.781250
984		62.500000
985		58.593750
986		70.312500
987		66.406250
988		78.125000
989		74.218750
990		82.031250
991		82.031250
992		89.843750
993		89.843750
994		97.656250
995		93.750000
996		105.468750
997		101.562500
998		113.281250
999		109.375000
1000		117.187500
1001		113.281250
1002		125.000000
1003		121.093750
1004		132.812500
1005		128.906250
1006		136.718750
1007		132.812500
1008		140.625000
1009		140.625000
1010		148.437500
1011		144.531250
1012		152.343750
1013		148.437500
1014		160.156250
1015		156.250000
1016		164.062500
1017		160.156250
1018		171.875000
1019		164.062500
1020		175.781250
1021		171.875000
1022		179.687500
1023		175.781250
1024		183.593750
1025		179.687500
1026		187.500000
1027		187.500000
1028		191.406250
1029		191.406250
1030		199.218750
1031		191.406250
1032		203.125000
1033		195.312500
1034		207.031250
1035		199.218750
1036		210.937500
1037		203.125000
1038		210.937500
1039		207.031250
1040		214.843750
1041		210.937500
1042		218.750000
1043		214.843750
1044		218.750000
1045		218.750000
1046		222.656250
1047		218.750000
1048		226.562500
1049		222.656250
1050		230.468750
1051		222.656250
1052		230.468750
1053		226.562500
1054		234.375000
1055		226.562500
1056		234.375000
1057		230.468750
1058		238.281250
1059		234.375000
1060		238.281250
1061		234.375000
1062		238.281250
1063		234.375000
1064		242.187500
1065		234.375000
1066		242.187500
1067		234.375000
1068		242.187500
1069		238.281250
1070		246.093750
1071		238.281250
1072		246.093750
1073		238.281250
1074		246.093750
1075		238.281250
1076		246.093750
1077		242.187500
1078		246.093750
1079		242.187500
1080		246.093750
1081		238.281250
1082		246.093750
1083		238.281250
1084		246.093750
1085		238.281250
1086		246.093750
1087		238.281250
1088		246.093750
1089		238.281250
1090		246.093750
1091		238.281250
1092		246.093750
1093		238.281250
1094		242.187500
1095		238.281250
1096		242.187500
1097		234.375000
1098		242.187500
1099		234.375000
1100		242.187500
1101		234.375000
1102		238.281250
1103		230.468750
1104		238.281250
1105		230.468750
1106		238.281250
1107		226.562500
1108		234.375000
1109		226.562500
1110		234.375000
1111		226.562500
1112		230.468750
1113		218.750000
1114		226.562500
1115		218.750000
1116		226.562500
1117		214.843750
1118		222.656250
1119		210.937500
1120		222.656250
1121		210.937500
1122		218.750000
1123		207.031250
1124		214.843750
1125		203.125000
1126		210.937500
1127		199.218750
1128		207.031250
1129		195.312500
1130		203.125000
1131		191.406250
1132		199.218750
1133		187.500000
1134		195.312500
1135		183.593750
1136		191.406250
1137		175.781250
1138		187.500000
1139		175.781250
1140		183.593750
1141		167.968750
1142		179.687500
1143		164.062500
1144		171.875000
1145		160.156250
1146		167.968750
1147		152.343750
1148		160.156250
1149		148.437500
1150		156.250000
1151		140.625000
1152		152.343750
1153		132.812500
1154		144.531250
1155		128.906250
1156		140.625000
1157		121.093750
1158		132.812500
1159		117.187500
1160		125.000000
1161		109.375000
1162		117.187500
1163		101.562500
1164		113.281250
1165		93.750000
1166		105.468750
1167		89.843750
1168		97.656250
1169		82.031250
1170		93.750000
1171		70.312500
1172		85.937500
1173		66.406250
1174		78.125000
1175		58.593750
1176		70.312500
1177		50.781250
1178		62.500000
1179		42.968750
1180		54.687500
1181		35.156250
1182		46.875000
1183		27.343750
1184		39.062500
1185		19.531250
1186		31.250000
1187		11.718750
1188		23.437500
1189		3.906250
1190		15.625000
1191		-3.906250
1192		7.812500
1193		-11.718750
1194		0.000000
1195		-19.531250
1196		-7.812500
1197		-27.343750
1198		-15.625000
1199		-35.156250
1200		-23.437500
1201		-42.968750
1202		-31.250000
1203		-50.781250
1204		-39.062500
1205		-58.593750
1206		-46.875000
1207		-66.406250
1208		-54.687500
1209		-74.218750
1210		-62.500000
1211		-82.031250
1212		-70.312500
1213		-89.843750
1214		-78.125000
1215		-97.656250
