metingen laweit/30cm, resfreq2/data_81_256.txt

Channel              :		CH1
Frequency            :		1.240kHz
Period               :		0.807ms
PK-PK                :		156.3mV
Probe attenuation    :		1X
Voltage per ADC value:		0.244141mV
Time interval        :		2.00000us

index		CH1_Voltage(mV)
1		46.875000
2		46.875000
3		50.781250
4		42.968750
5		46.875000
6		42.968750
7		46.875000
8		39.062500
9		42.968750
10		35.156250
11		39.062500
12		35.156250
13		39.062500
14		31.250000
15		35.156250
16		31.250000
17		35.156250
18		27.343750
19		31.250000
20		23.437500
21		31.250000
22		23.437500
23		27.343750
24		19.531250
25		23.437500
26		19.531250
27		23.437500
28		15.625000
29		19.531250
30		15.625000
31		19.531250
32		11.718750
33		15.625000
34		11.718750
35		15.625000
36		7.812500
37		11.718750
38		3.906250
39		7.812500
40		3.906250
41		7.812500
42		0.000000
43		7.812500
44		0.000000
45		3.906250
46		-3.906250
47		3.906250
48		-3.906250
49		0.000000
50		-3.906250
51		0.000000
52		-7.812500
53		-3.906250
54		-7.812500
55		-3.906250
56		-11.718750
57		-7.812500
58		-11.718750
59		-7.812500
60		-11.718750
61		-7.812500
62		-15.625000
63		-11.718750
64		-15.625000
65		-11.718750
66		-15.625000
67		-11.718750
68		-19.531250
69		-15.625000
70		-19.531250
71		-15.625000
72		-19.531250
73		-15.625000
74		-23.437500
75		-15.625000
76		-23.437500
77		-19.531250
78		-23.437500
79		-19.531250
80		-23.437500
81		-19.531250
82		-23.437500
83		-23.437500
84		-27.343750
85		-23.437500
86		-27.343750
87		-23.437500
88		-27.343750
89		-23.437500
90		-27.343750
91		-23.437500
92		-27.343750
93		-23.437500
94		-27.343750
95		-23.437500
96		-27.343750
97		-23.437500
98		-27.343750
99		-23.437500
100		-27.343750
101		-23.437500
102		-27.343750
103		-23.437500
104		-27.343750
105		-23.437500
106		-27.343750
107		-23.437500
108		-27.343750
109		-23.437500
110		-27.343750
111		-23.437500
112		-27.343750
113		-23.437500
114		-27.343750
115		-23.437500
116		-27.343750
117		-23.437500
118		-23.437500
119		-19.531250
120		-23.437500
121		-19.531250
122		-23.437500
123		-19.531250
124		-23.437500
125		-19.531250
126		-23.437500
127		-19.531250
128		-19.531250
129		-15.625000
130		-19.531250
131		-15.625000
132		-19.531250
133		-15.625000
134		-15.625000
135		-11.718750
136		-15.625000
137		-11.718750
138		-15.625000
139		-11.718750
140		-11.718750
141		-7.812500
142		-11.718750
143		-7.812500
144		-11.718750
145		-3.906250
146		-7.812500
147		-3.906250
148		-7.812500
149		-3.906250
150		-3.906250
151		0.000000
152		-3.906250
153		0.000000
154		-3.906250
155		3.906250
156		0.000000
157		3.906250
158		3.906250
159		7.812500
160		3.906250
161		7.812500
162		7.812500
163		11.718750
164		7.812500
165		11.718750
166		7.812500
167		15.625000
168		11.718750
169		15.625000
170		15.625000
171		19.531250
172		15.625000
173		19.531250
174		19.531250
175		23.437500
176		19.531250
177		23.437500
178		23.437500
179		27.343750
180		23.437500
181		31.250000
182		27.343750
183		31.250000
184		31.250000
185		35.156250
186		31.250000
187		35.156250
188		35.156250
189		39.062500
190		35.156250
191		42.968750
192		39.062500
193		42.968750
194		39.062500
195		46.875000
196		42.968750
197		46.875000
198		46.875000
199		50.781250
200		46.875000
201		50.781250
202		50.781250
203		54.687500
204		50.781250
205		54.687500
206		54.687500
207		58.593750
208		54.687500
209		62.500000
210		58.593750
211		62.500000
212		62.500000
213		66.406250
214		62.500000
215		66.406250
216		66.406250
217		70.312500
218		66.406250
219		70.312500
220		70.312500
221		74.218750
222		70.312500
223		74.218750
224		74.218750
225		78.125000
226		74.218750
227		82.031250
228		78.125000
229		82.031250
230		78.125000
231		82.031250
232		82.031250
233		85.937500
234		82.031250
235		89.843750
236		85.937500
237		89.843750
238		85.937500
239		93.750000
240		89.843750
241		93.750000
242		89.843750
243		93.750000
244		89.843750
245		97.656250
246		93.750000
247		97.656250
248		93.750000
249		97.656250
250		97.656250
251		101.562500
252		97.656250
253		101.562500
254		97.656250
255		105.468750
256		101.562500
257		105.468750
258		101.562500
259		105.468750
260		101.562500
261		109.375000
262		105.468750
263		109.375000
264		105.468750
265		109.375000
266		105.468750
267		113.281250
268		109.375000
269		113.281250
270		109.375000
271		113.281250
272		109.375000
273		113.281250
274		113.281250
275		113.281250
276		113.281250
277		117.187500
278		113.281250
279		117.187500
280		113.281250
281		117.187500
282		113.281250
283		117.187500
284		113.281250
285		117.187500
286		113.281250
287		121.093750
288		117.187500
289		121.093750
290		117.187500
291		121.093750
292		117.187500
293		121.093750
294		117.187500
295		121.093750
296		117.187500
297		121.093750
298		117.187500
299		121.093750
300		117.187500
301		121.093750
302		117.187500
303		121.093750
304		117.187500
305		121.093750
306		117.187500
307		121.093750
308		117.187500
309		121.093750
310		117.187500
311		121.093750
312		117.187500
313		121.093750
314		117.187500
315		121.093750
316		117.187500
317		121.093750
318		117.187500
319		121.093750
320		117.187500
321		121.093750
322		117.187500
323		121.093750
324		113.281250
325		117.187500
326		113.281250
327		117.187500
328		113.281250
329		117.187500
330		113.281250
331		117.187500
332		113.281250
333		117.187500
334		109.375000
335		113.281250
336		109.375000
337		113.281250
338		109.375000
339		113.281250
340		109.375000
341		113.281250
342		105.468750
343		109.375000
344		105.468750
345		109.375000
346		105.468750
347		109.375000
348		101.562500
349		109.375000
350		101.562500
351		105.468750
352		97.656250
353		105.468750
354		97.656250
355		101.562500
356		97.656250
357		101.562500
358		93.750000
359		101.562500
360		93.750000
361		97.656250
362		93.750000
363		97.656250
364		89.843750
365		93.750000
366		89.843750
367		93.750000
368		85.937500
369		89.843750
370		85.937500
371		89.843750
372		82.031250
373		85.937500
374		82.031250
375		85.937500
376		78.125000
377		82.031250
378		78.125000
379		82.031250
380		74.218750
381		78.125000
382		74.218750
383		78.125000
384		70.312500
385		74.218750
386		66.406250
387		74.218750
388		66.406250
389		70.312500
390		62.500000
391		70.312500
392		62.500000
393		66.406250
394		58.593750
395		62.500000
396		58.593750
397		62.500000
398		54.687500
399		58.593750
400		50.781250
401		58.593750
402		50.781250
403		54.687500
404		46.875000
405		50.781250
406		46.875000
407		50.781250
408		42.968750
409		46.875000
410		39.062500
411		46.875000
412		39.062500
413		42.968750
414		35.156250
415		39.062500
416		35.156250
417		39.062500
418		31.250000
419		35.156250
420		27.343750
421		35.156250
422		27.343750
423		31.250000
424		23.437500
425		27.343750
426		23.437500
427		27.343750
428		19.531250
429		23.437500
430		19.531250
431		23.437500
432		15.625000
433		19.531250
434		11.718750
435		15.625000
436		11.718750
437		15.625000
438		7.812500
439		11.718750
440		7.812500
441		11.718750
442		3.906250
443		7.812500
444		3.906250
445		7.812500
446		0.000000
447		3.906250
448		0.000000
449		3.906250
450		-3.906250
451		0.000000
452		-3.906250
453		0.000000
454		-7.812500
455		0.000000
456		-7.812500
457		-3.906250
458		-7.812500
459		-3.906250
460		-11.718750
461		-7.812500
462		-11.718750
463		-7.812500
464		-15.625000
465		-11.718750
466		-15.625000
467		-11.718750
468		-15.625000
469		-11.718750
470		-19.531250
471		-15.625000
472		-19.531250
473		-15.625000
474		-19.531250
475		-15.625000
476		-23.437500
477		-19.531250
478		-23.437500
479		-19.531250
480		-23.437500
481		-19.531250
482		-23.437500
483		-19.531250
484		-27.343750
485		-19.531250
486		-27.343750
487		-23.437500
488		-27.343750
489		-23.437500
490		-27.343750
491		-23.437500
492		-27.343750
493		-23.437500
494		-27.343750
495		-23.437500
496		-27.343750
497		-23.437500
498		-27.343750
499		-23.437500
500		-27.343750
501		-27.343750
502		-27.343750
503		-23.437500
504		-27.343750
505		-23.437500
506		-27.343750
507		-23.437500
508		-27.343750
509		-23.437500
510		-27.343750
511		-23.437500
512		-27.343750
513		-23.437500
514		-27.343750
515		-23.437500
516		-27.343750
517		-23.437500
518		-27.343750
519		-23.437500
520		-27.343750
521		-19.531250
522		-23.437500
523		-19.531250
524		-23.437500
525		-19.531250
526		-23.437500
527		-19.531250
528		-23.437500
529		-19.531250
530		-19.531250
531		-15.625000
532		-19.531250
533		-15.625000
534		-19.531250
535		-15.625000
536		-19.531250
537		-15.625000
538		-15.625000
539		-11.718750
540		-15.625000
541		-11.718750
542		-15.625000
543		-11.718750
544		-11.718750
545		-7.812500
546		-11.718750
547		-7.812500
548		-7.812500
549		-3.906250
550		-7.812500
551		-3.906250
552		-7.812500
553		0.000000
554		-3.906250
555		0.000000
556		-3.906250
557		0.000000
558		0.000000
559		3.906250
560		0.000000
561		3.906250
562		3.906250
563		7.812500
564		3.906250
565		7.812500
566		7.812500
567		11.718750
568		7.812500
569		11.718750
570		11.718750
571		15.625000
572		11.718750
573		15.625000
574		15.625000
575		19.531250
576		15.625000
577		19.531250
578		19.531250
579		23.437500
580		23.437500
581		27.343750
582		23.437500
583		27.343750
584		27.343750
585		31.250000
586		27.343750
587		31.250000
588		31.250000
589		35.156250
590		31.250000
591		39.062500
592		35.156250
593		39.062500
594		39.062500
595		42.968750
596		39.062500
597		42.968750
598		42.968750
599		46.875000
600		42.968750
601		50.781250
602		46.875000
603		50.781250
604		46.875000
605		54.687500
606		50.781250
607		54.687500
608		54.687500
609		58.593750
610		54.687500
611		58.593750
612		58.593750
613		62.500000
614		58.593750
615		66.406250
616		62.500000
617		66.406250
618		66.406250
619		70.312500
620		66.406250
621		70.312500
622		70.312500
623		74.218750
624		70.312500
625		74.218750
626		74.218750
627		78.125000
628		74.218750
629		78.125000
630		78.125000
631		82.031250
632		78.125000
633		82.031250
634		82.031250
635		85.937500
636		82.031250
637		85.937500
638		85.937500
639		89.843750
640		85.937500
641		89.843750
642		85.937500
643		93.750000
644		89.843750
645		93.750000
646		89.843750
647		97.656250
648		93.750000
649		97.656250
650		93.750000
651		97.656250
652		97.656250
653		101.562500
654		97.656250
655		101.562500
656		97.656250
657		101.562500
658		101.562500
659		105.468750
660		101.562500
661		105.468750
662		105.468750
663		109.375000
664		105.468750
665		109.375000
666		105.468750
667		109.375000
668		105.468750
669		109.375000
670		109.375000
671		113.281250
672		109.375000
673		113.281250
674		109.375000
675		113.281250
676		113.281250
677		113.281250
678		113.281250
679		117.187500
680		113.281250
681		117.187500
682		113.281250
683		117.187500
684		113.281250
685		117.187500
686		113.281250
687		121.093750
688		117.187500
689		117.187500
690		117.187500
691		121.093750
692		117.187500
693		121.093750
694		117.187500
695		121.093750
696		117.187500
697		121.093750
698		117.187500
699		121.093750
700		117.187500
701		121.093750
702		117.187500
703		121.093750
704		117.187500
705		121.093750
706		117.187500
707		121.093750
708		117.187500
709		121.093750
710		117.187500
711		121.093750
712		117.187500
713		121.093750
714		117.187500
715		121.093750
716		117.187500
717		121.093750
718		117.187500
719		121.093750
720		117.187500
721		121.093750
722		117.187500
723		121.093750
724		117.187500
725		117.187500
726		113.281250
727		121.093750
728		113.281250
729		117.187500
730		113.281250
731		117.187500
732		113.281250
733		117.187500
734		113.281250
735		117.187500
736		109.375000
737		113.281250
738		109.375000
739		113.281250
740		109.375000
741		113.281250
742		109.375000
743		113.281250
744		109.375000
745		109.375000
746		105.468750
747		109.375000
748		105.468750
749		109.375000
750		101.562500
751		109.375000
752		101.562500
753		105.468750
754		101.562500
755		105.468750
756		97.656250
757		101.562500
758		97.656250
759		101.562500
760		97.656250
761		101.562500
762		93.750000
763		97.656250
764		93.750000
765		97.656250
766		89.843750
767		93.750000
768		89.843750
769		93.750000
770		85.937500
771		89.843750
772		85.937500
773		89.843750
774		85.937500
775		89.843750
776		82.031250
777		85.937500
778		82.031250
779		85.937500
780		78.125000
781		82.031250
782		74.218750
783		82.031250
784		74.218750
785		78.125000
786		70.312500
787		78.125000
788		70.312500
789		74.218750
790		66.406250
791		70.312500
792		66.406250
793		70.312500
794		62.500000
795		66.406250
796		62.500000
797		66.406250
798		58.593750
799		62.500000
800		54.687500
801		62.500000
802		54.687500
803		58.593750
804		50.781250
805		54.687500
806		50.781250
807		54.687500
808		46.875000
809		50.781250
810		42.968750
811		46.875000
812		42.968750
813		46.875000
814		39.062500
815		42.968750
816		39.062500
817		42.968750
818		35.156250
819		39.062500
820		31.250000
821		35.156250
822		31.250000
823		35.156250
824		27.343750
825		31.250000
826		27.343750
827		31.250000
828		23.437500
829		27.343750
830		19.531250
831		27.343750
832		19.531250
833		23.437500
834		15.625000
835		19.531250
836		15.625000
837		19.531250
838		11.718750
839		15.625000
840		11.718750
841		15.625000
842		7.812500
843		11.718750
844		7.812500
845		11.718750
846		3.906250
847		7.812500
848		3.906250
849		7.812500
850		0.000000
851		3.906250
852		-3.906250
853		3.906250
854		-3.906250
855		0.000000
856		-3.906250
857		0.000000
858		-7.812500
859		-3.906250
860		-7.812500
861		-3.906250
862		-11.718750
863		-7.812500
864		-11.718750
865		-7.812500
866		-11.718750
867		-7.812500
868		-15.625000
869		-11.718750
870		-15.625000
871		-11.718750
872		-15.625000
873		-11.718750
874		-19.531250
875		-15.625000
876		-19.531250
877		-15.625000
878		-19.531250
879		-15.625000
880		-23.437500
881		-19.531250
882		-23.437500
883		-19.531250
884		-23.437500
885		-19.531250
886		-23.437500
887		-19.531250
888		-27.343750
889		-19.531250
890		-27.343750
891		-23.437500
892		-27.343750
893		-23.437500
894		-27.343750
895		-23.437500
896		-27.343750
897		-23.437500
898		-27.343750
899		-23.437500
900		-27.343750
901		-23.437500
902		-27.343750
903		-23.437500
904		-27.343750
905		-23.437500
906		-27.343750
907		-23.437500
908		-27.343750
909		-23.437500
910		-27.343750
911		-23.437500
912		-27.343750
913		-23.437500
914		-27.343750
915		-23.437500
916		-27.343750
917		-23.437500
918		-27.343750
919		-23.437500
920		-27.343750
921		-23.437500
922		-23.437500
923		-23.437500
924		-23.437500
925		-19.531250
926		-23.437500
927		-19.531250
928		-23.437500
929		-19.531250
930		-23.437500
931		-19.531250
932		-19.531250
933		-15.625000
934		-19.531250
935		-15.625000
936		-19.531250
937		-15.625000
938		-19.531250
939		-15.625000
940		-15.625000
941		-11.718750
942		-15.625000
943		-11.718750
944		-15.625000
945		-11.718750
946		-11.718750
947		-7.812500
948		-11.718750
949		-7.812500
950		-11.718750
951		-7.812500
952		-7.812500
953		-3.906250
954		-7.812500
955		-3.906250
956		-3.906250
957		0.000000
958		-3.906250
959		0.000000
960		0.000000
961		3.906250
962		0.000000
963		3.906250
964		0.000000
965		3.906250
966		3.906250
967		7.812500
968		3.906250
969		11.718750
970		7.812500
971		11.718750
972		11.718750
973		15.625000
974		11.718750
975		15.625000
976		11.718750
977		19.531250
978		15.625000
979		19.531250
980		15.625000
981		23.437500
982		19.531250
983		27.343750
984		23.437500
985		27.343750
986		23.437500
987		27.343750
988		27.343750
989		31.250000
990		27.343750
991		35.156250
992		31.250000
993		35.156250
994		35.156250
995		39.062500
996		35.156250
997		39.062500
998		39.062500
999		42.968750
1000		39.062500
1001		42.968750
1002		42.968750
1003		46.875000
1004		46.875000
1005		50.781250
1006		46.875000
1007		50.781250
1008		50.781250
1009		54.687500
1010		50.781250
1011		54.687500
1012		54.687500
1013		58.593750
1014		54.687500
1015		58.593750
1016		58.593750
1017		62.500000
1018		58.593750
1019		66.406250
1020		62.500000
1021		66.406250
1022		62.500000
1023		70.312500
1024		66.406250
1025		74.218750
1026		70.312500
1027		74.218750
1028		70.312500
1029		74.218750
1030		74.218750
1031		78.125000
1032		74.218750
1033		82.031250
1034		78.125000
1035		82.031250
1036		78.125000
1037		82.031250
1038		82.031250
1039		85.937500
1040		82.031250
1041		85.937500
1042		85.937500
1043		89.843750
1044		85.937500
1045		89.843750
1046		89.843750
1047		93.750000
1048		89.843750
1049		93.750000
1050		93.750000
1051		97.656250
1052		93.750000
1053		97.656250
1054		93.750000
1055		97.656250
1056		97.656250
1057		101.562500
1058		97.656250
1059		101.562500
1060		97.656250
1061		105.468750
1062		101.562500
1063		105.468750
1064		101.562500
1065		105.468750
1066		105.468750
1067		109.375000
1068		105.468750
1069		109.375000
1070		105.468750
1071		109.375000
1072		109.375000
1073		113.281250
1074		109.375000
1075		113.281250
1076		109.375000
1077		113.281250
1078		109.375000
1079		113.281250
1080		113.281250
1081		113.281250
1082		113.281250
1083		117.187500
1084		113.281250
1085		117.187500
1086		113.281250
1087		117.187500
1088		113.281250
1089		117.187500
1090		117.187500
1091		121.093750
1092		117.187500
1093		121.093750
1094		117.187500
1095		121.093750
1096		117.187500
1097		121.093750
1098		117.187500
1099		121.093750
1100		117.187500
1101		121.093750
1102		117.187500
1103		121.093750
1104		117.187500
1105		121.093750
1106		117.187500
1107		121.093750
1108		117.187500
1109		121.093750
1110		117.187500
1111		121.093750
1112		117.187500
1113		121.093750
1114		117.187500
1115		121.093750
1116		117.187500
1117		121.093750
1118		117.187500
1119		121.093750
1120		117.187500
1121		121.093750
1122		117.187500
1123		121.093750
1124		117.187500
1125		121.093750
1126		117.187500
1127		121.093750
1128		113.281250
1129		117.187500
1130		113.281250
1131		117.187500
1132		113.281250
1133		117.187500
1134		113.281250
1135		117.187500
1136		113.281250
1137		117.187500
1138		109.375000
1139		113.281250
1140		109.375000
1141		113.281250
1142		109.375000
1143		113.281250
1144		109.375000
1145		113.281250
1146		105.468750
1147		113.281250
1148		105.468750
1149		109.375000
1150		105.468750
1151		109.375000
1152		105.468750
1153		109.375000
1154		101.562500
1155		105.468750
1156		101.562500
1157		105.468750
1158		101.562500
1159		105.468750
1160		97.656250
1161		101.562500
1162		97.656250
1163		101.562500
1164		93.750000
1165		97.656250
1166		93.750000
1167		97.656250
1168		93.750000
1169		97.656250
1170		89.843750
1171		93.750000
1172		89.843750
1173		93.750000
1174		85.937500
1175		89.843750
1176		85.937500
1177		89.843750
1178		82.031250
1179		85.937500
1180		82.031250
1181		85.937500
1182		78.125000
1183		82.031250
1184		78.125000
1185		82.031250
1186		74.218750
1187		78.125000
1188		70.312500
1189		78.125000
1190		70.312500
1191		74.218750
1192		70.312500
1193		74.218750
1194		66.406250
1195		70.312500
1196		62.500000
1197		70.312500
1198		62.500000
1199		66.406250
1200		58.593750
1201		62.500000
1202		58.593750
1203		62.500000
1204		54.687500
1205		58.593750
1206		54.687500
1207		58.593750
1208		50.781250
1209		54.687500
1210		46.875000
1211		54.687500
1212		42.968750
1213		50.781250
1214		42.968750
1215		46.875000
1216		39.062500
1217		46.875000
1218		39.062500
1219		42.968750
1220		35.156250
1221		39.062500
1222		31.250000
1223		39.062500
1224		31.250000
1225		35.156250
1226		27.343750
1227		35.156250
1228		27.343750
1229		31.250000
1230		23.437500
1231		31.250000
1232		23.437500
1233		27.343750
1234		19.531250
1235		23.437500
1236		19.531250
1237		23.437500
1238		15.625000
1239		19.531250
1240		11.718750
1241		19.531250
1242		11.718750
1243		15.625000
1244		7.812500
1245		15.625000
1246		7.812500
1247		11.718750
1248		3.906250
1249		11.718750
1250		3.906250
1251		7.812500
1252		0.000000
1253		7.812500
1254		0.000000
1255		3.906250
1256		-3.906250
1257		0.000000
1258		-3.906250
1259		0.000000
1260		-3.906250
1261		-3.906250
1262		-7.812500
1263		-3.906250
1264		-7.812500
1265		-3.906250
1266		-11.718750
1267		-7.812500
1268		-11.718750
1269		-7.812500
1270		-15.625000
1271		-7.812500
1272		-15.625000
1273		-11.718750
