metingen laweit/30cm, resfreq2/data_81_258.txt

Channel              :		CH1
Frequency            :		1.240kHz
Period               :		0.807ms
PK-PK                :		320.3mV
Probe attenuation    :		1X
Voltage per ADC value:		0.244141mV
Time interval        :		2.00000us

index		CH1_Voltage(mV)
1		-46.875000
2		-46.875000
3		-39.062500
4		-50.781250
5		-42.968750
6		-58.593750
7		-46.875000
8		-62.500000
9		-50.781250
10		-66.406250
11		-54.687500
12		-70.312500
13		-62.500000
14		-74.218750
15		-66.406250
16		-78.125000
17		-70.312500
18		-82.031250
19		-74.218750
20		-85.937500
21		-78.125000
22		-89.843750
23		-82.031250
24		-93.750000
25		-85.937500
26		-97.656250
27		-89.843750
28		-101.562500
29		-93.750000
30		-105.468750
31		-97.656250
32		-109.375000
33		-101.562500
34		-109.375000
35		-101.562500
36		-113.281250
37		-105.468750
38		-117.187500
39		-109.375000
40		-121.093750
41		-113.281250
42		-125.000000
43		-113.281250
44		-125.000000
45		-117.187500
46		-128.906250
47		-121.093750
48		-128.906250
49		-121.093750
50		-132.812500
51		-125.000000
52		-132.812500
53		-125.000000
54		-132.812500
55		-128.906250
56		-136.718750
57		-132.812500
58		-140.625000
59		-132.812500
60		-140.625000
61		-132.812500
62		-140.625000
63		-132.812500
64		-140.625000
65		-132.812500
66		-140.625000
67		-136.718750
68		-144.531250
69		-136.718750
70		-140.625000
71		-136.718750
72		-140.625000
73		-136.718750
74		-144.531250
75		-136.718750
76		-144.531250
77		-136.718750
78		-144.531250
79		-136.718750
80		-140.625000
81		-136.718750
82		-140.625000
83		-132.812500
84		-140.625000
85		-132.812500
86		-140.625000
87		-132.812500
88		-136.718750
89		-132.812500
90		-136.718750
91		-128.906250
92		-136.718750
93		-128.906250
94		-136.718750
95		-125.000000
96		-132.812500
97		-125.000000
98		-132.812500
99		-125.000000
100		-128.906250
101		-121.093750
102		-125.000000
103		-121.093750
104		-121.093750
105		-117.187500
106		-121.093750
107		-113.281250
108		-117.187500
109		-109.375000
110		-117.187500
111		-105.468750
112		-113.281250
113		-105.468750
114		-109.375000
115		-101.562500
116		-105.468750
117		-97.656250
118		-101.562500
119		-93.750000
120		-97.656250
121		-89.843750
122		-93.750000
123		-85.937500
124		-89.843750
125		-82.031250
126		-89.843750
127		-78.125000
128		-82.031250
129		-74.218750
130		-78.125000
131		-70.312500
132		-74.218750
133		-66.406250
134		-70.312500
135		-62.500000
136		-66.406250
137		-58.593750
138		-58.593750
139		-54.687500
140		-54.687500
141		-50.781250
142		-54.687500
143		-42.968750
144		-46.875000
145		-39.062500
146		-42.968750
147		-35.156250
148		-39.062500
149		-27.343750
150		-35.156250
151		-23.437500
152		-27.343750
153		-19.531250
154		-23.437500
155		-15.625000
156		-19.531250
157		-11.718750
158		-11.718750
159		-3.906250
160		-11.718750
161		0.000000
162		-3.906250
163		3.906250
164		0.000000
165		11.718750
166		7.812500
167		15.625000
168		7.812500
169		19.531250
170		15.625000
171		23.437500
172		19.531250
173		27.343750
174		27.343750
175		35.156250
176		31.250000
177		39.062500
178		35.156250
179		42.968750
180		39.062500
181		50.781250
182		42.968750
183		54.687500
184		46.875000
185		58.593750
186		50.781250
187		58.593750
188		58.593750
189		66.406250
190		62.500000
191		70.312500
192		66.406250
193		74.218750
194		70.312500
195		78.125000
196		74.218750
197		82.031250
198		78.125000
199		89.843750
200		82.031250
201		93.750000
202		85.937500
203		97.656250
204		93.750000
205		97.656250
206		97.656250
207		101.562500
208		101.562500
209		105.468750
210		101.562500
211		109.375000
212		105.468750
213		113.281250
214		109.375000
215		117.187500
216		113.281250
217		121.093750
218		117.187500
219		125.000000
220		117.187500
221		125.000000
222		125.000000
223		128.906250
224		125.000000
225		132.812500
226		125.000000
227		136.718750
228		128.906250
229		136.718750
230		132.812500
231		140.625000
232		132.812500
233		144.531250
234		136.718750
235		144.531250
236		140.625000
237		148.437500
238		144.531250
239		148.437500
240		144.531250
241		148.437500
242		144.531250
243		152.343750
244		148.437500
245		156.250000
246		148.437500
247		156.250000
248		152.343750
249		156.250000
250		152.343750
251		160.156250
252		152.343750
253		160.156250
254		156.250000
255		160.156250
256		160.156250
257		160.156250
258		156.250000
259		164.062500
260		160.156250
261		164.062500
262		156.250000
263		167.968750
264		160.156250
265		167.968750
266		160.156250
267		167.968750
268		160.156250
269		167.968750
270		160.156250
271		167.968750
272		164.062500
273		167.968750
274		164.062500
275		167.968750
276		160.156250
277		167.968750
278		160.156250
279		167.968750
280		160.156250
281		167.968750
282		160.156250
283		167.968750
284		160.156250
285		167.968750
286		160.156250
287		167.968750
288		160.156250
289		164.062500
290		160.156250
291		164.062500
292		156.250000
293		164.062500
294		156.250000
295		164.062500
296		156.250000
297		164.062500
298		152.343750
299		160.156250
300		152.343750
301		160.156250
302		152.343750
303		160.156250
304		152.343750
305		156.250000
306		152.343750
307		156.250000
308		148.437500
309		152.343750
310		144.531250
311		152.343750
312		140.625000
313		152.343750
314		140.625000
315		148.437500
316		136.718750
317		144.531250
318		136.718750
319		144.531250
320		132.812500
321		140.625000
322		132.812500
323		136.718750
324		128.906250
325		132.812500
326		125.000000
327		132.812500
328		121.093750
329		128.906250
330		121.093750
331		128.906250
332		117.187500
333		125.000000
334		113.281250
335		121.093750
336		109.375000
337		117.187500
338		109.375000
339		117.187500
340		105.468750
341		109.375000
342		97.656250
343		105.468750
344		93.750000
345		105.468750
346		93.750000
347		101.562500
348		85.937500
349		97.656250
350		82.031250
351		89.843750
352		78.125000
353		89.843750
354		74.218750
355		82.031250
356		70.312500
357		78.125000
358		66.406250
359		74.218750
360		62.500000
361		70.312500
362		58.593750
363		66.406250
364		50.781250
365		62.500000
366		46.875000
367		54.687500
368		42.968750
369		50.781250
370		39.062500
371		46.875000
372		35.156250
373		42.968750
374		31.250000
375		35.156250
376		23.437500
377		31.250000
378		19.531250
379		31.250000
380		11.718750
381		23.437500
382		7.812500
383		19.531250
384		3.906250
385		15.625000
386		0.000000
387		7.812500
388		-3.906250
389		3.906250
390		-7.812500
391		-3.906250
392		-15.625000
393		-7.812500
394		-19.531250
395		-11.718750
396		-27.343750
397		-15.625000
398		-31.250000
399		-19.531250
400		-35.156250
401		-27.343750
402		-39.062500
403		-31.250000
404		-42.968750
405		-35.156250
406		-46.875000
407		-42.968750
408		-50.781250
409		-46.875000
410		-58.593750
411		-50.781250
412		-62.500000
413		-54.687500
414		-66.406250
415		-58.593750
416		-70.312500
417		-62.500000
418		-78.125000
419		-66.406250
420		-82.031250
421		-70.312500
422		-82.031250
423		-74.218750
424		-85.937500
425		-82.031250
426		-93.750000
427		-85.937500
428		-93.750000
429		-85.937500
430		-101.562500
431		-89.843750
432		-101.562500
433		-93.750000
434		-105.468750
435		-97.656250
436		-109.375000
437		-101.562500
438		-113.281250
439		-105.468750
440		-113.281250
441		-109.375000
442		-117.187500
443		-113.281250
444		-121.093750
445		-113.281250
446		-125.000000
447		-117.187500
448		-125.000000
449		-117.187500
450		-128.906250
451		-121.093750
452		-132.812500
453		-125.000000
454		-132.812500
455		-125.000000
456		-132.812500
457		-128.906250
458		-136.718750
459		-132.812500
460		-140.625000
461		-132.812500
462		-140.625000
463		-132.812500
464		-140.625000
465		-132.812500
466		-140.625000
467		-132.812500
468		-144.531250
469		-132.812500
470		-144.531250
471		-136.718750
472		-144.531250
473		-136.718750
474		-140.625000
475		-136.718750
476		-144.531250
477		-136.718750
478		-144.531250
479		-136.718750
480		-144.531250
481		-136.718750
482		-144.531250
483		-136.718750
484		-144.531250
485		-136.718750
486		-140.625000
487		-136.718750
488		-140.625000
489		-132.812500
490		-136.718750
491		-136.718750
492		-136.718750
493		-132.812500
494		-136.718750
495		-128.906250
496		-136.718750
497		-128.906250
498		-132.812500
499		-125.000000
500		-132.812500
501		-125.000000
502		-128.906250
503		-121.093750
504		-128.906250
505		-121.093750
506		-125.000000
507		-117.187500
508		-121.093750
509		-117.187500
510		-121.093750
511		-113.281250
512		-117.187500
513		-109.375000
514		-113.281250
515		-105.468750
516		-113.281250
517		-101.562500
518		-109.375000
519		-97.656250
520		-105.468750
521		-97.656250
522		-101.562500
523		-93.750000
524		-97.656250
525		-89.843750
526		-93.750000
527		-85.937500
528		-89.843750
529		-82.031250
530		-85.937500
531		-78.125000
532		-82.031250
533		-74.218750
534		-78.125000
535		-70.312500
536		-74.218750
537		-66.406250
538		-70.312500
539		-62.500000
540		-66.406250
541		-58.593750
542		-58.593750
543		-54.687500
544		-54.687500
545		-46.875000
546		-50.781250
547		-42.968750
548		-46.875000
549		-35.156250
550		-42.968750
551		-35.156250
552		-35.156250
553		-27.343750
554		-35.156250
555		-23.437500
556		-27.343750
557		-19.531250
558		-23.437500
559		-15.625000
560		-15.625000
561		-11.718750
562		-15.625000
563		-3.906250
564		-7.812500
565		3.906250
566		-3.906250
567		7.812500
568		0.000000
569		11.718750
570		7.812500
571		15.625000
572		11.718750
573		19.531250
574		15.625000
575		23.437500
576		23.437500
577		31.250000
578		27.343750
579		35.156250
580		31.250000
581		39.062500
582		35.156250
583		46.875000
584		42.968750
585		50.781250
586		42.968750
587		54.687500
588		46.875000
589		58.593750
590		54.687500
591		62.500000
592		58.593750
593		66.406250
594		66.406250
595		74.218750
596		66.406250
597		78.125000
598		70.312500
599		82.031250
600		74.218750
601		85.937500
602		78.125000
603		89.843750
604		85.937500
605		93.750000
606		85.937500
607		97.656250
608		93.750000
609		97.656250
610		97.656250
611		101.562500
612		101.562500
613		105.468750
614		101.562500
615		109.375000
616		105.468750
617		113.281250
618		109.375000
619		117.187500
620		113.281250
621		121.093750
622		117.187500
623		125.000000
624		117.187500
625		125.000000
626		125.000000
627		128.906250
628		125.000000
629		132.812500
630		128.906250
631		136.718750
632		128.906250
633		136.718750
634		132.812500
635		140.625000
636		132.812500
637		144.531250
638		136.718750
639		144.531250
640		140.625000
641		148.437500
642		144.531250
643		148.437500
644		144.531250
645		148.437500
646		144.531250
647		152.343750
648		148.437500
649		156.250000
650		148.437500
651		156.250000
652		152.343750
653		156.250000
654		152.343750
655		160.156250
656		152.343750
657		160.156250
658		156.250000
659		160.156250
660		156.250000
661		160.156250
662		156.250000
663		164.062500
664		156.250000
665		164.062500
666		160.156250
667		167.968750
668		160.156250
669		167.968750
670		160.156250
671		167.968750
672		160.156250
673		167.968750
674		160.156250
675		167.968750
676		164.062500
677		164.062500
678		164.062500
679		167.968750
680		160.156250
681		167.968750
682		160.156250
683		167.968750
684		160.156250
685		167.968750
686		160.156250
687		167.968750
688		160.156250
689		167.968750
690		160.156250
691		167.968750
692		160.156250
693		164.062500
694		160.156250
695		164.062500
696		156.250000
697		164.062500
698		156.250000
699		164.062500
700		152.343750
701		160.156250
702		152.343750
703		160.156250
704		152.343750
705		160.156250
706		152.343750
707		156.250000
708		152.343750
709		156.250000
710		148.437500
711		152.343750
712		144.531250
713		152.343750
714		140.625000
715		152.343750
716		140.625000
717		148.437500
718		140.625000
719		148.437500
720		136.718750
721		144.531250
722		132.812500
723		140.625000
724		132.812500
725		140.625000
726		132.812500
727		136.718750
728		128.906250
729		132.812500
730		121.093750
731		132.812500
732		121.093750
733		128.906250
734		117.187500
735		125.000000
736		113.281250
737		121.093750
738		113.281250
739		121.093750
740		105.468750
741		117.187500
742		105.468750
743		109.375000
744		101.562500
745		105.468750
746		97.656250
747		105.468750
748		93.750000
749		101.562500
750		89.843750
751		97.656250
752		85.937500
753		93.750000
754		82.031250
755		89.843750
756		74.218750
757		85.937500
758		74.218750
759		82.031250
760		70.312500
761		74.218750
762		62.500000
763		70.312500
764		58.593750
765		66.406250
766		54.687500
767		62.500000
768		50.781250
769		58.593750
770		46.875000
771		54.687500
772		39.062500
773		50.781250
774		35.156250
775		46.875000
776		31.250000
777		39.062500
778		27.343750
779		35.156250
780		19.531250
781		27.343750
782		15.625000
783		27.343750
784		11.718750
785		19.531250
786		7.812500
787		15.625000
788		0.000000
789		11.718750
790		-3.906250
791		7.812500
792		-7.812500
793		0.000000
794		-11.718750
795		-3.906250
796		-19.531250
797		-11.718750
798		-23.437500
799		-11.718750
800		-27.343750
801		-15.625000
802		-35.156250
803		-23.437500
804		-39.062500
805		-27.343750
806		-42.968750
807		-35.156250
808		-46.875000
809		-39.062500
810		-50.781250
811		-42.968750
812		-54.687500
813		-46.875000
814		-62.500000
815		-50.781250
816		-66.406250
817		-58.593750
818		-70.312500
819		-62.500000
820		-74.218750
821		-66.406250
822		-78.125000
823		-70.312500
824		-82.031250
825		-74.218750
826		-85.937500
827		-78.125000
828		-89.843750
829		-82.031250
830		-93.750000
831		-85.937500
832		-97.656250
833		-89.843750
834		-101.562500
835		-93.750000
836		-105.468750
837		-97.656250
838		-109.375000
839		-101.562500
840		-113.281250
841		-101.562500
842		-113.281250
843		-105.468750
844		-117.187500
845		-109.375000
846		-121.093750
847		-113.281250
848		-125.000000
849		-117.187500
850		-125.000000
851		-117.187500
852		-128.906250
853		-121.093750
854		-132.812500
855		-121.093750
856		-132.812500
857		-125.000000
858		-132.812500
859		-128.906250
860		-132.812500
861		-128.906250
862		-136.718750
863		-132.812500
864		-140.625000
865		-132.812500
866		-140.625000
867		-132.812500
868		-140.625000
869		-132.812500
870		-144.531250
871		-136.718750
872		-144.531250
873		-136.718750
874		-144.531250
875		-136.718750
876		-140.625000
877		-136.718750
878		-144.531250
879		-140.625000
880		-144.531250
881		-136.718750
882		-144.531250
883		-136.718750
884		-144.531250
885		-136.718750
886		-144.531250
887		-136.718750
888		-144.531250
889		-136.718750
890		-140.625000
891		-136.718750
892		-140.625000
893		-136.718750
894		-136.718750
895		-136.718750
896		-136.718750
897		-132.812500
898		-136.718750
899		-128.906250
900		-136.718750
901		-128.906250
902		-132.812500
903		-125.000000
904		-132.812500
905		-125.000000
906		-128.906250
907		-121.093750
908		-128.906250
909		-121.093750
910		-125.000000
911		-121.093750
912		-121.093750
913		-117.187500
914		-121.093750
915		-113.281250
916		-117.187500
917		-109.375000
918		-113.281250
919		-105.468750
920		-109.375000
921		-101.562500
922		-109.375000
923		-97.656250
924		-105.468750
925		-93.750000
926		-101.562500
927		-93.750000
928		-97.656250
929		-89.843750
930		-93.750000
931		-85.937500
932		-89.843750
933		-82.031250
934		-85.937500
935		-74.218750
936		-82.031250
937		-74.218750
938		-78.125000
939		-70.312500
940		-74.218750
941		-62.500000
942		-70.312500
943		-58.593750
944		-62.500000
945		-54.687500
946		-58.593750
947		-50.781250
948		-54.687500
949		-46.875000
950		-50.781250
951		-42.968750
952		-46.875000
953		-35.156250
954		-42.968750
955		-31.250000
956		-35.156250
957		-27.343750
958		-31.250000
959		-23.437500
960		-27.343750
961		-19.531250
962		-19.531250
963		-11.718750
964		-15.625000
965		-7.812500
966		-11.718750
967		-3.906250
968		-7.812500
969		3.906250
970		-3.906250
971		7.812500
972		3.906250
973		11.718750
974		7.812500
975		15.625000
976		11.718750
977		19.531250
978		19.531250
979		27.343750
980		23.437500
981		31.250000
982		27.343750
983		35.156250
984		31.250000
985		42.968750
986		35.156250
987		46.875000
988		39.062500
989		50.781250
990		42.968750
991		54.687500
992		50.781250
993		58.593750
994		54.687500
995		62.500000
996		62.500000
997		66.406250
998		66.406250
999		74.218750
1000		66.406250
1001		78.125000
1002		70.312500
1003		82.031250
1004		78.125000
1005		85.937500
1006		82.031250
1007		89.843750
1008		85.937500
1009		93.750000
1010		85.937500
1011		97.656250
1012		93.750000
1013		101.562500
1014		97.656250
1015		105.468750
1016		97.656250
1017		109.375000
1018		101.562500
1019		113.281250
1020		105.468750
1021		117.187500
1022		109.375000
1023		117.187500
1024		113.281250
1025		121.093750
1026		117.187500
1027		125.000000
1028		121.093750
1029		125.000000
1030		125.000000
1031		128.906250
1032		125.000000
1033		132.812500
1034		128.906250
1035		136.718750
1036		128.906250
1037		140.625000
1038		132.812500
1039		140.625000
1040		136.718750
1041		144.531250
1042		136.718750
1043		144.531250
1044		140.625000
1045		148.437500
1046		144.531250
1047		148.437500
1048		144.531250
1049		152.343750
1050		144.531250
1051		152.343750
1052		148.437500
1053		156.250000
1054		148.437500
1055		156.250000
1056		148.437500
1057		160.156250
1058		152.343750
1059		160.156250
1060		152.343750
1061		160.156250
1062		156.250000
1063		160.156250
1064		156.250000
1065		160.156250
1066		156.250000
1067		164.062500
1068		156.250000
1069		164.062500
1070		160.156250
1071		167.968750
1072		160.156250
1073		164.062500
1074		160.156250
1075		167.968750
1076		160.156250
1077		167.968750
1078		160.156250
1079		164.062500
1080		160.156250
1081		164.062500
1082		160.156250
1083		167.968750
1084		160.156250
1085		167.968750
1086		160.156250
1087		167.968750
1088		160.156250
1089		167.968750
1090		160.156250
1091		167.968750
1092		160.156250
1093		167.968750
1094		160.156250
1095		164.062500
1096		160.156250
1097		164.062500
1098		156.250000
1099		164.062500
1100		156.250000
1101		164.062500
1102		156.250000
1103		164.062500
1104		152.343750
1105		160.156250
1106		152.343750
1107		160.156250
1108		152.343750
1109		160.156250
1110		152.343750
1111		156.250000
1112		148.437500
1113		152.343750
1114		148.437500
1115		152.343750
1116		144.531250
1117		152.343750
1118		140.625000
1119		148.437500
1120		140.625000
1121		148.437500
1122		136.718750
1123		144.531250
1124		136.718750
1125		144.531250
1126		132.812500
1127		140.625000
1128		132.812500
1129		140.625000
1130		128.906250
1131		132.812500
1132		125.000000
1133		132.812500
1134		121.093750
1135		128.906250
1136		121.093750
1137		128.906250
1138		117.187500
1139		125.000000
1140		113.281250
1141		121.093750
1142		109.375000
1143		117.187500
1144		105.468750
1145		113.281250
1146		105.468750
1147		109.375000
1148		101.562500
1149		105.468750
1150		93.750000
1151		101.562500
1152		89.843750
1153		97.656250
1154		85.937500
1155		93.750000
1156		82.031250
1157		93.750000
1158		78.125000
1159		89.843750
1160		74.218750
1161		82.031250
1162		70.312500
1163		78.125000
1164		66.406250
1165		74.218750
1166		58.593750
1167		70.312500
1168		54.687500
1169		66.406250
1170		50.781250
1171		62.500000
1172		46.875000
1173		54.687500
1174		42.968750
1175		50.781250
1176		39.062500
1177		46.875000
1178		35.156250
1179		42.968750
1180		31.250000
1181		35.156250
1182		23.437500
1183		31.250000
1184		19.531250
1185		27.343750
1186		11.718750
1187		23.437500
1188		7.812500
1189		19.531250
1190		3.906250
1191		11.718750
1192		0.000000
1193		7.812500
1194		-7.812500
1195		3.906250
1196		-7.812500
1197		-3.906250
1198		-15.625000
1199		-7.812500
1200		-19.531250
1201		-11.718750
1202		-27.343750
1203		-15.625000
1204		-31.250000
1205		-19.531250
1206		-35.156250
1207		-23.437500
1208		-42.968750
1209		-31.250000
1210		-46.875000
1211		-35.156250
1212		-46.875000
1213		-39.062500
1214		-54.687500
1215		-46.875000
1216		-58.593750
1217		-50.781250
1218		-62.500000
1219		-54.687500
1220		-66.406250
1221		-58.593750
1222		-74.218750
1223		-62.500000
1224		-78.125000
1225		-66.406250
1226		-82.031250
1227		-70.312500
1228		-82.031250
1229		-74.218750
1230		-85.937500
