metingen laweit/30cm, resfreq2/data_81_253.txt

Channel              :		CH1
Frequency            :		1.238kHz
Period               :		0.808ms
PK-PK                :		531.3mV
Probe attenuation    :		1X
Voltage per ADC value:		0.244141mV
Time interval        :		2.00000us

index		CH1_Voltage(mV)
1		-136.718750
2		-136.718750
3		-152.343750
4		-140.625000
5		-160.156250
6		-152.343750
7		-167.968750
8		-160.156250
9		-175.781250
10		-164.062500
11		-183.593750
12		-171.875000
13		-191.406250
14		-179.687500
15		-195.312500
16		-183.593750
17		-203.125000
18		-191.406250
19		-207.031250
20		-199.218750
21		-214.843750
22		-207.031250
23		-218.750000
24		-210.937500
25		-226.562500
26		-218.750000
27		-230.468750
28		-222.656250
29		-234.375000
30		-226.562500
31		-242.187500
32		-230.468750
33		-246.093750
34		-238.281250
35		-250.000000
36		-238.281250
37		-250.000000
38		-242.187500
39		-253.906250
40		-250.000000
41		-257.812500
42		-253.906250
43		-265.625000
44		-253.906250
45		-265.625000
46		-257.812500
47		-269.531250
48		-261.718750
49		-273.437500
50		-261.718750
51		-273.437500
52		-265.625000
53		-273.437500
54		-269.531250
55		-273.437500
56		-269.531250
57		-277.343750
58		-269.531250
59		-277.343750
60		-273.437500
61		-277.343750
62		-273.437500
63		-281.250000
64		-273.437500
65		-281.250000
66		-273.437500
67		-281.250000
68		-273.437500
69		-281.250000
70		-273.437500
71		-277.343750
72		-273.437500
73		-273.437500
74		-269.531250
75		-273.437500
76		-269.531250
77		-273.437500
78		-265.625000
79		-273.437500
80		-265.625000
81		-269.531250
82		-261.718750
83		-265.625000
84		-257.812500
85		-265.625000
86		-257.812500
87		-261.718750
88		-253.906250
89		-257.812500
90		-250.000000
91		-253.906250
92		-246.093750
93		-250.000000
94		-238.281250
95		-246.093750
96		-234.375000
97		-242.187500
98		-230.468750
99		-234.375000
100		-226.562500
101		-230.468750
102		-218.750000
103		-226.562500
104		-214.843750
105		-218.750000
106		-210.937500
107		-210.937500
108		-203.125000
109		-207.031250
110		-195.312500
111		-199.218750
112		-191.406250
113		-195.312500
114		-183.593750
115		-187.500000
116		-175.781250
117		-183.593750
118		-167.968750
119		-171.875000
120		-160.156250
121		-164.062500
122		-156.250000
123		-156.250000
124		-148.437500
125		-148.437500
126		-136.718750
127		-140.625000
128		-128.906250
129		-132.812500
130		-121.093750
131		-125.000000
132		-113.281250
133		-117.187500
134		-105.468750
135		-109.375000
136		-93.750000
137		-101.562500
138		-89.843750
139		-89.843750
140		-82.031250
141		-82.031250
142		-70.312500
143		-74.218750
144		-62.500000
145		-66.406250
146		-50.781250
147		-58.593750
148		-42.968750
149		-50.781250
150		-35.156250
151		-39.062500
152		-27.343750
153		-31.250000
154		-19.531250
155		-23.437500
156		-11.718750
157		-11.718750
158		-3.906250
159		-3.906250
160		7.812500
161		3.906250
162		15.625000
163		11.718750
164		23.437500
165		19.531250
166		35.156250
167		27.343750
168		42.968750
169		35.156250
170		50.781250
171		46.875000
172		54.687500
173		54.687500
174		62.500000
175		62.500000
176		70.312500
177		70.312500
178		78.125000
179		78.125000
180		89.843750
181		82.031250
182		93.750000
183		89.843750
184		101.562500
185		97.656250
186		109.375000
187		105.468750
188		117.187500
189		113.281250
190		121.093750
191		121.093750
192		128.906250
193		125.000000
194		136.718750
195		128.906250
196		140.625000
197		136.718750
198		148.437500
199		144.531250
200		152.343750
201		148.437500
202		160.156250
203		156.250000
204		164.062500
205		160.156250
206		167.968750
207		167.968750
208		171.875000
209		171.875000
210		179.687500
211		175.781250
212		183.593750
213		179.687500
214		187.500000
215		183.593750
216		195.312500
217		187.500000
218		199.218750
219		191.406250
220		199.218750
221		195.312500
222		203.125000
223		199.218750
224		207.031250
225		203.125000
226		210.937500
227		207.031250
228		214.843750
229		210.937500
230		218.750000
231		210.937500
232		222.656250
233		214.843750
234		222.656250
235		218.750000
236		226.562500
237		218.750000
238		226.562500
239		222.656250
240		226.562500
241		226.562500
242		230.468750
243		226.562500
244		234.375000
245		226.562500
246		234.375000
247		230.468750
248		238.281250
249		230.468750
250		238.281250
251		234.375000
252		238.281250
253		234.375000
254		242.187500
255		234.375000
256		242.187500
257		238.281250
258		242.187500
259		238.281250
260		242.187500
261		234.375000
262		242.187500
263		238.281250
264		242.187500
265		238.281250
266		242.187500
267		238.281250
268		242.187500
269		238.281250
270		242.187500
271		238.281250
272		242.187500
273		238.281250
274		242.187500
275		238.281250
276		242.187500
277		234.375000
278		242.187500
279		234.375000
280		242.187500
281		234.375000
282		238.281250
283		230.468750
284		238.281250
285		230.468750
286		238.281250
287		230.468750
288		234.375000
289		230.468750
290		234.375000
291		226.562500
292		230.468750
293		222.656250
294		230.468750
295		222.656250
296		230.468750
297		218.750000
298		226.562500
299		214.843750
300		226.562500
301		214.843750
302		222.656250
303		210.937500
304		218.750000
305		207.031250
306		214.843750
307		207.031250
308		210.937500
309		203.125000
310		207.031250
311		195.312500
312		207.031250
313		191.406250
314		203.125000
315		187.500000
316		199.218750
317		183.593750
318		195.312500
319		179.687500
320		191.406250
321		175.781250
322		183.593750
323		171.875000
324		179.687500
325		167.968750
326		171.875000
327		160.156250
328		167.968750
329		152.343750
330		164.062500
331		148.437500
332		160.156250
333		144.531250
334		152.343750
335		136.718750
336		144.531250
337		128.906250
338		140.625000
339		125.000000
340		132.812500
341		117.187500
342		125.000000
343		109.375000
344		117.187500
345		101.562500
346		113.281250
347		93.750000
348		105.468750
349		85.937500
350		97.656250
351		78.125000
352		89.843750
353		70.312500
354		82.031250
355		62.500000
356		74.218750
357		58.593750
358		66.406250
359		46.875000
360		58.593750
361		39.062500
362		50.781250
363		27.343750
364		42.968750
365		23.437500
366		35.156250
367		11.718750
368		27.343750
369		3.906250
370		15.625000
371		-3.906250
372		11.718750
373		-11.718750
374		0.000000
375		-19.531250
376		-7.812500
377		-27.343750
378		-15.625000
379		-39.062500
380		-23.437500
381		-46.875000
382		-35.156250
383		-54.687500
384		-42.968750
385		-62.500000
386		-50.781250
387		-70.312500
388		-58.593750
389		-78.125000
390		-66.406250
391		-85.937500
392		-78.125000
393		-93.750000
394		-85.937500
395		-105.468750
396		-93.750000
397		-113.281250
398		-101.562500
399		-121.093750
400		-109.375000
401		-128.906250
402		-117.187500
403		-136.718750
404		-125.000000
405		-144.531250
406		-132.812500
407		-152.343750
408		-140.625000
409		-160.156250
410		-148.437500
411		-167.968750
412		-156.250000
413		-175.781250
414		-164.062500
415		-179.687500
416		-171.875000
417		-187.500000
418		-175.781250
419		-195.312500
420		-183.593750
421		-199.218750
422		-191.406250
423		-207.031250
424		-195.312500
425		-210.937500
426		-203.125000
427		-218.750000
428		-210.937500
429		-222.656250
430		-214.843750
431		-230.468750
432		-218.750000
433		-234.375000
434		-226.562500
435		-238.281250
436		-230.468750
437		-246.093750
438		-234.375000
439		-250.000000
440		-238.281250
441		-250.000000
442		-246.093750
443		-253.906250
444		-250.000000
445		-261.718750
446		-253.906250
447		-261.718750
448		-253.906250
449		-265.625000
450		-257.812500
451		-269.531250
452		-261.718750
453		-269.531250
454		-261.718750
455		-273.437500
456		-265.625000
457		-273.437500
458		-265.625000
459		-273.437500
460		-269.531250
461		-277.343750
462		-273.437500
463		-277.343750
464		-269.531250
465		-281.250000
466		-273.437500
467		-281.250000
468		-273.437500
469		-281.250000
470		-273.437500
471		-277.343750
472		-273.437500
473		-277.343750
474		-273.437500
475		-277.343750
476		-273.437500
477		-273.437500
478		-273.437500
479		-273.437500
480		-269.531250
481		-273.437500
482		-265.625000
483		-269.531250
484		-261.718750
485		-269.531250
486		-261.718750
487		-265.625000
488		-257.812500
489		-265.625000
490		-253.906250
491		-261.718750
492		-253.906250
493		-257.812500
494		-250.000000
495		-253.906250
496		-246.093750
497		-250.000000
498		-238.281250
499		-246.093750
500		-234.375000
501		-238.281250
502		-230.468750
503		-238.281250
504		-226.562500
505		-230.468750
506		-222.656250
507		-222.656250
508		-214.843750
509		-218.750000
510		-210.937500
511		-210.937500
512		-203.125000
513		-207.031250
514		-195.312500
515		-199.218750
516		-191.406250
517		-195.312500
518		-183.593750
519		-187.500000
520		-175.781250
521		-179.687500
522		-167.968750
523		-171.875000
524		-160.156250
525		-164.062500
526		-156.250000
527		-156.250000
528		-148.437500
529		-148.437500
530		-136.718750
531		-140.625000
532		-128.906250
533		-132.812500
534		-121.093750
535		-125.000000
536		-113.281250
537		-117.187500
538		-105.468750
539		-109.375000
540		-97.656250
541		-101.562500
542		-89.843750
543		-89.843750
544		-82.031250
545		-82.031250
546		-70.312500
547		-74.218750
548		-62.500000
549		-66.406250
550		-50.781250
551		-58.593750
552		-42.968750
553		-46.875000
554		-35.156250
555		-42.968750
556		-27.343750
557		-31.250000
558		-19.531250
559		-23.437500
560		-11.718750
561		-11.718750
562		-3.906250
563		-3.906250
564		7.812500
565		3.906250
566		15.625000
567		11.718750
568		23.437500
569		19.531250
570		31.250000
571		31.250000
572		42.968750
573		35.156250
574		50.781250
575		42.968750
576		54.687500
577		54.687500
578		62.500000
579		62.500000
580		74.218750
581		66.406250
582		82.031250
583		78.125000
584		85.937500
585		82.031250
586		93.750000
587		89.843750
588		101.562500
589		97.656250
590		109.375000
591		105.468750
592		113.281250
593		113.281250
594		121.093750
595		121.093750
596		128.906250
597		125.000000
598		136.718750
599		128.906250
600		140.625000
601		136.718750
602		148.437500
603		144.531250
604		152.343750
605		148.437500
606		160.156250
607		152.343750
608		164.062500
609		160.156250
610		167.968750
611		167.968750
612		171.875000
613		171.875000
614		179.687500
615		175.781250
616		183.593750
617		179.687500
618		187.500000
619		183.593750
620		191.406250
621		187.500000
622		195.312500
623		191.406250
624		203.125000
625		195.312500
626		203.125000
627		199.218750
628		207.031250
629		203.125000
630		210.937500
631		207.031250
632		214.843750
633		210.937500
634		218.750000
635		214.843750
636		218.750000
637		214.843750
638		222.656250
639		218.750000
640		226.562500
641		222.656250
642		226.562500
643		222.656250
644		226.562500
645		226.562500
646		230.468750
647		226.562500
648		234.375000
649		230.468750
650		234.375000
651		230.468750
652		234.375000
653		230.468750
654		238.281250
655		230.468750
656		238.281250
657		234.375000
658		238.281250
659		234.375000
660		238.281250
661		238.281250
662		238.281250
663		238.281250
664		242.187500
665		234.375000
666		242.187500
667		238.281250
668		242.187500
669		238.281250
670		242.187500
671		238.281250
672		242.187500
673		234.375000
674		242.187500
675		234.375000
676		242.187500
677		238.281250
678		242.187500
679		238.281250
680		238.281250
681		234.375000
682		242.187500
683		234.375000
684		242.187500
685		230.468750
686		238.281250
687		230.468750
688		238.281250
689		230.468750
690		238.281250
691		226.562500
692		234.375000
693		226.562500
694		234.375000
695		226.562500
696		230.468750
697		222.656250
698		230.468750
699		222.656250
700		226.562500
701		218.750000
702		226.562500
703		214.843750
704		222.656250
705		210.937500
706		222.656250
707		210.937500
708		218.750000
709		207.031250
710		214.843750
711		203.125000
712		210.937500
713		199.218750
714		207.031250
715		195.312500
716		203.125000
717		191.406250
718		203.125000
719		187.500000
720		199.218750
721		183.593750
722		191.406250
723		179.687500
724		187.500000
725		175.781250
726		183.593750
727		167.968750
728		175.781250
729		164.062500
730		171.875000
731		156.250000
732		167.968750
733		152.343750
734		164.062500
735		144.531250
736		156.250000
737		140.625000
738		152.343750
739		132.812500
740		144.531250
741		125.000000
742		136.718750
743		121.093750
744		132.812500
745		113.281250
746		121.093750
747		105.468750
748		117.187500
749		97.656250
750		109.375000
751		89.843750
752		101.562500
753		85.937500
754		97.656250
755		78.125000
756		89.843750
757		66.406250
758		82.031250
759		62.500000
760		74.218750
761		54.687500
762		62.500000
763		46.875000
764		54.687500
765		35.156250
766		46.875000
767		27.343750
768		39.062500
769		19.531250
770		31.250000
771		11.718750
772		23.437500
773		3.906250
774		15.625000
775		-3.906250
776		7.812500
777		-11.718750
778		0.000000
779		-19.531250
780		-11.718750
781		-31.250000
782		-19.531250
783		-39.062500
784		-27.343750
785		-46.875000
786		-35.156250
787		-58.593750
788		-42.968750
789		-66.406250
790		-54.687500
791		-74.218750
792		-58.593750
793		-82.031250
794		-70.312500
795		-89.843750
796		-78.125000
797		-97.656250
798		-85.937500
799		-109.375000
800		-93.750000
801		-117.187500
802		-101.562500
803		-125.000000
804		-113.281250
805		-132.812500
806		-121.093750
807		-140.625000
808		-128.906250
809		-148.437500
810		-136.718750
811		-152.343750
812		-144.531250
813		-160.156250
814		-152.343750
815		-171.875000
816		-160.156250
817		-175.781250
818		-164.062500
819		-183.593750
820		-171.875000
821		-191.406250
822		-179.687500
823		-195.312500
824		-183.593750
825		-203.125000
826		-191.406250
827		-207.031250
828		-199.218750
829		-214.843750
830		-207.031250
831		-222.656250
832		-210.937500
833		-226.562500
834		-218.750000
835		-230.468750
836		-222.656250
837		-238.281250
838		-226.562500
839		-242.187500
840		-234.375000
841		-246.093750
842		-234.375000
843		-250.000000
844		-242.187500
845		-253.906250
846		-246.093750
847		-257.812500
848		-250.000000
849		-261.718750
850		-253.906250
851		-265.625000
852		-257.812500
853		-269.531250
854		-257.812500
855		-269.531250
856		-261.718750
857		-273.437500
858		-265.625000
859		-273.437500
860		-269.531250
861		-277.343750
862		-269.531250
863		-277.343750
864		-273.437500
865		-281.250000
866		-273.437500
867		-281.250000
868		-273.437500
869		-281.250000
870		-273.437500
871		-281.250000
872		-273.437500
873		-281.250000
874		-273.437500
875		-281.250000
876		-273.437500
877		-277.343750
878		-273.437500
879		-277.343750
880		-273.437500
881		-277.343750
882		-269.531250
883		-277.343750
884		-269.531250
885		-273.437500
886		-265.625000
887		-273.437500
888		-265.625000
889		-269.531250
890		-261.718750
891		-265.625000
892		-257.812500
893		-265.625000
894		-257.812500
895		-261.718750
896		-253.906250
897		-257.812500
898		-250.000000
899		-253.906250
900		-246.093750
901		-250.000000
902		-242.187500
903		-246.093750
904		-234.375000
905		-242.187500
906		-230.468750
907		-234.375000
908		-226.562500
909		-230.468750
910		-218.750000
911		-226.562500
912		-214.843750
913		-218.750000
914		-210.937500
915		-210.937500
916		-203.125000
917		-207.031250
918		-195.312500
919		-203.125000
920		-191.406250
921		-195.312500
922		-183.593750
923		-187.500000
924		-175.781250
925		-179.687500
926		-167.968750
927		-171.875000
928		-164.062500
929		-164.062500
930		-156.250000
931		-156.250000
932		-148.437500
933		-148.437500
934		-136.718750
935		-140.625000
936		-128.906250
937		-132.812500
938		-121.093750
939		-125.000000
940		-113.281250
941		-117.187500
942		-105.468750
943		-109.375000
944		-97.656250
945		-97.656250
946		-89.843750
947		-89.843750
948		-82.031250
949		-82.031250
950		-70.312500
951		-74.218750
952		-58.593750
953		-66.406250
954		-50.781250
955		-58.593750
956		-42.968750
957		-46.875000
958		-35.156250
959		-39.062500
960		-27.343750
961		-31.250000
962		-19.531250
963		-19.531250
964		-11.718750
965		-11.718750
966		0.000000
967		-3.906250
968		7.812500
969		3.906250
970		15.625000
971		11.718750
972		23.437500
973		19.531250
974		35.156250
975		27.343750
976		42.968750
977		39.062500
978		50.781250
979		46.875000
980		54.687500
981		54.687500
982		62.500000
983		62.500000
984		70.312500
985		66.406250
986		78.125000
987		74.218750
988		89.843750
989		82.031250
990		97.656250
991		89.843750
992		101.562500
993		97.656250
994		109.375000
995		105.468750
996		113.281250
997		113.281250
998		121.093750
999		121.093750
1000		128.906250
1001		125.000000
1002		136.718750
1003		132.812500
1004		140.625000
1005		136.718750
1006		148.437500
1007		144.531250
1008		156.250000
1009		148.437500
1010		160.156250
1011		156.250000
1012		164.062500
1013		160.156250
1014		167.968750
1015		167.968750
1016		171.875000
1017		171.875000
1018		179.687500
1019		175.781250
1020		183.593750
1021		179.687500
1022		187.500000
1023		183.593750
1024		191.406250
1025		187.500000
1026		195.312500
1027		191.406250
1028		203.125000
1029		195.312500
1030		203.125000
1031		203.125000
1032		207.031250
1033		203.125000
1034		210.937500
1035		207.031250
1036		214.843750
1037		207.031250
1038		218.750000
1039		210.937500
1040		218.750000
1041		214.843750
1042		222.656250
1043		218.750000
1044		226.562500
1045		218.750000
1046		226.562500
1047		222.656250
1048		226.562500
1049		226.562500
1050		230.468750
1051		226.562500
1052		234.375000
1053		226.562500
1054		234.375000
1055		230.468750
1056		238.281250
1057		230.468750
1058		238.281250
1059		230.468750
1060		238.281250
1061		230.468750
1062		238.281250
1063		234.375000
1064		238.281250
1065		234.375000
1066		242.187500
1067		234.375000
1068		242.187500
1069		234.375000
1070		242.187500
1071		234.375000
1072		242.187500
1073		234.375000
1074		242.187500
1075		234.375000
1076		242.187500
1077		234.375000
1078		242.187500
1079		234.375000
1080		242.187500
1081		234.375000
1082		238.281250
1083		234.375000
1084		238.281250
1085		230.468750
1086		238.281250
1087		230.468750
1088		238.281250
1089		230.468750
1090		238.281250
1091		230.468750
1092		238.281250
1093		226.562500
1094		234.375000
1095		226.562500
1096		234.375000
1097		226.562500
1098		230.468750
1099		222.656250
1100		230.468750
1101		222.656250
1102		226.562500
1103		218.750000
1104		226.562500
1105		214.843750
1106		222.656250
1107		214.843750
1108		222.656250
1109		210.937500
1110		218.750000
1111		207.031250
1112		214.843750
1113		207.031250
1114		210.937500
1115		203.125000
1116		207.031250
1117		195.312500
1118		203.125000
1119		191.406250
1120		203.125000
1121		191.406250
1122		199.218750
1123		183.593750
1124		195.312500
1125		179.687500
1126		191.406250
1127		175.781250
1128		183.593750
1129		171.875000
1130		179.687500
1131		167.968750
1132		171.875000
1133		160.156250
1134		167.968750
1135		156.250000
1136		164.062500
1137		148.437500
1138		160.156250
1139		140.625000
1140		152.343750
1141		136.718750
1142		148.437500
1143		128.906250
1144		140.625000
1145		125.000000
1146		132.812500
1147		117.187500
1148		128.906250
1149		109.375000
1150		121.093750
1151		101.562500
1152		113.281250
1153		97.656250
1154		105.468750
1155		85.937500
1156		97.656250
1157		82.031250
1158		93.750000
1159		74.218750
1160		85.937500
1161		66.406250
1162		78.125000
1163		58.593750
1164		70.312500
1165		50.781250
1166		58.593750
1167		39.062500
1168		50.781250
1169		31.250000
1170		46.875000
1171		23.437500
1172		39.062500
1173		15.625000
1174		27.343750
1175		7.812500
1176		19.531250
1177		0.000000
1178		11.718750
1179		-7.812500
1180		3.906250
1181		-15.625000
1182		-7.812500
1183		-27.343750
1184		-15.625000
1185		-35.156250
1186		-23.437500
1187		-46.875000
1188		-31.250000
1189		-54.687500
1190		-39.062500
1191		-62.500000
1192		-50.781250
1193		-70.312500
1194		-58.593750
1195		-78.125000
1196		-66.406250
1197		-85.937500
1198		-74.218750
1199		-93.750000
1200		-85.937500
1201		-105.468750
1202		-93.750000
1203		-113.281250
1204		-97.656250
1205		-121.093750
1206		-109.375000
1207		-128.906250
1208		-117.187500
1209		-136.718750
1210		-125.000000
1211		-144.531250
1212		-132.812500
