metingen laweit/30cm, resfreq2/data_81_255.txt

Channel              :		CH1
Frequency            :		1.240kHz
Period               :		0.807ms
PK-PK                :		355.5mV
Probe attenuation    :		1X
Voltage per ADC value:		0.244141mV
Time interval        :		2.00000us

index		CH1_Voltage(mV)
1		-15.625000
2		-15.625000
3		-31.250000
4		-23.437500
5		-35.156250
6		-27.343750
7		-39.062500
8		-35.156250
9		-46.875000
10		-39.062500
11		-50.781250
12		-42.968750
13		-54.687500
14		-50.781250
15		-62.500000
16		-54.687500
17		-66.406250
18		-58.593750
19		-70.312500
20		-66.406250
21		-78.125000
22		-70.312500
23		-82.031250
24		-74.218750
25		-85.937500
26		-78.125000
27		-89.843750
28		-85.937500
29		-93.750000
30		-89.843750
31		-97.656250
32		-93.750000
33		-105.468750
34		-97.656250
35		-109.375000
36		-101.562500
37		-109.375000
38		-105.468750
39		-113.281250
40		-109.375000
41		-117.187500
42		-113.281250
43		-121.093750
44		-117.187500
45		-125.000000
46		-121.093750
47		-128.906250
48		-121.093750
49		-128.906250
50		-125.000000
51		-132.812500
52		-128.906250
53		-136.718750
54		-132.812500
55		-136.718750
56		-132.812500
57		-140.625000
58		-136.718750
59		-144.531250
60		-140.625000
61		-144.531250
62		-140.625000
63		-144.531250
64		-140.625000
65		-148.437500
66		-144.531250
67		-148.437500
68		-144.531250
69		-148.437500
70		-148.437500
71		-152.343750
72		-148.437500
73		-152.343750
74		-148.437500
75		-152.343750
76		-148.437500
77		-152.343750
78		-148.437500
79		-152.343750
80		-148.437500
81		-152.343750
82		-148.437500
83		-156.250000
84		-148.437500
85		-152.343750
86		-148.437500
87		-152.343750
88		-148.437500
89		-152.343750
90		-148.437500
91		-152.343750
92		-148.437500
93		-148.437500
94		-144.531250
95		-148.437500
96		-144.531250
97		-148.437500
98		-144.531250
99		-144.531250
100		-140.625000
101		-144.531250
102		-140.625000
103		-140.625000
104		-136.718750
105		-140.625000
106		-132.812500
107		-136.718750
108		-128.906250
109		-132.812500
110		-128.906250
111		-128.906250
112		-125.000000
113		-128.906250
114		-121.093750
115		-125.000000
116		-121.093750
117		-121.093750
118		-117.187500
119		-117.187500
120		-113.281250
121		-113.281250
122		-109.375000
123		-109.375000
124		-105.468750
125		-105.468750
126		-101.562500
127		-101.562500
128		-97.656250
129		-97.656250
130		-93.750000
131		-93.750000
132		-85.937500
133		-89.843750
134		-82.031250
135		-85.937500
136		-78.125000
137		-82.031250
138		-74.218750
139		-74.218750
140		-70.312500
141		-70.312500
142		-62.500000
143		-66.406250
144		-58.593750
145		-62.500000
146		-54.687500
147		-54.687500
148		-46.875000
149		-50.781250
150		-42.968750
151		-42.968750
152		-39.062500
153		-39.062500
154		-31.250000
155		-35.156250
156		-27.343750
157		-27.343750
158		-19.531250
159		-23.437500
160		-15.625000
161		-15.625000
162		-7.812500
163		-11.718750
164		-3.906250
165		-7.812500
166		0.000000
167		0.000000
168		7.812500
169		3.906250
170		11.718750
171		11.718750
172		19.531250
173		15.625000
174		23.437500
175		23.437500
176		31.250000
177		27.343750
178		35.156250
179		35.156250
180		39.062500
181		39.062500
182		46.875000
183		42.968750
184		50.781250
185		50.781250
186		58.593750
187		54.687500
188		62.500000
189		58.593750
190		66.406250
191		66.406250
192		74.218750
193		70.312500
194		78.125000
195		78.125000
196		82.031250
197		82.031250
198		89.843750
199		85.937500
200		93.750000
201		89.843750
202		97.656250
203		97.656250
204		101.562500
205		101.562500
206		105.468750
207		105.468750
208		113.281250
209		109.375000
210		117.187500
211		113.281250
212		121.093750
213		117.187500
214		125.000000
215		121.093750
216		128.906250
217		125.000000
218		132.812500
219		128.906250
220		136.718750
221		132.812500
222		140.625000
223		136.718750
224		144.531250
225		140.625000
226		148.437500
227		144.531250
228		148.437500
229		148.437500
230		152.343750
231		152.343750
232		156.250000
233		156.250000
234		160.156250
235		160.156250
236		164.062500
237		160.156250
238		167.968750
239		164.062500
240		167.968750
241		167.968750
242		171.875000
243		167.968750
244		175.781250
245		171.875000
246		175.781250
247		171.875000
248		175.781250
249		175.781250
250		179.687500
251		175.781250
252		183.593750
253		179.687500
254		183.593750
255		179.687500
256		187.500000
257		183.593750
258		187.500000
259		183.593750
260		187.500000
261		183.593750
262		191.406250
263		187.500000
264		191.406250
265		187.500000
266		191.406250
267		187.500000
268		195.312500
269		191.406250
270		195.312500
271		191.406250
272		195.312500
273		191.406250
274		195.312500
275		191.406250
276		195.312500
277		191.406250
278		195.312500
279		191.406250
280		195.312500
281		191.406250
282		195.312500
283		191.406250
284		195.312500
285		191.406250
286		195.312500
287		191.406250
288		195.312500
289		191.406250
290		195.312500
291		191.406250
292		195.312500
293		191.406250
294		195.312500
295		191.406250
296		195.312500
297		191.406250
298		195.312500
299		187.500000
300		191.406250
301		187.500000
302		191.406250
303		187.500000
304		191.406250
305		183.593750
306		187.500000
307		183.593750
308		187.500000
309		179.687500
310		187.500000
311		179.687500
312		183.593750
313		179.687500
314		183.593750
315		175.781250
316		179.687500
317		171.875000
318		179.687500
319		171.875000
320		175.781250
321		167.968750
322		171.875000
323		167.968750
324		171.875000
325		164.062500
326		167.968750
327		160.156250
328		167.968750
329		156.250000
330		164.062500
331		156.250000
332		160.156250
333		152.343750
334		156.250000
335		148.437500
336		156.250000
337		144.531250
338		148.437500
339		140.625000
340		148.437500
341		136.718750
342		144.531250
343		132.812500
344		140.625000
345		128.906250
346		136.718750
347		125.000000
348		132.812500
349		121.093750
350		128.906250
351		117.187500
352		121.093750
353		113.281250
354		117.187500
355		109.375000
356		113.281250
357		101.562500
358		109.375000
359		97.656250
360		105.468750
361		93.750000
362		101.562500
363		89.843750
364		97.656250
365		85.937500
366		89.843750
367		78.125000
368		85.937500
369		74.218750
370		82.031250
371		70.312500
372		74.218750
373		62.500000
374		70.312500
375		58.593750
376		66.406250
377		50.781250
378		58.593750
379		46.875000
380		54.687500
381		42.968750
382		46.875000
383		35.156250
384		42.968750
385		31.250000
386		39.062500
387		23.437500
388		31.250000
389		19.531250
390		27.343750
391		11.718750
392		23.437500
393		7.812500
394		15.625000
395		3.906250
396		11.718750
397		-3.906250
398		3.906250
399		-7.812500
400		0.000000
401		-15.625000
402		-7.812500
403		-19.531250
404		-11.718750
405		-27.343750
406		-19.531250
407		-31.250000
408		-23.437500
409		-35.156250
410		-27.343750
411		-42.968750
412		-35.156250
413		-46.875000
414		-39.062500
415		-54.687500
416		-42.968750
417		-58.593750
418		-50.781250
419		-62.500000
420		-54.687500
421		-66.406250
422		-58.593750
423		-70.312500
424		-66.406250
425		-78.125000
426		-70.312500
427		-82.031250
428		-74.218750
429		-85.937500
430		-78.125000
431		-89.843750
432		-85.937500
433		-93.750000
434		-89.843750
435		-97.656250
436		-93.750000
437		-101.562500
438		-97.656250
439		-105.468750
440		-101.562500
441		-109.375000
442		-105.468750
443		-113.281250
444		-109.375000
445		-117.187500
446		-113.281250
447		-121.093750
448		-117.187500
449		-125.000000
450		-117.187500
451		-128.906250
452		-125.000000
453		-132.812500
454		-125.000000
455		-132.812500
456		-128.906250
457		-136.718750
458		-132.812500
459		-140.625000
460		-132.812500
461		-140.625000
462		-136.718750
463		-144.531250
464		-140.625000
465		-144.531250
466		-140.625000
467		-148.437500
468		-144.531250
469		-148.437500
470		-144.531250
471		-148.437500
472		-144.531250
473		-152.343750
474		-148.437500
475		-152.343750
476		-148.437500
477		-152.343750
478		-148.437500
479		-152.343750
480		-148.437500
481		-152.343750
482		-148.437500
483		-152.343750
484		-148.437500
485		-152.343750
486		-148.437500
487		-152.343750
488		-148.437500
489		-152.343750
490		-148.437500
491		-152.343750
492		-148.437500
493		-152.343750
494		-148.437500
495		-148.437500
496		-144.531250
497		-148.437500
498		-144.531250
499		-148.437500
500		-144.531250
501		-144.531250
502		-140.625000
503		-144.531250
504		-140.625000
505		-140.625000
506		-136.718750
507		-140.625000
508		-132.812500
509		-136.718750
510		-132.812500
511		-136.718750
512		-128.906250
513		-132.812500
514		-128.906250
515		-128.906250
516		-125.000000
517		-125.000000
518		-121.093750
519		-125.000000
520		-117.187500
521		-121.093750
522		-113.281250
523		-117.187500
524		-109.375000
525		-113.281250
526		-105.468750
527		-109.375000
528		-101.562500
529		-105.468750
530		-97.656250
531		-101.562500
532		-93.750000
533		-97.656250
534		-89.843750
535		-93.750000
536		-85.937500
537		-85.937500
538		-82.031250
539		-82.031250
540		-74.218750
541		-78.125000
542		-70.312500
543		-74.218750
544		-66.406250
545		-70.312500
546		-62.500000
547		-62.500000
548		-54.687500
549		-58.593750
550		-50.781250
551		-54.687500
552		-46.875000
553		-46.875000
554		-39.062500
555		-42.968750
556		-35.156250
557		-35.156250
558		-31.250000
559		-31.250000
560		-23.437500
561		-27.343750
562		-19.531250
563		-19.531250
564		-11.718750
565		-15.625000
566		-7.812500
567		-7.812500
568		0.000000
569		-3.906250
570		3.906250
571		0.000000
572		7.812500
573		7.812500
574		15.625000
575		11.718750
576		19.531250
577		19.531250
578		27.343750
579		23.437500
580		31.250000
581		31.250000
582		39.062500
583		35.156250
584		42.968750
585		39.062500
586		46.875000
587		46.875000
588		54.687500
589		50.781250
590		58.593750
591		58.593750
592		66.406250
593		62.500000
594		70.312500
595		66.406250
596		74.218750
597		74.218750
598		82.031250
599		78.125000
600		85.937500
601		82.031250
602		89.843750
603		89.843750
604		93.750000
605		93.750000
606		97.656250
607		97.656250
608		105.468750
609		101.562500
610		109.375000
611		105.468750
612		113.281250
613		109.375000
614		117.187500
615		117.187500
616		121.093750
617		121.093750
618		125.000000
619		125.000000
620		128.906250
621		128.906250
622		132.812500
623		132.812500
624		136.718750
625		136.718750
626		140.625000
627		140.625000
628		144.531250
629		144.531250
630		148.437500
631		148.437500
632		152.343750
633		148.437500
634		156.250000
635		152.343750
636		160.156250
637		156.250000
638		160.156250
639		160.156250
640		164.062500
641		164.062500
642		167.968750
643		164.062500
644		171.875000
645		167.968750
646		171.875000
647		167.968750
648		175.781250
649		171.875000
650		175.781250
651		175.781250
652		179.687500
653		175.781250
654		179.687500
655		179.687500
656		183.593750
657		179.687500
658		183.593750
659		183.593750
660		187.500000
661		183.593750
662		187.500000
663		187.500000
664		191.406250
665		187.500000
666		191.406250
667		187.500000
668		191.406250
669		187.500000
670		191.406250
671		191.406250
672		195.312500
673		191.406250
674		195.312500
675		191.406250
676		195.312500
677		191.406250
678		195.312500
679		191.406250
680		195.312500
681		191.406250
682		195.312500
683		191.406250
684		195.312500
685		191.406250
686		195.312500
687		191.406250
688		195.312500
689		191.406250
690		195.312500
691		191.406250
692		195.312500
693		191.406250
694		195.312500
695		191.406250
696		195.312500
697		191.406250
698		195.312500
699		191.406250
700		195.312500
701		191.406250
702		195.312500
703		187.500000
704		195.312500
705		187.500000
706		191.406250
707		187.500000
708		191.406250
709		183.593750
710		187.500000
711		183.593750
712		187.500000
713		183.593750
714		187.500000
715		179.687500
716		183.593750
717		175.781250
718		183.593750
719		175.781250
720		179.687500
721		175.781250
722		179.687500
723		171.875000
724		175.781250
725		167.968750
726		171.875000
727		167.968750
728		171.875000
729		164.062500
730		167.968750
731		160.156250
732		164.062500
733		156.250000
734		164.062500
735		156.250000
736		160.156250
737		152.343750
738		156.250000
739		148.437500
740		156.250000
741		144.531250
742		152.343750
743		140.625000
744		148.437500
745		136.718750
746		144.531250
747		132.812500
748		140.625000
749		128.906250
750		136.718750
751		125.000000
752		132.812500
753		121.093750
754		128.906250
755		117.187500
756		121.093750
757		113.281250
758		117.187500
759		109.375000
760		113.281250
761		101.562500
762		113.281250
763		97.656250
764		105.468750
765		93.750000
766		101.562500
767		89.843750
768		93.750000
769		82.031250
770		89.843750
771		78.125000
772		85.937500
773		74.218750
774		82.031250
775		66.406250
776		74.218750
777		62.500000
778		70.312500
779		58.593750
780		62.500000
781		50.781250
782		62.500000
783		46.875000
784		54.687500
785		39.062500
786		46.875000
787		35.156250
788		42.968750
789		31.250000
790		39.062500
791		23.437500
792		31.250000
793		19.531250
794		27.343750
795		11.718750
796		23.437500
797		7.812500
798		15.625000
799		0.000000
800		7.812500
801		-3.906250
802		3.906250
803		-7.812500
804		0.000000
805		-15.625000
806		-7.812500
807		-19.531250
808		-11.718750
809		-27.343750
810		-19.531250
811		-31.250000
812		-23.437500
813		-39.062500
814		-27.343750
815		-42.968750
816		-35.156250
817		-46.875000
818		-39.062500
819		-50.781250
820		-46.875000
821		-58.593750
822		-46.875000
823		-62.500000
824		-54.687500
825		-66.406250
826		-62.500000
827		-74.218750
828		-66.406250
829		-78.125000
830		-70.312500
831		-82.031250
832		-74.218750
833		-89.843750
834		-78.125000
835		-93.750000
836		-85.937500
837		-97.656250
838		-85.937500
839		-97.656250
840		-93.750000
841		-101.562500
842		-97.656250
843		-109.375000
844		-101.562500
845		-113.281250
846		-105.468750
847		-113.281250
848		-109.375000
849		-121.093750
850		-109.375000
851		-125.000000
852		-113.281250
853		-125.000000
854		-117.187500
855		-128.906250
856		-121.093750
857		-132.812500
858		-125.000000
859		-132.812500
860		-128.906250
861		-136.718750
862		-132.812500
863		-140.625000
864		-132.812500
865		-140.625000
866		-132.812500
867		-144.531250
868		-136.718750
869		-144.531250
870		-136.718750
871		-148.437500
872		-140.625000
873		-148.437500
874		-144.531250
875		-148.437500
876		-144.531250
877		-152.343750
878		-148.437500
879		-152.343750
880		-144.531250
881		-152.343750
882		-144.531250
883		-152.343750
884		-148.437500
885		-156.250000
886		-148.437500
887		-152.343750
888		-148.437500
889		-156.250000
890		-148.437500
891		-152.343750
892		-148.437500
893		-152.343750
894		-148.437500
895		-152.343750
896		-144.531250
897		-152.343750
898		-144.531250
899		-152.343750
900		-144.531250
901		-148.437500
902		-140.625000
903		-148.437500
904		-140.625000
905		-148.437500
906		-140.625000
907		-144.531250
908		-136.718750
909		-140.625000
910		-136.718750
911		-140.625000
912		-132.812500
913		-136.718750
914		-128.906250
915		-136.718750
916		-128.906250
917		-132.812500
918		-125.000000
919		-128.906250
920		-121.093750
921		-125.000000
922		-117.187500
923		-125.000000
924		-117.187500
925		-117.187500
926		-113.281250
927		-113.281250
928		-109.375000
929		-113.281250
930		-105.468750
931		-109.375000
932		-101.562500
933		-105.468750
934		-97.656250
935		-101.562500
936		-89.843750
937		-97.656250
938		-85.937500
939		-89.843750
940		-82.031250
941		-85.937500
942		-78.125000
943		-82.031250
944		-74.218750
945		-78.125000
946		-66.406250
947		-70.312500
948		-62.500000
949		-66.406250
950		-58.593750
951		-62.500000
952		-54.687500
953		-58.593750
954		-46.875000
955		-54.687500
956		-42.968750
957		-46.875000
958		-39.062500
959		-39.062500
960		-31.250000
961		-35.156250
962		-27.343750
963		-31.250000
964		-19.531250
965		-23.437500
966		-15.625000
967		-19.531250
968		-7.812500
969		-15.625000
970		-3.906250
971		-7.812500
972		0.000000
973		-3.906250
974		7.812500
975		3.906250
976		11.718750
977		7.812500
978		15.625000
979		15.625000
980		23.437500
981		19.531250
982		31.250000
983		23.437500
984		35.156250
985		31.250000
986		42.968750
987		35.156250
988		46.875000
989		42.968750
990		50.781250
991		46.875000
992		54.687500
993		54.687500
994		62.500000
995		58.593750
996		66.406250
997		62.500000
998		74.218750
999		70.312500
1000		78.125000
1001		74.218750
1002		82.031250
1003		78.125000
1004		89.843750
1005		85.937500
1006		93.750000
1007		89.843750
1008		97.656250
1009		93.750000
1010		101.562500
1011		97.656250
1012		105.468750
1013		101.562500
1014		113.281250
1015		105.468750
1016		117.187500
1017		113.281250
1018		121.093750
1019		117.187500
1020		125.000000
1021		117.187500
1022		128.906250
1023		125.000000
1024		132.812500
1025		128.906250
1026		136.718750
1027		132.812500
1028		140.625000
1029		136.718750
1030		144.531250
1031		140.625000
1032		148.437500
1033		144.531250
1034		152.343750
1035		148.437500
1036		156.250000
1037		148.437500
1038		156.250000
1039		152.343750
1040		160.156250
1041		156.250000
1042		164.062500
1043		160.156250
1044		164.062500
1045		164.062500
1046		167.968750
1047		164.062500
1048		171.875000
1049		167.968750
1050		175.781250
1051		171.875000
1052		175.781250
1053		171.875000
1054		179.687500
1055		171.875000
1056		179.687500
1057		175.781250
1058		183.593750
1059		179.687500
1060		183.593750
1061		183.593750
1062		187.500000
1063		179.687500
1064		187.500000
1065		183.593750
1066		191.406250
1067		183.593750
1068		191.406250
1069		187.500000
1070		191.406250
1071		187.500000
1072		195.312500
1073		187.500000
1074		195.312500
1075		191.406250
1076		195.312500
1077		191.406250
1078		195.312500
1079		191.406250
1080		195.312500
1081		191.406250
1082		199.218750
1083		191.406250
1084		199.218750
1085		191.406250
1086		199.218750
1087		191.406250
1088		199.218750
1089		191.406250
1090		199.218750
1091		191.406250
1092		199.218750
1093		195.312500
1094		199.218750
1095		195.312500
1096		195.312500
1097		191.406250
1098		199.218750
1099		191.406250
1100		199.218750
1101		191.406250
1102		195.312500
1103		187.500000
1104		195.312500
1105		187.500000
1106		195.312500
1107		187.500000
1108		195.312500
1109		187.500000
1110		191.406250
1111		187.500000
1112		191.406250
1113		183.593750
1114		187.500000
1115		179.687500
1116		187.500000
1117		179.687500
1118		187.500000
1119		179.687500
1120		187.500000
1121		175.781250
1122		183.593750
1123		175.781250
1124		183.593750
1125		171.875000
1126		179.687500
1127		171.875000
1128		175.781250
1129		167.968750
1130		171.875000
1131		164.062500
1132		171.875000
1133		160.156250
1134		171.875000
1135		160.156250
1136		167.968750
1137		156.250000
1138		164.062500
1139		152.343750
1140		160.156250
1141		152.343750
1142		156.250000
1143		148.437500
1144		152.343750
1145		144.531250
1146		148.437500
1147		136.718750
1148		148.437500
1149		136.718750
1150		144.531250
1151		128.906250
1152		140.625000
1153		125.000000
1154		136.718750
1155		125.000000
1156		132.812500
1157		117.187500
1158		128.906250
1159		113.281250
1160		121.093750
1161		109.375000
1162		117.187500
1163		105.468750
1164		113.281250
1165		97.656250
1166		109.375000
1167		93.750000
1168		105.468750
1169		89.843750
1170		101.562500
1171		85.937500
1172		97.656250
1173		82.031250
1174		89.843750
1175		78.125000
1176		85.937500
1177		70.312500
1178		78.125000
1179		66.406250
1180		74.218750
1181		58.593750
1182		70.312500
1183		54.687500
1184		62.500000
1185		46.875000
1186		58.593750
1187		42.968750
1188		54.687500
1189		35.156250
1190		46.875000
1191		31.250000
1192		42.968750
1193		27.343750
1194		39.062500
1195		23.437500
1196		31.250000
1197		15.625000
1198		23.437500
1199		11.718750
1200		19.531250
1201		3.906250
1202		15.625000
1203		0.000000
1204		7.812500
1205		-7.812500
1206		3.906250
1207		-11.718750
1208		0.000000
1209		-15.625000
1210		-7.812500
1211		-23.437500
1212		-15.625000
1213		-27.343750
1214		-19.531250
1215		-35.156250
1216		-23.437500
1217		-39.062500
1218		-27.343750
1219		-42.968750
1220		-35.156250
1221		-50.781250
1222		-39.062500
1223		-54.687500
1224		-46.875000
1225		-58.593750
1226		-50.781250
