metingen laweit/30cm, resfreq2/data_81_247.txt

Channel              :		CH1
Frequency            :		1.240kHz
Period               :		0.807ms
PK-PK                :		496.1mV
Probe attenuation    :		1X
Voltage per ADC value:		0.244141mV
Time interval        :		2.00000us

index		CH1_Voltage(mV)
1		-109.375000
2		-109.375000
3		-97.656250
4		-117.187500
5		-105.468750
6		-121.093750
7		-113.281250
8		-128.906250
9		-121.093750
10		-136.718750
11		-128.906250
12		-144.531250
13		-132.812500
14		-152.343750
15		-140.625000
16		-156.250000
17		-148.437500
18		-164.062500
19		-156.250000
20		-167.968750
21		-160.156250
22		-175.781250
23		-167.968750
24		-183.593750
25		-171.875000
26		-187.500000
27		-179.687500
28		-191.406250
29		-183.593750
30		-195.312500
31		-191.406250
32		-203.125000
33		-195.312500
34		-207.031250
35		-199.218750
36		-210.937500
37		-203.125000
38		-214.843750
39		-207.031250
40		-218.750000
41		-214.843750
42		-222.656250
43		-218.750000
44		-226.562500
45		-222.656250
46		-230.468750
47		-226.562500
48		-234.375000
49		-226.562500
50		-234.375000
51		-230.468750
52		-238.281250
53		-234.375000
54		-242.187500
55		-234.375000
56		-242.187500
57		-238.281250
58		-242.187500
59		-238.281250
60		-246.093750
61		-242.187500
62		-246.093750
63		-242.187500
64		-246.093750
65		-242.187500
66		-250.000000
67		-242.187500
68		-250.000000
69		-246.093750
70		-250.000000
71		-246.093750
72		-246.093750
73		-246.093750
74		-246.093750
75		-246.093750
76		-246.093750
77		-242.187500
78		-246.093750
79		-242.187500
80		-246.093750
81		-242.187500
82		-242.187500
83		-238.281250
84		-242.187500
85		-238.281250
86		-238.281250
87		-234.375000
88		-238.281250
89		-230.468750
90		-234.375000
91		-230.468750
92		-230.468750
93		-226.562500
94		-226.562500
95		-222.656250
96		-222.656250
97		-218.750000
98		-218.750000
99		-214.843750
100		-214.843750
101		-210.937500
102		-210.937500
103		-207.031250
104		-207.031250
105		-199.218750
106		-203.125000
107		-195.312500
108		-199.218750
109		-191.406250
110		-191.406250
111		-183.593750
112		-187.500000
113		-179.687500
114		-179.687500
115		-171.875000
116		-175.781250
117		-167.968750
118		-167.968750
119		-160.156250
120		-164.062500
121		-156.250000
122		-156.250000
123		-148.437500
124		-148.437500
125		-140.625000
126		-140.625000
127		-132.812500
128		-136.718750
129		-125.000000
130		-128.906250
131		-117.187500
132		-121.093750
133		-109.375000
134		-113.281250
135		-105.468750
136		-105.468750
137		-97.656250
138		-97.656250
139		-85.937500
140		-89.843750
141		-78.125000
142		-82.031250
143		-70.312500
144		-74.218750
145		-62.500000
146		-66.406250
147		-54.687500
148		-58.593750
149		-46.875000
150		-50.781250
151		-39.062500
152		-42.968750
153		-31.250000
154		-31.250000
155		-23.437500
156		-23.437500
157		-15.625000
158		-15.625000
159		-7.812500
160		-7.812500
161		3.906250
162		0.000000
163		7.812500
164		7.812500
165		19.531250
166		15.625000
167		27.343750
168		23.437500
169		35.156250
170		31.250000
171		42.968750
172		39.062500
173		50.781250
174		46.875000
175		54.687500
176		54.687500
177		62.500000
178		62.500000
179		70.312500
180		70.312500
181		78.125000
182		78.125000
183		85.937500
184		85.937500
185		93.750000
186		89.843750
187		101.562500
188		97.656250
189		105.468750
190		105.468750
191		113.281250
192		113.281250
193		121.093750
194		117.187500
195		125.000000
196		125.000000
197		132.812500
198		128.906250
199		140.625000
200		136.718750
201		144.531250
202		144.531250
203		148.437500
204		148.437500
205		156.250000
206		152.343750
207		160.156250
208		160.156250
209		167.968750
210		164.062500
211		171.875000
212		167.968750
213		175.781250
214		175.781250
215		179.687500
216		179.687500
217		183.593750
218		183.593750
219		191.406250
220		187.500000
221		195.312500
222		191.406250
223		199.218750
224		195.312500
225		203.125000
226		199.218750
227		203.125000
228		203.125000
229		207.031250
230		207.031250
231		210.937500
232		207.031250
233		214.843750
234		210.937500
235		218.750000
236		214.843750
237		218.750000
238		218.750000
239		222.656250
240		218.750000
241		226.562500
242		222.656250
243		226.562500
244		222.656250
245		230.468750
246		226.562500
247		230.468750
248		230.468750
249		234.375000
250		230.468750
251		234.375000
252		230.468750
253		234.375000
254		234.375000
255		238.281250
256		234.375000
257		238.281250
258		234.375000
259		238.281250
260		234.375000
261		238.281250
262		238.281250
263		242.187500
264		238.281250
265		242.187500
266		238.281250
267		242.187500
268		238.281250
269		242.187500
270		238.281250
271		242.187500
272		238.281250
273		242.187500
274		238.281250
275		242.187500
276		238.281250
277		242.187500
278		238.281250
279		242.187500
280		238.281250
281		238.281250
282		234.375000
283		238.281250
284		234.375000
285		238.281250
286		234.375000
287		238.281250
288		230.468750
289		238.281250
290		230.468750
291		234.375000
292		230.468750
293		234.375000
294		226.562500
295		234.375000
296		226.562500
297		230.468750
298		222.656250
299		230.468750
300		222.656250
301		226.562500
302		218.750000
303		226.562500
304		218.750000
305		222.656250
306		214.843750
307		218.750000
308		210.937500
309		218.750000
310		207.031250
311		214.843750
312		207.031250
313		210.937500
314		203.125000
315		207.031250
316		199.218750
317		203.125000
318		195.312500
319		199.218750
320		191.406250
321		195.312500
322		187.500000
323		191.406250
324		183.593750
325		187.500000
326		175.781250
327		183.593750
328		171.875000
329		179.687500
330		167.968750
331		175.781250
332		160.156250
333		167.968750
334		156.250000
335		164.062500
336		152.343750
337		160.156250
338		144.531250
339		152.343750
340		140.625000
341		148.437500
342		132.812500
343		140.625000
344		128.906250
345		136.718750
346		121.093750
347		128.906250
348		113.281250
349		121.093750
350		105.468750
351		117.187500
352		101.562500
353		109.375000
354		93.750000
355		101.562500
356		85.937500
357		93.750000
358		78.125000
359		85.937500
360		70.312500
361		82.031250
362		62.500000
363		74.218750
364		54.687500
365		66.406250
366		46.875000
367		58.593750
368		39.062500
369		50.781250
370		31.250000
371		42.968750
372		23.437500
373		35.156250
374		15.625000
375		27.343750
376		7.812500
377		19.531250
378		0.000000
379		11.718750
380		-7.812500
381		0.000000
382		-15.625000
383		-3.906250
384		-23.437500
385		-11.718750
386		-31.250000
387		-23.437500
388		-39.062500
389		-31.250000
390		-46.875000
391		-39.062500
392		-54.687500
393		-46.875000
394		-62.500000
395		-54.687500
396		-74.218750
397		-62.500000
398		-82.031250
399		-70.312500
400		-89.843750
401		-78.125000
402		-93.750000
403		-85.937500
404		-101.562500
405		-93.750000
406		-109.375000
407		-101.562500
408		-121.093750
409		-109.375000
410		-125.000000
411		-113.281250
412		-132.812500
413		-121.093750
414		-140.625000
415		-128.906250
416		-148.437500
417		-136.718750
418		-152.343750
419		-144.531250
420		-160.156250
421		-152.343750
422		-164.062500
423		-156.250000
424		-171.875000
425		-164.062500
426		-179.687500
427		-167.968750
428		-183.593750
429		-175.781250
430		-191.406250
431		-179.687500
432		-195.312500
433		-183.593750
434		-199.218750
435		-191.406250
436		-203.125000
437		-195.312500
438		-210.937500
439		-203.125000
440		-214.843750
441		-207.031250
442		-218.750000
443		-210.937500
444		-222.656250
445		-214.843750
446		-226.562500
447		-218.750000
448		-230.468750
449		-222.656250
450		-234.375000
451		-226.562500
452		-234.375000
453		-226.562500
454		-238.281250
455		-234.375000
456		-242.187500
457		-234.375000
458		-246.093750
459		-238.281250
460		-246.093750
461		-238.281250
462		-246.093750
463		-242.187500
464		-250.000000
465		-242.187500
466		-250.000000
467		-242.187500
468		-250.000000
469		-246.093750
470		-250.000000
471		-246.093750
472		-250.000000
473		-246.093750
474		-250.000000
475		-246.093750
476		-253.906250
477		-246.093750
478		-250.000000
479		-246.093750
480		-250.000000
481		-242.187500
482		-250.000000
483		-242.187500
484		-250.000000
485		-242.187500
486		-246.093750
487		-238.281250
488		-242.187500
489		-238.281250
490		-242.187500
491		-234.375000
492		-242.187500
493		-230.468750
494		-238.281250
495		-230.468750
496		-234.375000
497		-226.562500
498		-234.375000
499		-222.656250
500		-230.468750
501		-218.750000
502		-222.656250
503		-218.750000
504		-218.750000
505		-214.843750
506		-214.843750
507		-207.031250
508		-210.937500
509		-203.125000
510		-207.031250
511		-195.312500
512		-203.125000
513		-191.406250
514		-195.312500
515		-187.500000
516		-191.406250
517		-179.687500
518		-187.500000
519		-175.781250
520		-179.687500
521		-167.968750
522		-171.875000
523		-164.062500
524		-164.062500
525		-156.250000
526		-160.156250
527		-148.437500
528		-152.343750
529		-140.625000
530		-144.531250
531		-132.812500
532		-140.625000
533		-128.906250
534		-132.812500
535		-121.093750
536		-125.000000
537		-113.281250
538		-113.281250
539		-105.468750
540		-105.468750
541		-97.656250
542		-101.562500
543		-89.843750
544		-93.750000
545		-78.125000
546		-85.937500
547		-70.312500
548		-74.218750
549		-62.500000
550		-66.406250
551		-54.687500
552		-58.593750
553		-46.875000
554		-50.781250
555		-39.062500
556		-42.968750
557		-31.250000
558		-35.156250
559		-23.437500
560		-27.343750
561		-15.625000
562		-19.531250
563		-7.812500
564		-11.718750
565		0.000000
566		-3.906250
567		11.718750
568		7.812500
569		19.531250
570		11.718750
571		23.437500
572		23.437500
573		31.250000
574		31.250000
575		42.968750
576		39.062500
577		50.781250
578		46.875000
579		54.687500
580		50.781250
581		62.500000
582		58.593750
583		70.312500
584		66.406250
585		82.031250
586		74.218750
587		85.937500
588		85.937500
589		93.750000
590		89.843750
591		97.656250
592		97.656250
593		109.375000
594		101.562500
595		113.281250
596		109.375000
597		121.093750
598		117.187500
599		128.906250
600		125.000000
601		132.812500
602		128.906250
603		140.625000
604		132.812500
605		144.531250
606		140.625000
607		148.437500
608		148.437500
609		156.250000
610		152.343750
611		164.062500
612		156.250000
613		167.968750
614		164.062500
615		171.875000
616		167.968750
617		175.781250
618		171.875000
619		179.687500
620		175.781250
621		183.593750
622		183.593750
623		187.500000
624		187.500000
625		195.312500
626		191.406250
627		195.312500
628		191.406250
629		203.125000
630		195.312500
631		207.031250
632		199.218750
633		207.031250
634		203.125000
635		210.937500
636		207.031250
637		214.843750
638		210.937500
639		214.843750
640		214.843750
641		218.750000
642		214.843750
643		222.656250
644		218.750000
645		226.562500
646		218.750000
647		226.562500
648		222.656250
649		230.468750
650		222.656250
651		230.468750
652		226.562500
653		234.375000
654		226.562500
655		234.375000
656		230.468750
657		234.375000
658		230.468750
659		238.281250
660		230.468750
661		238.281250
662		230.468750
663		238.281250
664		234.375000
665		238.281250
666		234.375000
667		242.187500
668		234.375000
669		242.187500
670		234.375000
671		242.187500
672		238.281250
673		238.281250
674		238.281250
675		242.187500
676		234.375000
677		242.187500
678		234.375000
679		242.187500
680		234.375000
681		242.187500
682		234.375000
683		242.187500
684		234.375000
685		242.187500
686		234.375000
687		238.281250
688		234.375000
689		238.281250
690		234.375000
691		238.281250
692		230.468750
693		238.281250
694		226.562500
695		234.375000
696		226.562500
697		234.375000
698		226.562500
699		230.468750
700		222.656250
701		230.468750
702		222.656250
703		230.468750
704		218.750000
705		226.562500
706		218.750000
707		222.656250
708		214.843750
709		218.750000
710		210.937500
711		218.750000
712		210.937500
713		214.843750
714		203.125000
715		214.843750
716		199.218750
717		210.937500
718		199.218750
719		207.031250
720		195.312500
721		203.125000
722		191.406250
723		199.218750
724		187.500000
725		195.312500
726		183.593750
727		191.406250
728		179.687500
729		187.500000
730		175.781250
731		183.593750
732		167.968750
733		179.687500
734		164.062500
735		171.875000
736		156.250000
737		167.968750
738		152.343750
739		164.062500
740		148.437500
741		156.250000
742		140.625000
743		148.437500
744		132.812500
745		144.531250
746		128.906250
747		136.718750
748		121.093750
749		132.812500
750		117.187500
751		125.000000
752		109.375000
753		121.093750
754		101.562500
755		113.281250
756		97.656250
757		105.468750
758		89.843750
759		97.656250
760		82.031250
761		89.843750
762		74.218750
763		85.937500
764		66.406250
765		78.125000
766		58.593750
767		70.312500
768		50.781250
769		62.500000
770		42.968750
771		54.687500
772		35.156250
773		46.875000
774		27.343750
775		39.062500
776		19.531250
777		31.250000
778		11.718750
779		23.437500
780		3.906250
781		15.625000
782		-3.906250
783		7.812500
784		-15.625000
785		-3.906250
786		-19.531250
787		-11.718750
788		-27.343750
789		-19.531250
790		-35.156250
791		-27.343750
792		-42.968750
793		-35.156250
794		-54.687500
795		-42.968750
796		-62.500000
797		-50.781250
798		-70.312500
799		-58.593750
800		-74.218750
801		-66.406250
802		-85.937500
803		-74.218750
804		-93.750000
805		-82.031250
806		-97.656250
807		-89.843750
808		-105.468750
809		-97.656250
810		-117.187500
811		-105.468750
812		-125.000000
813		-113.281250
814		-128.906250
815		-121.093750
816		-136.718750
817		-125.000000
818		-144.531250
819		-132.812500
820		-152.343750
821		-140.625000
822		-156.250000
823		-144.531250
824		-164.062500
825		-156.250000
826		-171.875000
827		-160.156250
828		-175.781250
829		-164.062500
830		-183.593750
831		-171.875000
832		-187.500000
833		-175.781250
834		-195.312500
835		-183.593750
836		-199.218750
837		-187.500000
838		-203.125000
839		-191.406250
840		-207.031250
841		-199.218750
842		-210.937500
843		-207.031250
844		-218.750000
845		-207.031250
846		-222.656250
847		-210.937500
848		-226.562500
849		-218.750000
850		-230.468750
851		-222.656250
852		-234.375000
853		-222.656250
854		-234.375000
855		-226.562500
856		-238.281250
857		-230.468750
858		-238.281250
859		-234.375000
860		-242.187500
861		-238.281250
862		-246.093750
863		-238.281250
864		-246.093750
865		-238.281250
866		-250.000000
867		-242.187500
868		-250.000000
869		-242.187500
870		-250.000000
871		-246.093750
872		-253.906250
873		-246.093750
874		-250.000000
875		-246.093750
876		-250.000000
877		-246.093750
878		-253.906250
879		-246.093750
880		-253.906250
881		-246.093750
882		-250.000000
883		-242.187500
884		-250.000000
885		-242.187500
886		-250.000000
887		-242.187500
888		-250.000000
889		-238.281250
890		-246.093750
891		-242.187500
892		-242.187500
893		-238.281250
894		-242.187500
895		-234.375000
896		-242.187500
897		-230.468750
898		-238.281250
899		-226.562500
900		-234.375000
901		-226.562500
902		-230.468750
903		-222.656250
904		-226.562500
905		-218.750000
906		-222.656250
907		-214.843750
908		-218.750000
909		-210.937500
910		-210.937500
911		-207.031250
912		-210.937500
913		-199.218750
914		-203.125000
915		-195.312500
916		-199.218750
917		-187.500000
918		-191.406250
919		-183.593750
920		-187.500000
921		-179.687500
922		-183.593750
923		-171.875000
924		-175.781250
925		-167.968750
926		-167.968750
927		-160.156250
928		-164.062500
929		-152.343750
930		-156.250000
931		-148.437500
932		-148.437500
933		-140.625000
934		-144.531250
935		-132.812500
936		-136.718750
937		-125.000000
938		-128.906250
939		-117.187500
940		-121.093750
941		-109.375000
942		-113.281250
943		-101.562500
944		-105.468750
945		-93.750000
946		-97.656250
947		-85.937500
948		-89.843750
949		-78.125000
950		-82.031250
951		-70.312500
952		-74.218750
953		-58.593750
954		-66.406250
955		-54.687500
956		-54.687500
957		-46.875000
958		-46.875000
959		-39.062500
960		-39.062500
961		-31.250000
962		-31.250000
963		-19.531250
964		-23.437500
965		-11.718750
966		-15.625000
967		-3.906250
968		-7.812500
969		3.906250
970		0.000000
971		11.718750
972		7.812500
973		19.531250
974		15.625000
975		27.343750
976		23.437500
977		35.156250
978		35.156250
979		42.968750
980		39.062500
981		50.781250
982		46.875000
983		58.593750
984		54.687500
985		66.406250
986		62.500000
987		74.218750
988		70.312500
989		82.031250
990		74.218750
991		89.843750
992		85.937500
993		93.750000
994		93.750000
995		101.562500
996		97.656250
997		109.375000
998		105.468750
999		117.187500
1000		113.281250
1001		125.000000
1002		117.187500
1003		128.906250
1004		125.000000
1005		136.718750
1006		132.812500
1007		140.625000
1008		136.718750
1009		144.531250
1010		144.531250
1011		152.343750
1012		148.437500
1013		160.156250
1014		156.250000
1015		164.062500
1016		156.250000
1017		171.875000
1018		164.062500
1019		171.875000
1020		167.968750
1021		179.687500
1022		171.875000
1023		183.593750
1024		179.687500
1025		187.500000
1026		183.593750
1027		191.406250
1028		187.500000
1029		195.312500
1030		191.406250
1031		199.218750
1032		195.312500
1033		203.125000
1034		199.218750
1035		207.031250
1036		199.218750
1037		210.937500
1038		207.031250
1039		214.843750
1040		207.031250
1041		214.843750
1042		210.937500
1043		218.750000
1044		214.843750
1045		218.750000
1046		218.750000
1047		222.656250
1048		218.750000
1049		226.562500
1050		222.656250
1051		230.468750
1052		222.656250
1053		230.468750
1054		226.562500
1055		234.375000
1056		226.562500
1057		234.375000
1058		230.468750
1059		234.375000
1060		230.468750
1061		234.375000
1062		230.468750
1063		238.281250
1064		230.468750
1065		238.281250
1066		234.375000
1067		242.187500
1068		234.375000
1069		242.187500
1070		234.375000
1071		242.187500
1072		234.375000
1073		242.187500
1074		234.375000
1075		242.187500
1076		238.281250
1077		242.187500
1078		238.281250
1079		242.187500
1080		234.375000
1081		242.187500
1082		234.375000
1083		242.187500
1084		234.375000
1085		242.187500
1086		234.375000
1087		242.187500
1088		234.375000
1089		242.187500
1090		234.375000
1091		242.187500
1092		234.375000
1093		238.281250
1094		234.375000
1095		238.281250
1096		230.468750
1097		238.281250
1098		230.468750
1099		238.281250
1100		226.562500
1101		234.375000
1102		226.562500
1103		234.375000
1104		222.656250
1105		230.468750
1106		222.656250
1107		230.468750
1108		222.656250
1109		226.562500
1110		218.750000
1111		222.656250
1112		214.843750
1113		222.656250
1114		210.937500
1115		218.750000
1116		210.937500
1117		218.750000
1118		207.031250
1119		214.843750
1120		203.125000
1121		210.937500
1122		199.218750
1123		207.031250
1124		199.218750
1125		203.125000
1126		191.406250
1127		199.218750
1128		191.406250
1129		195.312500
1130		183.593750
1131		191.406250
1132		179.687500
1133		187.500000
1134		175.781250
1135		183.593750
1136		171.875000
1137		179.687500
1138		164.062500
1139		175.781250
1140		156.250000
1141		167.968750
1142		156.250000
1143		164.062500
1144		148.437500
1145		156.250000
1146		140.625000
1147		152.343750
1148		136.718750
1149		148.437500
1150		128.906250
1151		140.625000
1152		121.093750
1153		132.812500
1154		117.187500
1155		125.000000
1156		109.375000
1157		121.093750
1158		105.468750
1159		113.281250
1160		97.656250
1161		105.468750
1162		89.843750
1163		97.656250
1164		82.031250
1165		93.750000
1166		74.218750
1167		85.937500
1168		66.406250
1169		78.125000
1170		58.593750
1171		70.312500
1172		50.781250
1173		62.500000
1174		46.875000
1175		54.687500
1176		35.156250
1177		46.875000
1178		27.343750
1179		39.062500
1180		19.531250
1181		31.250000
1182		11.718750
1183		23.437500
1184		3.906250
1185		15.625000
1186		-3.906250
1187		7.812500
1188		-11.718750
1189		0.000000
1190		-19.531250
1191		-7.812500
1192		-27.343750
1193		-15.625000
1194		-35.156250
1195		-27.343750
1196		-46.875000
1197		-35.156250
1198		-50.781250
1199		-39.062500
1200		-58.593750
1201		-50.781250
1202		-70.312500
1203		-54.687500
1204		-78.125000
1205		-62.500000
1206		-85.937500
1207		-70.312500
1208		-89.843750
1209		-82.031250
1210		-97.656250
1211		-89.843750
1212		-105.468750
1213		-97.656250
1214		-117.187500
