Old_data/metingen laweit/30cm, resfreq2/data_81_245.txt

Channel              :		CH1
Frequency            :		1.240kHz
Period               :		0.807ms
PK-PK                :		464.8mV
Probe attenuation    :		1X
Voltage per ADC value:		0.244141mV
Time interval        :		2.00000us

index		CH1_Voltage(mV)
1		-89.843750
2		-89.843750
3		-105.468750
4		-97.656250
5		-113.281250
6		-101.562500
7		-117.187500
8		-109.375000
9		-125.000000
10		-117.187500
11		-132.812500
12		-121.093750
13		-140.625000
14		-128.906250
15		-144.531250
16		-132.812500
17		-148.437500
18		-140.625000
19		-156.250000
20		-148.437500
21		-160.156250
22		-152.343750
23		-167.968750
24		-156.250000
25		-171.875000
26		-160.156250
27		-175.781250
28		-167.968750
29		-179.687500
30		-171.875000
31		-187.500000
32		-175.781250
33		-191.406250
34		-179.687500
35		-191.406250
36		-183.593750
37		-195.312500
38		-191.406250
39		-199.218750
40		-195.312500
41		-203.125000
42		-195.312500
43		-207.031250
44		-199.218750
45		-210.937500
46		-203.125000
47		-214.843750
48		-207.031250
49		-214.843750
50		-207.031250
51		-214.843750
52		-210.937500
53		-218.750000
54		-214.843750
55		-218.750000
56		-214.843750
57		-222.656250
58		-214.843750
59		-222.656250
60		-214.843750
61		-226.562500
62		-218.750000
63		-226.562500
64		-218.750000
65		-226.562500
66		-218.750000
67		-226.562500
68		-218.750000
69		-226.562500
70		-218.750000
71		-226.562500
72		-218.750000
73		-226.562500
74		-218.750000
75		-226.562500
76		-218.750000
77		-226.562500
78		-214.843750
79		-222.656250
80		-214.843750
81		-222.656250
82		-214.843750
83		-218.750000
84		-210.937500
85		-218.750000
86		-210.937500
87		-214.843750
88		-210.937500
89		-210.937500
90		-207.031250
91		-210.937500
92		-203.125000
93		-207.031250
94		-199.218750
95		-203.125000
96		-195.312500
97		-199.218750
98		-191.406250
99		-195.312500
100		-187.500000
101		-195.312500
102		-183.593750
103		-187.500000
104		-179.687500
105		-183.593750
106		-175.781250
107		-179.687500
108		-167.968750
109		-175.781250
110		-164.062500
111		-171.875000
112		-160.156250
113		-164.062500
114		-156.250000
115		-160.156250
116		-148.437500
117		-152.343750
118		-144.531250
119		-148.437500
120		-140.625000
121		-140.625000
122		-132.812500
123		-132.812500
124		-125.000000
125		-128.906250
126		-117.187500
127		-121.093750
128		-113.281250
129		-117.187500
130		-105.468750
131		-109.375000
132		-97.656250
133		-101.562500
134		-93.750000
135		-97.656250
136		-85.937500
137		-85.937500
138		-78.125000
139		-82.031250
140		-70.312500
141		-74.218750
142		-62.500000
143		-70.312500
144		-54.687500
145		-62.500000
146		-46.875000
147		-54.687500
148		-39.062500
149		-46.875000
150		-31.250000
151		-39.062500
152		-27.343750
153		-31.250000
154		-19.531250
155		-23.437500
156		-11.718750
157		-15.625000
158		-3.906250
159		-7.812500
160		3.906250
161		0.000000
162		11.718750
163		3.906250
164		19.531250
165		11.718750
166		23.437500
167		19.531250
168		35.156250
169		27.343750
170		39.062500
171		35.156250
172		46.875000
173		42.968750
174		50.781250
175		50.781250
176		62.500000
177		54.687500
178		66.406250
179		62.500000
180		74.218750
181		70.312500
182		82.031250
183		74.218750
184		89.843750
185		82.031250
186		93.750000
187		89.843750
188		97.656250
189		97.656250
190		105.468750
191		101.562500
192		113.281250
193		105.468750
194		117.187500
195		113.281250
196		125.000000
197		121.093750
198		128.906250
199		125.000000
200		136.718750
201		128.906250
202		140.625000
203		136.718750
204		144.531250
205		140.625000
206		148.437500
207		148.437500
208		156.250000
209		148.437500
210		160.156250
211		156.250000
212		164.062500
213		160.156250
214		167.968750
215		164.062500
216		171.875000
217		167.968750
218		175.781250
219		171.875000
220		179.687500
221		175.781250
222		183.593750
223		179.687500
224		187.500000
225		183.593750
226		191.406250
227		187.500000
228		195.312500
229		187.500000
230		199.218750
231		191.406250
232		199.218750
233		195.312500
234		203.125000
235		199.218750
236		207.031250
237		199.218750
238		207.031250
239		203.125000
240		207.031250
241		207.031250
242		210.937500
243		207.031250
244		214.843750
245		207.031250
246		214.843750
247		210.937500
248		218.750000
249		210.937500
250		218.750000
251		214.843750
252		222.656250
253		214.843750
254		222.656250
255		218.750000
256		218.750000
257		218.750000
258		222.656250
259		218.750000
260		222.656250
261		218.750000
262		226.562500
263		218.750000
264		226.562500
265		218.750000
266		226.562500
267		218.750000
268		226.562500
269		218.750000
270		226.562500
271		218.750000
272		222.656250
273		222.656250
274		222.656250
275		218.750000
276		226.562500
277		218.750000
278		226.562500
279		218.750000
280		226.562500
281		214.843750
282		222.656250
283		214.843750
284		222.656250
285		214.843750
286		222.656250
287		214.843750
288		218.750000
289		214.843750
290		218.750000
291		210.937500
292		218.750000
293		207.031250
294		218.750000
295		207.031250
296		214.843750
297		207.031250
298		214.843750
299		203.125000
300		210.937500
301		199.218750
302		210.937500
303		199.218750
304		207.031250
305		199.218750
306		203.125000
307		195.312500
308		199.218750
309		191.406250
310		199.218750
311		187.500000
312		195.312500
313		183.593750
314		191.406250
315		179.687500
316		187.500000
317		175.781250
318		187.500000
319		171.875000
320		183.593750
321		171.875000
322		175.781250
323		167.968750
324		171.875000
325		160.156250
326		167.968750
327		156.250000
328		164.062500
329		152.343750
330		160.156250
331		144.531250
332		156.250000
333		140.625000
334		152.343750
335		136.718750
336		144.531250
337		132.812500
338		140.625000
339		125.000000
340		132.812500
341		121.093750
342		128.906250
343		113.281250
344		125.000000
345		105.468750
346		117.187500
347		101.562500
348		109.375000
349		93.750000
350		105.468750
351		89.843750
352		97.656250
353		82.031250
354		93.750000
355		78.125000
356		85.937500
357		70.312500
358		78.125000
359		62.500000
360		70.312500
361		54.687500
362		66.406250
363		46.875000
364		58.593750
365		39.062500
366		50.781250
367		35.156250
368		42.968750
369		27.343750
370		39.062500
371		19.531250
372		31.250000
373		11.718750
374		23.437500
375		3.906250
376		15.625000
377		-3.906250
378		7.812500
379		-7.812500
380		3.906250
381		-19.531250
382		-7.812500
383		-27.343750
384		-11.718750
385		-31.250000
386		-19.531250
387		-39.062500
388		-27.343750
389		-46.875000
390		-35.156250
391		-54.687500
392		-42.968750
393		-62.500000
394		-50.781250
395		-70.312500
396		-58.593750
397		-74.218750
398		-62.500000
399		-82.031250
400		-70.312500
401		-89.843750
402		-78.125000
403		-97.656250
404		-85.937500
405		-101.562500
406		-89.843750
407		-109.375000
408		-101.562500
409		-117.187500
410		-105.468750
411		-125.000000
412		-113.281250
413		-128.906250
414		-117.187500
415		-132.812500
416		-125.000000
417		-140.625000
418		-128.906250
419		-148.437500
420		-136.718750
421		-152.343750
422		-140.625000
423		-156.250000
424		-148.437500
425		-164.062500
426		-156.250000
427		-167.968750
428		-160.156250
429		-175.781250
430		-164.062500
431		-179.687500
432		-167.968750
433		-183.593750
434		-171.875000
435		-187.500000
436		-175.781250
437		-191.406250
438		-183.593750
439		-191.406250
440		-187.500000
441		-199.218750
442		-191.406250
443		-203.125000
444		-195.312500
445		-207.031250
446		-199.218750
447		-210.937500
448		-199.218750
449		-210.937500
450		-203.125000
451		-214.843750
452		-207.031250
453		-218.750000
454		-210.937500
455		-218.750000
456		-210.937500
457		-218.750000
458		-214.843750
459		-222.656250
460		-214.843750
461		-226.562500
462		-218.750000
463		-226.562500
464		-218.750000
465		-226.562500
466		-218.750000
467		-226.562500
468		-218.750000
469		-226.562500
470		-218.750000
471		-226.562500
472		-222.656250
473		-226.562500
474		-222.656250
475		-226.562500
476		-222.656250
477		-226.562500
478		-218.750000
479		-226.562500
480		-218.750000
481		-226.562500
482		-218.750000
483		-222.656250
484		-214.843750
485		-222.656250
486		-214.843750
487		-218.750000
488		-210.937500
489		-218.750000
490		-210.937500
491		-214.843750
492		-210.937500
493		-214.843750
494		-207.031250
495		-210.937500
496		-203.125000
497		-207.031250
498		-199.218750
499		-207.031250
500		-195.312500
501		-203.125000
502		-191.406250
503		-199.218750
504		-187.500000
505		-195.312500
506		-187.500000
507		-187.500000
508		-183.593750
509		-183.593750
510		-175.781250
511		-179.687500
512		-171.875000
513		-175.781250
514		-167.968750
515		-171.875000
516		-160.156250
517		-164.062500
518		-156.250000
519		-160.156250
520		-148.437500
521		-152.343750
522		-144.531250
523		-148.437500
524		-136.718750
525		-140.625000
526		-132.812500
527		-136.718750
528		-125.000000
529		-128.906250
530		-117.187500
531		-125.000000
532		-113.281250
533		-117.187500
534		-105.468750
535		-109.375000
536		-97.656250
537		-101.562500
538		-93.750000
539		-97.656250
540		-85.937500
541		-89.843750
542		-78.125000
543		-82.031250
544		-70.312500
545		-74.218750
546		-62.500000
547		-66.406250
548		-54.687500
549		-58.593750
550		-46.875000
551		-50.781250
552		-42.968750
553		-46.875000
554		-31.250000
555		-39.062500
556		-27.343750
557		-27.343750
558		-19.531250
559		-23.437500
560		-11.718750
561		-15.625000
562		-3.906250
563		-7.812500
564		3.906250
565		0.000000
566		11.718750
567		7.812500
568		19.531250
569		15.625000
570		27.343750
571		19.531250
572		31.250000
573		27.343750
574		39.062500
575		39.062500
576		46.875000
577		42.968750
578		54.687500
579		50.781250
580		62.500000
581		58.593750
582		70.312500
583		62.500000
584		74.218750
585		70.312500
586		82.031250
587		74.218750
588		89.843750
589		82.031250
590		93.750000
591		89.843750
592		97.656250
593		97.656250
594		105.468750
595		101.562500
596		113.281250
597		109.375000
598		117.187500
599		113.281250
600		125.000000
601		121.093750
602		128.906250
603		125.000000
604		136.718750
605		128.906250
606		140.625000
607		136.718750
608		144.531250
609		140.625000
610		148.437500
611		148.437500
612		156.250000
613		148.437500
614		160.156250
615		156.250000
616		164.062500
617		160.156250
618		167.968750
619		164.062500
620		171.875000
621		167.968750
622		175.781250
623		171.875000
624		179.687500
625		175.781250
626		183.593750
627		179.687500
628		187.500000
629		183.593750
630		191.406250
631		187.500000
632		195.312500
633		187.500000
634		199.218750
635		191.406250
636		199.218750
637		195.312500
638		203.125000
639		195.312500
640		207.031250
641		203.125000
642		207.031250
643		203.125000
644		207.031250
645		207.031250
646		210.937500
647		207.031250
648		214.843750
649		210.937500
650		214.843750
651		210.937500
652		218.750000
653		210.937500
654		218.750000
655		214.843750
656		218.750000
657		214.843750
658		218.750000
659		218.750000
660		222.656250
661		218.750000
662		222.656250
663		218.750000
664		222.656250
665		218.750000
666		226.562500
667		218.750000
668		226.562500
669		218.750000
670		226.562500
671		218.750000
672		226.562500
673		218.750000
674		226.562500
675		222.656250
676		222.656250
677		222.656250
678		222.656250
679		218.750000
680		226.562500
681		218.750000
682		226.562500
683		218.750000
684		222.656250
685		214.843750
686		222.656250
687		214.843750
688		222.656250
689		214.843750
690		222.656250
691		214.843750
692		222.656250
693		214.843750
694		218.750000
695		210.937500
696		218.750000
697		210.937500
698		214.843750
699		207.031250
700		214.843750
701		207.031250
702		210.937500
703		203.125000
704		210.937500
705		199.218750
706		207.031250
707		199.218750
708		207.031250
709		195.312500
710		203.125000
711		195.312500
712		199.218750
713		187.500000
714		199.218750
715		187.500000
716		195.312500
717		183.593750
718		191.406250
719		179.687500
720		187.500000
721		175.781250
722		183.593750
723		171.875000
724		183.593750
725		167.968750
726		175.781250
727		164.062500
728		171.875000
729		160.156250
730		167.968750
731		152.343750
732		164.062500
733		148.437500
734		160.156250
735		144.531250
736		156.250000
737		140.625000
738		148.437500
739		132.812500
740		144.531250
741		128.906250
742		140.625000
743		125.000000
744		132.812500
745		117.187500
746		128.906250
747		109.375000
748		121.093750
749		105.468750
750		117.187500
751		97.656250
752		109.375000
753		93.750000
754		101.562500
755		85.937500
756		97.656250
757		82.031250
758		89.843750
759		74.218750
760		82.031250
761		66.406250
762		78.125000
763		58.593750
764		70.312500
765		50.781250
766		66.406250
767		46.875000
768		58.593750
769		39.062500
770		50.781250
771		31.250000
772		42.968750
773		23.437500
774		35.156250
775		19.531250
776		27.343750
777		11.718750
778		19.531250
779		3.906250
780		11.718750
781		-3.906250
782		7.812500
783		-15.625000
784		0.000000
785		-19.531250
786		-7.812500
787		-27.343750
788		-15.625000
789		-35.156250
790		-23.437500
791		-39.062500
792		-31.250000
793		-46.875000
794		-39.062500
795		-54.687500
796		-46.875000
797		-62.500000
798		-50.781250
799		-70.312500
800		-58.593750
801		-78.125000
802		-66.406250
803		-85.937500
804		-74.218750
805		-89.843750
806		-82.031250
807		-97.656250
808		-85.937500
809		-105.468750
810		-93.750000
811		-109.375000
812		-101.562500
813		-117.187500
814		-109.375000
815		-125.000000
816		-113.281250
817		-128.906250
818		-121.093750
819		-136.718750
820		-125.000000
821		-144.531250
822		-132.812500
823		-148.437500
824		-136.718750
825		-152.343750
826		-144.531250
827		-160.156250
828		-152.343750
829		-167.968750
830		-156.250000
831		-167.968750
832		-160.156250
833		-175.781250
834		-164.062500
835		-179.687500
836		-171.875000
837		-183.593750
838		-175.781250
839		-187.500000
840		-179.687500
841		-191.406250
842		-183.593750
843		-195.312500
844		-191.406250
845		-199.218750
846		-191.406250
847		-207.031250
848		-195.312500
849		-207.031250
850		-199.218750
851		-210.937500
852		-203.125000
853		-214.843750
854		-207.031250
855		-214.843750
856		-207.031250
857		-218.750000
858		-210.937500
859		-218.750000
860		-214.843750
861		-218.750000
862		-214.843750
863		-222.656250
864		-218.750000
865		-226.562500
866		-218.750000
867		-226.562500
868		-218.750000
869		-226.562500
870		-218.750000
871		-230.468750
872		-218.750000
873		-226.562500
874		-222.656250
875		-230.468750
876		-222.656250
877		-226.562500
878		-222.656250
879		-226.562500
880		-222.656250
881		-226.562500
882		-218.750000
883		-226.562500
884		-218.750000
885		-226.562500
886		-218.750000
887		-222.656250
888		-218.750000
889		-222.656250
890		-214.843750
891		-218.750000
892		-214.843750
893		-218.750000
894		-210.937500
895		-214.843750
896		-210.937500
897		-214.843750
898		-207.031250
899		-210.937500
900		-203.125000
901		-207.031250
902		-199.218750
903		-203.125000
904		-195.312500
905		-199.218750
906		-191.406250
907		-195.312500
908		-187.500000
909		-191.406250
910		-183.593750
911		-187.500000
912		-179.687500
913		-183.593750
914		-171.875000
915		-179.687500
916		-167.968750
917		-171.875000
918		-164.062500
919		-171.875000
920		-160.156250
921		-164.062500
922		-152.343750
923		-156.250000
924		-148.437500
925		-152.343750
926		-144.531250
927		-144.531250
928		-136.718750
929		-140.625000
930		-132.812500
931		-132.812500
932		-125.000000
933		-128.906250
934		-117.187500
935		-121.093750
936		-109.375000
937		-113.281250
938		-105.468750
939		-109.375000
940		-97.656250
941		-101.562500
942		-89.843750
943		-93.750000
944		-85.937500
945		-85.937500
946		-78.125000
947		-78.125000
948		-66.406250
949		-74.218750
950		-62.500000
951		-66.406250
952		-54.687500
953		-58.593750
954		-46.875000
955		-50.781250
956		-39.062500
957		-42.968750
958		-31.250000
959		-35.156250
960		-27.343750
961		-27.343750
962		-19.531250
963		-19.531250
964		-11.718750
965		-11.718750
966		0.000000
967		-7.812500
968		7.812500
969		0.000000
970		11.718750
971		7.812500
972		19.531250
973		15.625000
974		27.343750
975		23.437500
976		35.156250
977		31.250000
978		39.062500
979		39.062500
980		46.875000
981		46.875000
982		54.687500
983		50.781250
984		62.500000
985		58.593750
986		70.312500
987		66.406250
988		78.125000
989		70.312500
990		82.031250
991		78.125000
992		89.843750
993		85.937500
994		93.750000
995		89.843750
996		101.562500
997		97.656250
998		105.468750
999		105.468750
1000		113.281250
1001		109.375000
1002		121.093750
1003		117.187500
1004		125.000000
1005		121.093750
1006		132.812500
1007		125.000000
1008		136.718750
1009		132.812500
1010		140.625000
1011		136.718750
1012		144.531250
1013		144.531250
1014		152.343750
1015		148.437500
1016		156.250000
1017		152.343750
1018		160.156250
1019		156.250000
1020		164.062500
1021		160.156250
1022		167.968750
1023		164.062500
1024		171.875000
1025		167.968750
1026		179.687500
1027		171.875000
1028		179.687500
1029		179.687500
1030		183.593750
1031		183.593750
1032		187.500000
1033		183.593750
1034		191.406250
1035		187.500000
1036		195.312500
1037		191.406250
1038		199.218750
1039		191.406250
1040		199.218750
1041		195.312500
1042		203.125000
1043		199.218750
1044		207.031250
1045		203.125000
1046		207.031250
1047		203.125000
1048		210.937500
1049		207.031250
1050		210.937500
1051		207.031250
1052		214.843750
1053		207.031250
1054		214.843750
1055		210.937500
1056		218.750000
1057		210.937500
1058		218.750000
1059		214.843750
1060		218.750000
1061		214.843750
1062		222.656250
1063		218.750000
1064		218.750000
1065		218.750000
1066		222.656250
1067		218.750000
1068		222.656250
1069		218.750000
1070		226.562500
1071		218.750000
1072		226.562500
1073		218.750000
1074		226.562500
1075		218.750000
1076		226.562500
1077		218.750000
1078		226.562500
1079		222.656250
1080		222.656250
1081		218.750000
1082		226.562500
1083		218.750000
1084		226.562500
1085		218.750000
1086		226.562500
1087		218.750000
1088		222.656250
1089		214.843750
1090		222.656250
1091		214.843750
1092		222.656250
1093		214.843750
1094		222.656250
1095		214.843750
1096		218.750000
1097		214.843750
1098		218.750000
1099		210.937500
1100		218.750000
1101		210.937500
1102		214.843750
1103		207.031250
1104		214.843750
1105		203.125000
1106		210.937500
1107		203.125000
1108		210.937500
1109		203.125000
1110		210.937500
1111		199.218750
1112		207.031250
1113		199.218750
1114		203.125000
1115		191.406250
1116		199.218750
1117		191.406250
1118		199.218750
1119		187.500000
1120		195.312500
1121		183.593750
1122		191.406250
1123		179.687500
1124		187.500000
1125		175.781250
1126		183.593750
1127		171.875000
1128		183.593750
1129		167.968750
1130		175.781250
1131		164.062500
1132		171.875000
1133		160.156250
1134		167.968750
1135		156.250000
1136		164.062500
1137		148.437500
1138		160.156250
1139		144.531250
1140		152.343750
1141		140.625000
1142		148.437500
1143		136.718750
1144		144.531250
1145		128.906250
1146		140.625000
1147		125.000000
1148		132.812500
1149		117.187500
1150		128.906250
1151		113.281250
1152		121.093750
1153		105.468750
1154		117.187500
1155		101.562500
1156		109.375000
1157		93.750000
1158		105.468750
1159		85.937500
1160		97.656250
1161		82.031250
1162		89.843750
1163		74.218750
1164		82.031250
1165		66.406250
1166		78.125000
1167		62.500000
1168		70.312500
1169		54.687500
1170		66.406250
1171		46.875000
1172		58.593750
1173		39.062500
1174		50.781250
1175		31.250000
1176		42.968750
1177		23.437500
1178		35.156250
1179		19.531250
1180		27.343750
1181		11.718750
1182		19.531250
1183		3.906250
1184		11.718750
1185		-3.906250
1186		7.812500
1187		-11.718750
1188		0.000000
1189		-19.531250
1190		-7.812500
1191		-27.343750
1192		-15.625000
1193		-35.156250
1194		-23.437500
1195		-39.062500
1196		-31.250000
1197		-46.875000
1198		-39.062500
1199		-54.687500
1200		-46.875000
1201		-62.500000
1202		-50.781250
1203		-70.312500
1204		-58.593750
1205		-78.125000
1206		-66.406250
1207		-85.937500
1208		-74.218750
1209		-93.750000
1210		-78.125000
1211		-97.656250
1212		-85.937500
1213		-105.468750
1214		-93.750000
1215		-109.375000
1216		-101.562500
