Old_data/metingen laweit/2000Hz, 44.1cm/data_81_199.txt

Channel              :		CH1
Frequency            :		1.975kHz
Period               :		0.506ms
PK-PK                :		95.70mV
Probe attenuation    :		1X
Voltage per ADC value:		0.122070mV
Time interval        :		2.00000us

index		CH1_Voltage(mV)
1		54.687500
2		54.687500
3		52.734375
4		54.687500
5		52.734375
6		54.687500
7		50.781250
8		52.734375
9		48.828125
10		54.687500
11		48.828125
12		52.734375
13		48.828125
14		52.734375
15		46.875000
16		50.781250
17		46.875000
18		50.781250
19		44.921875
20		48.828125
21		44.921875
22		48.828125
23		42.968750
24		46.875000
25		41.015625
26		44.921875
27		41.015625
28		44.921875
29		39.062500
30		42.968750
31		37.109375
32		41.015625
33		35.156250
34		39.062500
35		33.203125
36		39.062500
37		31.250000
38		35.156250
39		31.250000
40		33.203125
41		27.343750
42		31.250000
43		25.390625
44		31.250000
45		25.390625
46		29.296875
47		23.437500
48		27.343750
49		21.484375
50		25.390625
51		17.578125
52		23.437500
53		17.578125
54		19.531250
55		15.625000
56		17.578125
57		11.718750
58		15.625000
59		9.765625
60		15.625000
61		7.812500
62		11.718750
63		5.859375
64		9.765625
65		3.906250
66		7.812500
67		1.953125
68		5.859375
69		0.000000
70		3.906250
71		-1.953125
72		1.953125
73		-3.906250
74		0.000000
75		-5.859375
76		-1.953125
77		-7.812500
78		-3.906250
79		-9.765625
80		-5.859375
81		-11.718750
82		-7.812500
83		-13.671875
84		-9.765625
85		-15.625000
86		-11.718750
87		-17.578125
88		-13.671875
89		-17.578125
90		-15.625000
91		-21.484375
92		-15.625000
93		-21.484375
94		-17.578125
95		-23.437500
96		-19.531250
97		-23.437500
98		-19.531250
99		-25.390625
100		-21.484375
101		-25.390625
102		-23.437500
103		-27.343750
104		-23.437500
105		-29.296875
106		-23.437500
107		-27.343750
108		-25.390625
109		-29.296875
110		-25.390625
111		-29.296875
112		-27.343750
113		-29.296875
114		-27.343750
115		-31.250000
116		-27.343750
117		-31.250000
118		-27.343750
119		-31.250000
120		-27.343750
121		-31.250000
122		-27.343750
123		-31.250000
124		-29.296875
125		-31.250000
126		-27.343750
127		-31.250000
128		-27.343750
129		-29.296875
130		-27.343750
131		-29.296875
132		-27.343750
133		-29.296875
134		-25.390625
135		-27.343750
136		-25.390625
137		-27.343750
138		-23.437500
139		-25.390625
140		-23.437500
141		-25.390625
142		-21.484375
143		-25.390625
144		-21.484375
145		-23.437500
146		-19.531250
147		-21.484375
148		-17.578125
149		-19.531250
150		-17.578125
151		-19.531250
152		-15.625000
153		-17.578125
154		-13.671875
155		-17.578125
156		-13.671875
157		-15.625000
158		-11.718750
159		-13.671875
160		-7.812500
161		-11.718750
162		-7.812500
163		-9.765625
164		-3.906250
165		-7.812500
166		-3.906250
167		-5.859375
168		-1.953125
169		-3.906250
170		0.000000
171		-1.953125
172		1.953125
173		0.000000
174		3.906250
175		3.906250
176		5.859375
177		3.906250
178		7.812500
179		5.859375
180		11.718750
181		9.765625
182		13.671875
183		11.718750
184		15.625000
185		13.671875
186		17.578125
187		15.625000
188		19.531250
189		17.578125
190		21.484375
191		19.531250
192		23.437500
193		21.484375
194		25.390625
195		23.437500
196		27.343750
197		25.390625
198		29.296875
199		27.343750
200		31.250000
201		29.296875
202		33.203125
203		31.250000
204		35.156250
205		33.203125
206		37.109375
207		35.156250
208		37.109375
209		35.156250
210		41.015625
211		37.109375
212		41.015625
213		39.062500
214		42.968750
215		41.015625
216		44.921875
217		42.968750
218		44.921875
219		42.968750
220		46.875000
221		44.921875
222		48.828125
223		46.875000
224		48.828125
225		46.875000
226		50.781250
227		48.828125
228		52.734375
229		48.828125
230		52.734375
231		48.828125
232		52.734375
233		50.781250
234		54.687500
235		50.781250
236		54.687500
237		50.781250
238		54.687500
239		52.734375
240		56.640625
241		52.734375
242		56.640625
243		52.734375
244		56.640625
245		52.734375
246		56.640625
247		52.734375
248		56.640625
249		52.734375
250		56.640625
251		52.734375
252		56.640625
253		52.734375
254		56.640625
255		52.734375
256		56.640625
257		52.734375
258		54.687500
259		52.734375
260		54.687500
261		50.781250
262		54.687500
263		50.781250
264		52.734375
265		48.828125
266		52.734375
267		48.828125
268		50.781250
269		48.828125
270		50.781250
271		46.875000
272		48.828125
273		44.921875
274		48.828125
275		44.921875
276		46.875000
277		42.968750
278		46.875000
279		41.015625
280		44.921875
281		39.062500
282		42.968750
283		39.062500
284		42.968750
285		37.109375
286		41.015625
287		35.156250
288		39.062500
289		33.203125
290		39.062500
291		31.250000
292		35.156250
293		29.296875
294		33.203125
295		27.343750
296		33.203125
297		25.390625
298		29.296875
299		23.437500
300		29.296875
301		23.437500
302		27.343750
303		19.531250
304		23.437500
305		17.578125
306		21.484375
307		15.625000
308		19.531250
309		13.671875
310		17.578125
311		11.718750
312		15.625000
313		9.765625
314		13.671875
315		7.812500
316		11.718750
317		5.859375
318		9.765625
319		3.906250
320		7.812500
321		1.953125
322		5.859375
323		0.000000
324		3.906250
325		-1.953125
326		1.953125
327		-5.859375
328		0.000000
329		-5.859375
330		-1.953125
331		-7.812500
332		-3.906250
333		-9.765625
334		-5.859375
335		-11.718750
336		-7.812500
337		-13.671875
338		-9.765625
339		-15.625000
340		-11.718750
341		-15.625000
342		-13.671875
343		-17.578125
344		-15.625000
345		-19.531250
346		-15.625000
347		-21.484375
348		-17.578125
349		-23.437500
350		-19.531250
351		-23.437500
352		-21.484375
353		-25.390625
354		-21.484375
355		-25.390625
356		-23.437500
357		-27.343750
358		-23.437500
359		-27.343750
360		-25.390625
361		-29.296875
362		-25.390625
363		-29.296875
364		-25.390625
365		-29.296875
366		-27.343750
367		-31.250000
368		-27.343750
369		-29.296875
370		-27.343750
371		-31.250000
372		-27.343750
373		-33.203125
374		-27.343750
375		-31.250000
376		-27.343750
377		-31.250000
378		-27.343750
379		-31.250000
380		-27.343750
381		-31.250000
382		-27.343750
383		-29.296875
384		-25.390625
385		-29.296875
386		-25.390625
387		-29.296875
388		-25.390625
389		-27.343750
390		-23.437500
391		-27.343750
392		-23.437500
393		-25.390625
394		-23.437500
395		-25.390625
396		-21.484375
397		-23.437500
398		-19.531250
399		-23.437500
400		-19.531250
401		-21.484375
402		-17.578125
403		-21.484375
404		-17.578125
405		-19.531250
406		-15.625000
407		-17.578125
408		-13.671875
409		-15.625000
410		-11.718750
411		-13.671875
412		-9.765625
413		-13.671875
414		-7.812500
415		-11.718750
416		-5.859375
417		-7.812500
418		-3.906250
419		-7.812500
420		-1.953125
421		-3.906250
422		0.000000
423		-3.906250
424		1.953125
425		0.000000
426		1.953125
427		1.953125
428		5.859375
429		1.953125
430		7.812500
431		5.859375
432		9.765625
433		5.859375
434		11.718750
435		9.765625
436		13.671875
437		11.718750
438		15.625000
439		13.671875
440		17.578125
441		15.625000
442		19.531250
443		17.578125
444		21.484375
445		19.531250
446		23.437500
447		21.484375
448		25.390625
449		23.437500
450		27.343750
451		25.390625
452		29.296875
453		27.343750
454		33.203125
455		29.296875
456		33.203125
457		31.250000
458		35.156250
459		33.203125
460		37.109375
461		35.156250
462		39.062500
463		35.156250
464		41.015625
465		37.109375
466		42.968750
467		39.062500
468		42.968750
469		41.015625
470		44.921875
471		42.968750
472		46.875000
473		42.968750
474		48.828125
475		44.921875
476		48.828125
477		46.875000
478		50.781250
479		46.875000
480		50.781250
481		48.828125
482		52.734375
483		48.828125
484		52.734375
485		50.781250
486		52.734375
487		50.781250
488		54.687500
489		50.781250
490		54.687500
491		52.734375
492		54.687500
493		52.734375
494		54.687500
495		52.734375
496		56.640625
497		52.734375
498		56.640625
499		52.734375
500		56.640625
501		52.734375
502		56.640625
503		52.734375
504		56.640625
505		52.734375
506		56.640625
507		50.781250
508		56.640625
509		52.734375
510		54.687500
511		52.734375
512		54.687500
513		50.781250
514		54.687500
515		50.781250
516		54.687500
517		48.828125
518		52.734375
519		48.828125
520		52.734375
521		48.828125
522		52.734375
523		46.875000
524		50.781250
525		46.875000
526		50.781250
527		44.921875
528		48.828125
529		42.968750
530		46.875000
531		42.968750
532		44.921875
533		41.015625
534		44.921875
535		41.015625
536		42.968750
537		39.062500
538		42.968750
539		35.156250
540		41.015625
541		35.156250
542		39.062500
543		33.203125
544		37.109375
545		31.250000
546		35.156250
547		29.296875
548		33.203125
549		27.343750
550		31.250000
551		25.390625
552		29.296875
553		23.437500
554		27.343750
555		21.484375
556		25.390625
557		19.531250
558		23.437500
559		17.578125
560		21.484375
561		15.625000
562		19.531250
563		13.671875
564		17.578125
565		11.718750
566		15.625000
567		9.765625
568		13.671875
569		7.812500
570		11.718750
571		3.906250
572		9.765625
573		3.906250
574		7.812500
575		1.953125
576		5.859375
577		0.000000
578		1.953125
579		-3.906250
580		0.000000
581		-5.859375
582		-1.953125
583		-7.812500
584		-3.906250
585		-7.812500
586		-3.906250
587		-9.765625
588		-5.859375
589		-13.671875
590		-7.812500
591		-13.671875
592		-9.765625
593		-15.625000
594		-11.718750
595		-17.578125
596		-13.671875
597		-19.531250
598		-15.625000
599		-19.531250
600		-17.578125
601		-21.484375
602		-17.578125
603		-23.437500
604		-19.531250
605		-23.437500
606		-21.484375
607		-25.390625
608		-21.484375
609		-25.390625
610		-21.484375
611		-27.343750
612		-23.437500
613		-29.296875
614		-25.390625
615		-29.296875
616		-25.390625
617		-29.296875
618		-25.390625
619		-31.250000
620		-27.343750
621		-31.250000
622		-27.343750
623		-31.250000
624		-27.343750
625		-31.250000
626		-27.343750
627		-31.250000
628		-29.296875
629		-29.296875
630		-27.343750
631		-31.250000
632		-27.343750
633		-31.250000
634		-27.343750
635		-29.296875
636		-27.343750
637		-29.296875
638		-25.390625
639		-29.296875
640		-25.390625
641		-27.343750
642		-25.390625
643		-29.296875
644		-23.437500
645		-25.390625
646		-23.437500
647		-25.390625
648		-21.484375
649		-25.390625
650		-21.484375
651		-23.437500
652		-19.531250
653		-21.484375
654		-17.578125
655		-21.484375
656		-17.578125
657		-19.531250
658		-15.625000
659		-19.531250
660		-13.671875
661		-15.625000
662		-13.671875
663		-15.625000
664		-11.718750
665		-13.671875
666		-9.765625
667		-11.718750
668		-7.812500
669		-9.765625
670		-5.859375
671		-7.812500
672		-3.906250
673		-5.859375
674		-1.953125
675		-3.906250
676		0.000000
677		-1.953125
678		1.953125
679		0.000000
680		3.906250
681		1.953125
682		5.859375
683		3.906250
684		7.812500
685		5.859375
686		9.765625
687		7.812500
688		11.718750
689		9.765625
690		15.625000
691		11.718750
692		15.625000
693		13.671875
694		17.578125
695		17.578125
696		19.531250
697		19.531250
698		23.437500
699		21.484375
700		25.390625
701		23.437500
702		27.343750
703		25.390625
704		27.343750
705		25.390625
706		31.250000
707		27.343750
708		33.203125
709		29.296875
710		33.203125
711		33.203125
712		35.156250
713		33.203125
714		37.109375
715		35.156250
716		39.062500
717		37.109375
718		41.015625
719		39.062500
720		42.968750
721		41.015625
722		44.921875
723		41.015625
724		44.921875
725		42.968750
726		46.875000
727		42.968750
728		46.875000
729		46.875000
730		48.828125
731		46.875000
732		50.781250
733		48.828125
734		50.781250
735		48.828125
736		52.734375
737		48.828125
738		52.734375
739		50.781250
740		52.734375
741		50.781250
742		54.687500
743		52.734375
744		56.640625
745		52.734375
746		54.687500
747		52.734375
748		56.640625
749		52.734375
750		56.640625
751		52.734375
752		56.640625
753		52.734375
754		56.640625
755		52.734375
756		56.640625
757		52.734375
758		56.640625
759		52.734375
760		56.640625
761		52.734375
762		54.687500
763		52.734375
764		54.687500
765		50.781250
766		54.687500
767		50.781250
768		54.687500
769		50.781250
770		54.687500
771		50.781250
772		52.734375
773		48.828125
774		52.734375
775		48.828125
776		50.781250
777		46.875000
778		50.781250
779		44.921875
780		48.828125
781		44.921875
782		48.828125
783		42.968750
784		46.875000
785		41.015625
786		44.921875
787		41.015625
788		44.921875
789		39.062500
790		42.968750
791		37.109375
792		41.015625
793		35.156250
794		39.062500
795		35.156250
796		37.109375
797		33.203125
798		37.109375
799		31.250000
800		35.156250
801		29.296875
802		33.203125
803		27.343750
804		31.250000
805		25.390625
806		29.296875
807		23.437500
808		27.343750
809		21.484375
810		25.390625
811		19.531250
812		23.437500
813		17.578125
814		21.484375
815		15.625000
816		19.531250
817		11.718750
818		17.578125
819		11.718750
820		15.625000
821		7.812500
822		13.671875
823		5.859375
824		9.765625
825		3.906250
826		9.765625
827		1.953125
828		5.859375
829		0.000000
830		3.906250
831		-1.953125
832		1.953125
833		-3.906250
834		0.000000
835		-5.859375
836		-1.953125
837		-7.812500
838		-3.906250
839		-9.765625
840		-5.859375
841		-11.718750
842		-7.812500
843		-13.671875
844		-9.765625
845		-13.671875
846		-9.765625
847		-15.625000
848		-11.718750
849		-17.578125
850		-13.671875
851		-19.531250
852		-15.625000
853		-21.484375
854		-17.578125
855		-21.484375
856		-19.531250
857		-23.437500
858		-19.531250
859		-23.437500
860		-21.484375
861		-25.390625
862		-21.484375
863		-27.343750
864		-23.437500
865		-27.343750
866		-23.437500
867		-29.296875
868		-25.390625
869		-29.296875
870		-25.390625
871		-29.296875
872		-25.390625
873		-29.296875
874		-27.343750
875		-29.296875
876		-27.343750
877		-31.250000
878		-27.343750
879		-29.296875
880		-27.343750
881		-31.250000
882		-27.343750
883		-31.250000
884		-27.343750
885		-31.250000
886		-27.343750
887		-31.250000
888		-27.343750
889		-31.250000
890		-25.390625
891		-29.296875
892		-25.390625
893		-29.296875
894		-25.390625
895		-27.343750
896		-25.390625
897		-27.343750
898		-23.437500
899		-27.343750
900		-23.437500
901		-25.390625
902		-21.484375
903		-25.390625
904		-21.484375
905		-23.437500
906		-19.531250
907		-21.484375
908		-19.531250
909		-19.531250
910		-17.578125
911		-19.531250
912		-15.625000
913		-17.578125
914		-13.671875
915		-15.625000
916		-11.718750
917		-13.671875
918		-9.765625
919		-13.671875
920		-9.765625
921		-11.718750
922		-7.812500
923		-9.765625
924		-5.859375
925		-7.812500
926		-3.906250
927		-5.859375
928		0.000000
929		-3.906250
930		0.000000
931		-1.953125
932		1.953125
933		0.000000
934		3.906250
935		1.953125
936		5.859375
937		3.906250
938		9.765625
939		5.859375
940		11.718750
941		7.812500
942		13.671875
943		11.718750
944		15.625000
945		13.671875
946		17.578125
947		15.625000
948		19.531250
949		17.578125
950		21.484375
951		19.531250
952		23.437500
953		21.484375
954		25.390625
955		23.437500
956		27.343750
957		25.390625
958		29.296875
959		27.343750
960		31.250000
961		29.296875
962		33.203125
963		31.250000
964		35.156250
965		33.203125
966		37.109375
967		33.203125
968		37.109375
969		37.109375
970		39.062500
971		37.109375
972		41.015625
973		39.062500
974		42.968750
975		41.015625
976		44.921875
977		42.968750
978		44.921875
979		42.968750
980		46.875000
981		44.921875
982		48.828125
983		44.921875
984		50.781250
985		46.875000
986		50.781250
987		48.828125
988		52.734375
989		48.828125
990		52.734375
991		50.781250
992		54.687500
993		50.781250
994		54.687500
995		50.781250
996		54.687500
997		52.734375
998		54.687500
999		52.734375
1000		56.640625
1001		52.734375
1002		56.640625
1003		52.734375
1004		56.640625
1005		52.734375
1006		56.640625
1007		52.734375
1008		56.640625
1009		52.734375
1010		56.640625
1011		52.734375
1012		56.640625
1013		52.734375
1014		56.640625
1015		52.734375
1016		56.640625
1017		52.734375
1018		56.640625
1019		50.781250
1020		54.687500
1021		50.781250
1022		54.687500
1023		50.781250
1024		54.687500
1025		48.828125
1026		52.734375
1027		48.828125
1028		52.734375
1029		48.828125
1030		50.781250
1031		46.875000
1032		50.781250
1033		44.921875
1034		48.828125
1035		44.921875
1036		48.828125
1037		42.968750
1038		46.875000
1039		42.968750
1040		46.875000
1041		41.015625
1042		44.921875
1043		39.062500
1044		42.968750
1045		37.109375
1046		41.015625
1047		35.156250
1048		39.062500
1049		33.203125
1050		37.109375
1051		33.203125
1052		37.109375
1053		31.250000
1054		35.156250
1055		29.296875
1056		33.203125
1057		27.343750
1058		31.250000
1059		25.390625
1060		29.296875
1061		23.437500
1062		27.343750
1063		21.484375
1064		25.390625
1065		19.531250
1066		23.437500
1067		17.578125
1068		19.531250
1069		15.625000
1070		19.531250
1071		11.718750
1072		15.625000
1073		9.765625
1074		13.671875
1075		7.812500
1076		11.718750
1077		5.859375
1078		9.765625
1079		3.906250
1080		7.812500
1081		1.953125
1082		5.859375
1083		0.000000
1084		3.906250
1085		-1.953125
1086		1.953125
1087		-3.906250
1088		0.000000
1089		-5.859375
1090		-1.953125
1091		-7.812500
1092		-3.906250
1093		-9.765625
1094		-5.859375
1095		-11.718750
1096		-7.812500
1097		-13.671875
1098		-9.765625
1099		-13.671875
1100		-11.718750
1101		-17.578125
1102		-11.718750
1103		-17.578125
1104		-13.671875
1105		-19.531250
1106		-15.625000
1107		-21.484375
1108		-17.578125
1109		-23.437500
1110		-17.578125
1111		-23.437500
1112		-19.531250
1113		-25.390625
1114		-21.484375
1115		-25.390625
1116		-23.437500
1117		-27.343750
1118		-23.437500
1119		-27.343750
1120		-23.437500
1121		-27.343750
1122		-25.390625
1123		-29.296875
1124		-25.390625
1125		-29.296875
1126		-25.390625
1127		-29.296875
1128		-27.343750
1129		-31.250000
1130		-27.343750
1131		-29.296875
1132		-27.343750
1133		-29.296875
1134		-27.343750
1135		-31.250000
1136		-27.343750
1137		-31.250000
1138		-27.343750
1139		-29.296875
1140		-27.343750
1141		-31.250000
1142		-25.390625
1143		-31.250000
1144		-25.390625
1145		-29.296875
1146		-25.390625
1147		-29.296875
1148		-25.390625
1149		-27.343750
1150		-23.437500
1151		-27.343750
1152		-23.437500
1153		-25.390625
1154		-23.437500
1155		-25.390625
1156		-21.484375
1157		-23.437500
1158		-21.484375
1159		-23.437500
1160		-19.531250
1161		-21.484375
1162		-17.578125
1163		-19.531250
1164		-15.625000
1165		-17.578125
1166		-15.625000
1167		-15.625000
1168		-13.671875
1169		-15.625000
1170		-11.718750
1171		-13.671875
1172		-9.765625
1173		-11.718750
1174		-7.812500
1175		-9.765625
1176		-5.859375
1177		-7.812500
1178		-3.906250
1179		-5.859375
1180		-1.953125
1181		-5.859375
1182		0.000000
1183		-1.953125
1184		1.953125
1185		0.000000
1186		3.906250
1187		1.953125
1188		5.859375
1189		3.906250
1190		7.812500
1191		5.859375
1192		9.765625
1193		7.812500
1194		11.718750
1195		9.765625
1196		13.671875
1197		11.718750
1198		15.625000
1199		13.671875
1200		17.578125
1201		15.625000
1202		21.484375
1203		17.578125
1204		21.484375
1205		19.531250
1206		23.437500
1207		21.484375
1208		25.390625
1209		23.437500
1210		27.343750
1211		25.390625
1212		31.250000
1213		29.296875
1214		33.203125
1215		29.296875
1216		33.203125
1217		31.250000
1218		35.156250
1219		33.203125
1220		37.109375
1221		35.156250
1222		39.062500
1223		37.109375
1224		41.015625
1225		39.062500
1226		42.968750
1227		39.062500
1228		42.968750
1229		41.015625
1230		44.921875
1231		42.968750
1232		46.875000
1233		44.921875
1234		46.875000
1235		44.921875
1236		48.828125
1237		46.875000
1238		50.781250
1239		46.875000
1240		50.781250
1241		48.828125
1242		50.781250
1243		48.828125
1244		52.734375
1245		50.781250
1246		52.734375
1247		50.781250
1248		54.687500
1249		52.734375
1250		54.687500
1251		52.734375
1252		54.687500
1253		52.734375
1254		56.640625
1255		52.734375
1256		56.640625
1257		54.687500
1258		56.640625
1259		54.687500
1260		56.640625
1261		52.734375
1262		56.640625
1263		52.734375
1264		56.640625
1265		52.734375
1266		56.640625
1267		54.687500
1268		56.640625
1269		52.734375
1270		56.640625
1271		52.734375
1272		56.640625
1273		52.734375
1274		54.687500
1275		50.781250
1276		54.687500
1277		50.781250
1278		54.687500
1279		48.828125
1280		52.734375
1281		48.828125
1282		52.734375
1283		46.875000
1284		50.781250
1285		46.875000
1286		50.781250
1287		44.921875
