Old_data/metingen laweit/2000Hz, 44.1cm/data_81_209.txt

Channel              :		CH1
Frequency            :		1.973kHz
Period               :		0.507ms
PK-PK                :		130.9mV
Probe attenuation    :		1X
Voltage per ADC value:		0.122070mV
Time interval        :		2.00000us

index		CH1_Voltage(mV)
1		68.359375
2		68.359375
3		66.406250
4		68.359375
5		64.453125
6		68.359375
7		64.453125
8		68.359375
9		62.500000
10		66.406250
11		62.500000
12		66.406250
13		62.500000
14		66.406250
15		60.546875
16		64.453125
17		58.593750
18		64.453125
19		58.593750
20		62.500000
21		56.640625
22		60.546875
23		54.687500
24		58.593750
25		52.734375
26		58.593750
27		52.734375
28		56.640625
29		50.781250
30		54.687500
31		48.828125
32		52.734375
33		46.875000
34		50.781250
35		44.921875
36		48.828125
37		41.015625
38		44.921875
39		39.062500
40		44.921875
41		37.109375
42		41.015625
43		35.156250
44		39.062500
45		31.250000
46		35.156250
47		29.296875
48		33.203125
49		25.390625
50		31.250000
51		23.437500
52		27.343750
53		21.484375
54		25.390625
55		17.578125
56		23.437500
57		15.625000
58		19.531250
59		11.718750
60		17.578125
61		7.812500
62		13.671875
63		5.859375
64		11.718750
65		1.953125
66		7.812500
67		-1.953125
68		3.906250
69		-3.906250
70		1.953125
71		-5.859375
72		-1.953125
73		-9.765625
74		-1.953125
75		-11.718750
76		-7.812500
77		-13.671875
78		-9.765625
79		-17.578125
80		-13.671875
81		-19.531250
82		-15.625000
83		-25.390625
84		-19.531250
85		-25.390625
86		-21.484375
87		-29.296875
88		-23.437500
89		-31.250000
90		-27.343750
91		-33.203125
92		-29.296875
93		-35.156250
94		-31.250000
95		-39.062500
96		-33.203125
97		-39.062500
98		-35.156250
99		-42.968750
100		-37.109375
101		-42.968750
102		-39.062500
103		-44.921875
104		-41.015625
105		-48.828125
106		-42.968750
107		-48.828125
108		-44.921875
109		-48.828125
110		-44.921875
111		-50.781250
112		-46.875000
113		-52.734375
114		-48.828125
115		-52.734375
116		-48.828125
117		-54.687500
118		-48.828125
119		-52.734375
120		-50.781250
121		-54.687500
122		-50.781250
123		-54.687500
124		-50.781250
125		-54.687500
126		-50.781250
127		-54.687500
128		-50.781250
129		-54.687500
130		-50.781250
131		-54.687500
132		-50.781250
133		-52.734375
134		-50.781250
135		-52.734375
136		-48.828125
137		-52.734375
138		-48.828125
139		-50.781250
140		-46.875000
141		-50.781250
142		-46.875000
143		-48.828125
144		-44.921875
145		-46.875000
146		-42.968750
147		-46.875000
148		-41.015625
149		-42.968750
150		-39.062500
151		-42.968750
152		-37.109375
153		-39.062500
154		-37.109375
155		-37.109375
156		-33.203125
157		-37.109375
158		-31.250000
159		-35.156250
160		-29.296875
161		-31.250000
162		-27.343750
163		-29.296875
164		-23.437500
165		-25.390625
166		-21.484375
167		-23.437500
168		-17.578125
169		-21.484375
170		-15.625000
171		-17.578125
172		-13.671875
173		-15.625000
174		-9.765625
175		-11.718750
176		-7.812500
177		-9.765625
178		-3.906250
179		-7.812500
180		-1.953125
181		-3.906250
182		1.953125
183		0.000000
184		3.906250
185		1.953125
186		7.812500
187		5.859375
188		9.765625
189		7.812500
190		13.671875
191		11.718750
192		15.625000
193		13.671875
194		19.531250
195		17.578125
196		21.484375
197		19.531250
198		25.390625
199		21.484375
200		27.343750
201		25.390625
202		31.250000
203		29.296875
204		33.203125
205		31.250000
206		35.156250
207		33.203125
208		39.062500
209		37.109375
210		41.015625
211		39.062500
212		42.968750
213		41.015625
214		44.921875
215		42.968750
216		46.875000
217		46.875000
218		50.781250
219		46.875000
220		50.781250
221		50.781250
222		52.734375
223		50.781250
224		56.640625
225		52.734375
226		56.640625
227		54.687500
228		58.593750
229		56.640625
230		60.546875
231		58.593750
232		60.546875
233		58.593750
234		62.500000
235		58.593750
236		64.453125
237		62.500000
238		64.453125
239		62.500000
240		66.406250
241		62.500000
242		66.406250
243		62.500000
244		66.406250
245		64.453125
246		68.359375
247		64.453125
248		68.359375
249		64.453125
250		68.359375
251		64.453125
252		68.359375
253		66.406250
254		68.359375
255		66.406250
256		68.359375
257		62.500000
258		68.359375
259		64.453125
260		68.359375
261		64.453125
262		66.406250
263		64.453125
264		66.406250
265		62.500000
266		66.406250
267		60.546875
268		64.453125
269		60.546875
270		64.453125
271		58.593750
272		62.500000
273		56.640625
274		60.546875
275		56.640625
276		60.546875
277		54.687500
278		58.593750
279		52.734375
280		56.640625
281		50.781250
282		54.687500
283		48.828125
284		52.734375
285		46.875000
286		50.781250
287		44.921875
288		48.828125
289		42.968750
290		46.875000
291		41.015625
292		44.921875
293		39.062500
294		42.968750
295		35.156250
296		41.015625
297		33.203125
298		37.109375
299		29.296875
300		35.156250
301		27.343750
302		33.203125
303		25.390625
304		29.296875
305		21.484375
306		27.343750
307		19.531250
308		23.437500
309		15.625000
310		21.484375
311		13.671875
312		17.578125
313		9.765625
314		15.625000
315		7.812500
316		11.718750
317		3.906250
318		9.765625
319		1.953125
320		7.812500
321		-1.953125
322		3.906250
323		-3.906250
324		0.000000
325		-7.812500
326		-1.953125
327		-9.765625
328		-5.859375
329		-13.671875
330		-9.765625
331		-17.578125
332		-11.718750
333		-19.531250
334		-13.671875
335		-21.484375
336		-17.578125
337		-25.390625
338		-19.531250
339		-27.343750
340		-23.437500
341		-29.296875
342		-25.390625
343		-33.203125
344		-27.343750
345		-35.156250
346		-29.296875
347		-37.109375
348		-33.203125
349		-39.062500
350		-35.156250
351		-41.015625
352		-37.109375
353		-42.968750
354		-39.062500
355		-44.921875
356		-41.015625
357		-46.875000
358		-42.968750
359		-48.828125
360		-44.921875
361		-48.828125
362		-44.921875
363		-50.781250
364		-46.875000
365		-50.781250
366		-48.828125
367		-52.734375
368		-48.828125
369		-54.687500
370		-50.781250
371		-52.734375
372		-50.781250
373		-54.687500
374		-50.781250
375		-54.687500
376		-50.781250
377		-54.687500
378		-52.734375
379		-54.687500
380		-50.781250
381		-54.687500
382		-52.734375
383		-54.687500
384		-50.781250
385		-54.687500
386		-50.781250
387		-54.687500
388		-50.781250
389		-52.734375
390		-48.828125
391		-52.734375
392		-46.875000
393		-50.781250
394		-46.875000
395		-48.828125
396		-46.875000
397		-48.828125
398		-44.921875
399		-46.875000
400		-41.015625
401		-44.921875
402		-41.015625
403		-44.921875
404		-39.062500
405		-41.015625
406		-37.109375
407		-39.062500
408		-35.156250
409		-39.062500
410		-33.203125
411		-35.156250
412		-31.250000
413		-33.203125
414		-29.296875
415		-31.250000
416		-25.390625
417		-29.296875
418		-23.437500
419		-25.390625
420		-21.484375
421		-23.437500
422		-17.578125
423		-21.484375
424		-15.625000
425		-17.578125
426		-13.671875
427		-13.671875
428		-9.765625
429		-11.718750
430		-5.859375
431		-7.812500
432		-3.906250
433		-5.859375
434		-1.953125
435		-1.953125
436		1.953125
437		0.000000
438		5.859375
439		3.906250
440		7.812500
441		5.859375
442		11.718750
443		9.765625
444		15.625000
445		11.718750
446		17.578125
447		15.625000
448		19.531250
449		17.578125
450		23.437500
451		21.484375
452		25.390625
453		23.437500
454		29.296875
455		27.343750
456		31.250000
457		29.296875
458		33.203125
459		31.250000
460		37.109375
461		35.156250
462		39.062500
463		37.109375
464		41.015625
465		39.062500
466		44.921875
467		41.015625
468		46.875000
469		42.968750
470		48.828125
471		44.921875
472		50.781250
473		48.828125
474		52.734375
475		50.781250
476		54.687500
477		52.734375
478		56.640625
479		52.734375
480		58.593750
481		56.640625
482		58.593750
483		56.640625
484		60.546875
485		58.593750
486		62.500000
487		58.593750
488		62.500000
489		60.546875
490		64.453125
491		62.500000
492		64.453125
493		62.500000
494		66.406250
495		62.500000
496		68.359375
497		64.453125
498		68.359375
499		64.453125
500		68.359375
501		64.453125
502		68.359375
503		64.453125
504		68.359375
505		64.453125
506		68.359375
507		64.453125
508		68.359375
509		64.453125
510		68.359375
511		64.453125
512		68.359375
513		64.453125
514		68.359375
515		64.453125
516		66.406250
517		62.500000
518		66.406250
519		62.500000
520		66.406250
521		60.546875
522		64.453125
523		60.546875
524		62.500000
525		58.593750
526		62.500000
527		56.640625
528		60.546875
529		54.687500
530		60.546875
531		54.687500
532		58.593750
533		52.734375
534		56.640625
535		50.781250
536		54.687500
537		46.875000
538		52.734375
539		46.875000
540		50.781250
541		42.968750
542		48.828125
543		42.968750
544		46.875000
545		39.062500
546		44.921875
547		37.109375
548		41.015625
549		35.156250
550		39.062500
551		31.250000
552		37.109375
553		29.296875
554		33.203125
555		27.343750
556		31.250000
557		23.437500
558		29.296875
559		21.484375
560		25.390625
561		17.578125
562		23.437500
563		13.671875
564		19.531250
565		11.718750
566		17.578125
567		9.765625
568		13.671875
569		5.859375
570		11.718750
571		1.953125
572		7.812500
573		0.000000
574		3.906250
575		-1.953125
576		1.953125
577		-5.859375
578		0.000000
579		-7.812500
580		-3.906250
581		-11.718750
582		-7.812500
583		-13.671875
584		-9.765625
585		-17.578125
586		-11.718750
587		-19.531250
588		-15.625000
589		-23.437500
590		-17.578125
591		-25.390625
592		-21.484375
593		-27.343750
594		-23.437500
595		-31.250000
596		-25.390625
597		-33.203125
598		-27.343750
599		-35.156250
600		-29.296875
601		-37.109375
602		-33.203125
603		-41.015625
604		-35.156250
605		-42.968750
606		-37.109375
607		-42.968750
608		-39.062500
609		-44.921875
610		-41.015625
611		-46.875000
612		-42.968750
613		-48.828125
614		-44.921875
615		-50.781250
616		-44.921875
617		-50.781250
618		-46.875000
619		-50.781250
620		-48.828125
621		-52.734375
622		-48.828125
623		-52.734375
624		-50.781250
625		-52.734375
626		-50.781250
627		-54.687500
628		-50.781250
629		-54.687500
630		-50.781250
631		-54.687500
632		-52.734375
633		-54.687500
634		-52.734375
635		-54.687500
636		-50.781250
637		-54.687500
638		-50.781250
639		-54.687500
640		-48.828125
641		-52.734375
642		-50.781250
643		-52.734375
644		-48.828125
645		-50.781250
646		-46.875000
647		-50.781250
648		-46.875000
649		-48.828125
650		-44.921875
651		-46.875000
652		-42.968750
653		-46.875000
654		-42.968750
655		-44.921875
656		-41.015625
657		-42.968750
658		-39.062500
659		-41.015625
660		-37.109375
661		-39.062500
662		-35.156250
663		-37.109375
664		-33.203125
665		-35.156250
666		-29.296875
667		-31.250000
668		-27.343750
669		-29.296875
670		-23.437500
671		-27.343750
672		-21.484375
673		-25.390625
674		-19.531250
675		-21.484375
676		-17.578125
677		-19.531250
678		-13.671875
679		-17.578125
680		-11.718750
681		-15.625000
682		-7.812500
683		-9.765625
684		-5.859375
685		-7.812500
686		-1.953125
687		-3.906250
688		1.953125
689		-1.953125
690		3.906250
691		1.953125
692		5.859375
693		3.906250
694		9.765625
695		7.812500
696		11.718750
697		9.765625
698		15.625000
699		13.671875
700		17.578125
701		15.625000
702		21.484375
703		19.531250
704		25.390625
705		21.484375
706		27.343750
707		25.390625
708		29.296875
709		27.343750
710		31.250000
711		31.250000
712		35.156250
713		33.203125
714		37.109375
715		35.156250
716		39.062500
717		39.062500
718		42.968750
719		41.015625
720		44.921875
721		42.968750
722		46.875000
723		44.921875
724		48.828125
725		46.875000
726		50.781250
727		48.828125
728		52.734375
729		50.781250
730		54.687500
731		52.734375
732		56.640625
733		54.687500
734		58.593750
735		56.640625
736		60.546875
737		58.593750
738		60.546875
739		58.593750
740		62.500000
741		60.546875
742		64.453125
743		62.500000
744		64.453125
745		62.500000
746		66.406250
747		62.500000
748		66.406250
749		64.453125
750		68.359375
751		64.453125
752		68.359375
753		64.453125
754		68.359375
755		66.406250
756		68.359375
757		64.453125
758		68.359375
759		66.406250
760		68.359375
761		64.453125
762		68.359375
763		64.453125
764		68.359375
765		64.453125
766		68.359375
767		64.453125
768		68.359375
769		62.500000
770		66.406250
771		62.500000
772		66.406250
773		60.546875
774		64.453125
775		60.546875
776		64.453125
777		60.546875
778		62.500000
779		58.593750
780		62.500000
781		56.640625
782		60.546875
783		54.687500
784		58.593750
785		54.687500
786		58.593750
787		50.781250
788		56.640625
789		48.828125
790		54.687500
791		48.828125
792		52.734375
793		46.875000
794		48.828125
795		42.968750
796		46.875000
797		41.015625
798		46.875000
799		39.062500
800		42.968750
801		37.109375
802		41.015625
803		35.156250
804		39.062500
805		31.250000
806		37.109375
807		29.296875
808		33.203125
809		25.390625
810		31.250000
811		21.484375
812		27.343750
813		19.531250
814		25.390625
815		17.578125
816		23.437500
817		13.671875
818		19.531250
819		11.718750
820		17.578125
821		7.812500
822		13.671875
823		5.859375
824		9.765625
825		1.953125
826		7.812500
827		0.000000
828		3.906250
829		-3.906250
830		1.953125
831		-5.859375
832		-1.953125
833		-9.765625
834		-3.906250
835		-11.718750
836		-7.812500
837		-15.625000
838		-9.765625
839		-17.578125
840		-13.671875
841		-21.484375
842		-15.625000
843		-23.437500
844		-19.531250
845		-25.390625
846		-21.484375
847		-29.296875
848		-25.390625
849		-31.250000
850		-27.343750
851		-33.203125
852		-29.296875
853		-35.156250
854		-31.250000
855		-39.062500
856		-33.203125
857		-41.015625
858		-35.156250
859		-42.968750
860		-37.109375
861		-44.921875
862		-41.015625
863		-44.921875
864		-41.015625
865		-46.875000
866		-42.968750
867		-48.828125
868		-44.921875
869		-50.781250
870		-46.875000
871		-50.781250
872		-46.875000
873		-52.734375
874		-48.828125
875		-52.734375
876		-48.828125
877		-52.734375
878		-50.781250
879		-54.687500
880		-48.828125
881		-54.687500
882		-50.781250
883		-54.687500
884		-50.781250
885		-54.687500
886		-50.781250
887		-54.687500
888		-50.781250
889		-54.687500
890		-50.781250
891		-54.687500
892		-50.781250
893		-52.734375
894		-50.781250
895		-52.734375
896		-48.828125
897		-52.734375
898		-48.828125
899		-50.781250
900		-46.875000
901		-50.781250
902		-46.875000
903		-48.828125
904		-44.921875
905		-46.875000
906		-42.968750
907		-44.921875
908		-41.015625
909		-42.968750
910		-39.062500
911		-41.015625
912		-37.109375
913		-39.062500
914		-35.156250
915		-37.109375
916		-33.203125
917		-35.156250
918		-31.250000
919		-33.203125
920		-29.296875
921		-31.250000
922		-27.343750
923		-29.296875
924		-23.437500
925		-27.343750
926		-21.484375
927		-23.437500
928		-19.531250
929		-21.484375
930		-15.625000
931		-17.578125
932		-13.671875
933		-15.625000
934		-9.765625
935		-11.718750
936		-7.812500
937		-9.765625
938		-3.906250
939		-5.859375
940		-1.953125
941		-3.906250
942		1.953125
943		0.000000
944		3.906250
945		1.953125
946		7.812500
947		3.906250
948		9.765625
949		7.812500
950		13.671875
951		11.718750
952		15.625000
953		15.625000
954		19.531250
955		17.578125
956		21.484375
957		19.531250
958		25.390625
959		23.437500
960		27.343750
961		25.390625
962		31.250000
963		29.296875
964		33.203125
965		31.250000
966		37.109375
967		33.203125
968		39.062500
969		37.109375
970		41.015625
971		39.062500
972		42.968750
973		41.015625
974		46.875000
975		42.968750
976		46.875000
977		46.875000
978		50.781250
979		48.828125
980		52.734375
981		50.781250
982		54.687500
983		52.734375
984		54.687500
985		52.734375
986		56.640625
987		54.687500
988		58.593750
989		56.640625
990		60.546875
991		58.593750
992		62.500000
993		60.546875
994		62.500000
995		60.546875
996		64.453125
997		60.546875
998		66.406250
999		62.500000
1000		66.406250
1001		64.453125
1002		66.406250
1003		64.453125
1004		66.406250
1005		64.453125
1006		68.359375
1007		64.453125
1008		68.359375
1009		66.406250
1010		68.359375
1011		66.406250
1012		68.359375
1013		64.453125
1014		68.359375
1015		64.453125
1016		68.359375
1017		64.453125
1018		68.359375
1019		64.453125
1020		68.359375
1021		64.453125
1022		66.406250
1023		64.453125
1024		66.406250
1025		62.500000
1026		66.406250
1027		60.546875
1028		64.453125
1029		60.546875
1030		64.453125
1031		58.593750
1032		64.453125
1033		56.640625
1034		60.546875
1035		56.640625
1036		60.546875
1037		54.687500
1038		58.593750
1039		52.734375
1040		56.640625
1041		50.781250
1042		56.640625
1043		48.828125
1044		54.687500
1045		46.875000
1046		50.781250
1047		44.921875
1048		48.828125
1049		42.968750
1050		46.875000
1051		41.015625
1052		44.921875
1053		37.109375
1054		42.968750
1055		35.156250
1056		39.062500
1057		33.203125
1058		39.062500
1059		29.296875
1060		35.156250
1061		27.343750
1062		31.250000
1063		25.390625
1064		29.296875
1065		21.484375
1066		27.343750
1067		19.531250
1068		23.437500
1069		15.625000
1070		21.484375
1071		13.671875
1072		19.531250
1073		9.765625
1074		15.625000
1075		5.859375
1076		11.718750
1077		3.906250
1078		9.765625
1079		1.953125
1080		5.859375
1081		-1.953125
1082		3.906250
1083		-3.906250
1084		0.000000
1085		-7.812500
1086		-1.953125
1087		-9.765625
1088		-5.859375
1089		-13.671875
1090		-7.812500
1091		-17.578125
1092		-11.718750
1093		-19.531250
1094		-13.671875
1095		-21.484375
1096		-17.578125
1097		-25.390625
1098		-19.531250
1099		-27.343750
1100		-21.484375
1101		-29.296875
1102		-25.390625
1103		-31.250000
1104		-27.343750
1105		-35.156250
1106		-29.296875
1107		-37.109375
1108		-33.203125
1109		-39.062500
1110		-35.156250
1111		-41.015625
1112		-37.109375
1113		-42.968750
1114		-39.062500
1115		-44.921875
1116		-41.015625
1117		-46.875000
1118		-42.968750
1119		-46.875000
1120		-42.968750
1121		-48.828125
1122		-46.875000
1123		-50.781250
1124		-46.875000
1125		-50.781250
1126		-46.875000
1127		-52.734375
1128		-48.828125
1129		-52.734375
1130		-50.781250
1131		-52.734375
1132		-50.781250
1133		-54.687500
1134		-50.781250
1135		-54.687500
1136		-50.781250
1137		-54.687500
1138		-52.734375
1139		-54.687500
1140		-50.781250
1141		-54.687500
1142		-50.781250
1143		-54.687500
1144		-50.781250
1145		-54.687500
1146		-50.781250
1147		-52.734375
1148		-48.828125
1149		-52.734375
1150		-48.828125
1151		-50.781250
1152		-48.828125
1153		-50.781250
1154		-46.875000
1155		-48.828125
1156		-44.921875
1157		-48.828125
1158		-44.921875
1159		-46.875000
1160		-42.968750
1161		-44.921875
1162		-41.015625
1163		-42.968750
1164		-39.062500
1165		-41.015625
1166		-37.109375
1167		-39.062500
1168		-35.156250
1169		-37.109375
1170		-33.203125
1171		-35.156250
1172		-31.250000
1173		-33.203125
1174		-27.343750
1175		-29.296875
1176		-25.390625
1177		-27.343750
1178		-23.437500
1179		-25.390625
1180		-19.531250
1181		-21.484375
1182		-17.578125
1183		-19.531250
1184		-15.625000
1185		-17.578125
1186		-11.718750
1187		-13.671875
1188		-7.812500
1189		-11.718750
1190		-5.859375
1191		-7.812500
1192		-3.906250
1193		-5.859375
1194		0.000000
1195		-1.953125
1196		1.953125
1197		1.953125
1198		5.859375
1199		3.906250
1200		7.812500
1201		5.859375
1202		11.718750
1203		9.765625
1204		13.671875
1205		11.718750
1206		17.578125
1207		15.625000
1208		19.531250
1209		17.578125
1210		23.437500
1211		21.484375
1212		25.390625
1213		23.437500
1214		29.296875
1215		27.343750
1216		31.250000
1217		29.296875
1218		33.203125
1219		31.250000
1220		37.109375
1221		33.203125
1222		39.062500
1223		37.109375
1224		41.015625
1225		39.062500
1226		44.921875
1227		42.968750
1228		46.875000
1229		44.921875
1230		48.828125
1231		46.875000
1232		52.734375
1233		46.875000
1234		52.734375
1235		50.781250
1236		54.687500
1237		52.734375
1238		56.640625
1239		54.687500
1240		58.593750
1241		56.640625
1242		60.546875
1243		56.640625
1244		60.546875
1245		58.593750
1246		62.500000
1247		60.546875
1248		62.500000
1249		60.546875
1250		64.453125
1251		60.546875
1252		64.453125
1253		62.500000
1254		66.406250
1255		64.453125
1256		66.406250
1257		64.453125
1258		68.359375
1259		64.453125
1260		68.359375
1261		64.453125
1262		68.359375
1263		66.406250
1264		68.359375
1265		66.406250
1266		68.359375
1267		64.453125
1268		68.359375
1269		66.406250
1270		68.359375
1271		64.453125
1272		68.359375
1273		64.453125
1274		68.359375
1275		62.500000
1276		68.359375
1277		62.500000
