Old_data/metingen laweit/2000Hz, 44.1cm/data_81_185.txt

Channel              :		CH1
Frequency            :		1.975kHz
Period               :		0.506ms
PK-PK                :		179.7mV
Probe attenuation    :		1X
Voltage per ADC value:		0.122070mV
Time interval        :		2.00000us

index		CH1_Voltage(mV)
1		85.937500
2		85.937500
3		93.750000
4		85.937500
5		93.750000
6		85.937500
7		91.796875
8		85.937500
9		89.843750
10		85.937500
11		87.890625
12		82.031250
13		89.843750
14		82.031250
15		87.890625
16		80.078125
17		87.890625
18		78.125000
19		85.937500
20		76.171875
21		83.984375
22		74.218750
23		82.031250
24		74.218750
25		80.078125
26		72.265625
27		76.171875
28		68.359375
29		74.218750
30		64.453125
31		74.218750
32		62.500000
33		70.312500
34		58.593750
35		68.359375
36		56.640625
37		64.453125
38		52.734375
39		62.500000
40		50.781250
41		58.593750
42		48.828125
43		52.734375
44		44.921875
45		50.781250
46		39.062500
47		48.828125
48		35.156250
49		44.921875
50		31.250000
51		41.015625
52		27.343750
53		37.109375
54		23.437500
55		33.203125
56		19.531250
57		29.296875
58		17.578125
59		25.390625
60		13.671875
61		19.531250
62		7.812500
63		15.625000
64		3.906250
65		13.671875
66		0.000000
67		7.812500
68		-3.906250
69		3.906250
70		-9.765625
71		0.000000
72		-13.671875
73		-3.906250
74		-15.625000
75		-7.812500
76		-19.531250
77		-13.671875
78		-25.390625
79		-17.578125
80		-29.296875
81		-19.531250
82		-33.203125
83		-23.437500
84		-37.109375
85		-27.343750
86		-41.015625
87		-31.250000
88		-44.921875
89		-35.156250
90		-46.875000
91		-39.062500
92		-48.828125
93		-44.921875
94		-52.734375
95		-46.875000
96		-56.640625
97		-50.781250
98		-58.593750
99		-52.734375
100		-62.500000
101		-54.687500
102		-64.453125
103		-58.593750
104		-66.406250
105		-60.546875
106		-68.359375
107		-62.500000
108		-70.312500
109		-64.453125
110		-70.312500
111		-68.359375
112		-74.218750
113		-68.359375
114		-76.171875
115		-68.359375
116		-78.125000
117		-70.312500
118		-78.125000
119		-70.312500
120		-78.125000
121		-72.265625
122		-80.078125
123		-72.265625
124		-80.078125
125		-72.265625
126		-78.125000
127		-74.218750
128		-76.171875
129		-74.218750
130		-78.125000
131		-72.265625
132		-78.125000
133		-72.265625
134		-78.125000
135		-70.312500
136		-76.171875
137		-68.359375
138		-76.171875
139		-68.359375
140		-74.218750
141		-66.406250
142		-70.312500
143		-66.406250
144		-68.359375
145		-64.453125
146		-68.359375
147		-60.546875
148		-66.406250
149		-58.593750
150		-64.453125
151		-54.687500
152		-62.500000
153		-52.734375
154		-58.593750
155		-50.781250
156		-56.640625
157		-46.875000
158		-52.734375
159		-46.875000
160		-46.875000
161		-42.968750
162		-44.921875
163		-37.109375
164		-42.968750
165		-33.203125
166		-39.062500
167		-29.296875
168		-35.156250
169		-25.390625
170		-31.250000
171		-21.484375
172		-27.343750
173		-17.578125
174		-23.437500
175		-15.625000
176		-17.578125
177		-11.718750
178		-13.671875
179		-7.812500
180		-9.765625
181		-1.953125
182		-7.812500
183		1.953125
184		-3.906250
185		5.859375
186		1.953125
187		9.765625
188		3.906250
189		13.671875
190		9.765625
191		19.531250
192		13.671875
193		21.484375
194		19.531250
195		25.390625
196		23.437500
197		31.250000
198		25.390625
199		35.156250
200		29.296875
201		39.062500
202		33.203125
203		42.968750
204		37.109375
205		46.875000
206		41.015625
207		48.828125
208		44.921875
209		52.734375
210		50.781250
211		54.687500
212		52.734375
213		58.593750
214		54.687500
215		64.453125
216		58.593750
217		66.406250
218		60.546875
219		68.359375
220		62.500000
221		72.265625
222		66.406250
223		74.218750
224		68.359375
225		78.125000
226		70.312500
227		78.125000
228		76.171875
229		80.078125
230		76.171875
231		83.984375
232		76.171875
233		85.937500
234		80.078125
235		85.937500
236		80.078125
237		87.890625
238		82.031250
239		89.843750
240		83.984375
241		89.843750
242		83.984375
243		91.796875
244		87.890625
245		89.843750
246		87.890625
247		91.796875
248		85.937500
249		93.750000
250		87.890625
251		93.750000
252		87.890625
253		93.750000
254		85.937500
255		93.750000
256		87.890625
257		93.750000
258		85.937500
259		93.750000
260		87.890625
261		91.796875
262		87.890625
263		89.843750
264		83.984375
265		91.796875
266		82.031250
267		89.843750
268		82.031250
269		89.843750
270		80.078125
271		87.890625
272		78.125000
273		85.937500
274		76.171875
275		83.984375
276		76.171875
277		82.031250
278		74.218750
279		78.125000
280		70.312500
281		76.171875
282		68.359375
283		76.171875
284		64.453125
285		74.218750
286		62.500000
287		70.312500
288		58.593750
289		68.359375
290		56.640625
291		64.453125
292		54.687500
293		62.500000
294		52.734375
295		56.640625
296		48.828125
297		52.734375
298		42.968750
299		50.781250
300		39.062500
301		48.828125
302		35.156250
303		44.921875
304		31.250000
305		41.015625
306		27.343750
307		37.109375
308		23.437500
309		31.250000
310		21.484375
311		29.296875
312		17.578125
313		23.437500
314		11.718750
315		19.531250
316		7.812500
317		17.578125
318		1.953125
319		11.718750
320		-1.953125
321		7.812500
322		-5.859375
323		3.906250
324		-9.765625
325		0.000000
326		-11.718750
327		-3.906250
328		-15.625000
329		-9.765625
330		-19.531250
331		-15.625000
332		-25.390625
333		-17.578125
334		-29.296875
335		-21.484375
336		-33.203125
337		-25.390625
338		-37.109375
339		-29.296875
340		-41.015625
341		-33.203125
342		-44.921875
343		-37.109375
344		-46.875000
345		-41.015625
346		-48.828125
347		-44.921875
348		-54.687500
349		-46.875000
350		-56.640625
351		-48.828125
352		-60.546875
353		-50.781250
354		-62.500000
355		-54.687500
356		-66.406250
357		-56.640625
358		-68.359375
359		-60.546875
360		-68.359375
361		-62.500000
362		-70.312500
363		-66.406250
364		-72.265625
365		-66.406250
366		-74.218750
367		-66.406250
368		-76.171875
369		-68.359375
370		-78.125000
371		-70.312500
372		-78.125000
373		-70.312500
374		-78.125000
375		-72.265625
376		-80.078125
377		-72.265625
378		-78.125000
379		-74.218750
380		-76.171875
381		-74.218750
382		-78.125000
383		-72.265625
384		-80.078125
385		-72.265625
386		-78.125000
387		-72.265625
388		-78.125000
389		-70.312500
390		-76.171875
391		-70.312500
392		-76.171875
393		-68.359375
394		-72.265625
395		-66.406250
396		-70.312500
397		-66.406250
398		-68.359375
399		-62.500000
400		-68.359375
401		-60.546875
402		-64.453125
403		-56.640625
404		-64.453125
405		-54.687500
406		-60.546875
407		-52.734375
408		-56.640625
409		-48.828125
410		-54.687500
411		-46.875000
412		-48.828125
413		-44.921875
414		-46.875000
415		-41.015625
416		-44.921875
417		-37.109375
418		-42.968750
419		-33.203125
420		-39.062500
421		-29.296875
422		-35.156250
423		-25.390625
424		-31.250000
425		-21.484375
426		-27.343750
427		-17.578125
428		-21.484375
429		-15.625000
430		-15.625000
431		-9.765625
432		-13.671875
433		-3.906250
434		-9.765625
435		0.000000
436		-5.859375
437		3.906250
438		-1.953125
439		7.812500
440		1.953125
441		11.718750
442		5.859375
443		15.625000
444		9.765625
445		17.578125
446		17.578125
447		21.484375
448		21.484375
449		27.343750
450		21.484375
451		31.250000
452		27.343750
453		37.109375
454		29.296875
455		41.015625
456		35.156250
457		42.968750
458		39.062500
459		46.875000
460		42.968750
461		50.781250
462		46.875000
463		52.734375
464		50.781250
465		56.640625
466		52.734375
467		60.546875
468		56.640625
469		64.453125
470		58.593750
471		66.406250
472		60.546875
473		70.312500
474		64.453125
475		72.265625
476		66.406250
477		74.218750
478		68.359375
479		76.171875
480		74.218750
481		78.125000
482		76.171875
483		82.031250
484		76.171875
485		83.984375
486		78.125000
487		85.937500
488		80.078125
489		87.890625
490		82.031250
491		89.843750
492		82.031250
493		89.843750
494		83.984375
495		89.843750
496		87.890625
497		89.843750
498		87.890625
499		89.843750
500		85.937500
501		93.750000
502		87.890625
503		93.750000
504		87.890625
505		93.750000
506		87.890625
507		93.750000
508		87.890625
509		93.750000
510		87.890625
511		93.750000
512		87.890625
513		91.796875
514		87.890625
515		89.843750
516		85.937500
517		91.796875
518		83.984375
519		89.843750
520		82.031250
521		89.843750
522		82.031250
523		87.890625
524		80.078125
525		87.890625
526		78.125000
527		85.937500
528		78.125000
529		83.984375
530		76.171875
531		80.078125
532		70.312500
533		78.125000
534		68.359375
535		78.125000
536		66.406250
537		74.218750
538		64.453125
539		72.265625
540		60.546875
541		70.312500
542		58.593750
543		66.406250
544		54.687500
545		64.453125
546		52.734375
547		58.593750
548		50.781250
549		54.687500
550		44.921875
551		52.734375
552		41.015625
553		50.781250
554		37.109375
555		44.921875
556		33.203125
557		42.968750
558		29.296875
559		39.062500
560		25.390625
561		35.156250
562		23.437500
563		31.250000
564		19.531250
565		25.390625
566		13.671875
567		21.484375
568		9.765625
569		19.531250
570		5.859375
571		13.671875
572		1.953125
573		9.765625
574		-3.906250
575		5.859375
576		-7.812500
577		1.953125
578		-9.765625
579		-1.953125
580		-13.671875
581		-7.812500
582		-17.578125
583		-11.718750
584		-23.437500
585		-15.625000
586		-29.296875
587		-17.578125
588		-33.203125
589		-23.437500
590		-35.156250
591		-27.343750
592		-39.062500
593		-29.296875
594		-42.968750
595		-33.203125
596		-44.921875
597		-39.062500
598		-46.875000
599		-42.968750
600		-52.734375
601		-46.875000
602		-56.640625
603		-46.875000
604		-58.593750
605		-50.781250
606		-62.500000
607		-52.734375
608		-64.453125
609		-56.640625
610		-68.359375
611		-58.593750
612		-68.359375
613		-62.500000
614		-68.359375
615		-64.453125
616		-72.265625
617		-66.406250
618		-74.218750
619		-66.406250
620		-76.171875
621		-68.359375
622		-76.171875
623		-70.312500
624		-78.125000
625		-72.265625
626		-80.078125
627		-72.265625
628		-80.078125
629		-72.265625
630		-78.125000
631		-74.218750
632		-78.125000
633		-76.171875
634		-80.078125
635		-74.218750
636		-80.078125
637		-72.265625
638		-80.078125
639		-72.265625
640		-78.125000
641		-72.265625
642		-78.125000
643		-70.312500
644		-76.171875
645		-70.312500
646		-74.218750
647		-68.359375
648		-72.265625
649		-68.359375
650		-70.312500
651		-64.453125
652		-70.312500
653		-62.500000
654		-68.359375
655		-60.546875
656		-66.406250
657		-58.593750
658		-62.500000
659		-54.687500
660		-60.546875
661		-52.734375
662		-58.593750
663		-50.781250
664		-52.734375
665		-48.828125
666		-48.828125
667		-44.921875
668		-46.875000
669		-39.062500
670		-44.921875
671		-35.156250
672		-41.015625
673		-31.250000
674		-37.109375
675		-27.343750
676		-33.203125
677		-23.437500
678		-29.296875
679		-19.531250
680		-25.390625
681		-17.578125
682		-19.531250
683		-13.671875
684		-15.625000
685		-7.812500
686		-13.671875
687		-3.906250
688		-9.765625
689		0.000000
690		-5.859375
691		3.906250
692		-1.953125
693		9.765625
694		3.906250
695		11.718750
696		7.812500
697		15.625000
698		13.671875
699		19.531250
700		17.578125
701		25.390625
702		19.531250
703		29.296875
704		23.437500
705		33.203125
706		27.343750
707		37.109375
708		31.250000
709		41.015625
710		35.156250
711		44.921875
712		39.062500
713		46.875000
714		44.921875
715		48.828125
716		48.828125
717		52.734375
718		50.781250
719		58.593750
720		52.734375
721		60.546875
722		56.640625
723		64.453125
724		58.593750
725		68.359375
726		62.500000
727		70.312500
728		64.453125
729		74.218750
730		66.406250
731		74.218750
732		72.265625
733		76.171875
734		74.218750
735		80.078125
736		74.218750
737		82.031250
738		76.171875
739		83.984375
740		78.125000
741		85.937500
742		80.078125
743		87.890625
744		80.078125
745		89.843750
746		82.031250
747		89.843750
748		85.937500
749		87.890625
750		85.937500
751		89.843750
752		85.937500
753		91.796875
754		85.937500
755		91.796875
756		85.937500
757		93.750000
758		85.937500
759		93.750000
760		85.937500
761		93.750000
762		85.937500
763		93.750000
764		85.937500
765		91.796875
766		87.890625
767		89.843750
768		83.984375
769		91.796875
770		83.984375
771		89.843750
772		82.031250
773		89.843750
774		82.031250
775		87.890625
776		80.078125
777		87.890625
778		78.125000
779		85.937500
780		78.125000
781		83.984375
782		76.171875
783		80.078125
784		72.265625
785		78.125000
786		70.312500
787		78.125000
788		68.359375
789		74.218750
790		64.453125
791		74.218750
792		62.500000
793		70.312500
794		58.593750
795		68.359375
796		56.640625
797		64.453125
798		54.687500
799		58.593750
800		50.781250
801		56.640625
802		46.875000
803		52.734375
804		42.968750
805		50.781250
806		39.062500
807		48.828125
808		35.156250
809		44.921875
810		31.250000
811		41.015625
812		27.343750
813		37.109375
814		25.390625
815		31.250000
816		21.484375
817		27.343750
818		15.625000
819		21.484375
820		9.765625
821		19.531250
822		5.859375
823		15.625000
824		1.953125
825		11.718750
826		-1.953125
827		7.812500
828		-5.859375
829		3.906250
830		-7.812500
831		0.000000
832		-11.718750
833		-5.859375
834		-15.625000
835		-9.765625
836		-21.484375
837		-13.671875
838		-27.343750
839		-17.578125
840		-31.250000
841		-21.484375
842		-33.203125
843		-25.390625
844		-39.062500
845		-29.296875
846		-41.015625
847		-33.203125
848		-42.968750
849		-37.109375
850		-46.875000
851		-41.015625
852		-52.734375
853		-44.921875
854		-56.640625
855		-46.875000
856		-58.593750
857		-48.828125
858		-60.546875
859		-52.734375
860		-62.500000
861		-54.687500
862		-66.406250
863		-58.593750
864		-66.406250
865		-60.546875
866		-68.359375
867		-64.453125
868		-70.312500
869		-66.406250
870		-74.218750
871		-66.406250
872		-76.171875
873		-68.359375
874		-78.125000
875		-70.312500
876		-78.125000
877		-70.312500
878		-80.078125
879		-72.265625
880		-80.078125
881		-72.265625
882		-78.125000
883		-76.171875
884		-78.125000
885		-76.171875
886		-80.078125
887		-74.218750
888		-80.078125
889		-74.218750
890		-80.078125
891		-74.218750
892		-80.078125
893		-72.265625
894		-78.125000
895		-72.265625
896		-78.125000
897		-70.312500
898		-76.171875
899		-70.312500
900		-72.265625
901		-70.312500
902		-72.265625
903		-66.406250
904		-72.265625
905		-64.453125
906		-70.312500
907		-62.500000
908		-66.406250
909		-58.593750
910		-64.453125
911		-56.640625
912		-62.500000
913		-54.687500
914		-60.546875
915		-52.734375
916		-54.687500
917		-50.781250
918		-50.781250
919		-46.875000
920		-48.828125
921		-41.015625
922		-46.875000
923		-39.062500
924		-44.921875
925		-35.156250
926		-41.015625
927		-31.250000
928		-37.109375
929		-27.343750
930		-33.203125
931		-23.437500
932		-29.296875
933		-21.484375
934		-21.484375
935		-17.578125
936		-19.531250
937		-11.718750
938		-15.625000
939		-5.859375
940		-11.718750
941		-1.953125
942		-7.812500
943		1.953125
944		-3.906250
945		5.859375
946		0.000000
947		9.765625
948		3.906250
949		11.718750
950		9.765625
951		15.625000
952		13.671875
953		19.531250
954		15.625000
955		25.390625
956		21.484375
957		31.250000
958		25.390625
959		33.203125
960		27.343750
961		39.062500
962		33.203125
963		41.015625
964		37.109375
965		44.921875
966		41.015625
967		46.875000
968		44.921875
969		50.781250
970		48.828125
971		56.640625
972		50.781250
973		60.546875
974		52.734375
975		62.500000
976		56.640625
977		64.453125
978		60.546875
979		68.359375
980		62.500000
981		70.312500
982		64.453125
983		72.265625
984		70.312500
985		74.218750
986		72.265625
987		78.125000
988		72.265625
989		80.078125
990		74.218750
991		82.031250
992		76.171875
993		83.984375
994		78.125000
995		85.937500
996		80.078125
997		87.890625
998		82.031250
999		87.890625
1000		83.984375
1001		87.890625
1002		85.937500
1003		87.890625
1004		83.984375
1005		91.796875
1006		85.937500
1007		91.796875
1008		85.937500
1009		93.750000
1010		85.937500
1011		93.750000
1012		85.937500
1013		93.750000
1014		85.937500
1015		93.750000
1016		85.937500
1017		91.796875
1018		87.890625
1019		89.843750
1020		83.984375
1021		91.796875
1022		83.984375
1023		91.796875
1024		83.984375
1025		89.843750
1026		82.031250
1027		89.843750
1028		80.078125
1029		87.890625
1030		78.125000
1031		85.937500
1032		78.125000
1033		85.937500
1034		78.125000
1035		82.031250
1036		76.171875
1037		80.078125
1038		70.312500
1039		80.078125
1040		68.359375
1041		78.125000
1042		66.406250
1043		74.218750
1044		64.453125
1045		72.265625
1046		60.546875
1047		70.312500
1048		58.593750
1049		66.406250
1050		56.640625
1051		62.500000
1052		52.734375
1053		58.593750
1054		48.828125
1055		54.687500
1056		44.921875
1057		54.687500
1058		41.015625
1059		50.781250
1060		37.109375
1061		46.875000
1062		33.203125
1063		42.968750
1064		29.296875
1065		39.062500
1066		27.343750
1067		35.156250
1068		23.437500
1069		29.296875
1070		19.531250
1071		25.390625
1072		13.671875
1073		23.437500
1074		9.765625
1075		19.531250
1076		5.859375
1077		15.625000
1078		1.953125
1079		11.718750
1080		-1.953125
1081		5.859375
1082		-7.812500
1083		1.953125
1084		-9.765625
1085		-3.906250
1086		-13.671875
1087		-7.812500
1088		-19.531250
1089		-11.718750
1090		-23.437500
1091		-13.671875
1092		-27.343750
1093		-17.578125
1094		-31.250000
1095		-21.484375
1096		-35.156250
1097		-25.390625
1098		-39.062500
1099		-29.296875
1100		-41.015625
1101		-33.203125
1102		-42.968750
1103		-39.062500
1104		-48.828125
1105		-42.968750
1106		-52.734375
1107		-44.921875
1108		-54.687500
1109		-46.875000
1110		-58.593750
1111		-48.828125
1112		-60.546875
1113		-52.734375
1114		-64.453125
1115		-56.640625
1116		-66.406250
1117		-58.593750
1118		-66.406250
1119		-62.500000
1120		-68.359375
1121		-64.453125
1122		-72.265625
1123		-64.453125
1124		-74.218750
1125		-66.406250
1126		-76.171875
1127		-68.359375
1128		-76.171875
1129		-68.359375
1130		-78.125000
1131		-70.312500
1132		-78.125000
1133		-72.265625
1134		-78.125000
1135		-74.218750
1136		-78.125000
1137		-74.218750
1138		-80.078125
1139		-72.265625
1140		-80.078125
1141		-72.265625
1142		-80.078125
1143		-72.265625
1144		-80.078125
1145		-72.265625
1146		-78.125000
1147		-72.265625
1148		-78.125000
1149		-70.312500
1150		-76.171875
1151		-70.312500
1152		-72.265625
1153		-70.312500
1154		-72.265625
1155		-66.406250
1156		-72.265625
1157		-64.453125
1158		-70.312500
1159		-62.500000
1160		-68.359375
1161		-60.546875
1162		-66.406250
1163		-56.640625
1164		-62.500000
1165		-54.687500
1166		-60.546875
1167		-52.734375
1168		-56.640625
1169		-50.781250
1170		-52.734375
1171		-48.828125
1172		-50.781250
1173		-42.968750
1174		-46.875000
1175		-39.062500
1176		-44.921875
1177		-35.156250
1178		-41.015625
1179		-31.250000
1180		-37.109375
1181		-27.343750
1182		-33.203125
1183		-25.390625
1184		-29.296875
1185		-23.437500
1186		-23.437500
1187		-17.578125
1188		-19.531250
1189		-13.671875
1190		-17.578125
1191		-7.812500
1192		-13.671875
1193		-3.906250
1194		-9.765625
1195		0.000000
1196		-5.859375
1197		3.906250
1198		-1.953125
1199		7.812500
1200		1.953125
1201		11.718750
1202		9.765625
1203		13.671875
1204		13.671875
1205		17.578125
1206		15.625000
1207		25.390625
1208		19.531250
1209		29.296875
1210		21.484375
1211		33.203125
1212		27.343750
1213		37.109375
1214		31.250000
1215		41.015625
1216		35.156250
1217		42.968750
1218		39.062500
1219		44.921875
1220		42.968750
1221		48.828125
1222		46.875000
1223		54.687500
1224		48.828125
1225		58.593750
1226		52.734375
1227		60.546875
1228		56.640625
1229		64.453125
1230		58.593750
1231		66.406250
1232		62.500000
1233		70.312500
1234		64.453125
1235		72.265625
1236		68.359375
1237		72.265625
1238		72.265625
1239		76.171875
1240		70.312500
1241		80.078125
1242		74.218750
1243		82.031250
1244		76.171875
1245		83.984375
1246		78.125000
1247		85.937500
1248		80.078125
1249		87.890625
1250		82.031250
1251		87.890625
1252		83.984375
1253		87.890625
1254		85.937500
1255		87.890625
1256		85.937500
1257		91.796875
1258		85.937500
1259		91.796875
1260		85.937500
1261		93.750000
1262		85.937500
1263		93.750000
1264		85.937500
1265		93.750000
1266		87.890625
1267		93.750000
1268		85.937500
1269		93.750000
1270		87.890625
1271		91.796875
1272		87.890625
1273		91.796875
1274		85.937500
