Old_data/metingen laweit/2000Hz, 44.1cm/data_81_204.txt

Channel              :		CH1
Frequency            :		1.982kHz
Period               :		0.505ms
PK-PK                :		152.3mV
Probe attenuation    :		1X
Voltage per ADC value:		0.122070mV
Time interval        :		2.00000us

index		CH1_Voltage(mV)
1		76.171875
2		76.171875
3		70.312500
4		78.125000
5		72.265625
6		78.125000
7		74.218750
8		78.125000
9		74.218750
10		80.078125
11		74.218750
12		82.031250
13		74.218750
14		80.078125
15		74.218750
16		82.031250
17		74.218750
18		82.031250
19		74.218750
20		80.078125
21		74.218750
22		80.078125
23		76.171875
24		78.125000
25		76.171875
26		78.125000
27		70.312500
28		80.078125
29		70.312500
30		78.125000
31		70.312500
32		76.171875
33		68.359375
34		76.171875
35		68.359375
36		74.218750
37		66.406250
38		74.218750
39		66.406250
40		70.312500
41		64.453125
42		68.359375
43		60.546875
44		68.359375
45		58.593750
46		66.406250
47		54.687500
48		64.453125
49		52.734375
50		60.546875
51		50.781250
52		58.593750
53		48.828125
54		56.640625
55		46.875000
56		54.687500
57		44.921875
58		48.828125
59		39.062500
60		46.875000
61		37.109375
62		46.875000
63		33.203125
64		42.968750
65		31.250000
66		39.062500
67		27.343750
68		37.109375
69		23.437500
70		33.203125
71		21.484375
72		29.296875
73		19.531250
74		23.437500
75		15.625000
76		21.484375
77		9.765625
78		19.531250
79		5.859375
80		15.625000
81		1.953125
82		11.718750
83		0.000000
84		9.765625
85		-3.906250
86		5.859375
87		-7.812500
88		1.953125
89		-9.765625
90		-1.953125
91		-11.718750
92		-7.812500
93		-17.578125
94		-9.765625
95		-21.484375
96		-13.671875
97		-25.390625
98		-15.625000
99		-27.343750
100		-17.578125
101		-31.250000
102		-21.484375
103		-33.203125
104		-25.390625
105		-35.156250
106		-27.343750
107		-37.109375
108		-33.203125
109		-41.015625
110		-35.156250
111		-44.921875
112		-37.109375
113		-46.875000
114		-39.062500
115		-48.828125
116		-41.015625
117		-52.734375
118		-42.968750
119		-54.687500
120		-44.921875
121		-56.640625
122		-46.875000
123		-54.687500
124		-50.781250
125		-56.640625
126		-52.734375
127		-60.546875
128		-52.734375
129		-60.546875
130		-54.687500
131		-62.500000
132		-54.687500
133		-62.500000
134		-56.640625
135		-64.453125
136		-56.640625
137		-64.453125
138		-56.640625
139		-64.453125
140		-58.593750
141		-62.500000
142		-60.546875
143		-64.453125
144		-58.593750
145		-64.453125
146		-56.640625
147		-64.453125
148		-56.640625
149		-64.453125
150		-56.640625
151		-62.500000
152		-54.687500
153		-62.500000
154		-54.687500
155		-60.546875
156		-54.687500
157		-56.640625
158		-54.687500
159		-56.640625
160		-52.734375
161		-56.640625
162		-48.828125
163		-54.687500
164		-46.875000
165		-52.734375
166		-44.921875
167		-50.781250
168		-42.968750
169		-48.828125
170		-41.015625
171		-46.875000
172		-39.062500
173		-44.921875
174		-37.109375
175		-39.062500
176		-35.156250
177		-37.109375
178		-29.296875
179		-35.156250
180		-27.343750
181		-33.203125
182		-23.437500
183		-29.296875
184		-21.484375
185		-25.390625
186		-17.578125
187		-23.437500
188		-13.671875
189		-19.531250
190		-11.718750
191		-15.625000
192		-9.765625
193		-11.718750
194		-5.859375
195		-9.765625
196		0.000000
197		-5.859375
198		1.953125
199		-1.953125
200		5.859375
201		0.000000
202		9.765625
203		3.906250
204		13.671875
205		7.812500
206		17.578125
207		11.718750
208		17.578125
209		17.578125
210		21.484375
211		19.531250
212		27.343750
213		21.484375
214		31.250000
215		23.437500
216		33.203125
217		27.343750
218		37.109375
219		31.250000
220		39.062500
221		33.203125
222		42.968750
223		37.109375
224		44.921875
225		42.968750
226		46.875000
227		44.921875
228		50.781250
229		44.921875
230		54.687500
231		48.828125
232		56.640625
233		50.781250
234		58.593750
235		52.734375
236		62.500000
237		56.640625
238		64.453125
239		58.593750
240		66.406250
241		62.500000
242		66.406250
243		64.453125
244		68.359375
245		64.453125
246		72.265625
247		66.406250
248		74.218750
249		66.406250
250		74.218750
251		68.359375
252		76.171875
253		70.312500
254		78.125000
255		70.312500
256		78.125000
257		72.265625
258		78.125000
259		76.171875
260		78.125000
261		76.171875
262		80.078125
263		74.218750
264		80.078125
265		76.171875
266		80.078125
267		76.171875
268		82.031250
269		76.171875
270		80.078125
271		76.171875
272		80.078125
273		76.171875
274		80.078125
275		74.218750
276		78.125000
277		76.171875
278		78.125000
279		72.265625
280		80.078125
281		72.265625
282		78.125000
283		70.312500
284		78.125000
285		68.359375
286		78.125000
287		68.359375
288		76.171875
289		66.406250
290		74.218750
291		66.406250
292		70.312500
293		64.453125
294		68.359375
295		60.546875
296		68.359375
297		58.593750
298		66.406250
299		56.640625
300		64.453125
301		54.687500
302		62.500000
303		50.781250
304		60.546875
305		48.828125
306		56.640625
307		46.875000
308		54.687500
309		44.921875
310		50.781250
311		41.015625
312		46.875000
313		37.109375
314		46.875000
315		33.203125
316		42.968750
317		31.250000
318		39.062500
319		29.296875
320		37.109375
321		25.390625
322		33.203125
323		21.484375
324		29.296875
325		19.531250
326		25.390625
327		15.625000
328		21.484375
329		11.718750
330		19.531250
331		7.812500
332		15.625000
333		3.906250
334		13.671875
335		0.000000
336		9.765625
337		-3.906250
338		5.859375
339		-7.812500
340		1.953125
341		-7.812500
342		-1.953125
343		-11.718750
344		-5.859375
345		-17.578125
346		-9.765625
347		-19.531250
348		-11.718750
349		-23.437500
350		-13.671875
351		-27.343750
352		-17.578125
353		-29.296875
354		-21.484375
355		-33.203125
356		-23.437500
357		-35.156250
358		-27.343750
359		-37.109375
360		-31.250000
361		-39.062500
362		-35.156250
363		-42.968750
364		-35.156250
365		-46.875000
366		-39.062500
367		-48.828125
368		-41.015625
369		-52.734375
370		-42.968750
371		-52.734375
372		-44.921875
373		-54.687500
374		-46.875000
375		-54.687500
376		-48.828125
377		-56.640625
378		-52.734375
379		-60.546875
380		-52.734375
381		-60.546875
382		-52.734375
383		-60.546875
384		-54.687500
385		-62.500000
386		-56.640625
387		-64.453125
388		-56.640625
389		-64.453125
390		-56.640625
391		-64.453125
392		-58.593750
393		-62.500000
394		-60.546875
395		-64.453125
396		-58.593750
397		-64.453125
398		-56.640625
399		-64.453125
400		-56.640625
401		-64.453125
402		-56.640625
403		-62.500000
404		-56.640625
405		-62.500000
406		-54.687500
407		-60.546875
408		-54.687500
409		-56.640625
410		-54.687500
411		-56.640625
412		-52.734375
413		-56.640625
414		-48.828125
415		-54.687500
416		-46.875000
417		-52.734375
418		-44.921875
419		-50.781250
420		-42.968750
421		-50.781250
422		-41.015625
423		-46.875000
424		-37.109375
425		-44.921875
426		-37.109375
427		-39.062500
428		-35.156250
429		-37.109375
430		-29.296875
431		-37.109375
432		-27.343750
433		-33.203125
434		-25.390625
435		-29.296875
436		-21.484375
437		-27.343750
438		-17.578125
439		-23.437500
440		-15.625000
441		-21.484375
442		-13.671875
443		-15.625000
444		-9.765625
445		-11.718750
446		-5.859375
447		-9.765625
448		-1.953125
449		-5.859375
450		1.953125
451		-3.906250
452		5.859375
453		0.000000
454		7.812500
455		3.906250
456		11.718750
457		7.812500
458		15.625000
459		9.765625
460		17.578125
461		15.625000
462		21.484375
463		19.531250
464		25.390625
465		19.531250
466		31.250000
467		23.437500
468		33.203125
469		27.343750
470		37.109375
471		31.250000
472		39.062500
473		33.203125
474		42.968750
475		37.109375
476		44.921875
477		41.015625
478		46.875000
479		44.921875
480		50.781250
481		44.921875
482		54.687500
483		48.828125
484		56.640625
485		50.781250
486		58.593750
487		52.734375
488		60.546875
489		56.640625
490		64.453125
491		58.593750
492		66.406250
493		62.500000
494		66.406250
495		64.453125
496		68.359375
497		64.453125
498		72.265625
499		64.453125
500		72.265625
501		66.406250
502		74.218750
503		68.359375
504		76.171875
505		70.312500
506		78.125000
507		70.312500
508		80.078125
509		72.265625
510		80.078125
511		76.171875
512		78.125000
513		74.218750
514		80.078125
515		74.218750
516		82.031250
517		74.218750
518		82.031250
519		74.218750
520		82.031250
521		76.171875
522		82.031250
523		74.218750
524		82.031250
525		74.218750
526		82.031250
527		76.171875
528		78.125000
529		76.171875
530		78.125000
531		72.265625
532		80.078125
533		72.265625
534		80.078125
535		70.312500
536		78.125000
537		70.312500
538		78.125000
539		68.359375
540		76.171875
541		66.406250
542		74.218750
543		66.406250
544		72.265625
545		66.406250
546		68.359375
547		60.546875
548		68.359375
549		58.593750
550		66.406250
551		56.640625
552		64.453125
553		54.687500
554		62.500000
555		52.734375
556		60.546875
557		50.781250
558		58.593750
559		48.828125
560		54.687500
561		46.875000
562		50.781250
563		42.968750
564		48.828125
565		39.062500
566		46.875000
567		35.156250
568		42.968750
569		33.203125
570		41.015625
571		29.296875
572		39.062500
573		25.390625
574		35.156250
575		21.484375
576		31.250000
577		21.484375
578		27.343750
579		17.578125
580		23.437500
581		11.718750
582		19.531250
583		9.765625
584		17.578125
585		5.859375
586		13.671875
587		1.953125
588		11.718750
589		-1.953125
590		7.812500
591		-5.859375
592		3.906250
593		-5.859375
594		0.000000
595		-9.765625
596		-5.859375
597		-15.625000
598		-7.812500
599		-19.531250
600		-9.765625
601		-23.437500
602		-13.671875
603		-25.390625
604		-15.625000
605		-29.296875
606		-19.531250
607		-31.250000
608		-23.437500
609		-33.203125
610		-25.390625
611		-35.156250
612		-31.250000
613		-39.062500
614		-33.203125
615		-42.968750
616		-35.156250
617		-44.921875
618		-37.109375
619		-46.875000
620		-39.062500
621		-50.781250
622		-41.015625
623		-52.734375
624		-44.921875
625		-54.687500
626		-46.875000
627		-54.687500
628		-46.875000
629		-54.687500
630		-52.734375
631		-58.593750
632		-52.734375
633		-60.546875
634		-52.734375
635		-62.500000
636		-54.687500
637		-62.500000
638		-54.687500
639		-62.500000
640		-56.640625
641		-64.453125
642		-56.640625
643		-64.453125
644		-56.640625
645		-62.500000
646		-58.593750
647		-62.500000
648		-58.593750
649		-64.453125
650		-56.640625
651		-64.453125
652		-56.640625
653		-64.453125
654		-56.640625
655		-62.500000
656		-54.687500
657		-62.500000
658		-54.687500
659		-60.546875
660		-52.734375
661		-58.593750
662		-54.687500
663		-56.640625
664		-52.734375
665		-56.640625
666		-48.828125
667		-54.687500
668		-46.875000
669		-52.734375
670		-44.921875
671		-50.781250
672		-42.968750
673		-48.828125
674		-41.015625
675		-46.875000
676		-39.062500
677		-44.921875
678		-37.109375
679		-39.062500
680		-35.156250
681		-37.109375
682		-31.250000
683		-37.109375
684		-27.343750
685		-33.203125
686		-25.390625
687		-29.296875
688		-21.484375
689		-27.343750
690		-17.578125
691		-23.437500
692		-15.625000
693		-19.531250
694		-11.718750
695		-15.625000
696		-9.765625
697		-11.718750
698		-7.812500
699		-9.765625
700		-1.953125
701		-7.812500
702		1.953125
703		-3.906250
704		5.859375
705		-1.953125
706		7.812500
707		1.953125
708		11.718750
709		5.859375
710		15.625000
711		11.718750
712		17.578125
713		15.625000
714		21.484375
715		19.531250
716		27.343750
717		19.531250
718		29.296875
719		23.437500
720		33.203125
721		27.343750
722		35.156250
723		31.250000
724		39.062500
725		33.203125
726		42.968750
727		37.109375
728		44.921875
729		41.015625
730		46.875000
731		44.921875
732		48.828125
733		44.921875
734		54.687500
735		46.875000
736		56.640625
737		50.781250
738		58.593750
739		52.734375
740		60.546875
741		56.640625
742		64.453125
743		58.593750
744		66.406250
745		62.500000
746		66.406250
747		64.453125
748		68.359375
749		64.453125
750		72.265625
751		66.406250
752		74.218750
753		68.359375
754		74.218750
755		68.359375
756		76.171875
757		70.312500
758		78.125000
759		70.312500
760		78.125000
761		72.265625
762		80.078125
763		76.171875
764		78.125000
765		76.171875
766		80.078125
767		74.218750
768		82.031250
769		74.218750
770		82.031250
771		76.171875
772		82.031250
773		74.218750
774		82.031250
775		74.218750
776		82.031250
777		74.218750
778		82.031250
779		78.125000
780		80.078125
781		76.171875
782		78.125000
783		74.218750
784		80.078125
785		72.265625
786		80.078125
787		72.265625
788		78.125000
789		70.312500
790		78.125000
791		68.359375
792		76.171875
793		68.359375
794		76.171875
795		66.406250
796		74.218750
797		66.406250
798		70.312500
799		62.500000
800		68.359375
801		60.546875
802		68.359375
803		58.593750
804		66.406250
805		56.640625
806		64.453125
807		52.734375
808		62.500000
809		50.781250
810		58.593750
811		48.828125
812		56.640625
813		46.875000
814		50.781250
815		44.921875
816		48.828125
817		39.062500
818		48.828125
819		37.109375
820		44.921875
821		33.203125
822		41.015625
823		31.250000
824		39.062500
825		27.343750
826		35.156250
827		23.437500
828		33.203125
829		21.484375
830		27.343750
831		19.531250
832		23.437500
833		13.671875
834		19.531250
835		9.765625
836		17.578125
837		5.859375
838		15.625000
839		1.953125
840		11.718750
841		-1.953125
842		7.812500
843		-3.906250
844		3.906250
845		-5.859375
846		1.953125
847		-9.765625
848		-3.906250
849		-15.625000
850		-7.812500
851		-17.578125
852		-7.812500
853		-21.484375
854		-11.718750
855		-23.437500
856		-15.625000
857		-27.343750
858		-19.531250
859		-31.250000
860		-21.484375
861		-33.203125
862		-25.390625
863		-35.156250
864		-29.296875
865		-37.109375
866		-33.203125
867		-41.015625
868		-33.203125
869		-44.921875
870		-37.109375
871		-46.875000
872		-39.062500
873		-48.828125
874		-41.015625
875		-52.734375
876		-42.968750
877		-52.734375
878		-44.921875
879		-54.687500
880		-46.875000
881		-54.687500
882		-50.781250
883		-58.593750
884		-52.734375
885		-60.546875
886		-52.734375
887		-60.546875
888		-52.734375
889		-62.500000
890		-54.687500
891		-62.500000
892		-54.687500
893		-64.453125
894		-56.640625
895		-64.453125
896		-56.640625
897		-62.500000
898		-58.593750
899		-62.500000
900		-58.593750
901		-64.453125
902		-56.640625
903		-64.453125
904		-56.640625
905		-62.500000
906		-56.640625
907		-62.500000
908		-54.687500
909		-62.500000
910		-54.687500
911		-60.546875
912		-52.734375
913		-60.546875
914		-54.687500
915		-56.640625
916		-52.734375
917		-56.640625
918		-48.828125
919		-54.687500
920		-46.875000
921		-54.687500
922		-44.921875
923		-52.734375
924		-42.968750
925		-48.828125
926		-41.015625
927		-46.875000
928		-39.062500
929		-44.921875
930		-39.062500
931		-39.062500
932		-35.156250
933		-37.109375
934		-33.203125
935		-37.109375
936		-27.343750
937		-35.156250
938		-25.390625
939		-31.250000
940		-23.437500
941		-27.343750
942		-19.531250
943		-23.437500
944		-15.625000
945		-21.484375
946		-13.671875
947		-15.625000
948		-11.718750
949		-11.718750
950		-7.812500
951		-9.765625
952		-1.953125
953		-7.812500
954		1.953125
955		-3.906250
956		3.906250
957		0.000000
958		7.812500
959		1.953125
960		11.718750
961		5.859375
962		15.625000
963		9.765625
964		15.625000
965		15.625000
966		19.531250
967		19.531250
968		25.390625
969		19.531250
970		29.296875
971		23.437500
972		31.250000
973		27.343750
974		35.156250
975		29.296875
976		39.062500
977		33.203125
978		42.968750
979		35.156250
980		42.968750
981		41.015625
982		44.921875
983		44.921875
984		48.828125
985		44.921875
986		52.734375
987		48.828125
988		56.640625
989		50.781250
990		58.593750
991		52.734375
992		60.546875
993		54.687500
994		64.453125
995		56.640625
996		66.406250
997		60.546875
998		66.406250
999		64.453125
1000		68.359375
1001		64.453125
1002		72.265625
1003		64.453125
1004		74.218750
1005		66.406250
1006		74.218750
1007		68.359375
1008		76.171875
1009		70.312500
1010		78.125000
1011		72.265625
1012		78.125000
1013		72.265625
1014		80.078125
1015		76.171875
1016		78.125000
1017		74.218750
1018		80.078125
1019		74.218750
1020		82.031250
1021		76.171875
1022		82.031250
1023		76.171875
1024		82.031250
1025		76.171875
1026		82.031250
1027		76.171875
1028		82.031250
1029		74.218750
1030		82.031250
1031		76.171875
1032		80.078125
1033		76.171875
1034		80.078125
1035		74.218750
1036		80.078125
1037		72.265625
1038		80.078125
1039		72.265625
1040		80.078125
1041		70.312500
1042		78.125000
1043		70.312500
1044		76.171875
1045		68.359375
1046		76.171875
1047		68.359375
1048		74.218750
1049		66.406250
1050		70.312500
1051		62.500000
1052		68.359375
1053		60.546875
1054		68.359375
1055		58.593750
1056		66.406250
1057		56.640625
1058		64.453125
1059		54.687500
1060		62.500000
1061		50.781250
1062		60.546875
1063		48.828125
1064		56.640625
1065		48.828125
1066		52.734375
1067		44.921875
1068		48.828125
1069		39.062500
1070		48.828125
1071		37.109375
1072		44.921875
1073		33.203125
1074		42.968750
1075		31.250000
1076		39.062500
1077		27.343750
1078		37.109375
1079		23.437500
1080		33.203125
1081		23.437500
1082		29.296875
1083		19.531250
1084		25.390625
1085		13.671875
1086		21.484375
1087		9.765625
1088		19.531250
1089		7.812500
1090		15.625000
1091		3.906250
1092		11.718750
1093		0.000000
1094		7.812500
1095		-3.906250
1096		5.859375
1097		-5.859375
1098		1.953125
1099		-7.812500
1100		-3.906250
1101		-13.671875
1102		-7.812500
1103		-17.578125
1104		-9.765625
1105		-21.484375
1106		-11.718750
1107		-23.437500
1108		-15.625000
1109		-27.343750
1110		-19.531250
1111		-31.250000
1112		-21.484375
1113		-33.203125
1114		-23.437500
1115		-33.203125
1116		-29.296875
1117		-37.109375
1118		-33.203125
1119		-42.968750
1120		-35.156250
1121		-44.921875
1122		-37.109375
1123		-46.875000
1124		-39.062500
1125		-48.828125
1126		-41.015625
1127		-50.781250
1128		-42.968750
1129		-52.734375
1130		-44.921875
1131		-54.687500
1132		-46.875000
1133		-54.687500
1134		-50.781250
1135		-58.593750
1136		-50.781250
1137		-60.546875
1138		-52.734375
1139		-60.546875
1140		-52.734375
1141		-62.500000
1142		-54.687500
1143		-62.500000
1144		-54.687500
1145		-62.500000
1146		-56.640625
1147		-62.500000
1148		-56.640625
1149		-60.546875
1150		-58.593750
1151		-60.546875
1152		-58.593750
1153		-64.453125
1154		-56.640625
1155		-64.453125
1156		-56.640625
1157		-62.500000
1158		-56.640625
1159		-62.500000
1160		-54.687500
1161		-62.500000
1162		-54.687500
1163		-60.546875
1164		-52.734375
1165		-58.593750
1166		-52.734375
1167		-56.640625
1168		-52.734375
1169		-54.687500
1170		-48.828125
1171		-54.687500
1172		-46.875000
1173		-52.734375
1174		-46.875000
1175		-52.734375
1176		-42.968750
1177		-50.781250
1178		-41.015625
1179		-46.875000
1180		-39.062500
1181		-44.921875
1182		-39.062500
1183		-41.015625
1184		-35.156250
1185		-37.109375
1186		-33.203125
1187		-37.109375
1188		-29.296875
1189		-33.203125
1190		-25.390625
1191		-31.250000
1192		-21.484375
1193		-27.343750
1194		-19.531250
1195		-23.437500
1196		-15.625000
1197		-21.484375
1198		-11.718750
1199		-15.625000
1200		-11.718750
1201		-13.671875
1202		-7.812500
1203		-9.765625
1204		-1.953125
1205		-7.812500
1206		1.953125
1207		-3.906250
1208		3.906250
1209		-1.953125
1210		7.812500
1211		1.953125
1212		11.718750
1213		5.859375
1214		15.625000
1215		9.765625
1216		17.578125
1217		15.625000
1218		19.531250
1219		17.578125
1220		25.390625
1221		19.531250
1222		29.296875
1223		23.437500
1224		31.250000
1225		25.390625
1226		35.156250
1227		29.296875
1228		39.062500
1229		33.203125
1230		41.015625
1231		35.156250
1232		42.968750
1233		41.015625
1234		44.921875
1235		44.921875
1236		48.828125
1237		44.921875
1238		52.734375
1239		46.875000
1240		56.640625
1241		50.781250
1242		58.593750
1243		52.734375
1244		60.546875
1245		54.687500
1246		64.453125
1247		56.640625
1248		64.453125
1249		60.546875
1250		66.406250
1251		64.453125
1252		68.359375
1253		64.453125
1254		72.265625
1255		66.406250
1256		74.218750
1257		66.406250
1258		74.218750
1259		68.359375
1260		76.171875
1261		70.312500
1262		78.125000
1263		72.265625
1264		78.125000
1265		72.265625
1266		80.078125
1267		76.171875
1268		78.125000
1269		76.171875
1270		78.125000
1271		74.218750
1272		82.031250
1273		76.171875
1274		82.031250
1275		76.171875
1276		82.031250
