metingen laweit/2000Hz, 26.1cm/kapotte data/data_81_143.txt

Channel              :		CH1
Frequency            :		  ?
Period               :		  ?
PK-PK                :		19.53mV
Probe attenuation    :		1X
Voltage per ADC value:		0.122070mV
Time interval        :		2.00000us

index		CH1_Voltage(mV)
1		5.859375
2		5.859375
3		7.812500
4		5.859375
5		7.812500
6		5.859375
7		7.812500
8		5.859375
9		9.765625
10		5.859375
11		7.812500
12		5.859375
13		9.765625
14		5.859375
15		7.812500
16		5.859375
17		9.765625
18		5.859375
19		9.765625
20		5.859375
21		9.765625
22		5.859375
23		9.765625
24		5.859375
25		9.765625
26		7.812500
27		9.765625
28		5.859375
29		9.765625
30		5.859375
31		11.718750
32		7.812500
33		9.765625
34		7.812500
35		11.718750
36		7.812500
37		11.718750
38		7.812500
39		11.718750
40		7.812500
41		9.765625
42		7.812500
43		11.718750
44		7.812500
45		11.718750
46		7.812500
47		11.718750
48		9.765625
49		11.718750
50		7.812500
51		11.718750
52		7.812500
53		11.718750
54		9.765625
55		11.718750
56		7.812500
57		11.718750
58		9.765625
59		11.718750
60		9.765625
61		11.718750
62		9.765625
63		11.718750
64		9.765625
65		13.671875
66		9.765625
67		11.718750
68		9.765625
69		13.671875
70		9.765625
71		13.671875
72		9.765625
73		13.671875
74		9.765625
75		13.671875
76		9.765625
77		13.671875
78		9.765625
79		13.671875
80		9.765625
81		13.671875
82		9.765625
83		13.671875
84		9.765625
85		13.671875
86		9.765625
87		13.671875
88		9.765625
89		13.671875
90		9.765625
91		13.671875
92		9.765625
93		13.671875
94		9.765625
95		13.671875
96		9.765625
97		13.671875
98		9.765625
99		13.671875
100		11.718750
101		13.671875
102		9.765625
103		13.671875
104		9.765625
105		13.671875
106		9.765625
107		13.671875
108		9.765625
109		13.671875
110		9.765625
111		13.671875
112		9.765625
113		13.671875
114		9.765625
115		13.671875
116		9.765625
117		11.718750
118		9.765625
119		13.671875
120		9.765625
121		11.718750
122		9.765625
123		13.671875
124		9.765625
125		13.671875
126		9.765625
127		11.718750
128		9.765625
129		13.671875
130		7.812500
131		13.671875
132		9.765625
133		11.718750
134		9.765625
135		11.718750
136		7.812500
137		11.718750
138		7.812500
139		11.718750
140		7.812500
141		11.718750
142		7.812500
143		11.718750
144		7.812500
145		11.718750
146		7.812500
147		11.718750
148		7.812500
149		9.765625
150		7.812500
151		9.765625
152		5.859375
153		9.765625
154		5.859375
155		9.765625
156		7.812500
157		9.765625
158		5.859375
159		9.765625
160		5.859375
161		9.765625
162		5.859375
163		9.765625
164		5.859375
165		9.765625
166		5.859375
167		9.765625
168		5.859375
169		9.765625
170		5.859375
171		7.812500
172		5.859375
173		9.765625
174		3.906250
175		9.765625
176		5.859375
177		7.812500
178		5.859375
179		7.812500
180		5.859375
181		7.812500
182		5.859375
183		7.812500
184		5.859375
185		7.812500
186		3.906250
187		7.812500
188		3.906250
189		7.812500
190		3.906250
191		7.812500
192		3.906250
193		7.812500
194		3.906250
195		7.812500
196		3.906250
197		7.812500
198		3.906250
199		7.812500
200		3.906250
201		7.812500
202		1.953125
203		7.812500
204		3.906250
205		7.812500
206		3.906250
207		7.812500
208		3.906250
209		5.859375
210		3.906250
211		7.812500
212		3.906250
213		7.812500
214		3.906250
215		7.812500
216		3.906250
217		5.859375
218		3.906250
219		5.859375
220		3.906250
221		7.812500
222		3.906250
223		5.859375
224		3.906250
225		7.812500
226		3.906250
227		7.812500
228		3.906250
229		7.812500
230		3.906250
231		7.812500
232		3.906250
233		7.812500
234		3.906250
235		7.812500
236		3.906250
237		7.812500
238		3.906250
239		7.812500
240		3.906250
241		7.812500
242		3.906250
243		7.812500
244		3.906250
245		7.812500
246		5.859375
247		7.812500
248		3.906250
249		7.812500
250		5.859375
251		7.812500
252		5.859375
253		7.812500
254		5.859375
255		9.765625
256		5.859375
257		7.812500
258		5.859375
259		7.812500
260		5.859375
261		9.765625
262		5.859375
263		9.765625
264		5.859375
265		9.765625
266		5.859375
267		9.765625
268		5.859375
269		9.765625
270		5.859375
271		9.765625
272		5.859375
273		9.765625
274		5.859375
275		9.765625
276		7.812500
277		9.765625
278		7.812500
279		9.765625
280		7.812500
281		9.765625
282		7.812500
283		9.765625
284		7.812500
285		9.765625
286		7.812500
287		11.718750
288		7.812500
289		11.718750
290		7.812500
291		11.718750
292		7.812500
293		11.718750
294		7.812500
295		11.718750
296		7.812500
297		11.718750
298		7.812500
299		11.718750
300		9.765625
301		11.718750
302		9.765625
303		11.718750
304		9.765625
305		11.718750
306		9.765625
307		11.718750
308		9.765625
309		11.718750
310		9.765625
311		13.671875
312		9.765625
313		13.671875
314		9.765625
315		13.671875
316		9.765625
317		13.671875
318		9.765625
319		11.718750
320		9.765625
321		13.671875
322		9.765625
323		13.671875
324		9.765625
325		13.671875
326		9.765625
327		13.671875
328		9.765625
329		13.671875
330		9.765625
331		13.671875
332		9.765625
333		13.671875
334		11.718750
335		13.671875
336		9.765625
337		13.671875
338		9.765625
339		13.671875
340		9.765625
341		13.671875
342		9.765625
343		13.671875
344		9.765625
345		13.671875
346		9.765625
347		13.671875
348		9.765625
349		13.671875
350		9.765625
351		13.671875
352		11.718750
353		13.671875
354		9.765625
355		13.671875
356		9.765625
357		13.671875
358		9.765625
359		13.671875
360		9.765625
361		13.671875
362		9.765625
363		13.671875
364		9.765625
365		13.671875
366		9.765625
367		13.671875
368		9.765625
369		13.671875
370		9.765625
371		13.671875
372		9.765625
373		13.671875
374		9.765625
375		13.671875
376		9.765625
377		13.671875
378		9.765625
379		11.718750
380		9.765625
381		13.671875
382		7.812500
383		13.671875
384		9.765625
385		11.718750
386		9.765625
387		11.718750
388		7.812500
389		11.718750
390		7.812500
391		11.718750
392		7.812500
393		11.718750
394		7.812500
395		11.718750
396		7.812500
397		11.718750
398		7.812500
399		11.718750
400		7.812500
401		11.718750
402		7.812500
403		9.765625
404		5.859375
405		11.718750
406		7.812500
407		9.765625
408		7.812500
409		9.765625
410		7.812500
411		9.765625
412		5.859375
413		9.765625
414		5.859375
415		9.765625
416		5.859375
417		9.765625
418		5.859375
419		9.765625
420		5.859375
421		7.812500
422		5.859375
423		9.765625
424		5.859375
425		9.765625
426		5.859375
427		7.812500
428		5.859375
429		7.812500
430		5.859375
431		7.812500
432		5.859375
433		7.812500
434		3.906250
435		7.812500
436		5.859375
437		7.812500
438		5.859375
439		7.812500
440		3.906250
441		7.812500
442		3.906250
443		7.812500
444		3.906250
445		7.812500
446		3.906250
447		7.812500
448		3.906250
449		7.812500
450		3.906250
451		7.812500
452		3.906250
453		5.859375
454		3.906250
455		7.812500
456		3.906250
457		7.812500
458		3.906250
459		7.812500
460		3.906250
461		7.812500
462		3.906250
463		7.812500
464		3.906250
465		7.812500
466		3.906250
467		7.812500
468		3.906250
469		5.859375
470		3.906250
471		5.859375
472		3.906250
473		7.812500
474		3.906250
475		7.812500
476		3.906250
477		7.812500
478		3.906250
479		5.859375
480		3.906250
481		7.812500
482		3.906250
483		7.812500
484		3.906250
485		7.812500
486		3.906250
487		7.812500
488		3.906250
489		7.812500
490		3.906250
491		7.812500
492		3.906250
493		7.812500
494		5.859375
495		7.812500
496		3.906250
497		7.812500
498		5.859375
499		7.812500
500		3.906250
501		7.812500
502		5.859375
503		7.812500
504		5.859375
505		7.812500
506		5.859375
507		9.765625
508		5.859375
509		9.765625
510		5.859375
511		9.765625
512		5.859375
513		9.765625
514		5.859375
515		9.765625
516		5.859375
517		9.765625
518		5.859375
519		9.765625
520		5.859375
521		9.765625
522		5.859375
523		9.765625
524		5.859375
525		9.765625
526		7.812500
527		9.765625
528		5.859375
529		9.765625
530		7.812500
531		9.765625
532		7.812500
533		9.765625
534		7.812500
535		11.718750
536		7.812500
537		9.765625
538		7.812500
539		11.718750
540		7.812500
541		11.718750
542		7.812500
543		11.718750
544		7.812500
545		11.718750
546		7.812500
547		11.718750
548		7.812500
549		11.718750
550		7.812500
551		11.718750
552		9.765625
553		11.718750
554		9.765625
555		11.718750
556		7.812500
557		11.718750
558		9.765625
559		11.718750
560		9.765625
561		11.718750
562		9.765625
563		11.718750
564		9.765625
565		13.671875
566		9.765625
567		13.671875
568		9.765625
569		13.671875
570		9.765625
571		11.718750
572		9.765625
573		13.671875
574		9.765625
575		13.671875
576		9.765625
577		13.671875
578		11.718750
579		13.671875
580		9.765625
581		13.671875
582		9.765625
583		13.671875
584		9.765625
585		13.671875
586		11.718750
587		13.671875
588		11.718750
589		13.671875
590		9.765625
591		13.671875
592		9.765625
593		13.671875
594		9.765625
595		13.671875
596		9.765625
597		13.671875
598		9.765625
599		13.671875
600		9.765625
601		13.671875
602		9.765625
603		13.671875
604		11.718750
605		13.671875
606		9.765625
607		13.671875
608		9.765625
609		13.671875
610		9.765625
611		13.671875
612		9.765625
613		13.671875
614		9.765625
615		13.671875
616		9.765625
617		13.671875
618		9.765625
619		13.671875
620		9.765625
621		13.671875
622		9.765625
623		13.671875
624		9.765625
625		13.671875
626		9.765625
627		13.671875
628		7.812500
629		13.671875
630		9.765625
631		11.718750
632		9.765625
633		11.718750
634		7.812500
635		13.671875
636		9.765625
637		11.718750
638		9.765625
639		11.718750
640		7.812500
641		11.718750
642		9.765625
643		11.718750
644		7.812500
645		11.718750
646		7.812500
647		11.718750
648		7.812500
649		11.718750
650		7.812500
651		11.718750
652		7.812500
653		11.718750
654		7.812500
655		9.765625
656		7.812500
657		9.765625
658		7.812500
659		9.765625
660		7.812500
661		11.718750
662		5.859375
663		9.765625
664		7.812500
665		9.765625
666		5.859375
667		9.765625
668		5.859375
669		9.765625
670		7.812500
671		9.765625
672		5.859375
673		9.765625
674		5.859375
675		9.765625
676		5.859375
677		9.765625
678		5.859375
679		9.765625
680		5.859375
681		9.765625
682		5.859375
683		7.812500
684		5.859375
685		7.812500
686		5.859375
687		9.765625
688		5.859375
689		7.812500
690		3.906250
691		7.812500
692		3.906250
693		7.812500
694		3.906250
695		7.812500
696		5.859375
697		7.812500
698		3.906250
699		7.812500
700		3.906250
701		7.812500
702		3.906250
703		7.812500
704		3.906250
705		7.812500
706		3.906250
707		9.765625
708		3.906250
709		7.812500
710		3.906250
711		7.812500
712		3.906250
713		7.812500
714		3.906250
715		7.812500
716		3.906250
717		7.812500
718		3.906250
719		7.812500
720		3.906250
721		7.812500
722		3.906250
723		7.812500
724		3.906250
725		7.812500
726		3.906250
727		7.812500
728		3.906250
729		7.812500
730		3.906250
731		7.812500
732		3.906250
733		7.812500
734		3.906250
735		7.812500
736		3.906250
737		7.812500
738		5.859375
739		7.812500
740		3.906250
741		7.812500
742		3.906250
743		7.812500
744		3.906250
745		7.812500
746		5.859375
747		7.812500
748		5.859375
749		7.812500
750		5.859375
751		7.812500
752		5.859375
753		7.812500
754		5.859375
755		7.812500
756		5.859375
757		7.812500
758		3.906250
759		9.765625
760		5.859375
761		9.765625
762		5.859375
763		9.765625
764		5.859375
765		9.765625
766		5.859375
767		9.765625
768		5.859375
769		9.765625
770		5.859375
771		9.765625
772		7.812500
773		9.765625
774		5.859375
775		9.765625
776		5.859375
777		9.765625
778		7.812500
779		9.765625
780		7.812500
781		9.765625
782		7.812500
783		11.718750
784		7.812500
785		11.718750
786		7.812500
787		11.718750
788		7.812500
789		9.765625
790		7.812500
791		11.718750
792		7.812500
793		11.718750
794		9.765625
795		11.718750
796		9.765625
797		11.718750
798		9.765625
799		11.718750
800		9.765625
801		11.718750
802		9.765625
803		11.718750
804		9.765625
805		11.718750
806		9.765625
807		11.718750
808		9.765625
809		13.671875
810		9.765625
811		13.671875
812		9.765625
813		13.671875
814		9.765625
815		13.671875
816		9.765625
817		13.671875
818		9.765625
819		13.671875
820		9.765625
821		13.671875
822		11.718750
823		13.671875
824		9.765625
825		13.671875
826		9.765625
827		13.671875
828		11.718750
829		13.671875
830		9.765625
831		13.671875
832		11.718750
833		13.671875
834		11.718750
835		13.671875
836		9.765625
837		15.625000
838		11.718750
839		13.671875
840		11.718750
841		13.671875
842		9.765625
843		15.625000
844		11.718750
845		13.671875
846		9.765625
847		13.671875
848		11.718750
849		13.671875
850		9.765625
851		13.671875
852		11.718750
853		13.671875
854		9.765625
855		13.671875
856		11.718750
857		13.671875
858		11.718750
859		13.671875
860		11.718750
861		13.671875
862		9.765625
863		13.671875
864		11.718750
865		13.671875
866		9.765625
867		13.671875
868		9.765625
869		13.671875
870		9.765625
871		13.671875
872		11.718750
873		13.671875
874		11.718750
875		13.671875
876		9.765625
877		13.671875
878		9.765625
879		13.671875
880		9.765625
881		13.671875
882		9.765625
883		13.671875
884		9.765625
885		13.671875
886		9.765625
887		13.671875
888		9.765625
889		11.718750
890		9.765625
891		11.718750
892		7.812500
893		13.671875
894		7.812500
895		11.718750
896		7.812500
897		11.718750
898		9.765625
899		11.718750
900		7.812500
901		11.718750
902		7.812500
903		11.718750
904		7.812500
905		11.718750
906		7.812500
907		11.718750
908		7.812500
909		11.718750
910		7.812500
911		11.718750
912		7.812500
913		9.765625
914		7.812500
915		9.765625
916		7.812500
917		9.765625
918		7.812500
919		9.765625
920		5.859375
921		9.765625
922		7.812500
923		9.765625
924		7.812500
925		9.765625
926		5.859375
927		9.765625
928		5.859375
929		9.765625
930		5.859375
931		9.765625
932		5.859375
933		9.765625
934		5.859375
935		9.765625
936		5.859375
937		9.765625
938		3.906250
939		9.765625
940		5.859375
941		7.812500
942		5.859375
943		7.812500
944		5.859375
945		7.812500
946		3.906250
947		7.812500
948		5.859375
949		7.812500
950		3.906250
951		7.812500
952		3.906250
953		7.812500
954		5.859375
955		7.812500
956		3.906250
957		7.812500
958		5.859375
959		7.812500
960		3.906250
961		7.812500
962		3.906250
963		7.812500
964		3.906250
965		7.812500
966		3.906250
967		7.812500
968		3.906250
969		7.812500
970		3.906250
971		7.812500
972		3.906250
973		7.812500
974		5.859375
975		7.812500
976		3.906250
977		7.812500
978		3.906250
979		7.812500
980		5.859375
981		7.812500
982		3.906250
983		7.812500
984		3.906250
985		7.812500
986		3.906250
987		7.812500
988		1.953125
989		9.765625
990		5.859375
991		7.812500
992		5.859375
993		9.765625
994		5.859375
995		7.812500
996		5.859375
997		7.812500
998		5.859375
999		9.765625
1000		5.859375
1001		7.812500
1002		5.859375
1003		9.765625
1004		5.859375
1005		9.765625
1006		5.859375
1007		7.812500
1008		5.859375
1009		7.812500
1010		5.859375
1011		9.765625
1012		5.859375
1013		9.765625
1014		5.859375
1015		9.765625
1016		5.859375
1017		9.765625
1018		5.859375
1019		9.765625
1020		5.859375
1021		11.718750
1022		5.859375
1023		9.765625
1024		7.812500
1025		9.765625
1026		5.859375
1027		11.718750
1028		7.812500
1029		9.765625
1030		7.812500
1031		11.718750
1032		7.812500
1033		11.718750
1034		7.812500
1035		11.718750
1036		7.812500
1037		11.718750
1038		7.812500
1039		11.718750
1040		7.812500
1041		11.718750
1042		7.812500
1043		11.718750
1044		7.812500
1045		11.718750
1046		7.812500
1047		11.718750
1048		9.765625
1049		11.718750
1050		9.765625
1051		11.718750
1052		9.765625
1053		11.718750
1054		9.765625
1055		13.671875
1056		9.765625
1057		13.671875
1058		9.765625
1059		11.718750
1060		9.765625
1061		13.671875
1062		9.765625
1063		13.671875
1064		9.765625
1065		13.671875
1066		9.765625
1067		13.671875
1068		9.765625
1069		13.671875
1070		9.765625
1071		13.671875
1072		9.765625
1073		13.671875
1074		11.718750
1075		13.671875
1076		9.765625
1077		13.671875
1078		9.765625
1079		13.671875
1080		11.718750
1081		13.671875
1082		9.765625
1083		13.671875
1084		9.765625
1085		13.671875
1086		11.718750
1087		13.671875
1088		11.718750
1089		15.625000
1090		11.718750
1091		13.671875
1092		11.718750
1093		13.671875
1094		9.765625
1095		15.625000
1096		11.718750
1097		13.671875
1098		11.718750
1099		13.671875
1100		11.718750
1101		13.671875
1102		9.765625
1103		13.671875
1104		11.718750
1105		13.671875
1106		11.718750
1107		15.625000
1108		11.718750
1109		13.671875
1110		11.718750
1111		15.625000
1112		11.718750
1113		13.671875
1114		11.718750
1115		13.671875
1116		11.718750
1117		13.671875
1118		9.765625
1119		13.671875
1120		9.765625
1121		13.671875
1122		9.765625
1123		13.671875
1124		11.718750
1125		13.671875
1126		11.718750
1127		13.671875
1128		9.765625
1129		13.671875
1130		9.765625
1131		13.671875
1132		9.765625
1133		13.671875
1134		9.765625
1135		13.671875
1136		9.765625
1137		13.671875
1138		9.765625
1139		13.671875
1140		9.765625
1141		13.671875
1142		9.765625
1143		11.718750
1144		7.812500
1145		11.718750
1146		7.812500
1147		11.718750
1148		9.765625
1149		11.718750
1150		7.812500
1151		11.718750
1152		7.812500
1153		11.718750
1154		7.812500
1155		11.718750
1156		7.812500
1157		11.718750
1158		7.812500
1159		11.718750
1160		7.812500
1161		11.718750
1162		7.812500
1163		11.718750
1164		7.812500
1165		11.718750
1166		7.812500
1167		9.765625
1168		7.812500
1169		11.718750
1170		7.812500
1171		9.765625
1172		7.812500
1173		11.718750
1174		7.812500
1175		9.765625
1176		7.812500
1177		9.765625
1178		5.859375
1179		9.765625
1180		5.859375
1181		9.765625
1182		5.859375
1183		9.765625
1184		5.859375
1185		9.765625
1186		5.859375
1187		9.765625
1188		5.859375
1189		7.812500
1190		5.859375
1191		9.765625
1192		5.859375
1193		7.812500
1194		5.859375
1195		9.765625
1196		5.859375
1197		7.812500
1198		5.859375
1199		7.812500
1200		5.859375
1201		7.812500
1202		3.906250
1203		7.812500
1204		3.906250
1205		7.812500
1206		3.906250
1207		9.765625
1208		5.859375
1209		7.812500
1210		5.859375
1211		7.812500
1212		5.859375
1213		7.812500
1214		3.906250
1215		7.812500
1216		3.906250
1217		7.812500
1218		3.906250
1219		7.812500
1220		3.906250
1221		7.812500
1222		3.906250
1223		7.812500
1224		3.906250
1225		7.812500
1226		3.906250
1227		7.812500
1228		3.906250
1229		7.812500
1230		3.906250
1231		7.812500
1232		3.906250
1233		7.812500
1234		3.906250
1235		7.812500
1236		3.906250
1237		7.812500
1238		3.906250
1239		7.812500
1240		5.859375
1241		7.812500
1242		5.859375
1243		7.812500
1244		3.906250
1245		7.812500
1246		5.859375
1247		7.812500
1248		5.859375
1249		9.765625
1250		5.859375
1251		9.765625
1252		5.859375
1253		7.812500
1254		5.859375
1255		9.765625
1256		5.859375
1257		9.765625
1258		5.859375
1259		7.812500
1260		5.859375
1261		9.765625
1262		5.859375
1263		9.765625
1264		5.859375
1265		9.765625
1266		5.859375
1267		9.765625
1268		5.859375
1269		9.765625
1270		5.859375
1271		9.765625
1272		7.812500
1273		9.765625
1274		5.859375
1275		9.765625
1276		7.812500
1277		9.765625
1278		7.812500
1279		11.718750
1280		7.812500
1281		11.718750
1282		7.812500
1283		11.718750
1284		7.812500
1285		9.765625
1286		7.812500
1287		11.718750
1288		7.812500
1289		11.718750
1290		7.812500
1291		11.718750
1292		9.765625
1293		11.718750
1294		7.812500
1295		11.718750
1296		7.812500
1297		11.718750
1298		7.812500
1299		11.718750
1300		9.765625
1301		11.718750
1302		7.812500
1303		11.718750
1304		9.765625
1305		11.718750
1306		9.765625
1307		11.718750
1308		9.765625
1309		13.671875
1310		9.765625
1311		11.718750
1312		9.765625
1313		13.671875
1314		9.765625
1315		13.671875
1316		9.765625
1317		13.671875
1318		9.765625
1319		13.671875
1320		9.765625
1321		13.671875
1322		11.718750
1323		13.671875
1324		9.765625
1325		13.671875
1326		11.718750
1327		13.671875
1328		9.765625
1329		13.671875
1330		11.718750
1331		13.671875
1332		11.718750
1333		13.671875
1334		11.718750
1335		13.671875
1336		11.718750
1337		13.671875
1338		11.718750
1339		13.671875
1340		9.765625
1341		15.625000
1342		11.718750
1343		13.671875
1344		11.718750
1345		13.671875
1346		11.718750
1347		13.671875
1348		11.718750
1349		13.671875
1350		11.718750
1351		13.671875
1352		11.718750
1353		15.625000
1354		11.718750
1355		15.625000
1356		11.718750
1357		13.671875
1358		9.765625
1359		15.625000
1360		11.718750
1361		13.671875
1362		9.765625
1363		13.671875
1364		11.718750
