metingen laweit/2000Hz, 26.1cm/kapotte data/data_81_136.txt

Channel              :		CH1
Frequency            :		1.987kHz
Period               :		0.503ms
PK-PK                :		212.9mV
Probe attenuation    :		1X
Voltage per ADC value:		0.122070mV
Time interval        :		2.00000us

index		CH1_Voltage(mV)
1		83.984375
2		83.984375
3		89.843750
4		87.890625
5		91.796875
6		89.843750
7		93.750000
8		91.796875
9		95.703125
10		93.750000
11		97.656250
12		95.703125
13		99.609375
14		97.656250
15		99.609375
16		97.656250
17		101.562500
18		99.609375
19		101.562500
20		99.609375
21		103.515625
22		101.562500
23		103.515625
24		101.562500
25		105.468750
26		101.562500
27		105.468750
28		101.562500
29		105.468750
30		101.562500
31		103.515625
32		99.609375
33		105.468750
34		99.609375
35		103.515625
36		97.656250
37		103.515625
38		97.656250
39		101.562500
40		97.656250
41		99.609375
42		95.703125
43		99.609375
44		93.750000
45		97.656250
46		91.796875
47		95.703125
48		89.843750
49		93.750000
50		85.937500
51		91.796875
52		83.984375
53		89.843750
54		82.031250
55		87.890625
56		80.078125
57		83.984375
58		76.171875
59		82.031250
60		72.265625
61		78.125000
62		68.359375
63		74.218750
64		64.453125
65		70.312500
66		60.546875
67		66.406250
68		56.640625
69		62.500000
70		52.734375
71		58.593750
72		48.828125
73		54.687500
74		42.968750
75		50.781250
76		41.015625
77		46.875000
78		35.156250
79		42.968750
80		31.250000
81		37.109375
82		25.390625
83		31.250000
84		21.484375
85		27.343750
86		13.671875
87		21.484375
88		9.765625
89		17.578125
90		5.859375
91		11.718750
92		0.000000
93		7.812500
94		-3.906250
95		1.953125
96		-9.765625
97		-3.906250
98		-15.625000
99		-7.812500
100		-19.531250
101		-13.671875
102		-25.390625
103		-17.578125
104		-29.296875
105		-23.437500
106		-35.156250
107		-29.296875
108		-39.062500
109		-33.203125
110		-44.921875
111		-37.109375
112		-48.828125
113		-42.968750
114		-52.734375
115		-46.875000
116		-56.640625
117		-52.734375
118		-62.500000
119		-56.640625
120		-66.406250
121		-60.546875
122		-70.312500
123		-64.453125
124		-72.265625
125		-68.359375
126		-76.171875
127		-70.312500
128		-80.078125
129		-74.218750
130		-82.031250
131		-78.125000
132		-85.937500
133		-80.078125
134		-87.890625
135		-83.984375
136		-89.843750
137		-85.937500
138		-91.796875
139		-87.890625
140		-93.750000
141		-89.843750
142		-97.656250
143		-91.796875
144		-95.703125
145		-93.750000
146		-97.656250
147		-93.750000
148		-99.609375
149		-95.703125
150		-99.609375
151		-95.703125
152		-99.609375
153		-95.703125
154		-99.609375
155		-95.703125
156		-99.609375
157		-95.703125
158		-97.656250
159		-93.750000
160		-97.656250
161		-93.750000
162		-97.656250
163		-93.750000
164		-95.703125
165		-91.796875
166		-93.750000
167		-89.843750
168		-91.796875
169		-87.890625
170		-89.843750
171		-83.984375
172		-87.890625
173		-82.031250
174		-83.984375
175		-80.078125
176		-82.031250
177		-76.171875
178		-80.078125
179		-74.218750
180		-74.218750
181		-70.312500
182		-72.265625
183		-66.406250
184		-68.359375
185		-62.500000
186		-64.453125
187		-58.593750
188		-60.546875
189		-54.687500
190		-56.640625
191		-50.781250
192		-50.781250
193		-44.921875
194		-46.875000
195		-41.015625
196		-42.968750
197		-35.156250
198		-39.062500
199		-31.250000
200		-33.203125
201		-25.390625
202		-27.343750
203		-21.484375
204		-23.437500
205		-15.625000
206		-17.578125
207		-11.718750
208		-11.718750
209		-5.859375
210		-7.812500
211		0.000000
212		-1.953125
213		3.906250
214		1.953125
215		9.765625
216		7.812500
217		15.625000
218		11.718750
219		19.531250
220		17.578125
221		23.437500
222		23.437500
223		29.296875
224		27.343750
225		33.203125
226		33.203125
227		39.062500
228		37.109375
229		42.968750
230		41.015625
231		46.875000
232		46.875000
233		50.781250
234		48.828125
235		56.640625
236		54.687500
237		60.546875
238		58.593750
239		64.453125
240		62.500000
241		68.359375
242		66.406250
243		70.312500
244		68.359375
245		74.218750
246		72.265625
247		78.125000
248		76.171875
249		82.031250
250		80.078125
251		83.984375
252		82.031250
253		87.890625
254		85.937500
255		89.843750
256		87.890625
257		91.796875
258		89.843750
259		93.750000
260		91.796875
261		95.703125
262		93.750000
263		97.656250
264		95.703125
265		99.609375
266		95.703125
267		101.562500
268		97.656250
269		101.562500
270		99.609375
271		103.515625
272		99.609375
273		103.515625
274		101.562500
275		103.515625
276		99.609375
277		105.468750
278		101.562500
279		105.468750
280		101.562500
281		105.468750
282		101.562500
283		105.468750
284		99.609375
285		105.468750
286		99.609375
287		103.515625
288		99.609375
289		103.515625
290		97.656250
291		101.562500
292		97.656250
293		99.609375
294		95.703125
295		99.609375
296		93.750000
297		97.656250
298		91.796875
299		95.703125
300		89.843750
301		93.750000
302		85.937500
303		91.796875
304		83.984375
305		87.890625
306		82.031250
307		85.937500
308		78.125000
309		83.984375
310		74.218750
311		80.078125
312		72.265625
313		78.125000
314		68.359375
315		74.218750
316		64.453125
317		70.312500
318		60.546875
319		68.359375
320		56.640625
321		62.500000
322		52.734375
323		58.593750
324		48.828125
325		54.687500
326		44.921875
327		50.781250
328		39.062500
329		44.921875
330		35.156250
331		41.015625
332		29.296875
333		37.109375
334		25.390625
335		31.250000
336		19.531250
337		27.343750
338		15.625000
339		21.484375
340		11.718750
341		17.578125
342		5.859375
343		11.718750
344		0.000000
345		7.812500
346		-5.859375
347		1.953125
348		-9.765625
349		-3.906250
350		-15.625000
351		-7.812500
352		-19.531250
353		-13.671875
354		-25.390625
355		-17.578125
356		-29.296875
357		-23.437500
358		-35.156250
359		-29.296875
360		-41.015625
361		-33.203125
362		-44.921875
363		-37.109375
364		-48.828125
365		-42.968750
366		-52.734375
367		-46.875000
368		-56.640625
369		-50.781250
370		-62.500000
371		-54.687500
372		-66.406250
373		-60.546875
374		-70.312500
375		-64.453125
376		-72.265625
377		-68.359375
378		-78.125000
379		-70.312500
380		-80.078125
381		-74.218750
382		-82.031250
383		-78.125000
384		-85.937500
385		-80.078125
386		-87.890625
387		-83.984375
388		-91.796875
389		-85.937500
390		-91.796875
391		-87.890625
392		-93.750000
393		-89.843750
394		-95.703125
395		-91.796875
396		-97.656250
397		-93.750000
398		-97.656250
399		-93.750000
400		-97.656250
401		-95.703125
402		-99.609375
403		-95.703125
404		-99.609375
405		-95.703125
406		-99.609375
407		-95.703125
408		-97.656250
409		-95.703125
410		-97.656250
411		-95.703125
412		-97.656250
413		-93.750000
414		-97.656250
415		-93.750000
416		-95.703125
417		-91.796875
418		-93.750000
419		-89.843750
420		-91.796875
421		-87.890625
422		-89.843750
423		-85.937500
424		-87.890625
425		-82.031250
426		-83.984375
427		-80.078125
428		-82.031250
429		-76.171875
430		-78.125000
431		-72.265625
432		-74.218750
433		-70.312500
434		-72.265625
435		-66.406250
436		-68.359375
437		-62.500000
438		-64.453125
439		-58.593750
440		-60.546875
441		-54.687500
442		-56.640625
443		-50.781250
444		-50.781250
445		-44.921875
446		-46.875000
447		-39.062500
448		-41.015625
449		-35.156250
450		-37.109375
451		-31.250000
452		-33.203125
453		-25.390625
454		-27.343750
455		-21.484375
456		-21.484375
457		-15.625000
458		-17.578125
459		-11.718750
460		-11.718750
461		-5.859375
462		-7.812500
463		0.000000
464		-1.953125
465		3.906250
466		3.906250
467		9.765625
468		7.812500
469		13.671875
470		11.718750
471		19.531250
472		17.578125
473		23.437500
474		23.437500
475		29.296875
476		27.343750
477		33.203125
478		33.203125
479		39.062500
480		37.109375
481		42.968750
482		41.015625
483		48.828125
484		46.875000
485		52.734375
486		50.781250
487		56.640625
488		54.687500
489		60.546875
490		58.593750
491		64.453125
492		62.500000
493		68.359375
494		66.406250
495		72.265625
496		68.359375
497		74.218750
498		74.218750
499		78.125000
500		76.171875
501		82.031250
502		80.078125
503		83.984375
504		82.031250
505		85.937500
506		85.937500
507		89.843750
508		85.937500
509		91.796875
510		89.843750
511		93.750000
512		91.796875
513		95.703125
514		93.750000
515		97.656250
516		95.703125
517		99.609375
518		97.656250
519		101.562500
520		97.656250
521		101.562500
522		99.609375
523		103.515625
524		99.609375
525		103.515625
526		101.562500
527		103.515625
528		101.562500
529		105.468750
530		101.562500
531		105.468750
532		101.562500
533		105.468750
534		101.562500
535		105.468750
536		99.609375
537		103.515625
538		99.609375
539		103.515625
540		97.656250
541		103.515625
542		99.609375
543		101.562500
544		97.656250
545		99.609375
546		95.703125
547		99.609375
548		93.750000
549		97.656250
550		91.796875
551		95.703125
552		89.843750
553		93.750000
554		87.890625
555		91.796875
556		83.984375
557		89.843750
558		82.031250
559		87.890625
560		78.125000
561		83.984375
562		74.218750
563		82.031250
564		72.265625
565		78.125000
566		68.359375
567		74.218750
568		64.453125
569		70.312500
570		60.546875
571		66.406250
572		56.640625
573		62.500000
574		52.734375
575		58.593750
576		48.828125
577		54.687500
578		44.921875
579		50.781250
580		39.062500
581		46.875000
582		35.156250
583		41.015625
584		31.250000
585		37.109375
586		25.390625
587		31.250000
588		21.484375
589		27.343750
590		15.625000
591		23.437500
592		11.718750
593		17.578125
594		5.859375
595		11.718750
596		0.000000
597		7.812500
598		-3.906250
599		1.953125
600		-9.765625
601		-3.906250
602		-15.625000
603		-7.812500
604		-19.531250
605		-13.671875
606		-25.390625
607		-17.578125
608		-29.296875
609		-23.437500
610		-35.156250
611		-29.296875
612		-41.015625
613		-33.203125
614		-44.921875
615		-39.062500
616		-48.828125
617		-42.968750
618		-52.734375
619		-46.875000
620		-56.640625
621		-52.734375
622		-62.500000
623		-56.640625
624		-66.406250
625		-60.546875
626		-70.312500
627		-64.453125
628		-72.265625
629		-68.359375
630		-76.171875
631		-70.312500
632		-80.078125
633		-74.218750
634		-83.984375
635		-78.125000
636		-85.937500
637		-82.031250
638		-87.890625
639		-83.984375
640		-89.843750
641		-85.937500
642		-91.796875
643		-87.890625
644		-93.750000
645		-89.843750
646		-95.703125
647		-91.796875
648		-97.656250
649		-93.750000
650		-97.656250
651		-93.750000
652		-97.656250
653		-95.703125
654		-99.609375
655		-95.703125
656		-99.609375
657		-95.703125
658		-99.609375
659		-95.703125
660		-97.656250
661		-95.703125
662		-97.656250
663		-95.703125
664		-97.656250
665		-93.750000
666		-95.703125
667		-91.796875
668		-95.703125
669		-91.796875
670		-93.750000
671		-89.843750
672		-91.796875
673		-85.937500
674		-89.843750
675		-83.984375
676		-87.890625
677		-82.031250
678		-83.984375
679		-80.078125
680		-82.031250
681		-76.171875
682		-78.125000
683		-72.265625
684		-76.171875
685		-70.312500
686		-72.265625
687		-64.453125
688		-68.359375
689		-62.500000
690		-64.453125
691		-56.640625
692		-58.593750
693		-54.687500
694		-54.687500
695		-48.828125
696		-50.781250
697		-42.968750
698		-46.875000
699		-41.015625
700		-42.968750
701		-35.156250
702		-37.109375
703		-31.250000
704		-31.250000
705		-25.390625
706		-27.343750
707		-19.531250
708		-21.484375
709		-15.625000
710		-17.578125
711		-9.765625
712		-11.718750
713		-5.859375
714		-7.812500
715		0.000000
716		-1.953125
717		3.906250
718		3.906250
719		9.765625
720		7.812500
721		13.671875
722		13.671875
723		19.531250
724		17.578125
725		25.390625
726		23.437500
727		29.296875
728		27.343750
729		33.203125
730		33.203125
731		39.062500
732		37.109375
733		42.968750
734		41.015625
735		48.828125
736		46.875000
737		52.734375
738		50.781250
739		56.640625
740		54.687500
741		60.546875
742		58.593750
743		64.453125
744		62.500000
745		68.359375
746		66.406250
747		72.265625
748		70.312500
749		76.171875
750		74.218750
751		78.125000
752		76.171875
753		82.031250
754		80.078125
755		83.984375
756		82.031250
757		85.937500
758		85.937500
759		89.843750
760		87.890625
761		91.796875
762		89.843750
763		93.750000
764		91.796875
765		95.703125
766		93.750000
767		97.656250
768		95.703125
769		99.609375
770		97.656250
771		101.562500
772		97.656250
773		103.515625
774		99.609375
775		105.468750
776		101.562500
777		103.515625
778		101.562500
779		103.515625
780		101.562500
781		103.515625
782		101.562500
783		105.468750
784		101.562500
785		105.468750
786		101.562500
787		103.515625
788		99.609375
789		105.468750
790		99.609375
791		103.515625
792		97.656250
793		103.515625
794		97.656250
795		101.562500
796		97.656250
797		101.562500
798		93.750000
799		99.609375
800		91.796875
801		99.609375
802		91.796875
803		97.656250
804		89.843750
805		93.750000
806		85.937500
807		93.750000
808		82.031250
809		89.843750
810		82.031250
811		87.890625
812		78.125000
813		83.984375
814		74.218750
815		80.078125
816		70.312500
817		80.078125
818		68.359375
819		76.171875
820		64.453125
821		72.265625
822		58.593750
823		66.406250
824		54.687500
825		64.453125
826		52.734375
827		60.546875
828		48.828125
829		54.687500
830		44.921875
831		50.781250
832		37.109375
833		46.875000
834		33.203125
835		42.968750
836		29.296875
837		39.062500
838		25.390625
839		33.203125
840		19.531250
841		29.296875
842		13.671875
843		23.437500
844		9.765625
845		19.531250
846		5.859375
847		11.718750
848		-1.953125
849		5.859375
850		-5.859375
851		3.906250
852		-11.718750
853		-1.953125
854		-15.625000
855		-7.812500
856		-21.484375
857		-11.718750
858		-25.390625
859		-15.625000
860		-29.296875
861		-21.484375
862		-35.156250
863		-29.296875
864		-39.062500
865		-33.203125
866		-44.921875
867		-37.109375
868		-50.781250
869		-41.015625
870		-54.687500
871		-46.875000
872		-58.593750
873		-50.781250
874		-64.453125
875		-54.687500
876		-68.359375
877		-58.593750
878		-70.312500
879		-64.453125
880		-72.265625
881		-68.359375
882		-78.125000
883		-70.312500
884		-82.031250
885		-74.218750
886		-83.984375
887		-76.171875
888		-87.890625
889		-80.078125
890		-89.843750
891		-82.031250
892		-91.796875
893		-83.984375
894		-93.750000
895		-85.937500
896		-93.750000
897		-89.843750
898		-95.703125
899		-91.796875
900		-97.656250
901		-91.796875
902		-97.656250
903		-93.750000
904		-99.609375
905		-93.750000
906		-99.609375
907		-93.750000
908		-99.609375
909		-93.750000
910		-99.609375
911		-93.750000
912		-97.656250
913		-95.703125
914		-97.656250
915		-95.703125
916		-99.609375
917		-91.796875
918		-99.609375
919		-89.843750
920		-97.656250
921		-89.843750
922		-95.703125
923		-87.890625
924		-93.750000
925		-83.984375
926		-91.796875
927		-82.031250
928		-87.890625
929		-82.031250
930		-83.984375
931		-78.125000
932		-82.031250
933		-74.218750
934		-80.078125
935		-70.312500
936		-76.171875
937		-68.359375
938		-72.265625
939		-64.453125
940		-68.359375
941		-58.593750
942		-66.406250
943		-56.640625
944		-60.546875
945		-52.734375
946		-54.687500
947		-48.828125
948		-50.781250
949		-44.921875
950		-46.875000
951		-37.109375
952		-42.968750
953		-33.203125
954		-39.062500
955		-29.296875
956		-33.203125
957		-23.437500
958		-29.296875
959		-19.531250
960		-23.437500
961		-13.671875
962		-17.578125
963		-9.765625
964		-11.718750
965		-5.859375
966		-7.812500
967		1.953125
968		-3.906250
969		7.812500
970		1.953125
971		11.718750
972		7.812500
973		15.625000
974		11.718750
975		21.484375
976		15.625000
977		27.343750
978		21.484375
979		29.296875
980		29.296875
981		35.156250
982		33.203125
983		41.015625
984		37.109375
985		46.875000
986		41.015625
987		50.781250
988		44.921875
989		54.687500
990		48.828125
991		58.593750
992		52.734375
993		62.500000
994		56.640625
995		66.406250
996		62.500000
997		68.359375
998		66.406250
999		72.265625
1000		68.359375
1001		76.171875
1002		72.265625
1003		80.078125
1004		74.218750
1005		83.984375
1006		78.125000
1007		85.937500
1008		82.031250
1009		89.843750
1010		82.031250
1011		91.796875
1012		85.937500
1013		91.796875
1014		89.843750
1015		95.703125
1016		91.796875
1017		97.656250
1018		91.796875
1019		101.562500
1020		93.750000
1021		101.562500
1022		95.703125
1023		103.515625
1024		95.703125
1025		103.515625
1026		97.656250
1027		105.468750
1028		99.609375
1029		105.468750
1030		101.562500
1031		103.515625
1032		101.562500
1033		105.468750
1034		99.609375
1035		107.421875
1036		99.609375
1037		107.421875
1038		97.656250
1039		107.421875
1040		99.609375
1041		107.421875
1042		97.656250
1043		105.468750
1044		97.656250
1045		105.468750
1046		99.609375
1047		103.515625
1048		97.656250
1049		99.609375
1050		93.750000
1051		99.609375
1052		91.796875
1053		99.609375
1054		89.843750
1055		97.656250
1056		87.890625
1057		95.703125
1058		85.937500
1059		93.750000
1060		82.031250
1061		91.796875
1062		82.031250
1063		87.890625
1064		78.125000
1065		83.984375
1066		74.218750
1067		80.078125
1068		70.312500
1069		78.125000
1070		66.406250
1071		76.171875
1072		62.500000
1073		72.265625
1074		60.546875
1075		68.359375
1076		54.687500
1077		64.453125
1078		52.734375
1079		60.546875
1080		48.828125
1081		54.687500
1082		44.921875
1083		50.781250
1084		39.062500
1085		46.875000
1086		33.203125
1087		42.968750
1088		27.343750
1089		39.062500
1090		23.437500
1091		33.203125
1092		19.531250
1093		29.296875
1094		13.671875
1095		23.437500
1096		9.765625
1097		17.578125
1098		5.859375
1099		11.718750
1100		-1.953125
1101		5.859375
1102		-7.812500
1103		3.906250
1104		-11.718750
1105		-1.953125
1106		-17.578125
1107		-5.859375
1108		-21.484375
1109		-11.718750
1110		-27.343750
1111		-17.578125
1112		-29.296875
1113		-21.484375
1114		-35.156250
1115		-29.296875
1116		-39.062500
1117		-33.203125
1118		-46.875000
1119		-37.109375
1120		-50.781250
1121		-41.015625
1122		-54.687500
1123		-44.921875
1124		-60.546875
1125		-50.781250
1126		-64.453125
1127		-54.687500
1128		-68.359375
1129		-56.640625
1130		-70.312500
1131		-64.453125
1132		-72.265625
1133		-68.359375
1134		-78.125000
1135		-70.312500
1136		-82.031250
1137		-72.265625
1138		-85.937500
1139		-76.171875
1140		-87.890625
1141		-78.125000
1142		-89.843750
1143		-82.031250
1144		-93.750000
1145		-83.984375
1146		-93.750000
1147		-85.937500
1148		-93.750000
1149		-89.843750
1150		-97.656250
1151		-91.796875
1152		-99.609375
1153		-91.796875
1154		-99.609375
1155		-91.796875
1156		-99.609375
1157		-93.750000
1158		-101.562500
1159		-93.750000
1160		-101.562500
1161		-93.750000
1162		-101.562500
1163		-93.750000
1164		-97.656250
1165		-95.703125
1166		-97.656250
1167		-95.703125
1168		-99.609375
1169		-91.796875
1170		-97.656250
1171		-89.843750
1172		-95.703125
1173		-87.890625
1174		-95.703125
1175		-87.890625
1176		-91.796875
1177		-83.984375
1178		-91.796875
1179		-82.031250
1180		-89.843750
1181		-82.031250
1182		-83.984375
1183		-78.125000
1184		-80.078125
1185		-74.218750
1186		-80.078125
1187		-70.312500
1188		-76.171875
1189		-66.406250
1190		-74.218750
1191		-62.500000
1192		-68.359375
1193		-58.593750
1194		-64.453125
1195		-54.687500
1196		-60.546875
1197		-52.734375
1198		-54.687500
1199		-48.828125
1200		-50.781250
1201		-44.921875
1202		-48.828125
1203		-37.109375
1204		-44.921875
1205		-33.203125
1206		-39.062500
1207		-27.343750
1208		-33.203125
1209		-23.437500
1210		-27.343750
1211		-17.578125
1212		-23.437500
1213		-11.718750
1214		-17.578125
1215		-9.765625
1216		-11.718750
1217		-3.906250
1218		-5.859375
1219		1.953125
1220		-3.906250
1221		7.812500
1222		1.953125
1223		11.718750
1224		5.859375
1225		17.578125
1226		11.718750
1227		23.437500
1228		17.578125
1229		27.343750
1230		21.484375
1231		29.296875
1232		29.296875
1233		35.156250
1234		33.203125
1235		39.062500
1236		35.156250
1237		44.921875
1238		41.015625
1239		50.781250
1240		44.921875
1241		54.687500
1242		48.828125
1243		58.593750
1244		54.687500
1245		62.500000
1246		56.640625
1247		66.406250
1248		62.500000
1249		68.359375
1250		68.359375
1251		72.265625
1252		68.359375
1253		78.125000
1254		70.312500
1255		80.078125
1256		74.218750
1257		83.984375
1258		78.125000
1259		87.890625
1260		80.078125
1261		89.843750
1262		83.984375
1263		93.750000
1264		85.937500
1265		91.796875
1266		89.843750
