Old_data/metingen laweit/2000Hz, 44.1cm/kapot/data_81_188.txt

Channel              :		CH1
Frequency            :		  ?
Period               :		  ?
PK-PK                :		19.53mV
Probe attenuation    :		1X
Voltage per ADC value:		0.122070mV
Time interval        :		2.00000us

index		CH1_Voltage(mV)
1		7.812500
2		7.812500
3		5.859375
4		7.812500
5		5.859375
6		7.812500
7		5.859375
8		7.812500
9		5.859375
10		7.812500
11		5.859375
12		7.812500
13		5.859375
14		7.812500
15		5.859375
16		7.812500
17		5.859375
18		7.812500
19		5.859375
20		7.812500
21		5.859375
22		7.812500
23		5.859375
24		7.812500
25		5.859375
26		7.812500
27		5.859375
28		7.812500
29		5.859375
30		7.812500
31		5.859375
32		7.812500
33		5.859375
34		7.812500
35		5.859375
36		7.812500
37		5.859375
38		7.812500
39		5.859375
40		7.812500
41		5.859375
42		7.812500
43		5.859375
44		7.812500
45		5.859375
46		7.812500
47		5.859375
48		7.812500
49		5.859375
50		7.812500
51		5.859375
52		7.812500
53		5.859375
54		7.812500
55		5.859375
56		7.812500
57		5.859375
58		7.812500
59		5.859375
60		9.765625
61		5.859375
62		9.765625
63		5.859375
64		9.765625
65		7.812500
66		9.765625
67		7.812500
68		9.765625
69		7.812500
70		9.765625
71		7.812500
72		9.765625
73		7.812500
74		9.765625
75		7.812500
76		9.765625
77		7.812500
78		9.765625
79		7.812500
80		9.765625
81		7.812500
82		9.765625
83		7.812500
84		9.765625
85		7.812500
86		11.718750
87		9.765625
88		11.718750
89		9.765625
90		11.718750
91		9.765625
92		11.718750
93		9.765625
94		11.718750
95		9.765625
96		11.718750
97		9.765625
98		11.718750
99		9.765625
100		11.718750
101		9.765625
102		11.718750
103		9.765625
104		13.671875
105		9.765625
106		13.671875
107		11.718750
108		13.671875
109		11.718750
110		13.671875
111		11.718750
112		13.671875
113		11.718750
114		13.671875
115		11.718750
116		13.671875
117		11.718750
118		13.671875
119		11.718750
120		13.671875
121		11.718750
122		13.671875
123		11.718750
124		15.625000
125		11.718750
126		13.671875
127		11.718750
128		15.625000
129		13.671875
130		15.625000
131		13.671875
132		15.625000
133		13.671875
134		15.625000
135		13.671875
136		15.625000
137		13.671875
138		15.625000
139		13.671875
140		15.625000
141		13.671875
142		15.625000
143		13.671875
144		15.625000
145		13.671875
146		15.625000
147		13.671875
148		15.625000
149		13.671875
150		15.625000
151		13.671875
152		15.625000
153		13.671875
154		15.625000
155		13.671875
156		15.625000
157		13.671875
158		15.625000
159		13.671875
160		15.625000
161		13.671875
162		15.625000
163		13.671875
164		15.625000
165		13.671875
166		15.625000
167		13.671875
168		15.625000
169		13.671875
170		15.625000
171		11.718750
172		15.625000
173		13.671875
174		15.625000
175		13.671875
176		15.625000
177		13.671875
178		15.625000
179		13.671875
180		15.625000
181		11.718750
182		15.625000
183		13.671875
184		15.625000
185		11.718750
186		15.625000
187		11.718750
188		13.671875
189		11.718750
190		13.671875
191		11.718750
192		13.671875
193		11.718750
194		15.625000
195		11.718750
196		13.671875
197		11.718750
198		13.671875
199		11.718750
200		13.671875
201		11.718750
202		13.671875
203		9.765625
204		13.671875
205		9.765625
206		13.671875
207		9.765625
208		11.718750
209		9.765625
210		11.718750
211		9.765625
212		11.718750
213		9.765625
214		11.718750
215		9.765625
216		11.718750
217		9.765625
218		11.718750
219		9.765625
220		11.718750
221		9.765625
222		11.718750
223		9.765625
224		11.718750
225		7.812500
226		11.718750
227		7.812500
228		11.718750
229		7.812500
230		9.765625
231		7.812500
232		9.765625
233		7.812500
234		9.765625
235		7.812500
236		9.765625
237		7.812500
238		9.765625
239		7.812500
240		9.765625
241		7.812500
242		9.765625
243		5.859375
244		9.765625
245		7.812500
246		9.765625
247		7.812500
248		9.765625
249		5.859375
250		9.765625
251		5.859375
252		9.765625
253		5.859375
254		7.812500
255		5.859375
256		7.812500
257		5.859375
258		7.812500
259		5.859375
260		7.812500
261		5.859375
262		7.812500
263		5.859375
264		7.812500
265		5.859375
266		7.812500
267		5.859375
268		7.812500
269		5.859375
270		7.812500
271		5.859375
272		7.812500
273		5.859375
274		7.812500
275		5.859375
276		7.812500
277		5.859375
278		7.812500
279		5.859375
280		7.812500
281		5.859375
282		7.812500
283		5.859375
284		7.812500
285		5.859375
286		7.812500
287		5.859375
288		7.812500
289		5.859375
290		7.812500
291		5.859375
292		7.812500
293		5.859375
294		7.812500
295		5.859375
296		7.812500
297		5.859375
298		7.812500
299		5.859375
300		7.812500
301		5.859375
302		7.812500
303		5.859375
304		7.812500
305		5.859375
306		9.765625
307		5.859375
308		7.812500
309		5.859375
310		7.812500
311		5.859375
312		7.812500
313		5.859375
314		9.765625
315		5.859375
316		9.765625
317		7.812500
318		9.765625
319		7.812500
320		9.765625
321		7.812500
322		9.765625
323		7.812500
324		9.765625
325		7.812500
326		9.765625
327		7.812500
328		9.765625
329		7.812500
330		9.765625
331		7.812500
332		9.765625
333		7.812500
334		9.765625
335		7.812500
336		9.765625
337		7.812500
338		9.765625
339		7.812500
340		11.718750
341		9.765625
342		11.718750
343		9.765625
344		11.718750
345		9.765625
346		11.718750
347		9.765625
348		11.718750
349		9.765625
350		11.718750
351		9.765625
352		11.718750
353		9.765625
354		11.718750
355		9.765625
356		11.718750
357		9.765625
358		13.671875
359		11.718750
360		13.671875
361		9.765625
362		13.671875
363		11.718750
364		13.671875
365		11.718750
366		13.671875
367		11.718750
368		13.671875
369		11.718750
370		13.671875
371		11.718750
372		13.671875
373		11.718750
374		13.671875
375		11.718750
376		13.671875
377		11.718750
378		15.625000
379		11.718750
380		15.625000
381		11.718750
382		15.625000
383		11.718750
384		15.625000
385		13.671875
386		15.625000
387		13.671875
388		15.625000
389		13.671875
390		15.625000
391		13.671875
392		15.625000
393		13.671875
394		15.625000
395		13.671875
396		15.625000
397		13.671875
398		15.625000
399		13.671875
400		15.625000
401		13.671875
402		15.625000
403		13.671875
404		15.625000
405		13.671875
406		15.625000
407		13.671875
408		15.625000
409		13.671875
410		15.625000
411		13.671875
412		15.625000
413		13.671875
414		15.625000
415		13.671875
416		15.625000
417		13.671875
418		15.625000
419		13.671875
420		15.625000
421		13.671875
422		15.625000
423		13.671875
424		15.625000
425		13.671875
426		15.625000
427		13.671875
428		15.625000
429		13.671875
430		15.625000
431		13.671875
432		15.625000
433		13.671875
434		15.625000
435		13.671875
436		15.625000
437		13.671875
438		15.625000
439		11.718750
440		15.625000
441		11.718750
442		15.625000
443		11.718750
444		13.671875
445		11.718750
446		13.671875
447		11.718750
448		13.671875
449		11.718750
450		13.671875
451		11.718750
452		13.671875
453		11.718750
454		13.671875
455		11.718750
456		13.671875
457		11.718750
458		13.671875
459		9.765625
460		13.671875
461		9.765625
462		13.671875
463		9.765625
464		13.671875
465		9.765625
466		11.718750
467		9.765625
468		11.718750
469		9.765625
470		11.718750
471		9.765625
472		11.718750
473		9.765625
474		11.718750
475		9.765625
476		11.718750
477		9.765625
478		11.718750
479		7.812500
480		11.718750
481		7.812500
482		11.718750
483		7.812500
484		9.765625
485		7.812500
486		9.765625
487		7.812500
488		9.765625
489		7.812500
490		9.765625
491		7.812500
492		9.765625
493		7.812500
494		9.765625
495		7.812500
496		9.765625
497		5.859375
498		9.765625
499		7.812500
500		9.765625
501		7.812500
502		9.765625
503		5.859375
504		9.765625
505		7.812500
506		9.765625
507		5.859375
508		9.765625
509		5.859375
510		7.812500
511		5.859375
512		7.812500
513		5.859375
514		7.812500
515		5.859375
516		7.812500
517		5.859375
518		7.812500
519		5.859375
520		7.812500
521		5.859375
522		7.812500
523		5.859375
524		7.812500
525		5.859375
526		7.812500
527		5.859375
528		7.812500
529		5.859375
530		7.812500
531		5.859375
532		7.812500
533		5.859375
534		7.812500
535		5.859375
536		7.812500
537		5.859375
538		7.812500
539		5.859375
540		7.812500
541		5.859375
542		7.812500
543		5.859375
544		7.812500
545		5.859375
546		7.812500
547		5.859375
548		7.812500
549		5.859375
550		7.812500
551		5.859375
552		7.812500
553		5.859375
554		9.765625
555		5.859375
556		7.812500
557		5.859375
558		7.812500
559		5.859375
560		7.812500
561		5.859375
562		7.812500
563		5.859375
564		7.812500
565		5.859375
566		9.765625
567		5.859375
568		9.765625
569		7.812500
570		9.765625
571		7.812500
572		9.765625
573		7.812500
574		9.765625
575		7.812500
576		9.765625
577		7.812500
578		9.765625
579		7.812500
580		9.765625
581		7.812500
582		9.765625
583		7.812500
584		9.765625
585		7.812500
586		9.765625
587		7.812500
588		11.718750
589		7.812500
590		9.765625
591		9.765625
592		9.765625
593		7.812500
594		11.718750
595		9.765625
596		11.718750
597		9.765625
598		11.718750
599		9.765625
600		11.718750
601		9.765625
602		11.718750
603		9.765625
604		11.718750
605		9.765625
606		11.718750
607		9.765625
608		11.718750
609		9.765625
610		13.671875
611		9.765625
612		13.671875
613		11.718750
614		13.671875
615		11.718750
616		13.671875
617		11.718750
618		13.671875
619		11.718750
620		13.671875
621		11.718750
622		13.671875
623		11.718750
624		13.671875
625		11.718750
626		13.671875
627		11.718750
628		13.671875
629		11.718750
630		15.625000
631		11.718750
632		15.625000
633		11.718750
634		15.625000
635		11.718750
636		15.625000
637		13.671875
638		15.625000
639		13.671875
640		15.625000
641		13.671875
642		15.625000
643		13.671875
644		15.625000
645		13.671875
646		15.625000
647		13.671875
648		15.625000
649		13.671875
650		15.625000
651		13.671875
652		15.625000
653		13.671875
654		15.625000
655		13.671875
656		15.625000
657		13.671875
658		15.625000
659		13.671875
660		15.625000
661		13.671875
662		15.625000
663		13.671875
664		15.625000
665		13.671875
666		15.625000
667		13.671875
668		15.625000
669		13.671875
670		15.625000
671		13.671875
672		15.625000
673		13.671875
674		15.625000
675		13.671875
676		15.625000
677		13.671875
678		15.625000
679		13.671875
680		15.625000
681		11.718750
682		17.578125
683		13.671875
684		15.625000
685		11.718750
686		17.578125
687		13.671875
688		15.625000
689		13.671875
690		15.625000
691		11.718750
692		15.625000
693		13.671875
694		15.625000
695		11.718750
696		13.671875
697		11.718750
698		15.625000
699		9.765625
700		15.625000
701		11.718750
702		15.625000
703		9.765625
704		15.625000
705		9.765625
706		15.625000
707		11.718750
708		13.671875
709		11.718750
710		13.671875
711		9.765625
712		13.671875
713		9.765625
714		13.671875
715		7.812500
716		13.671875
717		9.765625
718		13.671875
719		7.812500
720		13.671875
721		9.765625
722		11.718750
723		7.812500
724		13.671875
725		9.765625
726		11.718750
727		7.812500
728		11.718750
729		7.812500
730		11.718750
731		5.859375
732		11.718750
733		7.812500
734		11.718750
735		7.812500
736		11.718750
737		7.812500
738		11.718750
739		5.859375
740		13.671875
741		7.812500
742		9.765625
743		7.812500
744		9.765625
745		5.859375
746		11.718750
747		5.859375
748		11.718750
749		5.859375
750		11.718750
751		5.859375
752		9.765625
753		5.859375
754		9.765625
755		7.812500
756		9.765625
757		5.859375
758		11.718750
759		5.859375
760		7.812500
761		3.906250
762		9.765625
763		3.906250
764		11.718750
765		5.859375
766		9.765625
767		5.859375
768		9.765625
769		3.906250
770		9.765625
771		1.953125
772		11.718750
773		1.953125
774		9.765625
775		5.859375
776		7.812500
777		5.859375
778		7.812500
779		5.859375
780		9.765625
781		1.953125
782		11.718750
783		3.906250
784		9.765625
785		5.859375
786		9.765625
787		1.953125
788		11.718750
789		3.906250
790		11.718750
791		1.953125
792		11.718750
793		5.859375
794		7.812500
795		3.906250
796		9.765625
797		1.953125
798		11.718750
799		3.906250
800		9.765625
801		5.859375
802		7.812500
803		3.906250
804		11.718750
805		1.953125
806		11.718750
807		1.953125
808		11.718750
809		5.859375
810		7.812500
811		5.859375
812		7.812500
813		3.906250
814		11.718750
815		3.906250
816		11.718750
817		5.859375
818		9.765625
819		5.859375
820		9.765625
821		1.953125
822		13.671875
823		3.906250
824		11.718750
825		7.812500
826		9.765625
827		7.812500
828		9.765625
829		5.859375
830		11.718750
831		3.906250
832		13.671875
833		5.859375
834		11.718750
835		7.812500
836		9.765625
837		5.859375
838		13.671875
839		5.859375
840		13.671875
841		5.859375
842		13.671875
843		7.812500
844		11.718750
845		7.812500
846		11.718750
847		5.859375
848		15.625000
849		5.859375
850		13.671875
851		9.765625
852		11.718750
853		7.812500
854		13.671875
855		5.859375
856		15.625000
857		5.859375
858		15.625000
859		9.765625
860		11.718750
861		9.765625
862		11.718750
863		9.765625
864		13.671875
865		7.812500
866		17.578125
867		9.765625
868		15.625000
869		11.718750
870		13.671875
871		7.812500
872		17.578125
873		11.718750
874		13.671875
875		7.812500
876		15.625000
877		11.718750
878		13.671875
879		11.718750
880		15.625000
881		9.765625
882		17.578125
883		11.718750
884		15.625000
885		13.671875
886		15.625000
887		9.765625
888		17.578125
889		9.765625
890		17.578125
891		11.718750
892		17.578125
893		13.671875
894		15.625000
895		13.671875
896		15.625000
897		11.718750
898		19.531250
899		9.765625
900		19.531250
901		13.671875
902		15.625000
903		11.718750
904		17.578125
905		11.718750
906		19.531250
907		11.718750
908		17.578125
909		13.671875
910		15.625000
911		13.671875
912		15.625000
913		13.671875
914		17.578125
915		11.718750
916		19.531250
917		11.718750
918		17.578125
919		13.671875
920		15.625000
921		11.718750
922		19.531250
923		11.718750
924		19.531250
925		11.718750
926		17.578125
927		13.671875
928		15.625000
929		13.671875
930		15.625000
931		13.671875
932		17.578125
933		11.718750
934		17.578125
935		13.671875
936		15.625000
937		11.718750
938		17.578125
939		9.765625
940		19.531250
941		9.765625
942		17.578125
943		13.671875
944		15.625000
945		13.671875
946		15.625000
947		11.718750
948		15.625000
949		11.718750
950		15.625000
951		11.718750
952		17.578125
953		11.718750
954		13.671875
955		11.718750
956		17.578125
957		11.718750
958		13.671875
959		9.765625
960		17.578125
961		11.718750
962		13.671875
963		11.718750
964		13.671875
965		9.765625
966		13.671875
967		7.812500
968		15.625000
969		9.765625
970		13.671875
971		9.765625
972		13.671875
973		9.765625
974		11.718750
975		9.765625
976		11.718750
977		9.765625
978		11.718750
979		9.765625
980		11.718750
981		9.765625
982		11.718750
983		7.812500
984		11.718750
985		7.812500
986		11.718750
987		7.812500
988		11.718750
989		7.812500
990		11.718750
991		7.812500
992		9.765625
993		7.812500
994		9.765625
995		7.812500
996		9.765625
997		7.812500
998		11.718750
999		7.812500
1000		9.765625
1001		7.812500
1002		9.765625
1003		7.812500
1004		9.765625
1005		7.812500
1006		9.765625
1007		7.812500
1008		9.765625
1009		5.859375
1010		9.765625
1011		5.859375
1012		9.765625
1013		5.859375
1014		9.765625
1015		5.859375
1016		7.812500
1017		5.859375
1018		7.812500
1019		5.859375
1020		9.765625
1021		5.859375
1022		9.765625
1023		5.859375
1024		7.812500
1025		5.859375
1026		9.765625
1027		5.859375
1028		7.812500
1029		5.859375
1030		7.812500
1031		3.906250
1032		9.765625
1033		3.906250
1034		9.765625
1035		5.859375
1036		9.765625
1037		3.906250
1038		9.765625
1039		3.906250
1040		9.765625
1041		3.906250
1042		9.765625
1043		5.859375
1044		9.765625
1045		5.859375
1046		9.765625
1047		3.906250
1048		9.765625
1049		5.859375
1050		9.765625
1051		5.859375
1052		9.765625
1053		5.859375
1054		9.765625
1055		5.859375
1056		9.765625
1057		5.859375
1058		9.765625
1059		5.859375
1060		9.765625
1061		5.859375
1062		7.812500
1063		5.859375
1064		7.812500
1065		5.859375
1066		9.765625
1067		5.859375
1068		9.765625
1069		5.859375
1070		9.765625
1071		5.859375
1072		9.765625
1073		5.859375
1074		9.765625
1075		5.859375
1076		11.718750
1077		5.859375
1078		9.765625
1079		7.812500
1080		9.765625
1081		5.859375
1082		11.718750
1083		5.859375
1084		11.718750
1085		5.859375
1086		11.718750
1087		5.859375
1088		11.718750
1089		7.812500
1090		11.718750
1091		7.812500
1092		11.718750
1093		7.812500
1094		11.718750
1095		9.765625
1096		11.718750
1097		7.812500
1098		11.718750
1099		7.812500
1100		13.671875
1101		7.812500
1102		11.718750
1103		7.812500
1104		13.671875
1105		7.812500
1106		13.671875
1107		7.812500
1108		13.671875
1109		9.765625
1110		13.671875
1111		9.765625
1112		13.671875
1113		9.765625
1114		11.718750
1115		9.765625
1116		13.671875
1117		9.765625
1118		13.671875
1119		9.765625
1120		13.671875
1121		7.812500
1122		15.625000
1123		9.765625
1124		13.671875
1125		9.765625
1126		15.625000
1127		11.718750
1128		15.625000
1129		11.718750
1130		13.671875
1131		11.718750
1132		15.625000
1133		11.718750
1134		15.625000
1135		11.718750
1136		15.625000
1137		9.765625
1138		17.578125
1139		11.718750
1140		15.625000
1141		11.718750
1142		15.625000
1143		11.718750
1144		15.625000
1145		13.671875
1146		15.625000
1147		13.671875
1148		15.625000
1149		13.671875
1150		15.625000
1151		13.671875
1152		15.625000
1153		13.671875
1154		15.625000
1155		11.718750
1156		17.578125
1157		13.671875
1158		17.578125
1159		13.671875
1160		17.578125
1161		13.671875
1162		17.578125
1163		13.671875
1164		17.578125
1165		13.671875
1166		17.578125
1167		13.671875
1168		17.578125
1169		13.671875
1170		17.578125
1171		11.718750
1172		17.578125
1173		13.671875
1174		17.578125
1175		13.671875
1176		17.578125
1177		13.671875
1178		17.578125
1179		13.671875
1180		15.625000
1181		11.718750
1182		17.578125
1183		13.671875
1184		17.578125
1185		13.671875
1186		17.578125
1187		11.718750
1188		17.578125
1189		13.671875
1190		15.625000
1191		13.671875
1192		15.625000
1193		13.671875
1194		17.578125
1195		13.671875
1196		15.625000
1197		13.671875
1198		15.625000
1199		11.718750
1200		15.625000
1201		11.718750
1202		15.625000
1203		11.718750
1204		15.625000
1205		11.718750
1206		15.625000
1207		11.718750
1208		15.625000
1209		11.718750
1210		15.625000
1211		11.718750
1212		15.625000
1213		11.718750
1214		13.671875
1215		11.718750
1216		13.671875
1217		11.718750
1218		13.671875
1219		9.765625
1220		13.671875
1221		9.765625
1222		13.671875
1223		9.765625
1224		13.671875
1225		9.765625
1226		13.671875
1227		9.765625
1228		13.671875
1229		9.765625
1230		11.718750
1231		9.765625
1232		11.718750
1233		9.765625
1234		11.718750
1235		9.765625
1236		11.718750
1237		7.812500
1238		11.718750
1239		7.812500
1240		13.671875
1241		7.812500
1242		11.718750
1243		7.812500
1244		11.718750
1245		7.812500
1246		11.718750
1247		7.812500
1248		9.765625
1249		7.812500
1250		11.718750
1251		7.812500
1252		11.718750
1253		7.812500
1254		9.765625
1255		7.812500
1256		9.765625
1257		7.812500
1258		9.765625
1259		7.812500
1260		9.765625
1261		7.812500
1262		9.765625
1263		5.859375
1264		9.765625
1265		5.859375
1266		9.765625
1267		5.859375
1268		11.718750
1269		5.859375
1270		9.765625
1271		5.859375
1272		9.765625
1273		5.859375
1274		9.765625
1275		5.859375
1276		9.765625
1277		5.859375
1278		9.765625
1279		5.859375
1280		9.765625
1281		5.859375
1282		7.812500
1283		5.859375
1284		9.765625
1285		5.859375
1286		9.765625
1287		5.859375
1288		9.765625
1289		5.859375
1290		7.812500
1291		5.859375
1292		9.765625
1293		5.859375
1294		9.765625
1295		5.859375
1296		9.765625
1297		5.859375
1298		7.812500
1299		5.859375
1300		9.765625
1301		5.859375
1302		9.765625
1303		5.859375
1304		9.765625
1305		5.859375
1306		9.765625
1307		5.859375
1308		9.765625
1309		5.859375
1310		9.765625
1311		5.859375
1312		9.765625
1313		5.859375
1314		7.812500
1315		5.859375
1316		9.765625
1317		5.859375
1318		9.765625
1319		7.812500
1320		9.765625
1321		5.859375
1322		9.765625
1323		5.859375
1324		9.765625
1325		5.859375
1326		9.765625
1327		5.859375
1328		9.765625
1329		7.812500
1330		9.765625
1331		7.812500
1332		9.765625
1333		5.859375
1334		11.718750
1335		7.812500
1336		9.765625
1337		7.812500
1338		11.718750
1339		7.812500
1340		11.718750
1341		7.812500
1342		11.718750
1343		7.812500
1344		11.718750
1345		7.812500
1346		11.718750
1347		9.765625
1348		11.718750
