metingen laweit/20cm, resfreq2/data_81_225.txt

Channel              :		CH1
Frequency            :		1.774kHz
Period               :		0.564ms
PK-PK                :		283.2mV
Probe attenuation    :		1X
Voltage per ADC value:		0.122070mV
Time interval        :		2.00000us

index		CH1_Voltage(mV)
1		134.765625
2		134.765625
3		132.812500
4		134.765625
5		130.859375
6		134.765625
7		128.906250
8		132.812500
9		128.906250
10		130.859375
11		126.953125
12		130.859375
13		125.000000
14		128.906250
15		123.046875
16		126.953125
17		121.093750
18		125.000000
19		117.187500
20		121.093750
21		115.234375
22		119.140625
23		111.328125
24		117.187500
25		109.375000
26		113.281250
27		105.468750
28		111.328125
29		101.562500
30		107.421875
31		97.656250
32		103.515625
33		93.750000
34		99.609375
35		89.843750
36		95.703125
37		85.937500
38		91.796875
39		82.031250
40		87.890625
41		76.171875
42		82.031250
43		72.265625
44		78.125000
45		66.406250
46		72.265625
47		60.546875
48		68.359375
49		54.687500
50		62.500000
51		50.781250
52		56.640625
53		44.921875
54		50.781250
55		39.062500
56		46.875000
57		33.203125
58		41.015625
59		27.343750
60		35.156250
61		21.484375
62		27.343750
63		15.625000
64		23.437500
65		7.812500
66		15.625000
67		1.953125
68		9.765625
69		-3.906250
70		3.906250
71		-9.765625
72		-1.953125
73		-15.625000
74		-7.812500
75		-21.484375
76		-13.671875
77		-29.296875
78		-21.484375
79		-35.156250
80		-27.343750
81		-41.015625
82		-33.203125
83		-46.875000
84		-39.062500
85		-52.734375
86		-44.921875
87		-58.593750
88		-50.781250
89		-64.453125
90		-56.640625
91		-70.312500
92		-62.500000
93		-74.218750
94		-68.359375
95		-80.078125
96		-74.218750
97		-85.937500
98		-80.078125
99		-91.796875
100		-83.984375
101		-95.703125
102		-87.890625
103		-99.609375
104		-93.750000
105		-103.515625
106		-97.656250
107		-107.421875
108		-101.562500
109		-111.328125
110		-107.421875
111		-115.234375
112		-109.375000
113		-119.140625
114		-113.281250
115		-121.093750
116		-117.187500
117		-125.000000
118		-121.093750
119		-126.953125
120		-123.046875
121		-128.906250
122		-125.000000
123		-132.812500
124		-126.953125
125		-132.812500
126		-128.906250
127		-134.765625
128		-130.859375
129		-136.718750
130		-132.812500
131		-136.718750
132		-132.812500
133		-138.671875
134		-132.812500
135		-136.718750
136		-134.765625
137		-136.718750
138		-134.765625
139		-138.671875
140		-134.765625
141		-136.718750
142		-132.812500
143		-136.718750
144		-132.812500
145		-134.765625
146		-130.859375
147		-132.812500
148		-128.906250
149		-130.859375
150		-126.953125
151		-128.906250
152		-125.000000
153		-126.953125
154		-123.046875
155		-125.000000
156		-119.140625
157		-121.093750
158		-117.187500
159		-119.140625
160		-113.281250
161		-115.234375
162		-109.375000
163		-111.328125
164		-105.468750
165		-107.421875
166		-101.562500
167		-103.515625
168		-97.656250
169		-97.656250
170		-91.796875
171		-93.750000
172		-87.890625
173		-89.843750
174		-82.031250
175		-83.984375
176		-78.125000
177		-78.125000
178		-72.265625
179		-74.218750
180		-66.406250
181		-68.359375
182		-60.546875
183		-62.500000
184		-54.687500
185		-58.593750
186		-48.828125
187		-50.781250
188		-42.968750
189		-44.921875
190		-37.109375
191		-39.062500
192		-31.250000
193		-33.203125
194		-25.390625
195		-27.343750
196		-19.531250
197		-19.531250
198		-13.671875
199		-13.671875
200		-5.859375
201		-7.812500
202		0.000000
203		-1.953125
204		5.859375
205		3.906250
206		11.718750
207		9.765625
208		19.531250
209		17.578125
210		23.437500
211		23.437500
212		29.296875
213		29.296875
214		35.156250
215		33.203125
216		41.015625
217		39.062500
218		48.828125
219		46.875000
220		52.734375
221		50.781250
222		58.593750
223		56.640625
224		64.453125
225		60.546875
226		70.312500
227		64.453125
228		76.171875
229		70.312500
230		80.078125
231		76.171875
232		82.031250
233		82.031250
234		89.843750
235		83.984375
236		91.796875
237		89.843750
238		95.703125
239		95.703125
240		101.562500
241		95.703125
242		105.468750
243		99.609375
244		109.375000
245		103.515625
246		111.328125
247		109.375000
248		115.234375
249		111.328125
250		119.140625
251		113.281250
252		119.140625
253		117.187500
254		121.093750
255		119.140625
256		125.000000
257		121.093750
258		128.906250
259		121.093750
260		130.859375
261		125.000000
262		130.859375
263		125.000000
264		132.812500
265		126.953125
266		134.765625
267		128.906250
268		134.765625
269		130.859375
270		136.718750
271		132.812500
272		134.765625
273		130.859375
274		138.671875
275		130.859375
276		138.671875
277		132.812500
278		138.671875
279		130.859375
280		138.671875
281		130.859375
282		138.671875
283		130.859375
284		138.671875
285		130.859375
286		136.718750
287		130.859375
288		132.812500
289		128.906250
290		132.812500
291		126.953125
292		132.812500
293		125.000000
294		130.859375
295		123.046875
296		130.859375
297		121.093750
298		128.906250
299		119.140625
300		126.953125
301		115.234375
302		123.046875
303		115.234375
304		119.140625
305		113.281250
306		117.187500
307		107.421875
308		115.234375
309		105.468750
310		113.281250
311		101.562500
312		109.375000
313		97.656250
314		105.468750
315		91.796875
316		101.562500
317		89.843750
318		97.656250
319		85.937500
320		93.750000
321		82.031250
322		87.890625
323		74.218750
324		82.031250
325		70.312500
326		80.078125
327		64.453125
328		76.171875
329		60.546875
330		70.312500
331		54.687500
332		64.453125
333		48.828125
334		58.593750
335		44.921875
336		52.734375
337		39.062500
338		46.875000
339		33.203125
340		41.015625
341		25.390625
342		35.156250
343		21.484375
344		29.296875
345		13.671875
346		25.390625
347		7.812500
348		17.578125
349		1.953125
350		13.671875
351		-3.906250
352		5.859375
353		-9.765625
354		0.000000
355		-15.625000
356		-7.812500
357		-23.437500
358		-13.671875
359		-29.296875
360		-19.531250
361		-35.156250
362		-23.437500
363		-41.015625
364		-31.250000
365		-46.875000
366		-37.109375
367		-52.734375
368		-42.968750
369		-58.593750
370		-48.828125
371		-62.500000
372		-56.640625
373		-70.312500
374		-62.500000
375		-76.171875
376		-66.406250
377		-82.031250
378		-70.312500
379		-85.937500
380		-76.171875
381		-91.796875
382		-82.031250
383		-95.703125
384		-85.937500
385		-101.562500
386		-91.796875
387		-103.515625
388		-97.656250
389		-107.421875
390		-101.562500
391		-113.281250
392		-105.468750
393		-117.187500
394		-107.421875
395		-121.093750
396		-111.328125
397		-123.046875
398		-115.234375
399		-126.953125
400		-117.187500
401		-128.906250
402		-121.093750
403		-130.859375
404		-123.046875
405		-130.859375
406		-126.953125
407		-134.765625
408		-128.906250
409		-136.718750
410		-128.906250
411		-138.671875
412		-130.859375
413		-138.671875
414		-130.859375
415		-138.671875
416		-132.812500
417		-140.625000
418		-132.812500
419		-140.625000
420		-132.812500
421		-136.718750
422		-134.765625
423		-136.718750
424		-134.765625
425		-138.671875
426		-130.859375
427		-136.718750
428		-128.906250
429		-136.718750
430		-126.953125
431		-132.812500
432		-125.000000
433		-132.812500
434		-123.046875
435		-128.906250
436		-121.093750
437		-126.953125
438		-121.093750
439		-121.093750
440		-117.187500
441		-119.140625
442		-111.328125
443		-117.187500
444		-107.421875
445		-113.281250
446		-103.515625
447		-109.375000
448		-101.562500
449		-105.468750
450		-95.703125
451		-101.562500
452		-91.796875
453		-95.703125
454		-87.890625
455		-89.843750
456		-83.984375
457		-83.984375
458		-76.171875
459		-80.078125
460		-70.312500
461		-76.171875
462		-64.453125
463		-70.312500
464		-60.546875
465		-64.453125
466		-52.734375
467		-58.593750
468		-46.875000
469		-52.734375
470		-42.968750
471		-44.921875
472		-37.109375
473		-39.062500
474		-31.250000
475		-33.203125
476		-23.437500
477		-29.296875
478		-17.578125
479		-23.437500
480		-11.718750
481		-15.625000
482		-5.859375
483		-9.765625
484		1.953125
485		-3.906250
486		7.812500
487		1.953125
488		11.718750
489		9.765625
490		17.578125
491		15.625000
492		25.390625
493		21.484375
494		31.250000
495		25.390625
496		37.109375
497		31.250000
498		42.968750
499		37.109375
500		48.828125
501		42.968750
502		54.687500
503		48.828125
504		58.593750
505		56.640625
506		62.500000
507		62.500000
508		68.359375
509		66.406250
510		74.218750
511		70.312500
512		80.078125
513		74.218750
514		83.984375
515		80.078125
516		89.843750
517		83.984375
518		93.750000
519		87.890625
520		97.656250
521		91.796875
522		99.609375
523		97.656250
524		103.515625
525		101.562500
526		109.375000
527		103.515625
528		111.328125
529		105.468750
530		115.234375
531		109.375000
532		117.187500
533		113.281250
534		121.093750
535		115.234375
536		123.046875
537		117.187500
538		125.000000
539		123.046875
540		126.953125
541		125.000000
542		128.906250
543		125.000000
544		130.859375
545		125.000000
546		132.812500
547		126.953125
548		134.765625
549		128.906250
550		136.718750
551		130.859375
552		136.718750
553		130.859375
554		138.671875
555		132.812500
556		136.718750
557		132.812500
558		136.718750
559		130.859375
560		138.671875
561		130.859375
562		138.671875
563		130.859375
564		138.671875
565		130.859375
566		136.718750
567		128.906250
568		136.718750
569		128.906250
570		136.718750
571		128.906250
572		134.765625
573		128.906250
574		132.812500
575		125.000000
576		130.859375
577		123.046875
578		130.859375
579		121.093750
580		128.906250
581		119.140625
582		126.953125
583		117.187500
584		125.000000
585		113.281250
586		121.093750
587		111.328125
588		119.140625
589		109.375000
590		115.234375
591		107.421875
592		111.328125
593		101.562500
594		109.375000
595		97.656250
596		107.421875
597		93.750000
598		103.515625
599		89.843750
600		97.656250
601		83.984375
602		93.750000
603		80.078125
604		89.843750
605		78.125000
606		85.937500
607		72.265625
608		78.125000
609		64.453125
610		74.218750
611		58.593750
612		70.312500
613		54.687500
614		64.453125
615		48.828125
616		60.546875
617		44.921875
618		54.687500
619		39.062500
620		48.828125
621		35.156250
622		42.968750
623		29.296875
624		35.156250
625		23.437500
626		29.296875
627		15.625000
628		25.390625
629		7.812500
630		19.531250
631		1.953125
632		11.718750
633		-3.906250
634		7.812500
635		-9.765625
636		0.000000
637		-17.578125
638		-5.859375
639		-21.484375
640		-13.671875
641		-27.343750
642		-19.531250
643		-35.156250
644		-25.390625
645		-41.015625
646		-29.296875
647		-46.875000
648		-35.156250
649		-52.734375
650		-42.968750
651		-58.593750
652		-48.828125
653		-64.453125
654		-52.734375
655		-68.359375
656		-58.593750
657		-74.218750
658		-66.406250
659		-82.031250
660		-72.265625
661		-85.937500
662		-76.171875
663		-91.796875
664		-80.078125
665		-95.703125
666		-85.937500
667		-101.562500
668		-89.843750
669		-105.468750
670		-95.703125
671		-107.421875
672		-99.609375
673		-111.328125
674		-105.468750
675		-115.234375
676		-109.375000
677		-121.093750
678		-111.328125
679		-123.046875
680		-115.234375
681		-126.953125
682		-117.187500
683		-128.906250
684		-121.093750
685		-130.859375
686		-123.046875
687		-132.812500
688		-125.000000
689		-132.812500
690		-126.953125
691		-134.765625
692		-130.859375
693		-136.718750
694		-130.859375
695		-138.671875
696		-130.859375
697		-138.671875
698		-130.859375
699		-138.671875
700		-132.812500
701		-138.671875
702		-132.812500
703		-138.671875
704		-130.859375
705		-138.671875
706		-130.859375
707		-134.765625
708		-132.812500
709		-134.765625
710		-130.859375
711		-134.765625
712		-126.953125
713		-134.765625
714		-126.953125
715		-130.859375
716		-123.046875
717		-128.906250
718		-121.093750
719		-125.000000
720		-117.187500
721		-125.000000
722		-115.234375
723		-119.140625
724		-113.281250
725		-115.234375
726		-109.375000
727		-111.328125
728		-103.515625
729		-109.375000
730		-99.609375
731		-105.468750
732		-95.703125
733		-101.562500
734		-89.843750
735		-95.703125
736		-85.937500
737		-91.796875
738		-82.031250
739		-85.937500
740		-78.125000
741		-80.078125
742		-72.265625
743		-74.218750
744		-68.359375
745		-70.312500
746		-60.546875
747		-64.453125
748		-54.687500
749		-58.593750
750		-48.828125
751		-52.734375
752		-42.968750
753		-46.875000
754		-37.109375
755		-41.015625
756		-31.250000
757		-33.203125
758		-25.390625
759		-27.343750
760		-19.531250
761		-21.484375
762		-11.718750
763		-17.578125
764		-5.859375
765		-9.765625
766		1.953125
767		-3.906250
768		5.859375
769		1.953125
770		13.671875
771		7.812500
772		19.531250
773		15.625000
774		23.437500
775		21.484375
776		29.296875
777		27.343750
778		37.109375
779		31.250000
780		42.968750
781		37.109375
782		48.828125
783		42.968750
784		54.687500
785		48.828125
786		60.546875
787		54.687500
788		64.453125
789		60.546875
790		68.359375
791		66.406250
792		72.265625
793		70.312500
794		78.125000
795		74.218750
796		83.984375
797		80.078125
798		87.890625
799		83.984375
800		91.796875
801		87.890625
802		97.656250
803		91.796875
804		101.562500
805		95.703125
806		105.468750
807		99.609375
808		105.468750
809		105.468750
810		109.375000
811		107.421875
812		115.234375
813		109.375000
814		117.187500
815		111.328125
816		121.093750
817		115.234375
818		123.046875
819		119.140625
820		125.000000
821		119.140625
822		126.953125
823		123.046875
824		128.906250
825		126.953125
826		128.906250
827		128.906250
828		132.812500
829		126.953125
830		134.765625
831		128.906250
832		134.765625
833		128.906250
834		136.718750
835		130.859375
836		138.671875
837		130.859375
838		138.671875
839		130.859375
840		138.671875
841		134.765625
842		136.718750
843		134.765625
844		136.718750
845		132.812500
846		136.718750
847		132.812500
848		136.718750
849		130.859375
850		136.718750
851		130.859375
852		134.765625
853		128.906250
854		134.765625
855		126.953125
856		132.812500
857		126.953125
858		132.812500
859		125.000000
860		128.906250
861		121.093750
862		128.906250
863		119.140625
864		126.953125
865		117.187500
866		125.000000
867		113.281250
868		123.046875
869		111.328125
870		119.140625
871		107.421875
872		117.187500
873		105.468750
874		113.281250
875		103.515625
876		109.375000
877		99.609375
878		105.468750
879		93.750000
880		103.515625
881		89.843750
882		99.609375
883		85.937500
884		95.703125
885		80.078125
886		89.843750
887		76.171875
888		85.937500
889		70.312500
890		82.031250
891		68.359375
892		78.125000
893		64.453125
894		70.312500
895		56.640625
896		66.406250
897		50.781250
898		60.546875
899		44.921875
900		56.640625
901		39.062500
902		50.781250
903		33.203125
904		44.921875
905		27.343750
906		39.062500
907		23.437500
908		33.203125
909		17.578125
910		25.390625
911		9.765625
912		19.531250
913		3.906250
914		13.671875
915		-1.953125
916		7.812500
917		-9.765625
918		1.953125
919		-15.625000
920		-3.906250
921		-21.484375
922		-9.765625
923		-27.343750
924		-15.625000
925		-31.250000
926		-23.437500
927		-37.109375
928		-31.250000
929		-44.921875
930		-37.109375
931		-50.781250
932		-41.015625
933		-56.640625
934		-46.875000
935		-64.453125
936		-52.734375
937		-68.359375
938		-58.593750
939		-74.218750
940		-64.453125
941		-78.125000
942		-70.312500
943		-83.984375
944		-76.171875
945		-89.843750
946		-82.031250
947		-93.750000
948		-83.984375
949		-99.609375
950		-89.843750
951		-103.515625
952		-93.750000
953		-107.421875
954		-97.656250
955		-113.281250
956		-103.515625
957		-115.234375
958		-105.468750
959		-117.187500
960		-111.328125
961		-119.140625
962		-115.234375
963		-125.000000
964		-117.187500
965		-126.953125
966		-119.140625
967		-130.859375
968		-123.046875
969		-132.812500
970		-125.000000
971		-134.765625
972		-126.953125
973		-134.765625
974		-128.906250
975		-136.718750
976		-128.906250
977		-136.718750
978		-132.812500
979		-138.671875
980		-132.812500
981		-138.671875
982		-132.812500
983		-138.671875
984		-132.812500
985		-138.671875
986		-132.812500
987		-138.671875
988		-130.859375
989		-136.718750
990		-130.859375
991		-136.718750
992		-128.906250
993		-132.812500
994		-128.906250
995		-130.859375
996		-126.953125
997		-130.859375
998		-123.046875
999		-128.906250
1000		-121.093750
1001		-126.953125
1002		-119.140625
1003		-123.046875
1004		-115.234375
1005		-121.093750
1006		-111.328125
1007		-117.187500
1008		-109.375000
1009		-111.328125
1010		-105.468750
1011		-107.421875
1012		-101.562500
1013		-103.515625
1014		-95.703125
1015		-101.562500
1016		-91.796875
1017		-97.656250
1018		-85.937500
1019		-91.796875
1020		-82.031250
1021		-85.937500
1022		-76.171875
1023		-82.031250
1024		-72.265625
1025		-76.171875
1026		-68.359375
1027		-68.359375
1028		-62.500000
1029		-62.500000
1030		-54.687500
1031		-58.593750
1032		-48.828125
1033		-52.734375
1034		-42.968750
1035		-46.875000
1036		-37.109375
1037		-41.015625
1038		-31.250000
1039		-35.156250
1040		-23.437500
1041		-29.296875
1042		-19.531250
1043		-21.484375
1044		-13.671875
1045		-15.625000
1046		-7.812500
1047		-9.765625
1048		0.000000
1049		-5.859375
1050		5.859375
1051		1.953125
1052		11.718750
1053		5.859375
1054		17.578125
1055		13.671875
1056		25.390625
1057		19.531250
1058		31.250000
1059		25.390625
1060		35.156250
1061		33.203125
1062		41.015625
1063		39.062500
1064		48.828125
1065		42.968750
1066		52.734375
1067		48.828125
1068		60.546875
1069		54.687500
1070		64.453125
1071		58.593750
1072		70.312500
1073		64.453125
1074		74.218750
1075		70.312500
1076		78.125000
1077		76.171875
1078		82.031250
1079		80.078125
1080		87.890625
1081		83.984375
1082		91.796875
1083		87.890625
1084		97.656250
1085		91.796875
1086		101.562500
1087		95.703125
1088		103.515625
1089		99.609375
1090		107.421875
1091		101.562500
1092		111.328125
1093		107.421875
1094		113.281250
1095		111.328125
1096		117.187500
1097		113.281250
1098		121.093750
1099		115.234375
1100		123.046875
1101		117.187500
1102		126.953125
1103		119.140625
1104		126.953125
1105		123.046875
1106		130.859375
1107		125.000000
1108		130.859375
1109		126.953125
1110		132.812500
1111		128.906250
1112		132.812500
1113		130.859375
1114		136.718750
1115		128.906250
1116		136.718750
1117		130.859375
1118		138.671875
1119		130.859375
1120		138.671875
1121		130.859375
1122		138.671875
1123		132.812500
1124		138.671875
1125		130.859375
1126		138.671875
1127		134.765625
1128		136.718750
1129		132.812500
1130		136.718750
1131		130.859375
1132		138.671875
1133		130.859375
1134		136.718750
1135		128.906250
1136		134.765625
1137		126.953125
1138		134.765625
1139		126.953125
1140		132.812500
1141		123.046875
1142		130.859375
1143		125.000000
1144		128.906250
1145		123.046875
1146		125.000000
1147		117.187500
1148		123.046875
1149		115.234375
1150		123.046875
1151		113.281250
1152		121.093750
1153		109.375000
1154		117.187500
1155		105.468750
1156		115.234375
1157		103.515625
1158		111.328125
1159		99.609375
1160		107.421875
1161		97.656250
1162		101.562500
1163		91.796875
1164		97.656250
1165		85.937500
1166		95.703125
1167		82.031250
1168		91.796875
1169		78.125000
1170		87.890625
1171		72.265625
1172		82.031250
1173		68.359375
1174		78.125000
1175		62.500000
1176		72.265625
1177		58.593750
1178		66.406250
1179		54.687500
1180		60.546875
1181		44.921875
1182		54.687500
1183		41.015625
1184		50.781250
1185		35.156250
1186		46.875000
1187		29.296875
1188		39.062500
1189		23.437500
1190		33.203125
1191		15.625000
1192		27.343750
1193		11.718750
1194		21.484375
1195		5.859375
1196		13.671875
1197		0.000000
1198		7.812500
1199		-7.812500
1200		3.906250
1201		-13.671875
1202		-3.906250
1203		-21.484375
1204		-9.765625
1205		-27.343750
1206		-15.625000
1207		-33.203125
1208		-21.484375
1209		-37.109375
1210		-27.343750
1211		-42.968750
1212		-35.156250
1213		-48.828125
1214		-41.015625
1215		-56.640625
1216		-46.875000
1217		-62.500000
1218		-52.734375
1219		-68.359375
1220		-56.640625
1221		-74.218750
1222		-62.500000
1223		-78.125000
1224		-68.359375
1225		-83.984375
1226		-74.218750
1227		-87.890625
1228		-80.078125
1229		-91.796875
1230		-85.937500
1231		-99.609375
1232		-89.843750
1233		-103.515625
1234		-93.750000
1235		-107.421875
1236		-97.656250
