metingen laweit/20cm, resfreq2/data_81_220.txt

Channel              :		CH1
Frequency            :		1.774kHz
Period               :		0.564ms
PK-PK                :		294.9mV
Probe attenuation    :		1X
Voltage per ADC value:		0.122070mV
Time interval        :		2.00000us

index		CH1_Voltage(mV)
1		142.578125
2		142.578125
3		138.671875
4		142.578125
5		138.671875
6		142.578125
7		138.671875
8		140.625000
9		136.718750
10		138.671875
11		134.765625
12		138.671875
13		132.812500
14		136.718750
15		130.859375
16		134.765625
17		126.953125
18		132.812500
19		126.953125
20		130.859375
21		123.046875
22		128.906250
23		121.093750
24		125.000000
25		115.234375
26		121.093750
27		113.281250
28		119.140625
29		109.375000
30		115.234375
31		105.468750
32		113.281250
33		101.562500
34		107.421875
35		97.656250
36		103.515625
37		93.750000
38		99.609375
39		87.890625
40		95.703125
41		83.984375
42		89.843750
43		78.125000
44		85.937500
45		74.218750
46		80.078125
47		68.359375
48		76.171875
49		62.500000
50		70.312500
51		56.640625
52		64.453125
53		50.781250
54		58.593750
55		44.921875
56		52.734375
57		39.062500
58		46.875000
59		33.203125
60		41.015625
61		27.343750
62		35.156250
63		21.484375
64		29.296875
65		13.671875
66		21.484375
67		7.812500
68		15.625000
69		0.000000
70		7.812500
71		-5.859375
72		1.953125
73		-11.718750
74		-3.906250
75		-17.578125
76		-9.765625
77		-25.390625
78		-15.625000
79		-31.250000
80		-23.437500
81		-37.109375
82		-29.296875
83		-44.921875
84		-37.109375
85		-50.781250
86		-42.968750
87		-56.640625
88		-48.828125
89		-62.500000
90		-54.687500
91		-68.359375
92		-60.546875
93		-74.218750
94		-68.359375
95		-80.078125
96		-72.265625
97		-85.937500
98		-78.125000
99		-89.843750
100		-83.984375
101		-95.703125
102		-89.843750
103		-99.609375
104		-93.750000
105		-105.468750
106		-99.609375
107		-109.375000
108		-103.515625
109		-113.281250
110		-107.421875
111		-117.187500
112		-111.328125
113		-121.093750
114		-115.234375
115		-125.000000
116		-119.140625
117		-126.953125
118		-123.046875
119		-130.859375
120		-125.000000
121		-134.765625
122		-128.906250
123		-134.765625
124		-130.859375
125		-136.718750
126		-132.812500
127		-138.671875
128		-134.765625
129		-140.625000
130		-136.718750
131		-140.625000
132		-138.671875
133		-140.625000
134		-138.671875
135		-142.578125
136		-140.625000
137		-142.578125
138		-140.625000
139		-142.578125
140		-138.671875
141		-142.578125
142		-138.671875
143		-140.625000
144		-136.718750
145		-140.625000
146		-134.765625
147		-138.671875
148		-134.765625
149		-136.718750
150		-132.812500
151		-134.765625
152		-130.859375
153		-132.812500
154		-128.906250
155		-130.859375
156		-125.000000
157		-126.953125
158		-123.046875
159		-123.046875
160		-119.140625
161		-121.093750
162		-113.281250
163		-117.187500
164		-111.328125
165		-113.281250
166		-107.421875
167		-107.421875
168		-101.562500
169		-103.515625
170		-97.656250
171		-99.609375
172		-91.796875
173		-93.750000
174		-87.890625
175		-87.890625
176		-82.031250
177		-83.984375
178		-74.218750
179		-80.078125
180		-68.359375
181		-72.265625
182		-64.453125
183		-68.359375
184		-58.593750
185		-60.546875
186		-52.734375
187		-54.687500
188		-46.875000
189		-48.828125
190		-39.062500
191		-41.015625
192		-33.203125
193		-35.156250
194		-27.343750
195		-31.250000
196		-19.531250
197		-23.437500
198		-13.671875
199		-17.578125
200		-7.812500
201		-7.812500
202		-1.953125
203		-1.953125
204		5.859375
205		1.953125
206		11.718750
207		9.765625
208		17.578125
209		15.625000
210		23.437500
211		23.437500
212		31.250000
213		29.296875
214		37.109375
215		33.203125
216		44.921875
217		41.015625
218		50.781250
219		44.921875
220		56.640625
221		50.781250
222		62.500000
223		58.593750
224		66.406250
225		64.453125
226		70.312500
227		70.312500
228		78.125000
229		74.218750
230		82.031250
231		80.078125
232		87.890625
233		82.031250
234		93.750000
235		89.843750
236		95.703125
237		91.796875
238		101.562500
239		97.656250
240		103.515625
241		103.515625
242		107.421875
243		107.421875
244		111.328125
245		109.375000
246		117.187500
247		113.281250
248		121.093750
249		115.234375
250		125.000000
251		119.140625
252		126.953125
253		121.093750
254		128.906250
255		125.000000
256		130.859375
257		126.953125
258		132.812500
259		130.859375
260		134.765625
261		130.859375
262		138.671875
263		132.812500
264		140.625000
265		132.812500
266		140.625000
267		134.765625
268		142.578125
269		136.718750
270		142.578125
271		138.671875
272		144.531250
273		138.671875
274		144.531250
275		140.625000
276		144.531250
277		140.625000
278		144.531250
279		138.671875
280		146.484375
281		138.671875
282		146.484375
283		138.671875
284		144.531250
285		136.718750
286		144.531250
287		136.718750
288		142.578125
289		136.718750
290		142.578125
291		136.718750
292		138.671875
293		134.765625
294		138.671875
295		130.859375
296		138.671875
297		128.906250
298		136.718750
299		126.953125
300		134.765625
301		125.000000
302		132.812500
303		121.093750
304		128.906250
305		119.140625
306		126.953125
307		117.187500
308		123.046875
309		113.281250
310		119.140625
311		107.421875
312		115.234375
313		105.468750
314		113.281250
315		101.562500
316		109.375000
317		95.703125
318		105.468750
319		91.796875
320		101.562500
321		85.937500
322		97.656250
323		83.984375
324		93.750000
325		80.078125
326		85.937500
327		74.218750
328		80.078125
329		66.406250
330		76.171875
331		60.546875
332		72.265625
333		54.687500
334		66.406250
335		48.828125
336		60.546875
337		42.968750
338		54.687500
339		37.109375
340		48.828125
341		33.203125
342		42.968750
343		27.343750
344		35.156250
345		19.531250
346		29.296875
347		13.671875
348		23.437500
349		5.859375
350		17.578125
351		0.000000
352		9.765625
353		-7.812500
354		3.906250
355		-13.671875
356		-1.953125
357		-17.578125
358		-7.812500
359		-25.390625
360		-17.578125
361		-31.250000
362		-23.437500
363		-39.062500
364		-27.343750
365		-46.875000
366		-33.203125
367		-52.734375
368		-41.015625
369		-58.593750
370		-46.875000
371		-64.453125
372		-52.734375
373		-70.312500
374		-58.593750
375		-74.218750
376		-66.406250
377		-80.078125
378		-72.265625
379		-85.937500
380		-78.125000
381		-91.796875
382		-82.031250
383		-97.656250
384		-87.890625
385		-101.562500
386		-93.750000
387		-107.421875
388		-97.656250
389		-111.328125
390		-101.562500
391		-113.281250
392		-105.468750
393		-117.187500
394		-111.328125
395		-123.046875
396		-115.234375
397		-125.000000
398		-117.187500
399		-130.859375
400		-121.093750
401		-132.812500
402		-123.046875
403		-134.765625
404		-126.953125
405		-136.718750
406		-128.906250
407		-138.671875
408		-130.859375
409		-138.671875
410		-134.765625
411		-140.625000
412		-136.718750
413		-142.578125
414		-136.718750
415		-144.531250
416		-136.718750
417		-144.531250
418		-136.718750
419		-144.531250
420		-136.718750
421		-144.531250
422		-136.718750
423		-144.531250
424		-136.718750
425		-142.578125
426		-136.718750
427		-138.671875
428		-136.718750
429		-138.671875
430		-132.812500
431		-138.671875
432		-130.859375
433		-136.718750
434		-128.906250
435		-134.765625
436		-126.953125
437		-130.859375
438		-123.046875
439		-128.906250
440		-119.140625
441		-125.000000
442		-119.140625
443		-119.140625
444		-115.234375
445		-117.187500
446		-109.375000
447		-113.281250
448		-105.468750
449		-109.375000
450		-99.609375
451		-105.468750
452		-95.703125
453		-101.562500
454		-91.796875
455		-95.703125
456		-85.937500
457		-91.796875
458		-80.078125
459		-83.984375
460		-76.171875
461		-78.125000
462		-70.312500
463		-72.265625
464		-62.500000
465		-68.359375
466		-58.593750
467		-60.546875
468		-50.781250
469		-54.687500
470		-44.921875
471		-48.828125
472		-37.109375
473		-42.968750
474		-33.203125
475		-37.109375
476		-27.343750
477		-29.296875
478		-21.484375
479		-21.484375
480		-11.718750
481		-17.578125
482		-5.859375
483		-11.718750
484		0.000000
485		-3.906250
486		5.859375
487		1.953125
488		13.671875
489		9.765625
490		19.531250
491		15.625000
492		25.390625
493		23.437500
494		29.296875
495		29.296875
496		37.109375
497		35.156250
498		42.968750
499		39.062500
500		50.781250
501		44.921875
502		56.640625
503		50.781250
504		60.546875
505		56.640625
506		68.359375
507		62.500000
508		72.265625
509		68.359375
510		76.171875
511		74.218750
512		82.031250
513		80.078125
514		87.890625
515		82.031250
516		93.750000
517		87.890625
518		97.656250
519		91.796875
520		101.562500
521		97.656250
522		105.468750
523		101.562500
524		111.328125
525		105.468750
526		111.328125
527		111.328125
528		115.234375
529		115.234375
530		119.140625
531		115.234375
532		123.046875
533		117.187500
534		126.953125
535		121.093750
536		128.906250
537		125.000000
538		132.812500
539		126.953125
540		134.765625
541		128.906250
542		136.718750
543		132.812500
544		136.718750
545		134.765625
546		138.671875
547		134.765625
548		142.578125
549		136.718750
550		142.578125
551		136.718750
552		144.531250
553		138.671875
554		144.531250
555		138.671875
556		146.484375
557		140.625000
558		146.484375
559		138.671875
560		146.484375
561		142.578125
562		144.531250
563		140.625000
564		146.484375
565		138.671875
566		146.484375
567		138.671875
568		146.484375
569		136.718750
570		144.531250
571		136.718750
572		144.531250
573		134.765625
574		142.578125
575		134.765625
576		140.625000
577		134.765625
578		136.718750
579		132.812500
580		136.718750
581		128.906250
582		134.765625
583		125.000000
584		132.812500
585		123.046875
586		130.859375
587		119.140625
588		128.906250
589		117.187500
590		125.000000
591		113.281250
592		123.046875
593		111.328125
594		119.140625
595		107.421875
596		113.281250
597		101.562500
598		109.375000
599		97.656250
600		107.421875
601		93.750000
602		103.515625
603		89.843750
604		99.609375
605		83.984375
606		93.750000
607		78.125000
608		89.843750
609		76.171875
610		83.984375
611		70.312500
612		78.125000
613		64.453125
614		72.265625
615		56.640625
616		68.359375
617		50.781250
618		62.500000
619		46.875000
620		56.640625
621		39.062500
622		50.781250
623		35.156250
624		44.921875
625		27.343750
626		39.062500
627		23.437500
628		31.250000
629		17.578125
630		23.437500
631		9.765625
632		17.578125
633		1.953125
634		13.671875
635		-3.906250
636		5.859375
637		-11.718750
638		0.000000
639		-17.578125
640		-5.859375
641		-25.390625
642		-11.718750
643		-29.296875
644		-19.531250
645		-35.156250
646		-27.343750
647		-42.968750
648		-33.203125
649		-50.781250
650		-37.109375
651		-54.687500
652		-44.921875
653		-62.500000
654		-50.781250
655		-66.406250
656		-56.640625
657		-74.218750
658		-62.500000
659		-78.125000
660		-68.359375
661		-82.031250
662		-76.171875
663		-87.890625
664		-82.031250
665		-95.703125
666		-85.937500
667		-99.609375
668		-89.843750
669		-105.468750
670		-95.703125
671		-109.375000
672		-99.609375
673		-113.281250
674		-103.515625
675		-119.140625
676		-107.421875
677		-119.140625
678		-113.281250
679		-123.046875
680		-117.187500
681		-126.953125
682		-121.093750
683		-130.859375
684		-123.046875
685		-132.812500
686		-125.000000
687		-136.718750
688		-126.953125
689		-138.671875
690		-130.859375
691		-140.625000
692		-132.812500
693		-140.625000
694		-134.765625
695		-140.625000
696		-136.718750
697		-140.625000
698		-138.671875
699		-142.578125
700		-136.718750
701		-144.531250
702		-136.718750
703		-144.531250
704		-136.718750
705		-142.578125
706		-136.718750
707		-142.578125
708		-134.765625
709		-142.578125
710		-134.765625
711		-138.671875
712		-134.765625
713		-136.718750
714		-132.812500
715		-134.765625
716		-128.906250
717		-134.765625
718		-126.953125
719		-130.859375
720		-123.046875
721		-128.906250
722		-119.140625
723		-125.000000
724		-117.187500
725		-123.046875
726		-113.281250
727		-119.140625
728		-111.328125
729		-113.281250
730		-107.421875
731		-109.375000
732		-101.562500
733		-107.421875
734		-95.703125
735		-101.562500
736		-91.796875
737		-97.656250
738		-85.937500
739		-91.796875
740		-82.031250
741		-85.937500
742		-76.171875
743		-80.078125
744		-70.312500
745		-72.265625
746		-66.406250
747		-66.406250
748		-60.546875
749		-60.546875
750		-52.734375
751		-56.640625
752		-44.921875
753		-50.781250
754		-39.062500
755		-44.921875
756		-33.203125
757		-39.062500
758		-27.343750
759		-31.250000
760		-19.531250
761		-25.390625
762		-15.625000
763		-17.578125
764		-9.765625
765		-9.765625
766		-1.953125
767		-5.859375
768		5.859375
769		0.000000
770		11.718750
771		5.859375
772		19.531250
773		13.671875
774		23.437500
775		19.531250
776		31.250000
777		25.390625
778		35.156250
779		33.203125
780		41.015625
781		41.015625
782		46.875000
783		44.921875
784		54.687500
785		50.781250
786		60.546875
787		54.687500
788		66.406250
789		60.546875
790		72.265625
791		66.406250
792		78.125000
793		72.265625
794		82.031250
795		76.171875
796		85.937500
797		83.984375
798		89.843750
799		87.890625
800		95.703125
801		89.843750
802		101.562500
803		95.703125
804		105.468750
805		99.609375
806		109.375000
807		103.515625
808		113.281250
809		107.421875
810		117.187500
811		111.328125
812		117.187500
813		117.187500
814		121.093750
815		119.140625
816		125.000000
817		121.093750
818		128.906250
819		123.046875
820		130.859375
821		125.000000
822		134.765625
823		128.906250
824		136.718750
825		130.859375
826		138.671875
827		132.812500
828		138.671875
829		136.718750
830		138.671875
831		136.718750
832		140.625000
833		136.718750
834		142.578125
835		136.718750
836		144.531250
837		138.671875
838		144.531250
839		138.671875
840		146.484375
841		138.671875
842		146.484375
843		138.671875
844		146.484375
845		140.625000
846		146.484375
847		140.625000
848		144.531250
849		138.671875
850		144.531250
851		138.671875
852		144.531250
853		136.718750
854		144.531250
855		134.765625
856		142.578125
857		132.812500
858		140.625000
859		130.859375
860		138.671875
861		130.859375
862		136.718750
863		128.906250
864		132.812500
865		126.953125
866		130.859375
867		121.093750
868		130.859375
869		119.140625
870		126.953125
871		117.187500
872		125.000000
873		113.281250
874		121.093750
875		109.375000
876		119.140625
877		105.468750
878		115.234375
879		103.515625
880		111.328125
881		99.609375
882		105.468750
883		93.750000
884		101.562500
885		87.890625
886		99.609375
887		83.984375
888		93.750000
889		78.125000
890		89.843750
891		74.218750
892		83.984375
893		68.359375
894		78.125000
895		64.453125
896		74.218750
897		60.546875
898		66.406250
899		52.734375
900		60.546875
901		44.921875
902		56.640625
903		41.015625
904		50.781250
905		33.203125
906		44.921875
907		27.343750
908		39.062500
909		21.484375
910		33.203125
911		15.625000
912		25.390625
913		9.765625
914		17.578125
915		3.906250
916		11.718750
917		-3.906250
918		5.859375
919		-9.765625
920		0.000000
921		-17.578125
922		-5.859375
923		-23.437500
924		-13.671875
925		-31.250000
926		-19.531250
927		-37.109375
928		-25.390625
929		-41.015625
930		-31.250000
931		-46.875000
932		-39.062500
933		-56.640625
934		-46.875000
935		-62.500000
936		-50.781250
937		-66.406250
938		-56.640625
939		-74.218750
940		-62.500000
941		-80.078125
942		-68.359375
943		-83.984375
944		-74.218750
945		-87.890625
946		-80.078125
947		-93.750000
948		-85.937500
949		-97.656250
950		-91.796875
951		-105.468750
952		-95.703125
953		-109.375000
954		-99.609375
955		-113.281250
956		-103.515625
957		-117.187500
958		-109.375000
959		-121.093750
960		-113.281250
961		-125.000000
962		-117.187500
963		-126.953125
964		-119.140625
965		-128.906250
966		-125.000000
967		-132.812500
968		-126.953125
969		-134.765625
970		-128.906250
971		-136.718750
972		-130.859375
973		-138.671875
974		-132.812500
975		-140.625000
976		-134.765625
977		-142.578125
978		-136.718750
979		-142.578125
980		-138.671875
981		-142.578125
982		-138.671875
983		-142.578125
984		-138.671875
985		-144.531250
986		-136.718750
987		-142.578125
988		-136.718750
989		-142.578125
990		-136.718750
991		-142.578125
992		-134.765625
993		-140.625000
994		-134.765625
995		-140.625000
996		-130.859375
997		-134.765625
998		-130.859375
999		-132.812500
1000		-128.906250
1001		-130.859375
1002		-125.000000
1003		-128.906250
1004		-121.093750
1005		-126.953125
1006		-117.187500
1007		-123.046875
1008		-115.234375
1009		-119.140625
1010		-109.375000
1011		-115.234375
1012		-107.421875
1013		-111.328125
1014		-103.515625
1015		-105.468750
1016		-99.609375
1017		-99.609375
1018		-91.796875
1019		-97.656250
1020		-87.890625
1021		-93.750000
1022		-82.031250
1023		-85.937500
1024		-76.171875
1025		-82.031250
1026		-70.312500
1027		-76.171875
1028		-64.453125
1029		-68.359375
1030		-60.546875
1031		-62.500000
1032		-54.687500
1033		-56.640625
1034		-48.828125
1035		-50.781250
1036		-41.015625
1037		-44.921875
1038		-33.203125
1039		-39.062500
1040		-27.343750
1041		-31.250000
1042		-21.484375
1043		-27.343750
1044		-15.625000
1045		-19.531250
1046		-7.812500
1047		-13.671875
1048		-3.906250
1049		-3.906250
1050		1.953125
1051		1.953125
1052		11.718750
1053		7.812500
1054		17.578125
1055		11.718750
1056		23.437500
1057		19.531250
1058		29.296875
1059		25.390625
1060		37.109375
1061		33.203125
1062		42.968750
1063		37.109375
1064		46.875000
1065		44.921875
1066		52.734375
1067		50.781250
1068		58.593750
1069		56.640625
1070		66.406250
1071		60.546875
1072		70.312500
1073		66.406250
1074		78.125000
1075		70.312500
1076		82.031250
1077		76.171875
1078		85.937500
1079		82.031250
1080		91.796875
1081		87.890625
1082		93.750000
1083		93.750000
1084		97.656250
1085		97.656250
1086		105.468750
1087		99.609375
1088		107.421875
1089		103.515625
1090		113.281250
1091		107.421875
1092		117.187500
1093		111.328125
1094		119.140625
1095		115.234375
1096		123.046875
1097		117.187500
1098		125.000000
1099		123.046875
1100		126.953125
1101		125.000000
1102		130.859375
1103		126.953125
1104		134.765625
1105		126.953125
1106		136.718750
1107		130.859375
1108		138.671875
1109		132.812500
1110		140.625000
1111		134.765625
1112		142.578125
1113		134.765625
1114		142.578125
1115		138.671875
1116		142.578125
1117		140.625000
1118		142.578125
1119		138.671875
1120		144.531250
1121		140.625000
1122		146.484375
1123		138.671875
1124		146.484375
1125		140.625000
1126		146.484375
1127		138.671875
1128		146.484375
1129		138.671875
1130		146.484375
1131		138.671875
1132		146.484375
1133		140.625000
1134		142.578125
1135		136.718750
1136		142.578125
1137		134.765625
1138		142.578125
1139		134.765625
1140		142.578125
1141		132.812500
1142		140.625000
1143		130.859375
1144		138.671875
1145		128.906250
1146		136.718750
1147		126.953125
1148		134.765625
1149		125.000000
1150		128.906250
1151		123.046875
1152		128.906250
1153		119.140625
1154		126.953125
1155		113.281250
1156		123.046875
1157		111.328125
1158		119.140625
1159		107.421875
1160		117.187500
1161		101.562500
1162		113.281250
1163		99.609375
1164		109.375000
1165		97.656250
1166		101.562500
1167		91.796875
1168		97.656250
1169		85.937500
1170		93.750000
1171		80.078125
1172		89.843750
1173		74.218750
1174		85.937500
1175		70.312500
1176		80.078125
1177		64.453125
1178		74.218750
1179		60.546875
1180		70.312500
1181		54.687500
1182		64.453125
1183		48.828125
1184		56.640625
1185		41.015625
1186		50.781250
1187		35.156250
1188		46.875000
1189		29.296875
1190		41.015625
1191		23.437500
1192		33.203125
1193		15.625000
1194		27.343750
1195		11.718750
1196		21.484375
1197		3.906250
1198		15.625000
1199		-1.953125
1200		5.859375
1201		-7.812500
1202		0.000000
1203		-15.625000
1204		-5.859375
1205		-23.437500
1206		-9.765625
1207		-27.343750
1208		-17.578125
1209		-35.156250
1210		-23.437500
1211		-42.968750
1212		-31.250000
1213		-48.828125
1214		-37.109375
1215		-52.734375
1216		-42.968750
1217		-58.593750
1218		-50.781250
1219		-66.406250
1220		-56.640625
1221		-72.265625
1222		-60.546875
1223		-78.125000
1224		-66.406250
1225		-83.984375
1226		-72.265625
1227		-89.843750
1228		-78.125000
1229		-93.750000
1230		-83.984375
1231		-97.656250
1232		-89.843750
1233		-101.562500
1234		-95.703125
