metingen laweit/20cm, resfreq2/data_81_223.txt

Channel              :		CH1
Frequency            :		1.769kHz
Period               :		0.565ms
PK-PK                :		35.16mV
Probe attenuation    :		1X
Voltage per ADC value:		0.122070mV
Time interval        :		2.00000us

index		CH1_Voltage(mV)
1		31.250000
2		31.250000
3		29.296875
4		31.250000
5		27.343750
6		31.250000
7		29.296875
8		31.250000
9		27.343750
10		31.250000
11		27.343750
12		29.296875
13		27.343750
14		29.296875
15		27.343750
16		29.296875
17		25.390625
18		29.296875
19		27.343750
20		29.296875
21		25.390625
22		29.296875
23		25.390625
24		29.296875
25		25.390625
26		27.343750
27		23.437500
28		27.343750
29		23.437500
30		27.343750
31		23.437500
32		27.343750
33		21.484375
34		27.343750
35		23.437500
36		25.390625
37		21.484375
38		25.390625
39		21.484375
40		25.390625
41		21.484375
42		25.390625
43		21.484375
44		23.437500
45		19.531250
46		23.437500
47		19.531250
48		23.437500
49		19.531250
50		23.437500
51		19.531250
52		21.484375
53		19.531250
54		21.484375
55		17.578125
56		21.484375
57		17.578125
58		19.531250
59		17.578125
60		19.531250
61		15.625000
62		19.531250
63		15.625000
64		19.531250
65		15.625000
66		17.578125
67		15.625000
68		17.578125
69		13.671875
70		17.578125
71		13.671875
72		17.578125
73		13.671875
74		17.578125
75		11.718750
76		15.625000
77		11.718750
78		15.625000
79		11.718750
80		13.671875
81		11.718750
82		13.671875
83		9.765625
84		13.671875
85		9.765625
86		13.671875
87		9.765625
88		11.718750
89		9.765625
90		13.671875
91		7.812500
92		11.718750
93		7.812500
94		11.718750
95		7.812500
96		9.765625
97		7.812500
98		11.718750
99		5.859375
100		9.765625
101		5.859375
102		9.765625
103		5.859375
104		7.812500
105		5.859375
106		9.765625
107		5.859375
108		7.812500
109		5.859375
110		7.812500
111		5.859375
112		7.812500
113		3.906250
114		7.812500
115		3.906250
116		7.812500
117		3.906250
118		7.812500
119		3.906250
120		7.812500
121		3.906250
122		7.812500
123		3.906250
124		7.812500
125		3.906250
126		7.812500
127		3.906250
128		7.812500
129		3.906250
130		7.812500
131		3.906250
132		7.812500
133		3.906250
134		7.812500
135		3.906250
136		5.859375
137		3.906250
138		5.859375
139		3.906250
140		7.812500
141		3.906250
142		7.812500
143		3.906250
144		7.812500
145		3.906250
146		7.812500
147		3.906250
148		7.812500
149		5.859375
150		7.812500
151		3.906250
152		7.812500
153		5.859375
154		7.812500
155		5.859375
156		9.765625
157		5.859375
158		9.765625
159		7.812500
160		9.765625
161		7.812500
162		9.765625
163		7.812500
164		9.765625
165		7.812500
166		9.765625
167		7.812500
168		11.718750
169		9.765625
170		11.718750
171		9.765625
172		11.718750
173		9.765625
174		13.671875
175		9.765625
176		13.671875
177		9.765625
178		13.671875
179		11.718750
180		15.625000
181		11.718750
182		15.625000
183		11.718750
184		15.625000
185		11.718750
186		15.625000
187		13.671875
188		17.578125
189		13.671875
190		17.578125
191		13.671875
192		17.578125
193		15.625000
194		17.578125
195		15.625000
196		19.531250
197		15.625000
198		19.531250
199		17.578125
200		19.531250
201		17.578125
202		21.484375
203		19.531250
204		21.484375
205		17.578125
206		23.437500
207		19.531250
208		23.437500
209		19.531250
210		23.437500
211		21.484375
212		23.437500
213		21.484375
214		25.390625
215		21.484375
216		25.390625
217		21.484375
218		25.390625
219		23.437500
220		25.390625
221		23.437500
222		27.343750
223		23.437500
224		27.343750
225		23.437500
226		27.343750
227		25.390625
228		27.343750
229		25.390625
230		29.296875
231		25.390625
232		29.296875
233		25.390625
234		29.296875
235		25.390625
236		29.296875
237		27.343750
238		29.296875
239		27.343750
240		29.296875
241		27.343750
242		31.250000
243		27.343750
244		31.250000
245		27.343750
246		31.250000
247		27.343750
248		31.250000
249		29.296875
250		31.250000
251		29.296875
252		33.203125
253		29.296875
254		31.250000
255		29.296875
256		33.203125
257		29.296875
258		33.203125
259		29.296875
260		33.203125
261		29.296875
262		33.203125
263		29.296875
264		31.250000
265		29.296875
266		33.203125
267		29.296875
268		33.203125
269		29.296875
270		33.203125
271		29.296875
272		33.203125
273		29.296875
274		33.203125
275		29.296875
276		31.250000
277		29.296875
278		31.250000
279		29.296875
280		33.203125
281		29.296875
282		33.203125
283		27.343750
284		31.250000
285		27.343750
286		31.250000
287		29.296875
288		31.250000
289		29.296875
290		31.250000
291		27.343750
292		31.250000
293		27.343750
294		31.250000
295		27.343750
296		29.296875
297		27.343750
298		29.296875
299		25.390625
300		29.296875
301		25.390625
302		29.296875
303		25.390625
304		29.296875
305		25.390625
306		27.343750
307		25.390625
308		29.296875
309		25.390625
310		27.343750
311		25.390625
312		27.343750
313		23.437500
314		27.343750
315		23.437500
316		27.343750
317		23.437500
318		25.390625
319		23.437500
320		27.343750
321		21.484375
322		25.390625
323		21.484375
324		23.437500
325		21.484375
326		25.390625
327		21.484375
328		23.437500
329		19.531250
330		23.437500
331		19.531250
332		23.437500
333		19.531250
334		21.484375
335		17.578125
336		21.484375
337		17.578125
338		21.484375
339		17.578125
340		19.531250
341		15.625000
342		19.531250
343		15.625000
344		19.531250
345		15.625000
346		19.531250
347		15.625000
348		19.531250
349		13.671875
350		17.578125
351		13.671875
352		17.578125
353		13.671875
354		17.578125
355		13.671875
356		15.625000
357		11.718750
358		15.625000
359		11.718750
360		15.625000
361		11.718750
362		15.625000
363		9.765625
364		13.671875
365		9.765625
366		13.671875
367		9.765625
368		13.671875
369		7.812500
370		11.718750
371		9.765625
372		11.718750
373		7.812500
374		11.718750
375		7.812500
376		11.718750
377		7.812500
378		9.765625
379		7.812500
380		9.765625
381		5.859375
382		9.765625
383		5.859375
384		9.765625
385		5.859375
386		9.765625
387		5.859375
388		7.812500
389		5.859375
390		7.812500
391		3.906250
392		7.812500
393		3.906250
394		7.812500
395		3.906250
396		7.812500
397		3.906250
398		7.812500
399		3.906250
400		7.812500
401		3.906250
402		7.812500
403		3.906250
404		7.812500
405		3.906250
406		5.859375
407		1.953125
408		7.812500
409		3.906250
410		5.859375
411		3.906250
412		5.859375
413		3.906250
414		5.859375
415		3.906250
416		5.859375
417		3.906250
418		5.859375
419		3.906250
420		7.812500
421		3.906250
422		5.859375
423		3.906250
424		7.812500
425		3.906250
426		7.812500
427		3.906250
428		7.812500
429		3.906250
430		7.812500
431		3.906250
432		7.812500
433		5.859375
434		7.812500
435		3.906250
436		7.812500
437		3.906250
438		7.812500
439		5.859375
440		7.812500
441		5.859375
442		9.765625
443		5.859375
444		9.765625
445		7.812500
446		11.718750
447		7.812500
448		9.765625
449		7.812500
450		11.718750
451		7.812500
452		11.718750
453		7.812500
454		11.718750
455		9.765625
456		11.718750
457		9.765625
458		13.671875
459		9.765625
460		13.671875
461		9.765625
462		13.671875
463		11.718750
464		15.625000
465		11.718750
466		15.625000
467		11.718750
468		15.625000
469		13.671875
470		15.625000
471		13.671875
472		17.578125
473		15.625000
474		17.578125
475		15.625000
476		17.578125
477		15.625000
478		19.531250
479		15.625000
480		19.531250
481		15.625000
482		19.531250
483		17.578125
484		21.484375
485		17.578125
486		21.484375
487		17.578125
488		21.484375
489		19.531250
490		21.484375
491		19.531250
492		23.437500
493		19.531250
494		23.437500
495		21.484375
496		23.437500
497		21.484375
498		23.437500
499		21.484375
500		25.390625
501		21.484375
502		25.390625
503		21.484375
504		27.343750
505		23.437500
506		25.390625
507		25.390625
508		27.343750
509		23.437500
510		27.343750
511		25.390625
512		27.343750
513		25.390625
514		29.296875
515		25.390625
516		29.296875
517		25.390625
518		29.296875
519		27.343750
520		29.296875
521		27.343750
522		29.296875
523		27.343750
524		29.296875
525		27.343750
526		31.250000
527		27.343750
528		31.250000
529		27.343750
530		31.250000
531		29.296875
532		31.250000
533		29.296875
534		31.250000
535		29.296875
536		31.250000
537		29.296875
538		33.203125
539		29.296875
540		31.250000
541		29.296875
542		31.250000
543		29.296875
544		33.203125
545		29.296875
546		33.203125
547		29.296875
548		33.203125
549		29.296875
550		33.203125
551		29.296875
552		33.203125
553		29.296875
554		33.203125
555		29.296875
556		31.250000
557		29.296875
558		31.250000
559		29.296875
560		33.203125
561		29.296875
562		33.203125
563		29.296875
564		33.203125
565		29.296875
566		31.250000
567		29.296875
568		31.250000
569		29.296875
570		31.250000
571		27.343750
572		31.250000
573		29.296875
574		31.250000
575		27.343750
576		31.250000
577		27.343750
578		31.250000
579		27.343750
580		29.296875
581		27.343750
582		29.296875
583		25.390625
584		29.296875
585		25.390625
586		29.296875
587		25.390625
588		29.296875
589		25.390625
590		27.343750
591		25.390625
592		27.343750
593		23.437500
594		29.296875
595		23.437500
596		27.343750
597		23.437500
598		27.343750
599		23.437500
600		25.390625
601		23.437500
602		25.390625
603		21.484375
604		25.390625
605		21.484375
606		25.390625
607		21.484375
608		23.437500
609		19.531250
610		25.390625
611		19.531250
612		23.437500
613		19.531250
614		23.437500
615		19.531250
616		23.437500
617		17.578125
618		21.484375
619		17.578125
620		21.484375
621		17.578125
622		21.484375
623		17.578125
624		19.531250
625		17.578125
626		19.531250
627		15.625000
628		19.531250
629		15.625000
630		19.531250
631		15.625000
632		17.578125
633		15.625000
634		17.578125
635		13.671875
636		17.578125
637		13.671875
638		15.625000
639		11.718750
640		15.625000
641		11.718750
642		15.625000
643		11.718750
644		15.625000
645		11.718750
646		15.625000
647		11.718750
648		13.671875
649		9.765625
650		13.671875
651		9.765625
652		11.718750
653		9.765625
654		13.671875
655		9.765625
656		11.718750
657		7.812500
658		11.718750
659		7.812500
660		11.718750
661		7.812500
662		11.718750
663		7.812500
664		9.765625
665		5.859375
666		9.765625
667		5.859375
668		9.765625
669		5.859375
670		9.765625
671		5.859375
672		9.765625
673		5.859375
674		7.812500
675		3.906250
676		7.812500
677		3.906250
678		7.812500
679		3.906250
680		7.812500
681		3.906250
682		7.812500
683		3.906250
684		7.812500
685		3.906250
686		7.812500
687		3.906250
688		7.812500
689		3.906250
690		7.812500
691		3.906250
692		5.859375
693		3.906250
694		7.812500
695		3.906250
696		7.812500
697		3.906250
698		7.812500
699		3.906250
700		7.812500
701		3.906250
702		7.812500
703		3.906250
704		7.812500
705		3.906250
706		7.812500
707		3.906250
708		7.812500
709		3.906250
710		7.812500
711		5.859375
712		7.812500
713		3.906250
714		7.812500
715		5.859375
716		7.812500
717		5.859375
718		7.812500
719		5.859375
720		9.765625
721		5.859375
722		9.765625
723		5.859375
724		9.765625
725		7.812500
726		9.765625
727		7.812500
728		9.765625
729		7.812500
730		11.718750
731		7.812500
732		11.718750
733		7.812500
734		11.718750
735		9.765625
736		11.718750
737		9.765625
738		13.671875
739		9.765625
740		13.671875
741		11.718750
742		13.671875
743		11.718750
744		15.625000
745		11.718750
746		15.625000
747		11.718750
748		15.625000
749		13.671875
750		15.625000
751		13.671875
752		17.578125
753		13.671875
754		17.578125
755		13.671875
756		17.578125
757		15.625000
758		17.578125
759		15.625000
760		19.531250
761		15.625000
762		19.531250
763		17.578125
764		19.531250
765		17.578125
766		21.484375
767		17.578125
768		21.484375
769		19.531250
770		21.484375
771		19.531250
772		23.437500
773		19.531250
774		23.437500
775		21.484375
776		23.437500
777		21.484375
778		25.390625
779		21.484375
780		25.390625
781		21.484375
782		25.390625
783		23.437500
784		25.390625
785		23.437500
786		27.343750
787		23.437500
788		27.343750
789		23.437500
790		27.343750
791		25.390625
792		27.343750
793		25.390625
794		27.343750
795		25.390625
796		29.296875
797		25.390625
798		29.296875
799		27.343750
800		29.296875
801		27.343750
802		29.296875
803		27.343750
804		29.296875
805		27.343750
806		31.250000
807		27.343750
808		31.250000
809		29.296875
810		31.250000
811		27.343750
812		31.250000
813		29.296875
814		31.250000
815		29.296875
816		31.250000
817		29.296875
818		31.250000
819		29.296875
820		31.250000
821		29.296875
822		33.203125
823		29.296875
824		33.203125
825		29.296875
826		31.250000
827		29.296875
828		33.203125
829		29.296875
830		33.203125
831		29.296875
832		33.203125
833		29.296875
834		33.203125
835		29.296875
836		33.203125
837		29.296875
838		33.203125
839		29.296875
840		33.203125
841		29.296875
842		31.250000
843		29.296875
844		31.250000
845		29.296875
846		33.203125
847		29.296875
848		31.250000
849		29.296875
850		31.250000
851		29.296875
852		31.250000
853		29.296875
854		31.250000
855		29.296875
856		31.250000
857		27.343750
858		31.250000
859		27.343750
860		29.296875
861		27.343750
862		29.296875
863		25.390625
864		29.296875
865		25.390625
866		29.296875
867		27.343750
868		29.296875
869		25.390625
870		29.296875
871		25.390625
872		29.296875
873		25.390625
874		29.296875
875		25.390625
876		27.343750
877		25.390625
878		27.343750
879		23.437500
880		27.343750
881		23.437500
882		25.390625
883		23.437500
884		25.390625
885		21.484375
886		25.390625
887		21.484375
888		25.390625
889		21.484375
890		25.390625
891		21.484375
892		23.437500
893		21.484375
894		23.437500
895		19.531250
896		23.437500
897		19.531250
898		23.437500
899		19.531250
900		21.484375
901		17.578125
902		21.484375
903		17.578125
904		21.484375
905		17.578125
906		19.531250
907		15.625000
908		19.531250
909		15.625000
910		19.531250
911		15.625000
912		17.578125
913		13.671875
914		19.531250
915		13.671875
916		17.578125
917		13.671875
918		17.578125
919		13.671875
920		15.625000
921		11.718750
922		15.625000
923		11.718750
924		15.625000
925		11.718750
926		15.625000
927		11.718750
928		13.671875
929		11.718750
930		13.671875
931		9.765625
932		13.671875
933		9.765625
934		11.718750
935		9.765625
936		11.718750
937		7.812500
938		11.718750
939		7.812500
940		11.718750
941		7.812500
942		11.718750
943		7.812500
944		9.765625
945		5.859375
946		9.765625
947		5.859375
948		9.765625
949		5.859375
950		9.765625
951		5.859375
952		9.765625
953		5.859375
954		7.812500
955		5.859375
956		7.812500
957		5.859375
958		7.812500
959		3.906250
960		7.812500
961		5.859375
962		7.812500
963		3.906250
964		7.812500
965		3.906250
966		7.812500
967		3.906250
968		7.812500
969		3.906250
970		7.812500
971		3.906250
972		5.859375
973		3.906250
974		7.812500
975		3.906250
976		7.812500
977		3.906250
978		5.859375
979		3.906250
980		7.812500
981		3.906250
982		7.812500
983		3.906250
984		7.812500
985		3.906250
986		7.812500
987		3.906250
988		7.812500
989		3.906250
990		7.812500
991		3.906250
992		7.812500
993		3.906250
994		7.812500
995		5.859375
996		7.812500
997		5.859375
998		7.812500
999		5.859375
1000		7.812500
1001		5.859375
1002		7.812500
1003		5.859375
1004		9.765625
1005		5.859375
1006		9.765625
1007		5.859375
1008		9.765625
1009		7.812500
1010		9.765625
1011		7.812500
1012		9.765625
1013		7.812500
1014		11.718750
1015		7.812500
1016		11.718750
1017		9.765625
1018		11.718750
1019		9.765625
1020		11.718750
1021		9.765625
1022		13.671875
1023		9.765625
1024		13.671875
1025		9.765625
1026		15.625000
1027		11.718750
1028		13.671875
1029		11.718750
1030		15.625000
1031		13.671875
1032		15.625000
1033		13.671875
1034		17.578125
1035		13.671875
1036		17.578125
1037		13.671875
1038		17.578125
1039		15.625000
1040		17.578125
1041		15.625000
1042		19.531250
1043		17.578125
1044		19.531250
1045		17.578125
1046		19.531250
1047		17.578125
1048		21.484375
1049		17.578125
1050		21.484375
1051		17.578125
1052		21.484375
1053		19.531250
1054		21.484375
1055		19.531250
1056		23.437500
1057		21.484375
1058		23.437500
1059		19.531250
1060		25.390625
1061		21.484375
1062		23.437500
1063		23.437500
1064		25.390625
1065		21.484375
1066		25.390625
1067		23.437500
1068		27.343750
1069		23.437500
1070		27.343750
1071		23.437500
1072		27.343750
1073		25.390625
1074		27.343750
1075		25.390625
1076		29.296875
1077		25.390625
1078		29.296875
1079		27.343750
1080		29.296875
1081		25.390625
1082		29.296875
1083		27.343750
1084		29.296875
1085		27.343750
1086		31.250000
1087		27.343750
1088		31.250000
1089		27.343750
1090		31.250000
1091		29.296875
1092		31.250000
1093		29.296875
1094		31.250000
1095		29.296875
1096		31.250000
1097		29.296875
1098		33.203125
1099		29.296875
1100		33.203125
1101		29.296875
1102		33.203125
1103		29.296875
1104		33.203125
1105		29.296875
1106		33.203125
1107		29.296875
1108		33.203125
1109		29.296875
1110		33.203125
1111		29.296875
1112		33.203125
1113		29.296875
1114		33.203125
1115		29.296875
1116		33.203125
1117		29.296875
1118		33.203125
1119		29.296875
1120		33.203125
1121		29.296875
1122		33.203125
1123		29.296875
1124		33.203125
1125		29.296875
1126		33.203125
1127		29.296875
1128		33.203125
1129		29.296875
1130		31.250000
1131		29.296875
1132		31.250000
1133		29.296875
1134		31.250000
1135		29.296875
1136		31.250000
1137		29.296875
1138		31.250000
1139		29.296875
1140		31.250000
1141		27.343750
1142		31.250000
1143		27.343750
1144		31.250000
1145		27.343750
1146		31.250000
1147		27.343750
1148		29.296875
1149		25.390625
1150		31.250000
1151		27.343750
1152		29.296875
1153		25.390625
1154		29.296875
1155		25.390625
1156		29.296875
1157		25.390625
1158		27.343750
1159		25.390625
1160		27.343750
1161		23.437500
1162		27.343750
1163		25.390625
1164		27.343750
1165		23.437500
1166		27.343750
1167		23.437500
1168		25.390625
1169		23.437500
1170		25.390625
1171		21.484375
1172		25.390625
1173		21.484375
1174		25.390625
1175		21.484375
1176		23.437500
1177		19.531250
1178		23.437500
1179		19.531250
1180		23.437500
1181		19.531250
1182		23.437500
1183		17.578125
1184		21.484375
1185		17.578125
1186		21.484375
1187		17.578125
1188		21.484375
1189		17.578125
1190		19.531250
1191		17.578125
1192		19.531250
1193		15.625000
1194		19.531250
1195		15.625000
1196		17.578125
1197		15.625000
1198		17.578125
1199		13.671875
1200		17.578125
1201		13.671875
1202		17.578125
1203		13.671875
1204		17.578125
1205		11.718750
1206		15.625000
1207		11.718750
1208		15.625000
1209		11.718750
1210		15.625000
1211		11.718750
1212		13.671875
1213		11.718750
1214		13.671875
1215		9.765625
1216		13.671875
1217		9.765625
1218		13.671875
1219		9.765625
1220		13.671875
1221		7.812500
1222		11.718750
1223		7.812500
1224		11.718750
1225		7.812500
1226		11.718750
1227		7.812500
1228		11.718750
1229		7.812500
1230		9.765625
1231		5.859375
1232		9.765625
1233		5.859375
1234		9.765625
1235		5.859375
1236		9.765625
1237		5.859375
1238		9.765625
1239		5.859375
1240		7.812500
1241		5.859375
1242		7.812500
1243		5.859375
1244		7.812500
1245		5.859375
1246		7.812500
1247		5.859375
1248		7.812500
1249		3.906250
1250		9.765625
1251		3.906250
1252		7.812500
1253		3.906250
1254		7.812500
1255		3.906250
1256		7.812500
1257		3.906250
1258		7.812500
1259		3.906250
1260		7.812500
1261		3.906250
1262		7.812500
1263		3.906250
1264		7.812500
1265		3.906250
1266		7.812500
1267		3.906250
1268		7.812500
1269		3.906250
1270		7.812500
1271		3.906250
1272		7.812500
1273		5.859375
1274		7.812500
1275		5.859375
1276		7.812500
1277		3.906250
1278		7.812500
1279		5.859375
1280		7.812500
1281		5.859375
1282		9.765625
1283		5.859375
1284		9.765625
1285		5.859375
1286		9.765625
1287		5.859375
1288		9.765625
1289		7.812500
1290		9.765625
1291		7.812500
1292		9.765625
1293		7.812500
1294		11.718750
1295		9.765625
1296		11.718750
1297		9.765625
1298		11.718750
1299		7.812500
1300		13.671875
1301		9.765625
1302		13.671875
1303		9.765625
1304		13.671875
1305		11.718750
1306		13.671875
1307		11.718750
1308		15.625000
1309		11.718750
1310		15.625000
1311		11.718750
1312		15.625000
1313		13.671875
1314		15.625000
1315		13.671875
1316		17.578125
1317		13.671875
1318		17.578125
1319		15.625000
1320		17.578125
1321		15.625000
1322		17.578125
1323		15.625000
1324		19.531250
1325		15.625000
1326		19.531250
1327		17.578125
1328		21.484375
1329		17.578125
