Old_data/metingen laweit/2000Hz, 35.0cm/data_81_164.txt

Channel              :		CH1
Frequency            :		1.975kHz
Period               :		0.506ms
PK-PK                :		179.7mV
Probe attenuation    :		1X
Voltage per ADC value:		0.122070mV
Time interval        :		2.00000us

index		CH1_Voltage(mV)
1		89.843750
2		89.843750
3		91.796875
4		89.843750
5		93.750000
6		89.843750
7		93.750000
8		89.843750
9		91.796875
10		89.843750
11		91.796875
12		89.843750
13		91.796875
14		87.890625
15		91.796875
16		87.890625
17		91.796875
18		87.890625
19		91.796875
20		85.937500
21		89.843750
22		83.984375
23		87.890625
24		83.984375
25		85.937500
26		82.031250
27		85.937500
28		80.078125
29		83.984375
30		78.125000
31		82.031250
32		76.171875
33		80.078125
34		74.218750
35		78.125000
36		70.312500
37		76.171875
38		68.359375
39		74.218750
40		66.406250
41		72.265625
42		62.500000
43		68.359375
44		58.593750
45		64.453125
46		56.640625
47		60.546875
48		54.687500
49		58.593750
50		50.781250
51		54.687500
52		46.875000
53		52.734375
54		42.968750
55		48.828125
56		39.062500
57		44.921875
58		35.156250
59		41.015625
60		31.250000
61		37.109375
62		27.343750
63		35.156250
64		23.437500
65		29.296875
66		19.531250
67		25.390625
68		15.625000
69		21.484375
70		11.718750
71		17.578125
72		5.859375
73		13.671875
74		1.953125
75		7.812500
76		-1.953125
77		3.906250
78		-5.859375
79		0.000000
80		-9.765625
81		-3.906250
82		-13.671875
83		-7.812500
84		-17.578125
85		-13.671875
86		-21.484375
87		-17.578125
88		-25.390625
89		-21.484375
90		-29.296875
91		-25.390625
92		-35.156250
93		-29.296875
94		-39.062500
95		-33.203125
96		-42.968750
97		-37.109375
98		-44.921875
99		-39.062500
100		-48.828125
101		-42.968750
102		-52.734375
103		-46.875000
104		-54.687500
105		-48.828125
106		-56.640625
107		-52.734375
108		-60.546875
109		-56.640625
110		-62.500000
111		-58.593750
112		-66.406250
113		-60.546875
114		-68.359375
115		-62.500000
116		-70.312500
117		-66.406250
118		-72.265625
119		-68.359375
120		-72.265625
121		-68.359375
122		-74.218750
123		-70.312500
124		-76.171875
125		-72.265625
126		-76.171875
127		-74.218750
128		-78.125000
129		-72.265625
130		-78.125000
131		-74.218750
132		-78.125000
133		-74.218750
134		-78.125000
135		-76.171875
136		-78.125000
137		-74.218750
138		-78.125000
139		-74.218750
140		-78.125000
141		-74.218750
142		-78.125000
143		-74.218750
144		-76.171875
145		-72.265625
146		-74.218750
147		-70.312500
148		-74.218750
149		-70.312500
150		-72.265625
151		-68.359375
152		-70.312500
153		-66.406250
154		-68.359375
155		-64.453125
156		-66.406250
157		-62.500000
158		-64.453125
159		-58.593750
160		-60.546875
161		-56.640625
162		-58.593750
163		-52.734375
164		-56.640625
165		-50.781250
166		-52.734375
167		-48.828125
168		-48.828125
169		-42.968750
170		-44.921875
171		-41.015625
172		-42.968750
173		-37.109375
174		-39.062500
175		-33.203125
176		-35.156250
177		-29.296875
178		-31.250000
179		-25.390625
180		-27.343750
181		-21.484375
182		-23.437500
183		-17.578125
184		-19.531250
185		-13.671875
186		-15.625000
187		-9.765625
188		-11.718750
189		-3.906250
190		-5.859375
191		0.000000
192		-1.953125
193		1.953125
194		1.953125
195		7.812500
196		5.859375
197		11.718750
198		9.765625
199		15.625000
200		13.671875
201		19.531250
202		17.578125
203		23.437500
204		21.484375
205		27.343750
206		27.343750
207		31.250000
208		29.296875
209		35.156250
210		33.203125
211		39.062500
212		37.109375
213		42.968750
214		41.015625
215		46.875000
216		44.921875
217		50.781250
218		48.828125
219		54.687500
220		50.781250
221		56.640625
222		54.687500
223		60.546875
224		58.593750
225		62.500000
226		62.500000
227		66.406250
228		64.453125
229		68.359375
230		66.406250
231		72.265625
232		68.359375
233		74.218750
234		72.265625
235		76.171875
236		74.218750
237		78.125000
238		76.171875
239		80.078125
240		78.125000
241		83.984375
242		80.078125
243		83.984375
244		82.031250
245		85.937500
246		83.984375
247		87.890625
248		85.937500
249		87.890625
250		85.937500
251		89.843750
252		85.937500
253		89.843750
254		87.890625
255		91.796875
256		87.890625
257		91.796875
258		87.890625
259		91.796875
260		87.890625
261		91.796875
262		87.890625
263		93.750000
264		87.890625
265		91.796875
266		87.890625
267		91.796875
268		87.890625
269		89.843750
270		85.937500
271		89.843750
272		85.937500
273		89.843750
274		83.984375
275		87.890625
276		83.984375
277		85.937500
278		82.031250
279		85.937500
280		80.078125
281		83.984375
282		78.125000
283		82.031250
284		76.171875
285		80.078125
286		74.218750
287		78.125000
288		70.312500
289		76.171875
290		68.359375
291		74.218750
292		66.406250
293		72.265625
294		64.453125
295		68.359375
296		60.546875
297		64.453125
298		56.640625
299		62.500000
300		52.734375
301		58.593750
302		50.781250
303		56.640625
304		46.875000
305		52.734375
306		42.968750
307		48.828125
308		41.015625
309		46.875000
310		37.109375
311		41.015625
312		33.203125
313		39.062500
314		29.296875
315		33.203125
316		23.437500
317		29.296875
318		21.484375
319		25.390625
320		15.625000
321		21.484375
322		11.718750
323		17.578125
324		7.812500
325		13.671875
326		3.906250
327		9.765625
328		0.000000
329		5.859375
330		-5.859375
331		0.000000
332		-7.812500
333		-3.906250
334		-13.671875
335		-5.859375
336		-17.578125
337		-11.718750
338		-21.484375
339		-15.625000
340		-25.390625
341		-19.531250
342		-29.296875
343		-23.437500
344		-33.203125
345		-27.343750
346		-37.109375
347		-31.250000
348		-41.015625
349		-35.156250
350		-44.921875
351		-39.062500
352		-46.875000
353		-42.968750
354		-50.781250
355		-46.875000
356		-54.687500
357		-48.828125
358		-58.593750
359		-52.734375
360		-58.593750
361		-54.687500
362		-62.500000
363		-58.593750
364		-64.453125
365		-60.546875
366		-68.359375
367		-62.500000
368		-70.312500
369		-64.453125
370		-72.265625
371		-66.406250
372		-72.265625
373		-68.359375
374		-74.218750
375		-70.312500
376		-76.171875
377		-72.265625
378		-76.171875
379		-74.218750
380		-78.125000
381		-74.218750
382		-78.125000
383		-74.218750
384		-78.125000
385		-76.171875
386		-80.078125
387		-76.171875
388		-78.125000
389		-76.171875
390		-78.125000
391		-76.171875
392		-80.078125
393		-74.218750
394		-78.125000
395		-74.218750
396		-76.171875
397		-74.218750
398		-76.171875
399		-72.265625
400		-74.218750
401		-70.312500
402		-74.218750
403		-70.312500
404		-72.265625
405		-66.406250
406		-68.359375
407		-64.453125
408		-66.406250
409		-62.500000
410		-66.406250
411		-60.546875
412		-62.500000
413		-58.593750
414		-60.546875
415		-54.687500
416		-56.640625
417		-52.734375
418		-54.687500
419		-48.828125
420		-50.781250
421		-44.921875
422		-46.875000
423		-42.968750
424		-44.921875
425		-39.062500
426		-41.015625
427		-35.156250
428		-37.109375
429		-31.250000
430		-33.203125
431		-27.343750
432		-29.296875
433		-23.437500
434		-25.390625
435		-19.531250
436		-21.484375
437		-15.625000
438		-17.578125
439		-11.718750
440		-13.671875
441		-5.859375
442		-7.812500
443		-1.953125
444		-3.906250
445		0.000000
446		0.000000
447		5.859375
448		3.906250
449		9.765625
450		7.812500
451		13.671875
452		11.718750
453		17.578125
454		15.625000
455		21.484375
456		21.484375
457		27.343750
458		23.437500
459		29.296875
460		27.343750
461		33.203125
462		33.203125
463		39.062500
464		37.109375
465		42.968750
466		39.062500
467		44.921875
468		42.968750
469		48.828125
470		46.875000
471		52.734375
472		50.781250
473		56.640625
474		54.687500
475		58.593750
476		56.640625
477		62.500000
478		60.546875
479		64.453125
480		62.500000
481		68.359375
482		64.453125
483		70.312500
484		68.359375
485		72.265625
486		70.312500
487		76.171875
488		74.218750
489		78.125000
490		76.171875
491		80.078125
492		78.125000
493		82.031250
494		78.125000
495		83.984375
496		82.031250
497		83.984375
498		82.031250
499		87.890625
500		83.984375
501		87.890625
502		85.937500
503		89.843750
504		85.937500
505		89.843750
506		87.890625
507		89.843750
508		87.890625
509		91.796875
510		87.890625
511		91.796875
512		87.890625
513		91.796875
514		89.843750
515		91.796875
516		87.890625
517		91.796875
518		87.890625
519		91.796875
520		87.890625
521		91.796875
522		85.937500
523		89.843750
524		85.937500
525		89.843750
526		85.937500
527		87.890625
528		83.984375
529		87.890625
530		82.031250
531		85.937500
532		80.078125
533		83.984375
534		78.125000
535		83.984375
536		76.171875
537		80.078125
538		74.218750
539		80.078125
540		72.265625
541		76.171875
542		70.312500
543		74.218750
544		68.359375
545		72.265625
546		64.453125
547		68.359375
548		60.546875
549		66.406250
550		58.593750
551		62.500000
552		56.640625
553		60.546875
554		52.734375
555		58.593750
556		48.828125
557		54.687500
558		44.921875
559		50.781250
560		41.015625
561		46.875000
562		37.109375
563		42.968750
564		33.203125
565		39.062500
566		29.296875
567		35.156250
568		25.390625
569		31.250000
570		21.484375
571		27.343750
572		17.578125
573		23.437500
574		13.671875
575		19.531250
576		9.765625
577		15.625000
578		5.859375
579		11.718750
580		1.953125
581		5.859375
582		-3.906250
583		1.953125
584		-7.812500
585		-1.953125
586		-11.718750
587		-5.859375
588		-15.625000
589		-9.765625
590		-19.531250
591		-13.671875
592		-23.437500
593		-17.578125
594		-27.343750
595		-21.484375
596		-31.250000
597		-25.390625
598		-35.156250
599		-29.296875
600		-39.062500
601		-33.203125
602		-42.968750
603		-37.109375
604		-46.875000
605		-41.015625
606		-48.828125
607		-44.921875
608		-52.734375
609		-48.828125
610		-56.640625
611		-50.781250
612		-58.593750
613		-52.734375
614		-60.546875
615		-56.640625
616		-64.453125
617		-58.593750
618		-66.406250
619		-62.500000
620		-68.359375
621		-64.453125
622		-70.312500
623		-66.406250
624		-72.265625
625		-68.359375
626		-74.218750
627		-70.312500
628		-76.171875
629		-70.312500
630		-76.171875
631		-74.218750
632		-78.125000
633		-74.218750
634		-78.125000
635		-74.218750
636		-78.125000
637		-76.171875
638		-78.125000
639		-74.218750
640		-78.125000
641		-76.171875
642		-78.125000
643		-76.171875
644		-80.078125
645		-74.218750
646		-78.125000
647		-74.218750
648		-76.171875
649		-74.218750
650		-76.171875
651		-72.265625
652		-74.218750
653		-72.265625
654		-74.218750
655		-70.312500
656		-72.265625
657		-68.359375
658		-70.312500
659		-66.406250
660		-68.359375
661		-64.453125
662		-66.406250
663		-62.500000
664		-64.453125
665		-58.593750
666		-60.546875
667		-56.640625
668		-58.593750
669		-54.687500
670		-54.687500
671		-50.781250
672		-52.734375
673		-46.875000
674		-48.828125
675		-42.968750
676		-44.921875
677		-41.015625
678		-42.968750
679		-37.109375
680		-39.062500
681		-33.203125
682		-35.156250
683		-29.296875
684		-33.203125
685		-25.390625
686		-27.343750
687		-21.484375
688		-23.437500
689		-17.578125
690		-19.531250
691		-13.671875
692		-15.625000
693		-9.765625
694		-9.765625
695		-5.859375
696		-7.812500
697		0.000000
698		-1.953125
699		3.906250
700		1.953125
701		7.812500
702		5.859375
703		11.718750
704		9.765625
705		15.625000
706		13.671875
707		19.531250
708		17.578125
709		23.437500
710		21.484375
711		27.343750
712		25.390625
713		31.250000
714		29.296875
715		35.156250
716		35.156250
717		39.062500
718		39.062500
719		44.921875
720		41.015625
721		46.875000
722		44.921875
723		50.781250
724		48.828125
725		52.734375
726		52.734375
727		56.640625
728		54.687500
729		60.546875
730		58.593750
731		62.500000
732		62.500000
733		66.406250
734		64.453125
735		68.359375
736		66.406250
737		72.265625
738		70.312500
739		74.218750
740		72.265625
741		76.171875
742		74.218750
743		78.125000
744		76.171875
745		80.078125
746		78.125000
747		82.031250
748		80.078125
749		83.984375
750		82.031250
751		85.937500
752		82.031250
753		85.937500
754		83.984375
755		87.890625
756		85.937500
757		89.843750
758		85.937500
759		89.843750
760		85.937500
761		89.843750
762		87.890625
763		91.796875
764		87.890625
765		89.843750
766		87.890625
767		89.843750
768		87.890625
769		91.796875
770		87.890625
771		91.796875
772		87.890625
773		89.843750
774		85.937500
775		89.843750
776		85.937500
777		89.843750
778		85.937500
779		89.843750
780		83.984375
781		87.890625
782		82.031250
783		85.937500
784		80.078125
785		83.984375
786		80.078125
787		82.031250
788		76.171875
789		80.078125
790		74.218750
791		80.078125
792		72.265625
793		76.171875
794		70.312500
795		76.171875
796		68.359375
797		72.265625
798		66.406250
799		70.312500
800		60.546875
801		66.406250
802		58.593750
803		64.453125
804		56.640625
805		60.546875
806		52.734375
807		58.593750
808		50.781250
809		54.687500
810		44.921875
811		50.781250
812		42.968750
813		48.828125
814		39.062500
815		44.921875
816		35.156250
817		41.015625
818		29.296875
819		37.109375
820		27.343750
821		33.203125
822		23.437500
823		29.296875
824		19.531250
825		25.390625
826		13.671875
827		21.484375
828		11.718750
829		15.625000
830		5.859375
831		13.671875
832		1.953125
833		7.812500
834		-1.953125
835		3.906250
836		-5.859375
837		0.000000
838		-11.718750
839		-3.906250
840		-13.671875
841		-9.765625
842		-17.578125
843		-13.671875
844		-23.437500
845		-17.578125
846		-27.343750
847		-21.484375
848		-29.296875
849		-25.390625
850		-33.203125
851		-29.296875
852		-39.062500
853		-33.203125
854		-42.968750
855		-37.109375
856		-44.921875
857		-41.015625
858		-48.828125
859		-42.968750
860		-52.734375
861		-46.875000
862		-54.687500
863		-48.828125
864		-58.593750
865		-52.734375
866		-60.546875
867		-56.640625
868		-64.453125
869		-58.593750
870		-66.406250
871		-62.500000
872		-68.359375
873		-64.453125
874		-70.312500
875		-66.406250
876		-72.265625
877		-68.359375
878		-74.218750
879		-70.312500
880		-74.218750
881		-70.312500
882		-76.171875
883		-72.265625
884		-78.125000
885		-74.218750
886		-78.125000
887		-74.218750
888		-78.125000
889		-76.171875
890		-78.125000
891		-76.171875
892		-80.078125
893		-76.171875
894		-80.078125
895		-76.171875
896		-80.078125
897		-76.171875
898		-78.125000
899		-76.171875
900		-78.125000
901		-74.218750
902		-76.171875
903		-74.218750
904		-76.171875
905		-72.265625
906		-74.218750
907		-70.312500
908		-72.265625
909		-68.359375
910		-70.312500
911		-66.406250
912		-70.312500
913		-66.406250
914		-68.359375
915		-62.500000
916		-64.453125
917		-60.546875
918		-62.500000
919		-58.593750
920		-58.593750
921		-54.687500
922		-56.640625
923		-52.734375
924		-54.687500
925		-48.828125
926		-50.781250
927		-46.875000
928		-46.875000
929		-42.968750
930		-42.968750
931		-39.062500
932		-41.015625
933		-35.156250
934		-37.109375
935		-31.250000
936		-33.203125
937		-27.343750
938		-29.296875
939		-23.437500
940		-25.390625
941		-19.531250
942		-21.484375
943		-13.671875
944		-17.578125
945		-11.718750
946		-13.671875
947		-7.812500
948		-9.765625
949		-1.953125
950		-3.906250
951		1.953125
952		0.000000
953		5.859375
954		3.906250
955		9.765625
956		7.812500
957		13.671875
958		11.718750
959		19.531250
960		15.625000
961		23.437500
962		19.531250
963		27.343750
964		25.390625
965		31.250000
966		29.296875
967		33.203125
968		31.250000
969		39.062500
970		35.156250
971		41.015625
972		41.015625
973		44.921875
974		42.968750
975		48.828125
976		46.875000
977		52.734375
978		50.781250
979		56.640625
980		54.687500
981		60.546875
982		56.640625
983		62.500000
984		60.546875
985		64.453125
986		62.500000
987		68.359375
988		66.406250
989		70.312500
990		66.406250
991		72.265625
992		70.312500
993		76.171875
994		72.265625
995		78.125000
996		76.171875
997		80.078125
998		78.125000
999		82.031250
1000		80.078125
1001		82.031250
1002		82.031250
1003		85.937500
1004		82.031250
1005		85.937500
1006		82.031250
1007		89.843750
1008		85.937500
1009		87.890625
1010		83.984375
1011		89.843750
1012		87.890625
1013		89.843750
1014		87.890625
1015		91.796875
1016		87.890625
1017		89.843750
1018		87.890625
1019		91.796875
1020		85.937500
1021		91.796875
1022		85.937500
1023		93.750000
1024		85.937500
1025		93.750000
1026		85.937500
1027		91.796875
1028		85.937500
1029		91.796875
1030		83.984375
1031		87.890625
1032		83.984375
1033		87.890625
1034		83.984375
1035		85.937500
1036		80.078125
1037		85.937500
1038		78.125000
1039		85.937500
1040		76.171875
1041		83.984375
1042		74.218750
1043		82.031250
1044		72.265625
1045		80.078125
1046		72.265625
1047		76.171875
1048		68.359375
1049		74.218750
1050		66.406250
1051		70.312500
1052		64.453125
1053		68.359375
1054		58.593750
1055		68.359375
1056		56.640625
1057		64.453125
1058		54.687500
1059		62.500000
1060		50.781250
1061		58.593750
1062		46.875000
1063		54.687500
1064		42.968750
1065		50.781250
1066		41.015625
1067		46.875000
1068		37.109375
1069		42.968750
1070		31.250000
1071		39.062500
1072		25.390625
1073		37.109375
1074		23.437500
1075		33.203125
1076		19.531250
1077		27.343750
1078		13.671875
1079		25.390625
1080		11.718750
1081		21.484375
1082		7.812500
1083		13.671875
1084		3.906250
1085		9.765625
1086		-1.953125
1087		5.859375
1088		-5.859375
1089		1.953125
1090		-9.765625
1091		0.000000
1092		-13.671875
1093		-5.859375
1094		-17.578125
1095		-9.765625
1096		-23.437500
1097		-13.671875
1098		-25.390625
1099		-17.578125
1100		-29.296875
1101		-23.437500
1102		-33.203125
1103		-27.343750
1104		-39.062500
1105		-29.296875
1106		-42.968750
1107		-33.203125
1108		-44.921875
1109		-37.109375
1110		-48.828125
1111		-41.015625
1112		-52.734375
1113		-44.921875
1114		-54.687500
1115		-46.875000
1116		-56.640625
1117		-50.781250
1118		-58.593750
1119		-54.687500
1120		-64.453125
1121		-56.640625
1122		-66.406250
1123		-58.593750
1124		-70.312500
1125		-60.546875
1126		-72.265625
1127		-64.453125
1128		-74.218750
1129		-66.406250
1130		-74.218750
1131		-68.359375
1132		-76.171875
1133		-70.312500
1134		-76.171875
1135		-72.265625
1136		-76.171875
1137		-74.218750
1138		-80.078125
1139		-74.218750
1140		-80.078125
1141		-74.218750
1142		-80.078125
1143		-74.218750
1144		-82.031250
1145		-74.218750
1146		-82.031250
1147		-74.218750
1148		-82.031250
1149		-74.218750
1150		-80.078125
1151		-76.171875
1152		-78.125000
1153		-76.171875
1154		-78.125000
1155		-72.265625
1156		-80.078125
1157		-72.265625
1158		-78.125000
1159		-70.312500
1160		-76.171875
1161		-68.359375
1162		-74.218750
1163		-66.406250
1164		-72.265625
1165		-64.453125
1166		-70.312500
1167		-64.453125
1168		-66.406250
1169		-62.500000
1170		-64.453125
1171		-56.640625
1172		-62.500000
1173		-54.687500
1174		-60.546875
1175		-50.781250
1176		-58.593750
1177		-48.828125
1178		-54.687500
1179		-46.875000
1180		-50.781250
1181		-42.968750
1182		-46.875000
1183		-39.062500
1184		-42.968750
1185		-37.109375
1186		-39.062500
1187		-33.203125
1188		-37.109375
1189		-27.343750
1190		-33.203125
1191		-23.437500
1192		-29.296875
1193		-19.531250
1194		-25.390625
1195		-15.625000
1196		-21.484375
1197		-11.718750
1198		-17.578125
1199		-7.812500
1200		-13.671875
1201		-5.859375
1202		-5.859375
1203		0.000000
1204		-1.953125
1205		5.859375
1206		0.000000
1207		9.765625
1208		3.906250
1209		13.671875
1210		7.812500
1211		17.578125
1212		11.718750
1213		21.484375
1214		15.625000
1215		27.343750
1216		19.531250
1217		27.343750
1218		27.343750
1219		31.250000
1220		31.250000
1221		35.156250
1222		31.250000
1223		41.015625
1224		37.109375
1225		44.921875
1226		39.062500
1227		48.828125
1228		42.968750
1229		52.734375
1230		46.875000
1231		54.687500
1232		48.828125
1233		58.593750
1234		54.687500
1235		60.546875
1236		58.593750
1237		62.500000
1238		58.593750
1239		68.359375
1240		62.500000
1241		70.312500
1242		64.453125
1243		74.218750
1244		68.359375
1245		76.171875
1246		70.312500
1247		78.125000
1248		72.265625
1249		80.078125
1250		74.218750
1251		82.031250
1252		78.125000
1253		82.031250
1254		80.078125
1255		85.937500
1256		80.078125
1257		87.890625
1258		80.078125
1259		87.890625
1260		82.031250
1261		89.843750
1262		83.984375
1263		89.843750
1264		83.984375
1265		91.796875
1266		83.984375
1267		91.796875
1268		87.890625
1269		89.843750
1270		87.890625
1271		89.843750
1272		85.937500
1273		93.750000
1274		85.937500
