Old_data/metingen laweit/30cm, resfreq1/data_81_234.txt

Channel              :		CH1
Frequency            :		682.1Hz
Period               :		1.466ms
PK-PK                :		128.9mV
Probe attenuation    :		1X
Voltage per ADC value:		0.122070mV
Time interval        :		2.00000us

index		CH1_Voltage(mV)
1		54.687500
2		54.687500
3		46.875000
4		56.640625
5		48.828125
6		54.687500
7		48.828125
8		54.687500
9		48.828125
10		56.640625
11		48.828125
12		56.640625
13		50.781250
14		54.687500
15		50.781250
16		56.640625
17		50.781250
18		56.640625
19		50.781250
20		58.593750
21		50.781250
22		58.593750
23		50.781250
24		58.593750
25		50.781250
26		58.593750
27		52.734375
28		58.593750
29		54.687500
30		56.640625
31		54.687500
32		58.593750
33		52.734375
34		60.546875
35		52.734375
36		58.593750
37		52.734375
38		58.593750
39		54.687500
40		60.546875
41		54.687500
42		60.546875
43		54.687500
44		60.546875
45		54.687500
46		60.546875
47		56.640625
48		58.593750
49		56.640625
50		60.546875
51		54.687500
52		60.546875
53		54.687500
54		60.546875
55		54.687500
56		60.546875
57		54.687500
58		60.546875
59		54.687500
60		60.546875
61		54.687500
62		60.546875
63		54.687500
64		60.546875
65		56.640625
66		58.593750
67		54.687500
68		60.546875
69		54.687500
70		60.546875
71		54.687500
72		60.546875
73		54.687500
74		60.546875
75		52.734375
76		60.546875
77		52.734375
78		60.546875
79		52.734375
80		58.593750
81		54.687500
82		58.593750
83		52.734375
84		58.593750
85		52.734375
86		58.593750
87		52.734375
88		58.593750
89		52.734375
90		58.593750
91		52.734375
92		58.593750
93		50.781250
94		58.593750
95		50.781250
96		58.593750
97		52.734375
98		56.640625
99		52.734375
100		56.640625
101		50.781250
102		56.640625
103		50.781250
104		56.640625
105		48.828125
106		56.640625
107		48.828125
108		56.640625
109		48.828125
110		54.687500
111		48.828125
112		54.687500
113		48.828125
114		52.734375
115		48.828125
116		52.734375
117		46.875000
118		52.734375
119		46.875000
120		52.734375
121		44.921875
122		52.734375
123		46.875000
124		52.734375
125		44.921875
126		52.734375
127		44.921875
128		50.781250
129		44.921875
130		50.781250
131		44.921875
132		48.828125
133		44.921875
134		48.828125
135		42.968750
136		48.828125
137		42.968750
138		48.828125
139		41.015625
140		48.828125
141		41.015625
142		46.875000
143		39.062500
144		46.875000
145		39.062500
146		44.921875
147		41.015625
148		42.968750
149		41.015625
150		42.968750
151		37.109375
152		42.968750
153		37.109375
154		42.968750
155		37.109375
156		42.968750
157		35.156250
158		41.015625
159		33.203125
160		41.015625
161		33.203125
162		41.015625
163		33.203125
164		39.062500
165		33.203125
166		37.109375
167		31.250000
168		37.109375
169		31.250000
170		37.109375
171		29.296875
172		37.109375
173		29.296875
174		35.156250
175		27.343750
176		35.156250
177		27.343750
178		33.203125
179		27.343750
180		33.203125
181		27.343750
182		31.250000
183		25.390625
184		29.296875
185		23.437500
186		31.250000
187		21.484375
188		29.296875
189		21.484375
190		27.343750
191		21.484375
192		27.343750
193		19.531250
194		27.343750
195		19.531250
196		25.390625
197		19.531250
198		23.437500
199		17.578125
200		21.484375
201		17.578125
202		21.484375
203		15.625000
204		21.484375
205		13.671875
206		21.484375
207		11.718750
208		21.484375
209		11.718750
210		19.531250
211		11.718750
212		17.578125
213		11.718750
214		17.578125
215		11.718750
216		13.671875
217		9.765625
218		15.625000
219		7.812500
220		13.671875
221		7.812500
222		13.671875
223		5.859375
224		11.718750
225		3.906250
226		9.765625
227		1.953125
228		9.765625
229		1.953125
230		7.812500
231		3.906250
232		5.859375
233		1.953125
234		3.906250
235		-1.953125
236		5.859375
237		-1.953125
238		3.906250
239		-3.906250
240		3.906250
241		-3.906250
242		1.953125
243		-3.906250
244		0.000000
245		-5.859375
246		1.953125
247		-5.859375
248		0.000000
249		-5.859375
250		-3.906250
251		-9.765625
252		-3.906250
253		-9.765625
254		-3.906250
255		-11.718750
256		-3.906250
257		-11.718750
258		-5.859375
259		-13.671875
260		-7.812500
261		-13.671875
262		-7.812500
263		-15.625000
264		-7.812500
265		-13.671875
266		-11.718750
267		-15.625000
268		-11.718750
269		-17.578125
270		-11.718750
271		-19.531250
272		-13.671875
273		-21.484375
274		-13.671875
275		-21.484375
276		-15.625000
277		-23.437500
278		-15.625000
279		-23.437500
280		-17.578125
281		-23.437500
282		-17.578125
283		-23.437500
284		-21.484375
285		-25.390625
286		-21.484375
287		-27.343750
288		-21.484375
289		-27.343750
290		-21.484375
291		-29.296875
292		-23.437500
293		-29.296875
294		-23.437500
295		-31.250000
296		-23.437500
297		-31.250000
298		-25.390625
299		-31.250000
300		-29.296875
301		-31.250000
302		-29.296875
303		-35.156250
304		-29.296875
305		-35.156250
306		-29.296875
307		-37.109375
308		-31.250000
309		-37.109375
310		-31.250000
311		-39.062500
312		-31.250000
313		-39.062500
314		-33.203125
315		-39.062500
316		-35.156250
317		-39.062500
318		-37.109375
319		-41.015625
320		-35.156250
321		-42.968750
322		-37.109375
323		-44.921875
324		-37.109375
325		-44.921875
326		-37.109375
327		-44.921875
328		-39.062500
329		-44.921875
330		-39.062500
331		-46.875000
332		-41.015625
333		-44.921875
334		-42.968750
335		-48.828125
336		-41.015625
337		-48.828125
338		-42.968750
339		-50.781250
340		-42.968750
341		-50.781250
342		-44.921875
343		-50.781250
344		-44.921875
345		-50.781250
346		-44.921875
347		-52.734375
348		-46.875000
349		-50.781250
350		-48.828125
351		-50.781250
352		-48.828125
353		-52.734375
354		-46.875000
355		-54.687500
356		-48.828125
357		-54.687500
358		-48.828125
359		-56.640625
360		-48.828125
361		-56.640625
362		-48.828125
363		-56.640625
364		-50.781250
365		-56.640625
366		-50.781250
367		-56.640625
368		-52.734375
369		-58.593750
370		-52.734375
371		-58.593750
372		-52.734375
373		-58.593750
374		-52.734375
375		-58.593750
376		-52.734375
377		-60.546875
378		-54.687500
379		-60.546875
380		-54.687500
381		-60.546875
382		-54.687500
383		-58.593750
384		-56.640625
385		-60.546875
386		-56.640625
387		-62.500000
388		-56.640625
389		-62.500000
390		-56.640625
391		-62.500000
392		-56.640625
393		-62.500000
394		-56.640625
395		-62.500000
396		-56.640625
397		-64.453125
398		-56.640625
399		-62.500000
400		-58.593750
401		-62.500000
402		-58.593750
403		-64.453125
404		-58.593750
405		-64.453125
406		-58.593750
407		-66.406250
408		-56.640625
409		-64.453125
410		-58.593750
411		-64.453125
412		-58.593750
413		-64.453125
414		-58.593750
415		-64.453125
416		-58.593750
417		-62.500000
418		-60.546875
419		-64.453125
420		-58.593750
421		-64.453125
422		-58.593750
423		-66.406250
424		-58.593750
425		-64.453125
426		-58.593750
427		-64.453125
428		-58.593750
429		-64.453125
430		-58.593750
431		-64.453125
432		-58.593750
433		-62.500000
434		-60.546875
435		-62.500000
436		-60.546875
437		-64.453125
438		-58.593750
439		-64.453125
440		-58.593750
441		-64.453125
442		-58.593750
443		-64.453125
444		-58.593750
445		-64.453125
446		-56.640625
447		-62.500000
448		-58.593750
449		-64.453125
450		-58.593750
451		-60.546875
452		-58.593750
453		-64.453125
454		-56.640625
455		-62.500000
456		-56.640625
457		-62.500000
458		-56.640625
459		-62.500000
460		-56.640625
461		-60.546875
462		-54.687500
463		-62.500000
464		-54.687500
465		-60.546875
466		-54.687500
467		-58.593750
468		-56.640625
469		-58.593750
470		-54.687500
471		-60.546875
472		-54.687500
473		-58.593750
474		-52.734375
475		-58.593750
476		-52.734375
477		-58.593750
478		-50.781250
479		-58.593750
480		-52.734375
481		-58.593750
482		-50.781250
483		-56.640625
484		-52.734375
485		-54.687500
486		-52.734375
487		-54.687500
488		-48.828125
489		-56.640625
490		-48.828125
491		-54.687500
492		-48.828125
493		-54.687500
494		-48.828125
495		-54.687500
496		-46.875000
497		-52.734375
498		-46.875000
499		-52.734375
500		-46.875000
501		-50.781250
502		-46.875000
503		-48.828125
504		-44.921875
505		-50.781250
506		-44.921875
507		-48.828125
508		-42.968750
509		-48.828125
510		-42.968750
511		-48.828125
512		-41.015625
513		-46.875000
514		-41.015625
515		-46.875000
516		-41.015625
517		-44.921875
518		-41.015625
519		-42.968750
520		-41.015625
521		-44.921875
522		-37.109375
523		-42.968750
524		-37.109375
525		-42.968750
526		-35.156250
527		-41.015625
528		-35.156250
529		-41.015625
530		-35.156250
531		-41.015625
532		-33.203125
533		-39.062500
534		-33.203125
535		-37.109375
536		-33.203125
537		-37.109375
538		-31.250000
539		-37.109375
540		-29.296875
541		-35.156250
542		-29.296875
543		-35.156250
544		-27.343750
545		-33.203125
546		-27.343750
547		-33.203125
548		-27.343750
549		-31.250000
550		-25.390625
551		-29.296875
552		-27.343750
553		-29.296875
554		-25.390625
555		-29.296875
556		-21.484375
557		-29.296875
558		-21.484375
559		-27.343750
560		-21.484375
561		-27.343750
562		-19.531250
563		-25.390625
564		-17.578125
565		-23.437500
566		-17.578125
567		-23.437500
568		-19.531250
569		-21.484375
570		-17.578125
571		-21.484375
572		-13.671875
573		-19.531250
574		-13.671875
575		-19.531250
576		-13.671875
577		-17.578125
578		-11.718750
579		-17.578125
580		-9.765625
581		-15.625000
582		-9.765625
583		-15.625000
584		-9.765625
585		-13.671875
586		-9.765625
587		-11.718750
588		-7.812500
589		-11.718750
590		-5.859375
591		-9.765625
592		-3.906250
593		-11.718750
594		-3.906250
595		-9.765625
596		-1.953125
597		-7.812500
598		-1.953125
599		-7.812500
600		0.000000
601		-3.906250
602		-1.953125
603		-3.906250
604		0.000000
605		-5.859375
606		3.906250
607		-1.953125
608		3.906250
609		-1.953125
610		5.859375
611		0.000000
612		5.859375
613		0.000000
614		5.859375
615		1.953125
616		7.812500
617		1.953125
618		7.812500
619		5.859375
620		7.812500
621		3.906250
622		9.765625
623		3.906250
624		11.718750
625		5.859375
626		11.718750
627		5.859375
628		13.671875
629		9.765625
630		15.625000
631		9.765625
632		15.625000
633		9.765625
634		17.578125
635		13.671875
636		15.625000
637		13.671875
638		17.578125
639		13.671875
640		19.531250
641		13.671875
642		21.484375
643		15.625000
644		21.484375
645		15.625000
646		21.484375
647		17.578125
648		23.437500
649		19.531250
650		25.390625
651		19.531250
652		25.390625
653		21.484375
654		25.390625
655		21.484375
656		27.343750
657		21.484375
658		29.296875
659		23.437500
660		29.296875
661		23.437500
662		29.296875
663		23.437500
664		31.250000
665		23.437500
666		31.250000
667		27.343750
668		31.250000
669		27.343750
670		31.250000
671		27.343750
672		35.156250
673		27.343750
674		35.156250
675		29.296875
676		35.156250
677		31.250000
678		37.109375
679		31.250000
680		37.109375
681		31.250000
682		39.062500
683		31.250000
684		39.062500
685		33.203125
686		39.062500
687		35.156250
688		39.062500
689		35.156250
690		41.015625
691		35.156250
692		42.968750
693		35.156250
694		42.968750
695		37.109375
696		42.968750
697		39.062500
698		44.921875
699		39.062500
700		44.921875
701		39.062500
702		44.921875
703		41.015625
704		44.921875
705		41.015625
706		46.875000
707		41.015625
708		48.828125
709		41.015625
710		48.828125
711		41.015625
712		48.828125
713		42.968750
714		48.828125
715		42.968750
716		50.781250
717		44.921875
718		50.781250
719		46.875000
720		48.828125
721		46.875000
722		50.781250
723		46.875000
724		52.734375
725		46.875000
726		52.734375
727		46.875000
728		52.734375
729		46.875000
730		52.734375
731		46.875000
732		54.687500
733		48.828125
734		54.687500
735		48.828125
736		52.734375
737		50.781250
738		52.734375
739		48.828125
740		56.640625
741		48.828125
742		56.640625
743		50.781250
744		56.640625
745		50.781250
746		56.640625
747		50.781250
748		56.640625
749		50.781250
750		56.640625
751		50.781250
752		58.593750
753		54.687500
754		56.640625
755		52.734375
756		56.640625
757		52.734375
758		58.593750
759		52.734375
760		58.593750
761		52.734375
762		60.546875
763		52.734375
764		60.546875
765		52.734375
766		60.546875
767		52.734375
768		60.546875
769		54.687500
770		58.593750
771		56.640625
772		58.593750
773		54.687500
774		60.546875
775		54.687500
776		60.546875
777		54.687500
778		60.546875
779		54.687500
780		60.546875
781		54.687500
782		62.500000
783		54.687500
784		60.546875
785		54.687500
786		60.546875
787		56.640625
788		60.546875
789		54.687500
790		60.546875
791		54.687500
792		60.546875
793		54.687500
794		60.546875
795		54.687500
796		60.546875
797		54.687500
798		60.546875
799		54.687500
800		60.546875
801		54.687500
802		60.546875
803		56.640625
804		58.593750
805		56.640625
806		58.593750
807		54.687500
808		60.546875
809		52.734375
810		60.546875
811		54.687500
812		60.546875
813		52.734375
814		60.546875
815		52.734375
816		60.546875
817		52.734375
818		60.546875
819		54.687500
820		58.593750
821		54.687500
822		56.640625
823		52.734375
824		58.593750
825		52.734375
826		58.593750
827		50.781250
828		58.593750
829		50.781250
830		58.593750
831		50.781250
832		58.593750
833		50.781250
834		56.640625
835		50.781250
836		58.593750
837		52.734375
838		54.687500
839		50.781250
840		56.640625
841		50.781250
842		56.640625
843		50.781250
844		56.640625
845		48.828125
846		54.687500
847		48.828125
848		54.687500
849		48.828125
850		54.687500
851		48.828125
852		52.734375
853		48.828125
854		52.734375
855		46.875000
856		50.781250
857		44.921875
858		52.734375
859		44.921875
860		52.734375
861		44.921875
862		50.781250
863		42.968750
864		50.781250
865		42.968750
866		50.781250
867		42.968750
868		48.828125
869		42.968750
870		48.828125
871		42.968750
872		46.875000
873		41.015625
874		46.875000
875		39.062500
876		46.875000
877		39.062500
878		46.875000
879		39.062500
880		46.875000
881		39.062500
882		44.921875
883		39.062500
884		44.921875
885		37.109375
886		44.921875
887		39.062500
888		41.015625
889		37.109375
890		41.015625
891		35.156250
892		41.015625
893		35.156250
894		41.015625
895		33.203125
896		39.062500
897		33.203125
898		39.062500
899		31.250000
900		39.062500
901		31.250000
902		37.109375
903		31.250000
904		37.109375
905		31.250000
906		35.156250
907		29.296875
908		35.156250
909		27.343750
910		35.156250
911		27.343750
912		33.203125
913		25.390625
914		33.203125
915		25.390625
916		31.250000
917		23.437500
918		31.250000
919		23.437500
920		29.296875
921		25.390625
922		27.343750
923		23.437500
924		27.343750
925		21.484375
926		27.343750
927		19.531250
928		27.343750
929		19.531250
930		25.390625
931		17.578125
932		25.390625
933		17.578125
934		23.437500
935		15.625000
936		23.437500
937		17.578125
938		19.531250
939		15.625000
940		19.531250
941		11.718750
942		19.531250
943		11.718750
944		17.578125
945		11.718750
946		17.578125
947		9.765625
948		17.578125
949		9.765625
950		15.625000
951		9.765625
952		15.625000
953		7.812500
954		13.671875
955		7.812500
956		11.718750
957		3.906250
958		11.718750
959		3.906250
960		11.718750
961		3.906250
962		9.765625
963		1.953125
964		9.765625
965		0.000000
966		7.812500
967		0.000000
968		7.812500
969		0.000000
970		5.859375
971		0.000000
972		3.906250
973		-1.953125
974		1.953125
975		-3.906250
976		1.953125
977		-5.859375
978		1.953125
979		-5.859375
980		0.000000
981		-7.812500
982		0.000000
983		-7.812500
984		-1.953125
985		-9.765625
986		-1.953125
987		-7.812500
988		-3.906250
989		-9.765625
990		-5.859375
991		-11.718750
992		-5.859375
993		-13.671875
994		-5.859375
995		-13.671875
996		-7.812500
997		-13.671875
998		-7.812500
999		-17.578125
1000		-9.765625
1001		-17.578125
1002		-9.765625
1003		-17.578125
1004		-11.718750
1005		-17.578125
1006		-13.671875
1007		-17.578125
1008		-15.625000
1009		-21.484375
1010		-15.625000
1011		-21.484375
1012		-15.625000
1013		-23.437500
1014		-15.625000
1015		-23.437500
1016		-17.578125
1017		-25.390625
1018		-17.578125
1019		-27.343750
1020		-19.531250
1021		-25.390625
1022		-21.484375
1023		-25.390625
1024		-23.437500
1025		-27.343750
1026		-23.437500
1027		-29.296875
1028		-23.437500
1029		-31.250000
1030		-23.437500
1031		-31.250000
1032		-25.390625
1033		-33.203125
1034		-27.343750
1035		-33.203125
1036		-27.343750
1037		-33.203125
1038		-27.343750
1039		-33.203125
1040		-29.296875
1041		-35.156250
1042		-31.250000
1043		-37.109375
1044		-31.250000
1045		-37.109375
1046		-31.250000
1047		-39.062500
1048		-33.203125
1049		-39.062500
1050		-33.203125
1051		-41.015625
1052		-33.203125
1053		-41.015625
1054		-35.156250
1055		-41.015625
1056		-37.109375
1057		-41.015625
1058		-39.062500
1059		-44.921875
1060		-37.109375
1061		-44.921875
1062		-37.109375
1063		-44.921875
1064		-41.015625
1065		-44.921875
1066		-41.015625
1067		-46.875000
1068		-41.015625
1069		-46.875000
1070		-41.015625
1071		-46.875000
1072		-42.968750
1073		-46.875000
1074		-44.921875
1075		-48.828125
1076		-44.921875
1077		-50.781250
1078		-42.968750
1079		-50.781250
1080		-44.921875
1081		-52.734375
1082		-44.921875
1083		-52.734375
1084		-46.875000
1085		-52.734375
1086		-46.875000
1087		-52.734375
1088		-48.828125
1089		-52.734375
1090		-50.781250
1091		-52.734375
1092		-50.781250
1093		-54.687500
1094		-48.828125
1095		-56.640625
1096		-48.828125
1097		-56.640625
1098		-50.781250
1099		-56.640625
1100		-50.781250
1101		-56.640625
1102		-50.781250
1103		-58.593750
1104		-52.734375
1105		-58.593750
1106		-52.734375
1107		-56.640625
1108		-54.687500
1109		-58.593750
1110		-54.687500
1111		-60.546875
1112		-54.687500
1113		-60.546875
1114		-54.687500
1115		-60.546875
1116		-54.687500
1117		-60.546875
1118		-54.687500
1119		-62.500000
1120		-54.687500
1121		-60.546875
1122		-56.640625
1123		-60.546875
1124		-58.593750
1125		-62.500000
1126		-58.593750
1127		-60.546875
1128		-56.640625
1129		-62.500000
1130		-56.640625
1131		-60.546875
1132		-58.593750
1133		-62.500000
1134		-58.593750
1135		-62.500000
1136		-58.593750
1137		-62.500000
1138		-58.593750
1139		-62.500000
1140		-58.593750
1141		-62.500000
1142		-60.546875
1143		-62.500000
1144		-58.593750
1145		-64.453125
1146		-58.593750
1147		-62.500000
1148		-60.546875
1149		-64.453125
1150		-58.593750
1151		-64.453125
1152		-60.546875
1153		-64.453125
1154		-60.546875
1155		-64.453125
1156		-58.593750
1157		-62.500000
1158		-60.546875
1159		-62.500000
1160		-60.546875
1161		-64.453125
1162		-60.546875
1163		-62.500000
1164		-60.546875
1165		-62.500000
1166		-58.593750
1167		-62.500000
1168		-58.593750
1169		-62.500000
1170		-60.546875
1171		-64.453125
1172		-58.593750
1173		-62.500000
1174		-60.546875
1175		-62.500000
1176		-60.546875
1177		-62.500000
1178		-58.593750
1179		-62.500000
1180		-58.593750
1181		-62.500000
1182		-58.593750
1183		-62.500000
1184		-56.640625
1185		-62.500000
1186		-58.593750
1187		-60.546875
1188		-58.593750
1189		-60.546875
1190		-56.640625
1191		-60.546875
1192		-58.593750
1193		-60.546875
1194		-56.640625
1195		-60.546875
1196		-56.640625
1197		-58.593750
1198		-56.640625
1199		-58.593750
1200		-56.640625
1201		-58.593750
1202		-54.687500
1203		-58.593750
1204		-54.687500
1205		-56.640625
1206		-54.687500
1207		-56.640625
1208		-54.687500
1209		-58.593750
1210		-52.734375
1211		-56.640625
1212		-52.734375
1213		-56.640625
1214		-52.734375
1215		-56.640625
1216		-52.734375
1217		-54.687500
1218		-50.781250
1219		-54.687500
1220		-50.781250
1221		-54.687500
1222		-50.781250
1223		-52.734375
1224		-50.781250
1225		-52.734375
1226		-48.828125
1227		-52.734375
1228		-48.828125
1229		-52.734375
1230		-46.875000
1231		-50.781250
1232		-46.875000
1233		-48.828125
1234		-46.875000
1235		-50.781250
1236		-44.921875
1237		-48.828125
1238		-44.921875
1239		-48.828125
1240		-44.921875
1241		-48.828125
1242		-44.921875
1243		-46.875000
1244		-42.968750
1245		-46.875000
1246		-41.015625
1247		-44.921875
1248		-41.015625
1249		-44.921875
1250		-41.015625
1251		-42.968750
1252		-39.062500
1253		-42.968750
1254		-39.062500
1255		-42.968750
1256		-37.109375
1257		-41.015625
1258		-37.109375
1259		-39.062500
1260		-37.109375
1261		-41.015625
1262		-35.156250
1263		-39.062500
1264		-35.156250
1265		-37.109375
1266		-35.156250
1267		-37.109375
1268		-33.203125
1269		-35.156250
1270		-31.250000
