Old_data/metingen laweit/30cm, resfreq1/data_81_233.txt

Channel              :		CH1
Frequency            :		682.1Hz
Period               :		1.466ms
PK-PK                :		138.7mV
Probe attenuation    :		1X
Voltage per ADC value:		0.122070mV
Time interval        :		2.00000us

index		CH1_Voltage(mV)
1		52.734375
2		52.734375
3		58.593750
4		52.734375
5		60.546875
6		52.734375
7		60.546875
8		56.640625
9		58.593750
10		56.640625
11		58.593750
12		54.687500
13		60.546875
14		56.640625
15		62.500000
16		56.640625
17		62.500000
18		56.640625
19		62.500000
20		56.640625
21		64.453125
22		56.640625
23		62.500000
24		56.640625
25		62.500000
26		58.593750
27		62.500000
28		58.593750
29		62.500000
30		56.640625
31		64.453125
32		58.593750
33		64.453125
34		58.593750
35		64.453125
36		58.593750
37		64.453125
38		58.593750
39		64.453125
40		58.593750
41		64.453125
42		60.546875
43		64.453125
44		60.546875
45		64.453125
46		60.546875
47		66.406250
48		58.593750
49		66.406250
50		58.593750
51		66.406250
52		60.546875
53		66.406250
54		58.593750
55		66.406250
56		60.546875
57		66.406250
58		60.546875
59		64.453125
60		62.500000
61		64.453125
62		60.546875
63		66.406250
64		58.593750
65		66.406250
66		58.593750
67		66.406250
68		58.593750
69		66.406250
70		58.593750
71		66.406250
72		58.593750
73		64.453125
74		58.593750
75		66.406250
76		60.546875
77		62.500000
78		60.546875
79		62.500000
80		58.593750
81		64.453125
82		58.593750
83		64.453125
84		58.593750
85		64.453125
86		56.640625
87		64.453125
88		56.640625
89		64.453125
90		56.640625
91		64.453125
92		58.593750
93		62.500000
94		58.593750
95		60.546875
96		54.687500
97		62.500000
98		56.640625
99		62.500000
100		54.687500
101		62.500000
102		54.687500
103		62.500000
104		54.687500
105		60.546875
106		54.687500
107		60.546875
108		54.687500
109		60.546875
110		54.687500
111		58.593750
112		54.687500
113		58.593750
114		52.734375
115		58.593750
116		50.781250
117		58.593750
118		50.781250
119		58.593750
120		50.781250
121		56.640625
122		50.781250
123		56.640625
124		50.781250
125		56.640625
126		50.781250
127		54.687500
128		50.781250
129		52.734375
130		48.828125
131		54.687500
132		46.875000
133		54.687500
134		46.875000
135		52.734375
136		46.875000
137		52.734375
138		44.921875
139		52.734375
140		44.921875
141		52.734375
142		44.921875
143		50.781250
144		44.921875
145		48.828125
146		42.968750
147		48.828125
148		42.968750
149		48.828125
150		42.968750
151		48.828125
152		41.015625
153		46.875000
154		39.062500
155		46.875000
156		39.062500
157		44.921875
158		39.062500
159		44.921875
160		39.062500
161		41.015625
162		37.109375
163		41.015625
164		35.156250
165		42.968750
166		35.156250
167		41.015625
168		33.203125
169		41.015625
170		33.203125
171		39.062500
172		31.250000
173		39.062500
174		31.250000
175		37.109375
176		31.250000
177		35.156250
178		31.250000
179		35.156250
180		27.343750
181		33.203125
182		27.343750
183		33.203125
184		27.343750
185		33.203125
186		25.390625
187		33.203125
188		23.437500
189		31.250000
190		23.437500
191		29.296875
192		23.437500
193		29.296875
194		23.437500
195		25.390625
196		21.484375
197		25.390625
198		19.531250
199		25.390625
200		17.578125
201		25.390625
202		17.578125
203		23.437500
204		15.625000
205		23.437500
206		15.625000
207		21.484375
208		15.625000
209		19.531250
210		13.671875
211		17.578125
212		13.671875
213		17.578125
214		11.718750
215		17.578125
216		9.765625
217		15.625000
218		7.812500
219		15.625000
220		7.812500
221		13.671875
222		5.859375
223		13.671875
224		3.906250
225		11.718750
226		3.906250
227		11.718750
228		3.906250
229		7.812500
230		1.953125
231		7.812500
232		0.000000
233		7.812500
234		0.000000
235		5.859375
236		0.000000
237		5.859375
238		-1.953125
239		3.906250
240		-3.906250
241		1.953125
242		-5.859375
243		1.953125
244		-3.906250
245		0.000000
246		-5.859375
247		-1.953125
248		-9.765625
249		-1.953125
250		-9.765625
251		-3.906250
252		-11.718750
253		-3.906250
254		-11.718750
255		-5.859375
256		-11.718750
257		-5.859375
258		-13.671875
259		-5.859375
260		-13.671875
261		-9.765625
262		-13.671875
263		-11.718750
264		-15.625000
265		-11.718750
266		-17.578125
267		-11.718750
268		-19.531250
269		-13.671875
270		-21.484375
271		-13.671875
272		-21.484375
273		-15.625000
274		-21.484375
275		-17.578125
276		-21.484375
277		-15.625000
278		-23.437500
279		-19.531250
280		-25.390625
281		-19.531250
282		-27.343750
283		-21.484375
284		-27.343750
285		-21.484375
286		-29.296875
287		-23.437500
288		-31.250000
289		-23.437500
290		-31.250000
291		-25.390625
292		-31.250000
293		-25.390625
294		-31.250000
295		-29.296875
296		-33.203125
297		-29.296875
298		-37.109375
299		-29.296875
300		-37.109375
301		-29.296875
302		-37.109375
303		-31.250000
304		-37.109375
305		-31.250000
306		-39.062500
307		-33.203125
308		-41.015625
309		-35.156250
310		-41.015625
311		-35.156250
312		-41.015625
313		-37.109375
314		-42.968750
315		-37.109375
316		-44.921875
317		-37.109375
318		-44.921875
319		-39.062500
320		-44.921875
321		-39.062500
322		-44.921875
323		-41.015625
324		-48.828125
325		-41.015625
326		-48.828125
327		-42.968750
328		-48.828125
329		-44.921875
330		-48.828125
331		-46.875000
332		-50.781250
333		-44.921875
334		-52.734375
335		-44.921875
336		-52.734375
337		-46.875000
338		-54.687500
339		-46.875000
340		-54.687500
341		-48.828125
342		-54.687500
343		-48.828125
344		-54.687500
345		-50.781250
346		-54.687500
347		-52.734375
348		-56.640625
349		-50.781250
350		-58.593750
351		-50.781250
352		-58.593750
353		-52.734375
354		-60.546875
355		-52.734375
356		-60.546875
357		-54.687500
358		-62.500000
359		-54.687500
360		-60.546875
361		-54.687500
362		-60.546875
363		-58.593750
364		-62.500000
365		-56.640625
366		-64.453125
367		-56.640625
368		-64.453125
369		-56.640625
370		-62.500000
371		-58.593750
372		-64.453125
373		-58.593750
374		-66.406250
375		-58.593750
376		-66.406250
377		-58.593750
378		-64.453125
379		-62.500000
380		-64.453125
381		-62.500000
382		-68.359375
383		-60.546875
384		-68.359375
385		-60.546875
386		-68.359375
387		-60.546875
388		-68.359375
389		-62.500000
390		-68.359375
391		-62.500000
392		-68.359375
393		-62.500000
394		-70.312500
395		-62.500000
396		-68.359375
397		-64.453125
398		-70.312500
399		-62.500000
400		-70.312500
401		-64.453125
402		-70.312500
403		-64.453125
404		-70.312500
405		-64.453125
406		-70.312500
407		-64.453125
408		-70.312500
409		-64.453125
410		-70.312500
411		-64.453125
412		-70.312500
413		-66.406250
414		-70.312500
415		-66.406250
416		-72.265625
417		-64.453125
418		-72.265625
419		-64.453125
420		-70.312500
421		-64.453125
422		-72.265625
423		-64.453125
424		-72.265625
425		-64.453125
426		-72.265625
427		-64.453125
428		-70.312500
429		-66.406250
430		-70.312500
431		-66.406250
432		-70.312500
433		-64.453125
434		-70.312500
435		-64.453125
436		-70.312500
437		-64.453125
438		-70.312500
439		-64.453125
440		-70.312500
441		-64.453125
442		-70.312500
443		-64.453125
444		-70.312500
445		-64.453125
446		-68.359375
447		-64.453125
448		-70.312500
449		-64.453125
450		-70.312500
451		-62.500000
452		-70.312500
453		-62.500000
454		-68.359375
455		-62.500000
456		-68.359375
457		-62.500000
458		-68.359375
459		-62.500000
460		-68.359375
461		-62.500000
462		-66.406250
463		-62.500000
464		-64.453125
465		-60.546875
466		-66.406250
467		-60.546875
468		-66.406250
469		-60.546875
470		-66.406250
471		-58.593750
472		-66.406250
473		-58.593750
474		-64.453125
475		-58.593750
476		-64.453125
477		-58.593750
478		-62.500000
479		-58.593750
480		-62.500000
481		-58.593750
482		-62.500000
483		-56.640625
484		-62.500000
485		-54.687500
486		-60.546875
487		-54.687500
488		-60.546875
489		-54.687500
490		-60.546875
491		-52.734375
492		-60.546875
493		-52.734375
494		-58.593750
495		-52.734375
496		-56.640625
497		-52.734375
498		-54.687500
499		-52.734375
500		-56.640625
501		-50.781250
502		-56.640625
503		-48.828125
504		-54.687500
505		-48.828125
506		-54.687500
507		-46.875000
508		-52.734375
509		-46.875000
510		-52.734375
511		-46.875000
512		-50.781250
513		-46.875000
514		-48.828125
515		-46.875000
516		-48.828125
517		-42.968750
518		-48.828125
519		-42.968750
520		-48.828125
521		-41.015625
522		-46.875000
523		-41.015625
524		-46.875000
525		-39.062500
526		-44.921875
527		-39.062500
528		-44.921875
529		-37.109375
530		-41.015625
531		-39.062500
532		-42.968750
533		-35.156250
534		-41.015625
535		-35.156250
536		-41.015625
537		-35.156250
538		-39.062500
539		-33.203125
540		-39.062500
541		-31.250000
542		-37.109375
543		-31.250000
544		-37.109375
545		-29.296875
546		-33.203125
547		-31.250000
548		-33.203125
549		-29.296875
550		-33.203125
551		-27.343750
552		-33.203125
553		-25.390625
554		-31.250000
555		-25.390625
556		-31.250000
557		-23.437500
558		-29.296875
559		-23.437500
560		-29.296875
561		-21.484375
562		-25.390625
563		-21.484375
564		-23.437500
565		-21.484375
566		-23.437500
567		-17.578125
568		-23.437500
569		-17.578125
570		-23.437500
571		-15.625000
572		-21.484375
573		-15.625000
574		-21.484375
575		-13.671875
576		-19.531250
577		-13.671875
578		-17.578125
579		-11.718750
580		-15.625000
581		-11.718750
582		-13.671875
583		-11.718750
584		-15.625000
585		-7.812500
586		-13.671875
587		-7.812500
588		-13.671875
589		-5.859375
590		-11.718750
591		-5.859375
592		-9.765625
593		-3.906250
594		-9.765625
595		-1.953125
596		-7.812500
597		-3.906250
598		-5.859375
599		-1.953125
600		-5.859375
601		0.000000
602		-5.859375
603		1.953125
604		-3.906250
605		1.953125
606		-1.953125
607		3.906250
608		-1.953125
609		5.859375
610		-1.953125
611		5.859375
612		0.000000
613		5.859375
614		3.906250
615		5.859375
616		3.906250
617		9.765625
618		3.906250
619		9.765625
620		3.906250
621		11.718750
622		5.859375
623		11.718750
624		7.812500
625		13.671875
626		7.812500
627		15.625000
628		9.765625
629		15.625000
630		11.718750
631		15.625000
632		11.718750
633		15.625000
634		11.718750
635		19.531250
636		13.671875
637		19.531250
638		13.671875
639		21.484375
640		15.625000
641		21.484375
642		17.578125
643		23.437500
644		17.578125
645		25.390625
646		19.531250
647		23.437500
648		21.484375
649		23.437500
650		21.484375
651		27.343750
652		21.484375
653		27.343750
654		21.484375
655		29.296875
656		23.437500
657		31.250000
658		23.437500
659		31.250000
660		25.390625
661		31.250000
662		27.343750
663		33.203125
664		29.296875
665		33.203125
666		29.296875
667		33.203125
668		29.296875
669		35.156250
670		31.250000
671		37.109375
672		31.250000
673		37.109375
674		31.250000
675		39.062500
676		33.203125
677		39.062500
678		33.203125
679		39.062500
680		35.156250
681		39.062500
682		37.109375
683		39.062500
684		35.156250
685		42.968750
686		37.109375
687		44.921875
688		37.109375
689		44.921875
690		39.062500
691		44.921875
692		41.015625
693		44.921875
694		41.015625
695		46.875000
696		41.015625
697		46.875000
698		42.968750
699		46.875000
700		42.968750
701		48.828125
702		42.968750
703		48.828125
704		42.968750
705		50.781250
706		44.921875
707		50.781250
708		44.921875
709		52.734375
710		46.875000
711		52.734375
712		46.875000
713		52.734375
714		48.828125
715		50.781250
716		48.828125
717		52.734375
718		48.828125
719		54.687500
720		50.781250
721		56.640625
722		48.828125
723		56.640625
724		50.781250
725		56.640625
726		50.781250
727		56.640625
728		52.734375
729		58.593750
730		52.734375
731		58.593750
732		54.687500
733		58.593750
734		52.734375
735		58.593750
736		54.687500
737		60.546875
738		54.687500
739		60.546875
740		54.687500
741		60.546875
742		54.687500
743		60.546875
744		54.687500
745		62.500000
746		54.687500
747		60.546875
748		56.640625
749		60.546875
750		56.640625
751		60.546875
752		56.640625
753		62.500000
754		56.640625
755		62.500000
756		58.593750
757		62.500000
758		58.593750
759		64.453125
760		58.593750
761		64.453125
762		56.640625
763		64.453125
764		58.593750
765		64.453125
766		60.546875
767		62.500000
768		58.593750
769		64.453125
770		58.593750
771		64.453125
772		58.593750
773		64.453125
774		58.593750
775		64.453125
776		58.593750
777		64.453125
778		58.593750
779		64.453125
780		60.546875
781		66.406250
782		60.546875
783		64.453125
784		60.546875
785		66.406250
786		60.546875
787		64.453125
788		58.593750
789		66.406250
790		58.593750
791		66.406250
792		58.593750
793		66.406250
794		58.593750
795		66.406250
796		58.593750
797		66.406250
798		60.546875
799		62.500000
800		60.546875
801		64.453125
802		58.593750
803		66.406250
804		58.593750
805		64.453125
806		58.593750
807		64.453125
808		58.593750
809		64.453125
810		58.593750
811		66.406250
812		58.593750
813		64.453125
814		58.593750
815		64.453125
816		60.546875
817		62.500000
818		58.593750
819		62.500000
820		58.593750
821		62.500000
822		58.593750
823		62.500000
824		56.640625
825		62.500000
826		56.640625
827		62.500000
828		56.640625
829		62.500000
830		56.640625
831		60.546875
832		56.640625
833		60.546875
834		56.640625
835		58.593750
836		54.687500
837		60.546875
838		54.687500
839		60.546875
840		52.734375
841		60.546875
842		52.734375
843		60.546875
844		52.734375
845		58.593750
846		52.734375
847		58.593750
848		52.734375
849		56.640625
850		52.734375
851		56.640625
852		50.781250
853		56.640625
854		50.781250
855		56.640625
856		48.828125
857		56.640625
858		48.828125
859		56.640625
860		48.828125
861		54.687500
862		48.828125
863		54.687500
864		46.875000
865		54.687500
866		48.828125
867		50.781250
868		46.875000
869		50.781250
870		44.921875
871		52.734375
872		44.921875
873		50.781250
874		44.921875
875		50.781250
876		42.968750
877		50.781250
878		42.968750
879		48.828125
880		41.015625
881		48.828125
882		42.968750
883		46.875000
884		42.968750
885		44.921875
886		39.062500
887		46.875000
888		39.062500
889		44.921875
890		37.109375
891		44.921875
892		37.109375
893		42.968750
894		37.109375
895		42.968750
896		35.156250
897		42.968750
898		35.156250
899		41.015625
900		35.156250
901		39.062500
902		33.203125
903		39.062500
904		31.250000
905		39.062500
906		31.250000
907		37.109375
908		29.296875
909		37.109375
910		29.296875
911		35.156250
912		27.343750
913		35.156250
914		27.343750
915		33.203125
916		27.343750
917		31.250000
918		27.343750
919		29.296875
920		23.437500
921		31.250000
922		23.437500
923		29.296875
924		23.437500
925		29.296875
926		21.484375
927		27.343750
928		19.531250
929		27.343750
930		17.578125
931		25.390625
932		19.531250
933		23.437500
934		19.531250
935		21.484375
936		17.578125
937		21.484375
938		15.625000
939		21.484375
940		13.671875
941		21.484375
942		13.671875
943		19.531250
944		11.718750
945		19.531250
946		9.765625
947		17.578125
948		9.765625
949		17.578125
950		9.765625
951		13.671875
952		9.765625
953		11.718750
954		5.859375
955		13.671875
956		5.859375
957		11.718750
958		3.906250
959		9.765625
960		3.906250
961		9.765625
962		1.953125
963		7.812500
964		1.953125
965		7.812500
966		1.953125
967		3.906250
968		0.000000
969		3.906250
970		-1.953125
971		3.906250
972		-3.906250
973		3.906250
974		-3.906250
975		1.953125
976		-5.859375
977		0.000000
978		-7.812500
979		0.000000
980		-7.812500
981		-1.953125
982		-9.765625
983		-1.953125
984		-7.812500
985		-5.859375
986		-9.765625
987		-5.859375
988		-13.671875
989		-5.859375
990		-13.671875
991		-7.812500
992		-13.671875
993		-7.812500
994		-15.625000
995		-9.765625
996		-17.578125
997		-9.765625
998		-17.578125
999		-11.718750
1000		-17.578125
1001		-13.671875
1002		-17.578125
1003		-15.625000
1004		-21.484375
1005		-15.625000
1006		-23.437500
1007		-15.625000
1008		-23.437500
1009		-17.578125
1010		-25.390625
1011		-17.578125
1012		-25.390625
1013		-19.531250
1014		-25.390625
1015		-19.531250
1016		-25.390625
1017		-21.484375
1018		-27.343750
1019		-23.437500
1020		-29.296875
1021		-23.437500
1022		-31.250000
1023		-23.437500
1024		-33.203125
1025		-25.390625
1026		-33.203125
1027		-27.343750
1028		-33.203125
1029		-27.343750
1030		-35.156250
1031		-27.343750
1032		-35.156250
1033		-29.296875
1034		-35.156250
1035		-33.203125
1036		-37.109375
1037		-33.203125
1038		-39.062500
1039		-33.203125
1040		-39.062500
1041		-33.203125
1042		-41.015625
1043		-35.156250
1044		-42.968750
1045		-35.156250
1046		-42.968750
1047		-37.109375
1048		-42.968750
1049		-37.109375
1050		-42.968750
1051		-39.062500
1052		-42.968750
1053		-41.015625
1054		-46.875000
1055		-41.015625
1056		-48.828125
1057		-41.015625
1058		-48.828125
1059		-41.015625
1060		-48.828125
1061		-42.968750
1062		-50.781250
1063		-42.968750
1064		-50.781250
1065		-44.921875
1066		-50.781250
1067		-46.875000
1068		-52.734375
1069		-46.875000
1070		-54.687500
1071		-48.828125
1072		-54.687500
1073		-48.828125
1074		-56.640625
1075		-48.828125
1076		-56.640625
1077		-48.828125
1078		-56.640625
1079		-50.781250
1080		-56.640625
1081		-50.781250
1082		-58.593750
1083		-50.781250
1084		-56.640625
1085		-54.687500
1086		-58.593750
1087		-54.687500
1088		-58.593750
1089		-54.687500
1090		-60.546875
1091		-54.687500
1092		-62.500000
1093		-54.687500
1094		-62.500000
1095		-56.640625
1096		-62.500000
1097		-56.640625
1098		-62.500000
1099		-56.640625
1100		-62.500000
1101		-58.593750
1102		-62.500000
1103		-58.593750
1104		-62.500000
1105		-60.546875
1106		-64.453125
1107		-58.593750
1108		-66.406250
1109		-58.593750
1110		-66.406250
1111		-60.546875
1112		-66.406250
1113		-60.546875
1114		-66.406250
1115		-60.546875
1116		-66.406250
1117		-60.546875
1118		-66.406250
1119		-62.500000
1120		-66.406250
1121		-62.500000
1122		-68.359375
1123		-62.500000
1124		-68.359375
1125		-62.500000
1126		-68.359375
1127		-64.453125
1128		-70.312500
1129		-64.453125
1130		-70.312500
1131		-62.500000
1132		-70.312500
1133		-62.500000
1134		-68.359375
1135		-64.453125
1136		-70.312500
1137		-64.453125
1138		-68.359375
1139		-64.453125
1140		-70.312500
1141		-64.453125
1142		-70.312500
1143		-64.453125
1144		-70.312500
1145		-66.406250
1146		-70.312500
1147		-66.406250
1148		-70.312500
1149		-64.453125
1150		-70.312500
1151		-64.453125
1152		-70.312500
1153		-66.406250
1154		-70.312500
1155		-66.406250
1156		-70.312500
1157		-64.453125
1158		-72.265625
1159		-64.453125
1160		-70.312500
1161		-64.453125
1162		-72.265625
1163		-64.453125
1164		-70.312500
1165		-66.406250
1166		-72.265625
1167		-66.406250
1168		-68.359375
1169		-66.406250
1170		-70.312500
1171		-66.406250
1172		-70.312500
1173		-66.406250
1174		-70.312500
1175		-66.406250
1176		-70.312500
1177		-64.453125
1178		-70.312500
1179		-64.453125
1180		-68.359375
1181		-62.500000
1182		-70.312500
1183		-62.500000
1184		-68.359375
1185		-64.453125
1186		-66.406250
1187		-62.500000
1188		-68.359375
1189		-64.453125
1190		-68.359375
1191		-62.500000
1192		-68.359375
1193		-62.500000
1194		-68.359375
1195		-60.546875
1196		-68.359375
1197		-60.546875
1198		-66.406250
1199		-60.546875
1200		-66.406250
1201		-60.546875
1202		-64.453125
1203		-60.546875
1204		-64.453125
1205		-60.546875
1206		-64.453125
1207		-58.593750
1208		-62.500000
1209		-58.593750
1210		-62.500000
1211		-58.593750
1212		-62.500000
1213		-58.593750
1214		-60.546875
1215		-58.593750
1216		-62.500000
1217		-56.640625
1218		-60.546875
1219		-56.640625
1220		-60.546875
1221		-54.687500
1222		-58.593750
1223		-54.687500
1224		-60.546875
1225		-52.734375
1226		-58.593750
1227		-52.734375
1228		-56.640625
1229		-52.734375
1230		-56.640625
1231		-52.734375
1232		-54.687500
1233		-52.734375
1234		-56.640625
1235		-50.781250
1236		-54.687500
1237		-50.781250
1238		-52.734375
1239		-48.828125
1240		-52.734375
1241		-48.828125
1242		-50.781250
1243		-46.875000
1244		-50.781250
1245		-46.875000
1246		-48.828125
1247		-44.921875
1248		-48.828125
1249		-44.921875
1250		-46.875000
1251		-42.968750
1252		-46.875000
1253		-42.968750
1254		-46.875000
1255		-42.968750
1256		-44.921875
1257		-41.015625
1258		-44.921875
1259		-41.015625
1260		-42.968750
1261		-39.062500
1262		-42.968750
1263		-39.062500
1264		-41.015625
1265		-37.109375
1266		-41.015625
1267		-37.109375
1268		-41.015625
1269		-35.156250
