Old_data/metingen laweit/30cm, resfreq1/data_81_243.txt

Channel              :		CH1
Frequency            :		682.1Hz
Period               :		1.466ms
PK-PK                :		132.8mV
Probe attenuation    :		1X
Voltage per ADC value:		0.122070mV
Time interval        :		2.00000us

index		CH1_Voltage(mV)
1		54.687500
2		54.687500
3		50.781250
4		54.687500
5		50.781250
6		54.687500
7		50.781250
8		54.687500
9		52.734375
10		56.640625
11		52.734375
12		56.640625
13		52.734375
14		56.640625
15		52.734375
16		56.640625
17		52.734375
18		56.640625
19		54.687500
20		56.640625
21		52.734375
22		58.593750
23		52.734375
24		56.640625
25		54.687500
26		58.593750
27		54.687500
28		58.593750
29		54.687500
30		58.593750
31		54.687500
32		58.593750
33		54.687500
34		58.593750
35		54.687500
36		58.593750
37		54.687500
38		58.593750
39		54.687500
40		58.593750
41		54.687500
42		58.593750
43		54.687500
44		58.593750
45		56.640625
46		58.593750
47		54.687500
48		60.546875
49		54.687500
50		58.593750
51		54.687500
52		58.593750
53		54.687500
54		58.593750
55		56.640625
56		58.593750
57		54.687500
58		58.593750
59		54.687500
60		58.593750
61		54.687500
62		58.593750
63		54.687500
64		58.593750
65		54.687500
66		58.593750
67		54.687500
68		58.593750
69		54.687500
70		58.593750
71		54.687500
72		56.640625
73		54.687500
74		58.593750
75		52.734375
76		56.640625
77		52.734375
78		56.640625
79		52.734375
80		56.640625
81		52.734375
82		56.640625
83		52.734375
84		56.640625
85		52.734375
86		56.640625
87		52.734375
88		56.640625
89		50.781250
90		56.640625
91		50.781250
92		54.687500
93		50.781250
94		54.687500
95		50.781250
96		54.687500
97		50.781250
98		54.687500
99		50.781250
100		54.687500
101		48.828125
102		54.687500
103		48.828125
104		52.734375
105		48.828125
106		52.734375
107		46.875000
108		52.734375
109		46.875000
110		50.781250
111		46.875000
112		50.781250
113		46.875000
114		50.781250
115		46.875000
116		50.781250
117		44.921875
118		50.781250
119		44.921875
120		48.828125
121		44.921875
122		48.828125
123		44.921875
124		48.828125
125		42.968750
126		46.875000
127		42.968750
128		46.875000
129		41.015625
130		46.875000
131		41.015625
132		44.921875
133		41.015625
134		44.921875
135		39.062500
136		44.921875
137		39.062500
138		42.968750
139		39.062500
140		42.968750
141		39.062500
142		41.015625
143		37.109375
144		41.015625
145		37.109375
146		41.015625
147		35.156250
148		39.062500
149		35.156250
150		39.062500
151		33.203125
152		39.062500
153		35.156250
154		37.109375
155		33.203125
156		37.109375
157		31.250000
158		37.109375
159		31.250000
160		35.156250
161		31.250000
162		35.156250
163		31.250000
164		33.203125
165		29.296875
166		33.203125
167		27.343750
168		33.203125
169		27.343750
170		31.250000
171		27.343750
172		29.296875
173		25.390625
174		29.296875
175		25.390625
176		29.296875
177		23.437500
178		27.343750
179		23.437500
180		27.343750
181		21.484375
182		25.390625
183		21.484375
184		25.390625
185		19.531250
186		23.437500
187		19.531250
188		23.437500
189		19.531250
190		21.484375
191		17.578125
192		23.437500
193		17.578125
194		21.484375
195		15.625000
196		19.531250
197		15.625000
198		17.578125
199		13.671875
200		17.578125
201		13.671875
202		17.578125
203		11.718750
204		15.625000
205		9.765625
206		15.625000
207		9.765625
208		13.671875
209		7.812500
210		11.718750
211		7.812500
212		11.718750
213		5.859375
214		11.718750
215		5.859375
216		9.765625
217		5.859375
218		9.765625
219		3.906250
220		7.812500
221		3.906250
222		5.859375
223		1.953125
224		5.859375
225		1.953125
226		3.906250
227		0.000000
228		3.906250
229		-1.953125
230		3.906250
231		-1.953125
232		1.953125
233		-3.906250
234		0.000000
235		-3.906250
236		0.000000
237		-5.859375
238		-1.953125
239		-7.812500
240		-3.906250
241		-7.812500
242		-3.906250
243		-7.812500
244		-5.859375
245		-9.765625
246		-5.859375
247		-9.765625
248		-7.812500
249		-11.718750
250		-7.812500
251		-13.671875
252		-7.812500
253		-13.671875
254		-9.765625
255		-15.625000
256		-11.718750
257		-17.578125
258		-11.718750
259		-15.625000
260		-11.718750
261		-17.578125
262		-13.671875
263		-19.531250
264		-13.671875
265		-19.531250
266		-15.625000
267		-21.484375
268		-17.578125
269		-21.484375
270		-17.578125
271		-23.437500
272		-19.531250
273		-25.390625
274		-19.531250
275		-23.437500
276		-21.484375
277		-25.390625
278		-21.484375
279		-27.343750
280		-23.437500
281		-27.343750
282		-23.437500
283		-29.296875
284		-25.390625
285		-29.296875
286		-25.390625
287		-29.296875
288		-25.390625
289		-31.250000
290		-27.343750
291		-33.203125
292		-27.343750
293		-33.203125
294		-29.296875
295		-35.156250
296		-29.296875
297		-35.156250
298		-31.250000
299		-35.156250
300		-33.203125
301		-37.109375
302		-33.203125
303		-37.109375
304		-33.203125
305		-39.062500
306		-35.156250
307		-41.015625
308		-35.156250
309		-39.062500
310		-37.109375
311		-41.015625
312		-37.109375
313		-42.968750
314		-37.109375
315		-42.968750
316		-39.062500
317		-42.968750
318		-39.062500
319		-44.921875
320		-41.015625
321		-44.921875
322		-41.015625
323		-44.921875
324		-42.968750
325		-46.875000
326		-42.968750
327		-46.875000
328		-42.968750
329		-46.875000
330		-44.921875
331		-48.828125
332		-44.921875
333		-48.828125
334		-44.921875
335		-48.828125
336		-44.921875
337		-50.781250
338		-46.875000
339		-50.781250
340		-48.828125
341		-52.734375
342		-48.828125
343		-52.734375
344		-48.828125
345		-52.734375
346		-48.828125
347		-54.687500
348		-50.781250
349		-54.687500
350		-50.781250
351		-54.687500
352		-50.781250
353		-56.640625
354		-50.781250
355		-54.687500
356		-52.734375
357		-54.687500
358		-52.734375
359		-56.640625
360		-52.734375
361		-56.640625
362		-52.734375
363		-58.593750
364		-54.687500
365		-58.593750
366		-54.687500
367		-58.593750
368		-54.687500
369		-58.593750
370		-54.687500
371		-58.593750
372		-54.687500
373		-58.593750
374		-56.640625
375		-60.546875
376		-56.640625
377		-60.546875
378		-56.640625
379		-60.546875
380		-56.640625
381		-60.546875
382		-56.640625
383		-62.500000
384		-58.593750
385		-62.500000
386		-58.593750
387		-62.500000
388		-58.593750
389		-62.500000
390		-58.593750
391		-62.500000
392		-58.593750
393		-62.500000
394		-58.593750
395		-64.453125
396		-58.593750
397		-62.500000
398		-58.593750
399		-62.500000
400		-58.593750
401		-64.453125
402		-58.593750
403		-64.453125
404		-58.593750
405		-62.500000
406		-60.546875
407		-62.500000
408		-58.593750
409		-64.453125
410		-60.546875
411		-64.453125
412		-60.546875
413		-64.453125
414		-58.593750
415		-62.500000
416		-60.546875
417		-64.453125
418		-60.546875
419		-64.453125
420		-60.546875
421		-64.453125
422		-60.546875
423		-62.500000
424		-60.546875
425		-64.453125
426		-60.546875
427		-62.500000
428		-60.546875
429		-62.500000
430		-60.546875
431		-62.500000
432		-58.593750
433		-62.500000
434		-60.546875
435		-62.500000
436		-58.593750
437		-64.453125
438		-58.593750
439		-62.500000
440		-58.593750
441		-62.500000
442		-58.593750
443		-62.500000
444		-58.593750
445		-62.500000
446		-58.593750
447		-60.546875
448		-56.640625
449		-60.546875
450		-58.593750
451		-60.546875
452		-56.640625
453		-62.500000
454		-56.640625
455		-60.546875
456		-56.640625
457		-58.593750
458		-56.640625
459		-60.546875
460		-54.687500
461		-58.593750
462		-54.687500
463		-58.593750
464		-54.687500
465		-58.593750
466		-54.687500
467		-56.640625
468		-54.687500
469		-56.640625
470		-54.687500
471		-56.640625
472		-52.734375
473		-54.687500
474		-52.734375
475		-54.687500
476		-50.781250
477		-54.687500
478		-50.781250
479		-54.687500
480		-50.781250
481		-54.687500
482		-50.781250
483		-52.734375
484		-48.828125
485		-52.734375
486		-48.828125
487		-52.734375
488		-48.828125
489		-50.781250
490		-46.875000
491		-50.781250
492		-46.875000
493		-50.781250
494		-46.875000
495		-50.781250
496		-44.921875
497		-48.828125
498		-44.921875
499		-46.875000
500		-44.921875
501		-46.875000
502		-42.968750
503		-46.875000
504		-42.968750
505		-44.921875
506		-41.015625
507		-44.921875
508		-41.015625
509		-44.921875
510		-41.015625
511		-42.968750
512		-41.015625
513		-42.968750
514		-39.062500
515		-42.968750
516		-37.109375
517		-41.015625
518		-37.109375
519		-41.015625
520		-37.109375
521		-39.062500
522		-35.156250
523		-39.062500
524		-35.156250
525		-37.109375
526		-33.203125
527		-37.109375
528		-31.250000
529		-35.156250
530		-33.203125
531		-35.156250
532		-31.250000
533		-33.203125
534		-29.296875
535		-33.203125
536		-29.296875
537		-33.203125
538		-27.343750
539		-33.203125
540		-27.343750
541		-29.296875
542		-27.343750
543		-29.296875
544		-25.390625
545		-29.296875
546		-25.390625
547		-27.343750
548		-23.437500
549		-27.343750
550		-23.437500
551		-25.390625
552		-21.484375
553		-25.390625
554		-19.531250
555		-23.437500
556		-19.531250
557		-23.437500
558		-19.531250
559		-21.484375
560		-17.578125
561		-21.484375
562		-17.578125
563		-19.531250
564		-15.625000
565		-19.531250
566		-13.671875
567		-17.578125
568		-13.671875
569		-17.578125
570		-11.718750
571		-15.625000
572		-11.718750
573		-13.671875
574		-11.718750
575		-13.671875
576		-9.765625
577		-13.671875
578		-9.765625
579		-11.718750
580		-7.812500
581		-11.718750
582		-5.859375
583		-9.765625
584		-5.859375
585		-9.765625
586		-3.906250
587		-7.812500
588		-3.906250
589		-7.812500
590		-1.953125
591		-5.859375
592		-1.953125
593		-3.906250
594		0.000000
595		-3.906250
596		0.000000
597		-1.953125
598		1.953125
599		-1.953125
600		1.953125
601		0.000000
602		3.906250
603		0.000000
604		3.906250
605		1.953125
606		5.859375
607		1.953125
608		5.859375
609		3.906250
610		7.812500
611		3.906250
612		9.765625
613		5.859375
614		9.765625
615		5.859375
616		11.718750
617		7.812500
618		11.718750
619		7.812500
620		11.718750
621		9.765625
622		13.671875
623		9.765625
624		13.671875
625		11.718750
626		15.625000
627		11.718750
628		17.578125
629		13.671875
630		17.578125
631		13.671875
632		19.531250
633		15.625000
634		19.531250
635		17.578125
636		19.531250
637		17.578125
638		21.484375
639		19.531250
640		21.484375
641		19.531250
642		23.437500
643		19.531250
644		23.437500
645		21.484375
646		23.437500
647		21.484375
648		25.390625
649		23.437500
650		27.343750
651		23.437500
652		27.343750
653		25.390625
654		27.343750
655		25.390625
656		29.296875
657		27.343750
658		29.296875
659		27.343750
660		31.250000
661		27.343750
662		31.250000
663		29.296875
664		33.203125
665		29.296875
666		35.156250
667		31.250000
668		33.203125
669		31.250000
670		35.156250
671		33.203125
672		35.156250
673		33.203125
674		37.109375
675		33.203125
676		37.109375
677		35.156250
678		37.109375
679		35.156250
680		39.062500
681		35.156250
682		39.062500
683		37.109375
684		39.062500
685		37.109375
686		41.015625
687		39.062500
688		41.015625
689		39.062500
690		42.968750
691		39.062500
692		42.968750
693		41.015625
694		44.921875
695		39.062500
696		44.921875
697		41.015625
698		44.921875
699		42.968750
700		44.921875
701		42.968750
702		46.875000
703		42.968750
704		46.875000
705		44.921875
706		46.875000
707		44.921875
708		48.828125
709		44.921875
710		48.828125
711		44.921875
712		48.828125
713		44.921875
714		50.781250
715		46.875000
716		50.781250
717		46.875000
718		50.781250
719		46.875000
720		50.781250
721		46.875000
722		50.781250
723		48.828125
724		52.734375
725		48.828125
726		52.734375
727		50.781250
728		52.734375
729		48.828125
730		54.687500
731		50.781250
732		54.687500
733		50.781250
734		54.687500
735		50.781250
736		54.687500
737		52.734375
738		54.687500
739		50.781250
740		54.687500
741		52.734375
742		56.640625
743		52.734375
744		56.640625
745		52.734375
746		56.640625
747		52.734375
748		56.640625
749		52.734375
750		56.640625
751		52.734375
752		56.640625
753		54.687500
754		56.640625
755		54.687500
756		56.640625
757		54.687500
758		58.593750
759		54.687500
760		56.640625
761		54.687500
762		58.593750
763		54.687500
764		58.593750
765		54.687500
766		58.593750
767		54.687500
768		58.593750
769		54.687500
770		58.593750
771		54.687500
772		60.546875
773		54.687500
774		58.593750
775		56.640625
776		58.593750
777		54.687500
778		58.593750
779		54.687500
780		58.593750
781		56.640625
782		58.593750
783		54.687500
784		60.546875
785		54.687500
786		58.593750
787		54.687500
788		58.593750
789		54.687500
790		60.546875
791		54.687500
792		58.593750
793		54.687500
794		58.593750
795		54.687500
796		58.593750
797		54.687500
798		58.593750
799		54.687500
800		58.593750
801		54.687500
802		58.593750
803		54.687500
804		58.593750
805		52.734375
806		58.593750
807		52.734375
808		58.593750
809		54.687500
810		56.640625
811		54.687500
812		58.593750
813		52.734375
814		56.640625
815		52.734375
816		56.640625
817		52.734375
818		56.640625
819		52.734375
820		56.640625
821		52.734375
822		56.640625
823		52.734375
824		54.687500
825		50.781250
826		56.640625
827		50.781250
828		54.687500
829		48.828125
830		54.687500
831		50.781250
832		54.687500
833		50.781250
834		54.687500
835		48.828125
836		52.734375
837		48.828125
838		52.734375
839		48.828125
840		52.734375
841		48.828125
842		52.734375
843		48.828125
844		50.781250
845		46.875000
846		50.781250
847		46.875000
848		50.781250
849		46.875000
850		50.781250
851		44.921875
852		48.828125
853		44.921875
854		48.828125
855		44.921875
856		48.828125
857		42.968750
858		48.828125
859		42.968750
860		46.875000
861		42.968750
862		46.875000
863		42.968750
864		46.875000
865		41.015625
866		44.921875
867		41.015625
868		44.921875
869		41.015625
870		42.968750
871		39.062500
872		42.968750
873		39.062500
874		42.968750
875		39.062500
876		42.968750
877		37.109375
878		41.015625
879		37.109375
880		41.015625
881		37.109375
882		39.062500
883		35.156250
884		39.062500
885		35.156250
886		37.109375
887		33.203125
888		37.109375
889		33.203125
890		37.109375
891		31.250000
892		37.109375
893		31.250000
894		35.156250
895		31.250000
896		35.156250
897		29.296875
898		33.203125
899		29.296875
900		33.203125
901		27.343750
902		33.203125
903		27.343750
904		31.250000
905		27.343750
906		31.250000
907		25.390625
908		29.296875
909		25.390625
910		29.296875
911		23.437500
912		29.296875
913		23.437500
914		27.343750
915		21.484375
916		25.390625
917		21.484375
918		25.390625
919		21.484375
920		23.437500
921		19.531250
922		23.437500
923		17.578125
924		23.437500
925		17.578125
926		21.484375
927		15.625000
928		19.531250
929		13.671875
930		19.531250
931		13.671875
932		19.531250
933		13.671875
934		17.578125
935		13.671875
936		15.625000
937		9.765625
938		15.625000
939		9.765625
940		15.625000
941		7.812500
942		13.671875
943		7.812500
944		11.718750
945		7.812500
946		11.718750
947		5.859375
948		11.718750
949		3.906250
950		9.765625
951		3.906250
952		7.812500
953		3.906250
954		5.859375
955		1.953125
956		7.812500
957		1.953125
958		5.859375
959		0.000000
960		5.859375
961		0.000000
962		1.953125
963		-1.953125
964		1.953125
965		-1.953125
966		1.953125
967		-3.906250
968		0.000000
969		-3.906250
970		-1.953125
971		-5.859375
972		-1.953125
973		-5.859375
974		-3.906250
975		-7.812500
976		-3.906250
977		-9.765625
978		-3.906250
979		-9.765625
980		-5.859375
981		-11.718750
982		-5.859375
983		-11.718750
984		-7.812500
985		-13.671875
986		-7.812500
987		-13.671875
988		-9.765625
989		-15.625000
990		-11.718750
991		-15.625000
992		-11.718750
993		-17.578125
994		-13.671875
995		-17.578125
996		-13.671875
997		-19.531250
998		-15.625000
999		-19.531250
1000		-15.625000
1001		-21.484375
1002		-17.578125
1003		-23.437500
1004		-17.578125
1005		-23.437500
1006		-19.531250
1007		-25.390625
1008		-19.531250
1009		-25.390625
1010		-21.484375
1011		-25.390625
1012		-23.437500
1013		-29.296875
1014		-23.437500
1015		-27.343750
1016		-25.390625
1017		-29.296875
1018		-25.390625
1019		-29.296875
1020		-25.390625
1021		-31.250000
1022		-27.343750
1023		-33.203125
1024		-27.343750
1025		-33.203125
1026		-29.296875
1027		-33.203125
1028		-31.250000
1029		-35.156250
1030		-31.250000
1031		-35.156250
1032		-31.250000
1033		-37.109375
1034		-33.203125
1035		-37.109375
1036		-33.203125
1037		-37.109375
1038		-35.156250
1039		-39.062500
1040		-35.156250
1041		-39.062500
1042		-35.156250
1043		-41.015625
1044		-37.109375
1045		-41.015625
1046		-37.109375
1047		-42.968750
1048		-39.062500
1049		-42.968750
1050		-39.062500
1051		-42.968750
1052		-39.062500
1053		-44.921875
1054		-41.015625
1055		-44.921875
1056		-41.015625
1057		-44.921875
1058		-42.968750
1059		-46.875000
1060		-42.968750
1061		-46.875000
1062		-44.921875
1063		-48.828125
1064		-44.921875
1065		-48.828125
1066		-44.921875
1067		-48.828125
1068		-46.875000
1069		-50.781250
1070		-46.875000
1071		-50.781250
1072		-46.875000
1073		-50.781250
1074		-46.875000
1075		-52.734375
1076		-48.828125
1077		-52.734375
1078		-48.828125
1079		-52.734375
1080		-50.781250
1081		-54.687500
1082		-50.781250
1083		-54.687500
1084		-50.781250
1085		-54.687500
1086		-50.781250
1087		-56.640625
1088		-52.734375
1089		-56.640625
1090		-52.734375
1091		-56.640625
1092		-52.734375
1093		-58.593750
1094		-52.734375
1095		-58.593750
1096		-52.734375
1097		-58.593750
1098		-54.687500
1099		-58.593750
1100		-54.687500
1101		-58.593750
1102		-54.687500
1103		-58.593750
1104		-56.640625
1105		-60.546875
1106		-56.640625
1107		-60.546875
1108		-56.640625
1109		-60.546875
1110		-56.640625
1111		-60.546875
1112		-56.640625
1113		-60.546875
1114		-56.640625
1115		-62.500000
1116		-58.593750
1117		-62.500000
1118		-58.593750
1119		-62.500000
1120		-58.593750
1121		-62.500000
1122		-58.593750
1123		-62.500000
1124		-58.593750
1125		-62.500000
1126		-58.593750
1127		-62.500000
1128		-58.593750
1129		-62.500000
1130		-60.546875
1131		-64.453125
1132		-58.593750
1133		-64.453125
1134		-58.593750
1135		-62.500000
1136		-60.546875
1137		-62.500000
1138		-58.593750
1139		-64.453125
1140		-60.546875
1141		-64.453125
1142		-60.546875
1143		-64.453125
1144		-60.546875
1145		-62.500000
1146		-60.546875
1147		-64.453125
1148		-60.546875
1149		-64.453125
1150		-60.546875
1151		-64.453125
1152		-60.546875
1153		-64.453125
1154		-60.546875
1155		-64.453125
1156		-60.546875
1157		-64.453125
1158		-60.546875
1159		-62.500000
1160		-60.546875
1161		-64.453125
1162		-58.593750
1163		-62.500000
1164		-60.546875
1165		-62.500000
1166		-58.593750
1167		-62.500000
1168		-58.593750
1169		-62.500000
1170		-58.593750
1171		-62.500000
1172		-58.593750
1173		-62.500000
1174		-58.593750
1175		-62.500000
1176		-58.593750
1177		-62.500000
1178		-58.593750
1179		-62.500000
1180		-56.640625
1181		-60.546875
1182		-56.640625
1183		-60.546875
1184		-56.640625
1185		-60.546875
1186		-56.640625
1187		-60.546875
1188		-56.640625
1189		-58.593750
1190		-54.687500
1191		-58.593750
1192		-54.687500
1193		-58.593750
1194		-54.687500
1195		-58.593750
1196		-54.687500
1197		-56.640625
1198		-54.687500
1199		-58.593750
1200		-52.734375
1201		-56.640625
1202		-52.734375
1203		-56.640625
1204		-52.734375
1205		-54.687500
1206		-52.734375
1207		-56.640625
1208		-50.781250
1209		-54.687500
1210		-50.781250
1211		-54.687500
1212		-50.781250
1213		-52.734375
1214		-50.781250
1215		-52.734375
1216		-48.828125
1217		-52.734375
1218		-48.828125
1219		-50.781250
1220		-48.828125
1221		-50.781250
1222		-46.875000
1223		-50.781250
1224		-46.875000
1225		-50.781250
1226		-44.921875
1227		-48.828125
1228		-44.921875
1229		-48.828125
1230		-44.921875
1231		-46.875000
1232		-44.921875
1233		-46.875000
1234		-42.968750
1235		-46.875000
1236		-42.968750
1237		-44.921875
1238		-41.015625
1239		-44.921875
1240		-41.015625
1241		-42.968750
1242		-41.015625
1243		-42.968750
1244		-39.062500
1245		-42.968750
1246		-39.062500
1247		-41.015625
1248		-37.109375
1249		-41.015625
1250		-37.109375
1251		-39.062500
1252		-35.156250
1253		-39.062500
1254		-35.156250
1255		-39.062500
1256		-35.156250
1257		-37.109375
1258		-33.203125
1259		-37.109375
1260		-31.250000
1261		-35.156250
1262		-31.250000
1263		-33.203125
1264		-31.250000
1265		-33.203125
1266		-29.296875
1267		-33.203125
1268		-29.296875
1269		-31.250000
