Old_data/metingen laweit/30cm, resfreq1/data_81_230.txt

Channel              :		CH1
Frequency            :		681.2Hz
Period               :		1.468ms
PK-PK                :		136.7mV
Probe attenuation    :		1X
Voltage per ADC value:		0.122070mV
Time interval        :		2.00000us

index		CH1_Voltage(mV)
1		50.781250
2		50.781250
3		54.687500
4		50.781250
5		56.640625
6		52.734375
7		56.640625
8		50.781250
9		56.640625
10		50.781250
11		58.593750
12		50.781250
13		58.593750
14		52.734375
15		58.593750
16		52.734375
17		58.593750
18		54.687500
19		58.593750
20		54.687500
21		56.640625
22		52.734375
23		60.546875
24		54.687500
25		60.546875
26		54.687500
27		60.546875
28		52.734375
29		60.546875
30		54.687500
31		60.546875
32		54.687500
33		60.546875
34		54.687500
35		60.546875
36		56.640625
37		58.593750
38		54.687500
39		60.546875
40		54.687500
41		60.546875
42		54.687500
43		60.546875
44		54.687500
45		60.546875
46		56.640625
47		62.500000
48		54.687500
49		62.500000
50		54.687500
51		60.546875
52		56.640625
53		58.593750
54		56.640625
55		60.546875
56		54.687500
57		60.546875
58		54.687500
59		60.546875
60		54.687500
61		62.500000
62		54.687500
63		60.546875
64		54.687500
65		60.546875
66		56.640625
67		62.500000
68		56.640625
69		58.593750
70		56.640625
71		58.593750
72		54.687500
73		60.546875
74		54.687500
75		60.546875
76		54.687500
77		60.546875
78		52.734375
79		60.546875
80		52.734375
81		58.593750
82		52.734375
83		58.593750
84		52.734375
85		58.593750
86		54.687500
87		56.640625
88		52.734375
89		58.593750
90		52.734375
91		58.593750
92		52.734375
93		58.593750
94		52.734375
95		58.593750
96		50.781250
97		56.640625
98		50.781250
99		56.640625
100		50.781250
101		56.640625
102		50.781250
103		54.687500
104		50.781250
105		54.687500
106		48.828125
107		54.687500
108		48.828125
109		54.687500
110		46.875000
111		54.687500
112		46.875000
113		54.687500
114		46.875000
115		52.734375
116		46.875000
117		52.734375
118		46.875000
119		50.781250
120		46.875000
121		50.781250
122		44.921875
123		50.781250
124		44.921875
125		50.781250
126		42.968750
127		50.781250
128		42.968750
129		48.828125
130		42.968750
131		48.828125
132		42.968750
133		48.828125
134		41.015625
135		46.875000
136		41.015625
137		44.921875
138		41.015625
139		44.921875
140		39.062500
141		44.921875
142		39.062500
143		44.921875
144		37.109375
145		44.921875
146		37.109375
147		42.968750
148		35.156250
149		42.968750
150		35.156250
151		41.015625
152		35.156250
153		41.015625
154		35.156250
155		39.062500
156		33.203125
157		39.062500
158		33.203125
159		39.062500
160		31.250000
161		39.062500
162		29.296875
163		37.109375
164		29.296875
165		37.109375
166		29.296875
167		35.156250
168		29.296875
169		35.156250
170		29.296875
171		33.203125
172		25.390625
173		33.203125
174		25.390625
175		33.203125
176		23.437500
177		31.250000
178		23.437500
179		29.296875
180		21.484375
181		29.296875
182		21.484375
183		27.343750
184		21.484375
185		27.343750
186		21.484375
187		25.390625
188		21.484375
189		23.437500
190		17.578125
191		25.390625
192		15.625000
193		23.437500
194		15.625000
195		23.437500
196		15.625000
197		21.484375
198		13.671875
199		21.484375
200		13.671875
201		19.531250
202		13.671875
203		19.531250
204		13.671875
205		15.625000
206		9.765625
207		15.625000
208		9.765625
209		15.625000
210		7.812500
211		15.625000
212		7.812500
213		13.671875
214		5.859375
215		13.671875
216		3.906250
217		11.718750
218		3.906250
219		9.765625
220		5.859375
221		7.812500
222		3.906250
223		7.812500
224		0.000000
225		7.812500
226		0.000000
227		5.859375
228		0.000000
229		5.859375
230		-1.953125
231		3.906250
232		-3.906250
233		3.906250
234		-3.906250
235		1.953125
236		-3.906250
237		0.000000
238		-3.906250
239		-1.953125
240		-7.812500
241		0.000000
242		-9.765625
243		-1.953125
244		-9.765625
245		-3.906250
246		-11.718750
247		-3.906250
248		-11.718750
249		-5.859375
250		-13.671875
251		-5.859375
252		-13.671875
253		-7.812500
254		-13.671875
255		-9.765625
256		-15.625000
257		-9.765625
258		-17.578125
259		-11.718750
260		-17.578125
261		-11.718750
262		-19.531250
263		-13.671875
264		-21.484375
265		-13.671875
266		-21.484375
267		-13.671875
268		-21.484375
269		-15.625000
270		-21.484375
271		-19.531250
272		-23.437500
273		-19.531250
274		-25.390625
275		-19.531250
276		-25.390625
277		-19.531250
278		-27.343750
279		-21.484375
280		-27.343750
281		-21.484375
282		-29.296875
283		-21.484375
284		-31.250000
285		-23.437500
286		-31.250000
287		-25.390625
288		-31.250000
289		-27.343750
290		-33.203125
291		-27.343750
292		-35.156250
293		-25.390625
294		-37.109375
295		-29.296875
296		-37.109375
297		-29.296875
298		-37.109375
299		-31.250000
300		-39.062500
301		-31.250000
302		-39.062500
303		-33.203125
304		-39.062500
305		-35.156250
306		-39.062500
307		-35.156250
308		-42.968750
309		-35.156250
310		-42.968750
311		-37.109375
312		-44.921875
313		-37.109375
314		-44.921875
315		-39.062500
316		-44.921875
317		-39.062500
318		-46.875000
319		-39.062500
320		-46.875000
321		-41.015625
322		-44.921875
323		-42.968750
324		-48.828125
325		-42.968750
326		-48.828125
327		-42.968750
328		-50.781250
329		-42.968750
330		-50.781250
331		-44.921875
332		-52.734375
333		-44.921875
334		-52.734375
335		-44.921875
336		-52.734375
337		-46.875000
338		-52.734375
339		-48.828125
340		-54.687500
341		-48.828125
342		-54.687500
343		-48.828125
344		-56.640625
345		-48.828125
346		-56.640625
347		-50.781250
348		-56.640625
349		-50.781250
350		-58.593750
351		-50.781250
352		-58.593750
353		-50.781250
354		-56.640625
355		-54.687500
356		-58.593750
357		-54.687500
358		-60.546875
359		-54.687500
360		-60.546875
361		-54.687500
362		-60.546875
363		-54.687500
364		-62.500000
365		-54.687500
366		-62.500000
367		-56.640625
368		-62.500000
369		-56.640625
370		-62.500000
371		-56.640625
372		-62.500000
373		-58.593750
374		-62.500000
375		-58.593750
376		-64.453125
377		-58.593750
378		-66.406250
379		-58.593750
380		-66.406250
381		-58.593750
382		-66.406250
383		-58.593750
384		-66.406250
385		-58.593750
386		-64.453125
387		-60.546875
388		-64.453125
389		-62.500000
390		-66.406250
391		-62.500000
392		-66.406250
393		-60.546875
394		-66.406250
395		-60.546875
396		-68.359375
397		-60.546875
398		-68.359375
399		-60.546875
400		-68.359375
401		-62.500000
402		-68.359375
403		-62.500000
404		-66.406250
405		-64.453125
406		-68.359375
407		-62.500000
408		-68.359375
409		-62.500000
410		-68.359375
411		-62.500000
412		-68.359375
413		-62.500000
414		-68.359375
415		-62.500000
416		-70.312500
417		-62.500000
418		-68.359375
419		-62.500000
420		-68.359375
421		-62.500000
422		-66.406250
423		-64.453125
424		-68.359375
425		-62.500000
426		-68.359375
427		-62.500000
428		-68.359375
429		-62.500000
430		-68.359375
431		-62.500000
432		-68.359375
433		-62.500000
434		-68.359375
435		-62.500000
436		-68.359375
437		-62.500000
438		-66.406250
439		-64.453125
440		-66.406250
441		-62.500000
442		-66.406250
443		-60.546875
444		-68.359375
445		-60.546875
446		-68.359375
447		-60.546875
448		-66.406250
449		-60.546875
450		-66.406250
451		-60.546875
452		-64.453125
453		-60.546875
454		-64.453125
455		-60.546875
456		-62.500000
457		-60.546875
458		-64.453125
459		-58.593750
460		-64.453125
461		-58.593750
462		-62.500000
463		-58.593750
464		-64.453125
465		-56.640625
466		-64.453125
467		-56.640625
468		-62.500000
469		-56.640625
470		-62.500000
471		-56.640625
472		-60.546875
473		-56.640625
474		-58.593750
475		-56.640625
476		-60.546875
477		-54.687500
478		-60.546875
479		-54.687500
480		-58.593750
481		-52.734375
482		-58.593750
483		-52.734375
484		-58.593750
485		-52.734375
486		-58.593750
487		-50.781250
488		-56.640625
489		-52.734375
490		-54.687500
491		-52.734375
492		-56.640625
493		-48.828125
494		-56.640625
495		-48.828125
496		-54.687500
497		-48.828125
498		-52.734375
499		-48.828125
500		-52.734375
501		-46.875000
502		-52.734375
503		-46.875000
504		-52.734375
505		-44.921875
506		-48.828125
507		-46.875000
508		-50.781250
509		-44.921875
510		-50.781250
511		-42.968750
512		-48.828125
513		-42.968750
514		-48.828125
515		-41.015625
516		-46.875000
517		-41.015625
518		-46.875000
519		-39.062500
520		-44.921875
521		-39.062500
522		-42.968750
523		-39.062500
524		-42.968750
525		-39.062500
526		-41.015625
527		-37.109375
528		-41.015625
529		-35.156250
530		-41.015625
531		-33.203125
532		-41.015625
533		-33.203125
534		-39.062500
535		-33.203125
536		-39.062500
537		-31.250000
538		-37.109375
539		-31.250000
540		-35.156250
541		-31.250000
542		-35.156250
543		-29.296875
544		-35.156250
545		-27.343750
546		-33.203125
547		-27.343750
548		-31.250000
549		-25.390625
550		-31.250000
551		-25.390625
552		-31.250000
553		-23.437500
554		-29.296875
555		-23.437500
556		-27.343750
557		-23.437500
558		-25.390625
559		-23.437500
560		-27.343750
561		-19.531250
562		-27.343750
563		-19.531250
564		-25.390625
565		-19.531250
566		-23.437500
567		-17.578125
568		-21.484375
569		-15.625000
570		-21.484375
571		-15.625000
572		-19.531250
573		-15.625000
574		-17.578125
575		-13.671875
576		-17.578125
577		-11.718750
578		-17.578125
579		-11.718750
580		-17.578125
581		-9.765625
582		-15.625000
583		-7.812500
584		-13.671875
585		-7.812500
586		-13.671875
587		-5.859375
588		-11.718750
589		-5.859375
590		-9.765625
591		-5.859375
592		-9.765625
593		-3.906250
594		-7.812500
595		-1.953125
596		-7.812500
597		-1.953125
598		-7.812500
599		0.000000
600		-5.859375
601		1.953125
602		-5.859375
603		1.953125
604		-3.906250
605		1.953125
606		-1.953125
607		1.953125
608		0.000000
609		3.906250
610		0.000000
611		5.859375
612		0.000000
613		7.812500
614		1.953125
615		7.812500
616		3.906250
617		9.765625
618		3.906250
619		9.765625
620		3.906250
621		11.718750
622		5.859375
623		11.718750
624		7.812500
625		11.718750
626		7.812500
627		13.671875
628		7.812500
629		17.578125
630		9.765625
631		17.578125
632		11.718750
633		17.578125
634		11.718750
635		19.531250
636		13.671875
637		19.531250
638		13.671875
639		19.531250
640		17.578125
641		19.531250
642		17.578125
643		21.484375
644		17.578125
645		23.437500
646		17.578125
647		25.390625
648		19.531250
649		25.390625
650		19.531250
651		25.390625
652		21.484375
653		27.343750
654		21.484375
655		27.343750
656		23.437500
657		27.343750
658		25.390625
659		29.296875
660		25.390625
661		31.250000
662		25.390625
663		31.250000
664		27.343750
665		33.203125
666		27.343750
667		33.203125
668		27.343750
669		35.156250
670		29.296875
671		35.156250
672		29.296875
673		35.156250
674		33.203125
675		35.156250
676		33.203125
677		37.109375
678		31.250000
679		39.062500
680		33.203125
681		39.062500
682		33.203125
683		41.015625
684		35.156250
685		41.015625
686		35.156250
687		42.968750
688		35.156250
689		42.968750
690		39.062500
691		41.015625
692		39.062500
693		42.968750
694		37.109375
695		44.921875
696		39.062500
697		44.921875
698		39.062500
699		46.875000
700		41.015625
701		46.875000
702		41.015625
703		46.875000
704		41.015625
705		48.828125
706		42.968750
707		48.828125
708		44.921875
709		48.828125
710		42.968750
711		50.781250
712		44.921875
713		50.781250
714		44.921875
715		50.781250
716		44.921875
717		52.734375
718		44.921875
719		52.734375
720		46.875000
721		54.687500
722		46.875000
723		52.734375
724		48.828125
725		52.734375
726		50.781250
727		52.734375
728		48.828125
729		54.687500
730		48.828125
731		54.687500
732		48.828125
733		56.640625
734		50.781250
735		56.640625
736		50.781250
737		56.640625
738		50.781250
739		56.640625
740		52.734375
741		54.687500
742		52.734375
743		56.640625
744		52.734375
745		58.593750
746		52.734375
747		58.593750
748		52.734375
749		58.593750
750		52.734375
751		58.593750
752		52.734375
753		60.546875
754		52.734375
755		60.546875
756		54.687500
757		58.593750
758		56.640625
759		58.593750
760		54.687500
761		58.593750
762		54.687500
763		60.546875
764		54.687500
765		60.546875
766		54.687500
767		60.546875
768		54.687500
769		62.500000
770		54.687500
771		62.500000
772		54.687500
773		60.546875
774		56.640625
775		60.546875
776		56.640625
777		60.546875
778		54.687500
779		62.500000
780		56.640625
781		62.500000
782		56.640625
783		62.500000
784		54.687500
785		62.500000
786		54.687500
787		62.500000
788		56.640625
789		62.500000
790		56.640625
791		62.500000
792		56.640625
793		60.546875
794		56.640625
795		62.500000
796		54.687500
797		62.500000
798		56.640625
799		60.546875
800		56.640625
801		60.546875
802		56.640625
803		62.500000
804		54.687500
805		62.500000
806		54.687500
807		60.546875
808		56.640625
809		60.546875
810		56.640625
811		58.593750
812		54.687500
813		60.546875
814		54.687500
815		60.546875
816		54.687500
817		60.546875
818		52.734375
819		60.546875
820		54.687500
821		60.546875
822		52.734375
823		58.593750
824		54.687500
825		58.593750
826		54.687500
827		56.640625
828		52.734375
829		58.593750
830		52.734375
831		58.593750
832		50.781250
833		58.593750
834		50.781250
835		56.640625
836		50.781250
837		56.640625
838		50.781250
839		56.640625
840		50.781250
841		56.640625
842		50.781250
843		52.734375
844		48.828125
845		52.734375
846		48.828125
847		54.687500
848		48.828125
849		54.687500
850		46.875000
851		52.734375
852		46.875000
853		52.734375
854		44.921875
855		52.734375
856		44.921875
857		52.734375
858		46.875000
859		48.828125
860		46.875000
861		48.828125
862		42.968750
863		50.781250
864		42.968750
865		48.828125
866		42.968750
867		48.828125
868		41.015625
869		48.828125
870		41.015625
871		46.875000
872		39.062500
873		46.875000
874		41.015625
875		44.921875
876		41.015625
877		42.968750
878		39.062500
879		44.921875
880		37.109375
881		44.921875
882		35.156250
883		42.968750
884		35.156250
885		41.015625
886		35.156250
887		41.015625
888		35.156250
889		41.015625
890		33.203125
891		39.062500
892		35.156250
893		37.109375
894		33.203125
895		37.109375
896		31.250000
897		37.109375
898		29.296875
899		37.109375
900		29.296875
901		37.109375
902		29.296875
903		35.156250
904		27.343750
905		33.203125
906		27.343750
907		33.203125
908		27.343750
909		31.250000
910		25.390625
911		29.296875
912		25.390625
913		29.296875
914		23.437500
915		29.296875
916		21.484375
917		29.296875
918		19.531250
919		27.343750
920		19.531250
921		27.343750
922		19.531250
923		25.390625
924		19.531250
925		25.390625
926		19.531250
927		21.484375
928		17.578125
929		21.484375
930		15.625000
931		21.484375
932		13.671875
933		21.484375
934		13.671875
935		19.531250
936		11.718750
937		19.531250
938		11.718750
939		17.578125
940		9.765625
941		17.578125
942		11.718750
943		13.671875
944		9.765625
945		13.671875
946		7.812500
947		13.671875
948		5.859375
949		11.718750
950		5.859375
951		11.718750
952		3.906250
953		9.765625
954		3.906250
955		9.765625
956		1.953125
957		9.765625
958		0.000000
959		7.812500
960		1.953125
961		5.859375
962		0.000000
963		5.859375
964		-3.906250
965		3.906250
966		-3.906250
967		3.906250
968		-3.906250
969		1.953125
970		-5.859375
971		1.953125
972		-5.859375
973		0.000000
974		-5.859375
975		0.000000
976		-5.859375
977		-1.953125
978		-7.812500
979		-3.906250
980		-11.718750
981		-3.906250
982		-11.718750
983		-5.859375
984		-11.718750
985		-7.812500
986		-13.671875
987		-5.859375
988		-15.625000
989		-7.812500
990		-17.578125
991		-9.765625
992		-15.625000
993		-9.765625
994		-15.625000
995		-13.671875
996		-19.531250
997		-13.671875
998		-19.531250
999		-13.671875
1000		-21.484375
1001		-15.625000
1002		-21.484375
1003		-15.625000
1004		-23.437500
1005		-17.578125
1006		-25.390625
1007		-17.578125
1008		-25.390625
1009		-19.531250
1010		-25.390625
1011		-21.484375
1012		-27.343750
1013		-23.437500
1014		-29.296875
1015		-21.484375
1016		-29.296875
1017		-23.437500
1018		-31.250000
1019		-23.437500
1020		-31.250000
1021		-25.390625
1022		-31.250000
1023		-25.390625
1024		-35.156250
1025		-27.343750
1026		-33.203125
1027		-29.296875
1028		-33.203125
1029		-31.250000
1030		-37.109375
1031		-29.296875
1032		-37.109375
1033		-31.250000
1034		-39.062500
1035		-31.250000
1036		-39.062500
1037		-33.203125
1038		-41.015625
1039		-33.203125
1040		-41.015625
1041		-35.156250
1042		-41.015625
1043		-35.156250
1044		-41.015625
1045		-39.062500
1046		-42.968750
1047		-37.109375
1048		-44.921875
1049		-39.062500
1050		-44.921875
1051		-39.062500
1052		-46.875000
1053		-39.062500
1054		-46.875000
1055		-41.015625
1056		-48.828125
1057		-41.015625
1058		-48.828125
1059		-41.015625
1060		-48.828125
1061		-42.968750
1062		-48.828125
1063		-44.921875
1064		-50.781250
1065		-44.921875
1066		-50.781250
1067		-44.921875
1068		-50.781250
1069		-46.875000
1070		-52.734375
1071		-46.875000
1072		-52.734375
1073		-48.828125
1074		-52.734375
1075		-48.828125
1076		-54.687500
1077		-48.828125
1078		-54.687500
1079		-50.781250
1080		-56.640625
1081		-50.781250
1082		-58.593750
1083		-50.781250
1084		-58.593750
1085		-50.781250
1086		-58.593750
1087		-52.734375
1088		-58.593750
1089		-52.734375
1090		-60.546875
1091		-52.734375
1092		-60.546875
1093		-52.734375
1094		-58.593750
1095		-56.640625
1096		-60.546875
1097		-54.687500
1098		-62.500000
1099		-54.687500
1100		-64.453125
1101		-54.687500
1102		-62.500000
1103		-56.640625
1104		-62.500000
1105		-56.640625
1106		-62.500000
1107		-56.640625
1108		-64.453125
1109		-56.640625
1110		-62.500000
1111		-58.593750
1112		-62.500000
1113		-58.593750
1114		-64.453125
1115		-58.593750
1116		-66.406250
1117		-58.593750
1118		-64.453125
1119		-58.593750
1120		-66.406250
1121		-58.593750
1122		-66.406250
1123		-60.546875
1124		-66.406250
1125		-60.546875
1126		-66.406250
1127		-60.546875
1128		-64.453125
1129		-62.500000
1130		-66.406250
1131		-60.546875
1132		-68.359375
1133		-60.546875
1134		-68.359375
1135		-60.546875
1136		-68.359375
1137		-60.546875
1138		-68.359375
1139		-60.546875
1140		-68.359375
1141		-62.500000
1142		-68.359375
1143		-62.500000
1144		-66.406250
1145		-62.500000
1146		-66.406250
1147		-64.453125
1148		-68.359375
1149		-60.546875
1150		-68.359375
1151		-62.500000
1152		-68.359375
1153		-62.500000
1154		-70.312500
1155		-62.500000
1156		-68.359375
1157		-60.546875
1158		-68.359375
1159		-62.500000
1160		-68.359375
1161		-62.500000
1162		-66.406250
1163		-64.453125
1164		-68.359375
1165		-62.500000
1166		-68.359375
1167		-60.546875
1168		-66.406250
1169		-62.500000
1170		-68.359375
1171		-60.546875
1172		-68.359375
1173		-60.546875
1174		-68.359375
1175		-60.546875
1176		-66.406250
1177		-60.546875
1178		-64.453125
1179		-62.500000
1180		-64.453125
1181		-62.500000
1182		-66.406250
1183		-60.546875
1184		-66.406250
1185		-60.546875
1186		-66.406250
1187		-58.593750
1188		-64.453125
1189		-58.593750
1190		-64.453125
1191		-58.593750
1192		-64.453125
1193		-58.593750
1194		-62.500000
1195		-56.640625
1196		-62.500000
1197		-58.593750
1198		-64.453125
1199		-56.640625
1200		-62.500000
1201		-56.640625
1202		-62.500000
1203		-56.640625
1204		-62.500000
1205		-54.687500
1206		-60.546875
1207		-54.687500
1208		-60.546875
1209		-54.687500
1210		-60.546875
1211		-54.687500
1212		-58.593750
1213		-54.687500
1214		-56.640625
1215		-54.687500
1216		-58.593750
1217		-52.734375
1218		-58.593750
1219		-52.734375
1220		-58.593750
1221		-50.781250
1222		-56.640625
1223		-50.781250
1224		-56.640625
1225		-50.781250
1226		-56.640625
1227		-48.828125
1228		-52.734375
1229		-50.781250
1230		-52.734375
1231		-48.828125
1232		-52.734375
1233		-46.875000
1234		-52.734375
1235		-46.875000
1236		-50.781250
1237		-44.921875
1238		-50.781250
1239		-44.921875
1240		-50.781250
1241		-42.968750
1242		-48.828125
1243		-42.968750
1244		-48.828125
1245		-42.968750
1246		-44.921875
1247		-42.968750
1248		-44.921875
1249		-41.015625
1250		-46.875000
1251		-39.062500
1252		-44.921875
1253		-39.062500
1254		-44.921875
1255		-39.062500
1256		-44.921875
1257		-35.156250
1258		-42.968750
1259		-35.156250
1260		-41.015625
1261		-35.156250
1262		-39.062500
1263		-35.156250
1264		-37.109375
1265		-35.156250
1266		-37.109375
1267		-33.203125
1268		-39.062500
1269		-31.250000
