Old_data/metingen laweit/30cm, resfreq1/data_81_241.txt

Channel              :		CH1
Frequency            :		682.1Hz
Period               :		1.466ms
PK-PK                :		97.66mV
Probe attenuation    :		1X
Voltage per ADC value:		0.122070mV
Time interval        :		2.00000us

index		CH1_Voltage(mV)
1		37.109375
2		37.109375
3		41.015625
4		37.109375
5		41.015625
6		37.109375
7		41.015625
8		37.109375
9		42.968750
10		39.062500
11		41.015625
12		37.109375
13		41.015625
14		37.109375
15		42.968750
16		39.062500
17		42.968750
18		39.062500
19		42.968750
20		39.062500
21		42.968750
22		39.062500
23		42.968750
24		39.062500
25		42.968750
26		39.062500
27		42.968750
28		41.015625
29		42.968750
30		39.062500
31		42.968750
32		39.062500
33		42.968750
34		39.062500
35		42.968750
36		41.015625
37		42.968750
38		39.062500
39		42.968750
40		39.062500
41		42.968750
42		39.062500
43		42.968750
44		39.062500
45		42.968750
46		39.062500
47		42.968750
48		39.062500
49		42.968750
50		39.062500
51		42.968750
52		39.062500
53		42.968750
54		39.062500
55		42.968750
56		39.062500
57		42.968750
58		39.062500
59		42.968750
60		39.062500
61		42.968750
62		39.062500
63		42.968750
64		39.062500
65		42.968750
66		39.062500
67		42.968750
68		39.062500
69		42.968750
70		39.062500
71		41.015625
72		39.062500
73		42.968750
74		37.109375
75		42.968750
76		39.062500
77		41.015625
78		37.109375
79		41.015625
80		37.109375
81		41.015625
82		37.109375
83		41.015625
84		37.109375
85		41.015625
86		37.109375
87		41.015625
88		37.109375
89		41.015625
90		37.109375
91		41.015625
92		37.109375
93		41.015625
94		37.109375
95		39.062500
96		35.156250
97		39.062500
98		35.156250
99		39.062500
100		35.156250
101		39.062500
102		35.156250
103		39.062500
104		35.156250
105		39.062500
106		35.156250
107		37.109375
108		33.203125
109		37.109375
110		35.156250
111		37.109375
112		33.203125
113		37.109375
114		33.203125
115		37.109375
116		33.203125
117		35.156250
118		33.203125
119		35.156250
120		31.250000
121		35.156250
122		31.250000
123		35.156250
124		31.250000
125		35.156250
126		31.250000
127		35.156250
128		29.296875
129		33.203125
130		29.296875
131		33.203125
132		29.296875
133		33.203125
134		29.296875
135		33.203125
136		27.343750
137		31.250000
138		27.343750
139		31.250000
140		27.343750
141		31.250000
142		27.343750
143		31.250000
144		25.390625
145		29.296875
146		25.390625
147		29.296875
148		25.390625
149		29.296875
150		23.437500
151		29.296875
152		23.437500
153		27.343750
154		23.437500
155		27.343750
156		23.437500
157		27.343750
158		21.484375
159		25.390625
160		21.484375
161		27.343750
162		21.484375
163		25.390625
164		19.531250
165		25.390625
166		19.531250
167		23.437500
168		19.531250
169		23.437500
170		19.531250
171		21.484375
172		17.578125
173		21.484375
174		17.578125
175		21.484375
176		17.578125
177		19.531250
178		15.625000
179		19.531250
180		15.625000
181		19.531250
182		15.625000
183		19.531250
184		13.671875
185		19.531250
186		13.671875
187		17.578125
188		11.718750
189		15.625000
190		11.718750
191		15.625000
192		9.765625
193		15.625000
194		11.718750
195		13.671875
196		9.765625
197		13.671875
198		9.765625
199		13.671875
200		7.812500
201		11.718750
202		7.812500
203		11.718750
204		7.812500
205		11.718750
206		5.859375
207		9.765625
208		5.859375
209		9.765625
210		5.859375
211		9.765625
212		3.906250
213		7.812500
214		1.953125
215		7.812500
216		3.906250
217		5.859375
218		1.953125
219		5.859375
220		1.953125
221		5.859375
222		0.000000
223		3.906250
224		0.000000
225		3.906250
226		0.000000
227		3.906250
228		-1.953125
229		1.953125
230		-1.953125
231		1.953125
232		-3.906250
233		1.953125
234		-3.906250
235		0.000000
236		-3.906250
237		0.000000
238		-3.906250
239		-1.953125
240		-5.859375
241		-1.953125
242		-7.812500
243		-1.953125
244		-5.859375
245		-3.906250
246		-9.765625
247		-5.859375
248		-7.812500
249		-3.906250
250		-9.765625
251		-5.859375
252		-9.765625
253		-5.859375
254		-11.718750
255		-5.859375
256		-11.718750
257		-7.812500
258		-11.718750
259		-9.765625
260		-13.671875
261		-7.812500
262		-13.671875
263		-9.765625
264		-15.625000
265		-11.718750
266		-15.625000
267		-11.718750
268		-15.625000
269		-11.718750
270		-15.625000
271		-13.671875
272		-17.578125
273		-13.671875
274		-17.578125
275		-13.671875
276		-19.531250
277		-15.625000
278		-19.531250
279		-15.625000
280		-19.531250
281		-17.578125
282		-21.484375
283		-17.578125
284		-21.484375
285		-17.578125
286		-21.484375
287		-17.578125
288		-23.437500
289		-19.531250
290		-23.437500
291		-19.531250
292		-23.437500
293		-21.484375
294		-25.390625
295		-19.531250
296		-25.390625
297		-21.484375
298		-27.343750
299		-21.484375
300		-27.343750
301		-23.437500
302		-27.343750
303		-23.437500
304		-29.296875
305		-23.437500
306		-29.296875
307		-25.390625
308		-29.296875
309		-25.390625
310		-29.296875
311		-25.390625
312		-29.296875
313		-27.343750
314		-31.250000
315		-27.343750
316		-31.250000
317		-27.343750
318		-33.203125
319		-27.343750
320		-33.203125
321		-29.296875
322		-33.203125
323		-29.296875
324		-33.203125
325		-29.296875
326		-35.156250
327		-31.250000
328		-35.156250
329		-31.250000
330		-35.156250
331		-31.250000
332		-37.109375
333		-33.203125
334		-35.156250
335		-33.203125
336		-37.109375
337		-33.203125
338		-37.109375
339		-33.203125
340		-37.109375
341		-33.203125
342		-39.062500
343		-35.156250
344		-39.062500
345		-35.156250
346		-39.062500
347		-35.156250
348		-39.062500
349		-35.156250
350		-41.015625
351		-35.156250
352		-39.062500
353		-37.109375
354		-41.015625
355		-37.109375
356		-41.015625
357		-37.109375
358		-41.015625
359		-37.109375
360		-41.015625
361		-37.109375
362		-42.968750
363		-39.062500
364		-41.015625
365		-39.062500
366		-42.968750
367		-39.062500
368		-42.968750
369		-39.062500
370		-42.968750
371		-39.062500
372		-44.921875
373		-39.062500
374		-42.968750
375		-41.015625
376		-44.921875
377		-41.015625
378		-44.921875
379		-39.062500
380		-42.968750
381		-41.015625
382		-44.921875
383		-39.062500
384		-44.921875
385		-41.015625
386		-44.921875
387		-41.015625
388		-46.875000
389		-41.015625
390		-44.921875
391		-42.968750
392		-44.921875
393		-41.015625
394		-44.921875
395		-41.015625
396		-44.921875
397		-42.968750
398		-44.921875
399		-41.015625
400		-46.875000
401		-42.968750
402		-44.921875
403		-42.968750
404		-46.875000
405		-41.015625
406		-46.875000
407		-42.968750
408		-44.921875
409		-42.968750
410		-46.875000
411		-42.968750
412		-46.875000
413		-42.968750
414		-44.921875
415		-41.015625
416		-44.921875
417		-42.968750
418		-46.875000
419		-42.968750
420		-46.875000
421		-42.968750
422		-46.875000
423		-42.968750
424		-44.921875
425		-42.968750
426		-44.921875
427		-41.015625
428		-44.921875
429		-42.968750
430		-44.921875
431		-42.968750
432		-46.875000
433		-41.015625
434		-44.921875
435		-41.015625
436		-44.921875
437		-41.015625
438		-44.921875
439		-41.015625
440		-44.921875
441		-41.015625
442		-44.921875
443		-41.015625
444		-44.921875
445		-41.015625
446		-42.968750
447		-41.015625
448		-42.968750
449		-39.062500
450		-44.921875
451		-39.062500
452		-42.968750
453		-39.062500
454		-42.968750
455		-39.062500
456		-42.968750
457		-39.062500
458		-42.968750
459		-39.062500
460		-41.015625
461		-39.062500
462		-41.015625
463		-39.062500
464		-41.015625
465		-37.109375
466		-41.015625
467		-37.109375
468		-41.015625
469		-37.109375
470		-41.015625
471		-37.109375
472		-39.062500
473		-37.109375
474		-41.015625
475		-37.109375
476		-39.062500
477		-35.156250
478		-39.062500
479		-35.156250
480		-39.062500
481		-35.156250
482		-37.109375
483		-35.156250
484		-37.109375
485		-33.203125
486		-37.109375
487		-33.203125
488		-37.109375
489		-33.203125
490		-37.109375
491		-31.250000
492		-35.156250
493		-31.250000
494		-35.156250
495		-31.250000
496		-35.156250
497		-31.250000
498		-33.203125
499		-31.250000
500		-33.203125
501		-29.296875
502		-33.203125
503		-29.296875
504		-31.250000
505		-29.296875
506		-33.203125
507		-29.296875
508		-31.250000
509		-27.343750
510		-31.250000
511		-27.343750
512		-31.250000
513		-27.343750
514		-29.296875
515		-25.390625
516		-29.296875
517		-25.390625
518		-29.296875
519		-23.437500
520		-27.343750
521		-23.437500
522		-27.343750
523		-23.437500
524		-27.343750
525		-21.484375
526		-25.390625
527		-23.437500
528		-25.390625
529		-21.484375
530		-25.390625
531		-21.484375
532		-23.437500
533		-21.484375
534		-23.437500
535		-19.531250
536		-23.437500
537		-19.531250
538		-21.484375
539		-19.531250
540		-21.484375
541		-17.578125
542		-21.484375
543		-17.578125
544		-19.531250
545		-15.625000
546		-19.531250
547		-15.625000
548		-17.578125
549		-15.625000
550		-17.578125
551		-13.671875
552		-17.578125
553		-13.671875
554		-15.625000
555		-11.718750
556		-15.625000
557		-11.718750
558		-13.671875
559		-11.718750
560		-13.671875
561		-9.765625
562		-13.671875
563		-9.765625
564		-13.671875
565		-9.765625
566		-11.718750
567		-9.765625
568		-11.718750
569		-7.812500
570		-11.718750
571		-5.859375
572		-9.765625
573		-5.859375
574		-9.765625
575		-5.859375
576		-7.812500
577		-3.906250
578		-7.812500
579		-3.906250
580		-5.859375
581		-3.906250
582		-7.812500
583		-1.953125
584		-5.859375
585		-1.953125
586		-3.906250
587		0.000000
588		-3.906250
589		0.000000
590		-3.906250
591		0.000000
592		-1.953125
593		1.953125
594		-1.953125
595		1.953125
596		-1.953125
597		1.953125
598		0.000000
599		3.906250
600		0.000000
601		3.906250
602		1.953125
603		3.906250
604		1.953125
605		5.859375
606		1.953125
607		5.859375
608		1.953125
609		7.812500
610		3.906250
611		7.812500
612		3.906250
613		9.765625
614		5.859375
615		7.812500
616		5.859375
617		9.765625
618		7.812500
619		11.718750
620		7.812500
621		11.718750
622		7.812500
623		11.718750
624		9.765625
625		13.671875
626		9.765625
627		13.671875
628		9.765625
629		13.671875
630		11.718750
631		15.625000
632		11.718750
633		15.625000
634		11.718750
635		17.578125
636		13.671875
637		15.625000
638		13.671875
639		17.578125
640		13.671875
641		17.578125
642		13.671875
643		19.531250
644		15.625000
645		19.531250
646		15.625000
647		19.531250
648		15.625000
649		21.484375
650		17.578125
651		21.484375
652		17.578125
653		21.484375
654		17.578125
655		23.437500
656		19.531250
657		23.437500
658		19.531250
659		23.437500
660		21.484375
661		23.437500
662		21.484375
663		25.390625
664		21.484375
665		25.390625
666		23.437500
667		25.390625
668		21.484375
669		27.343750
670		23.437500
671		27.343750
672		23.437500
673		27.343750
674		23.437500
675		29.296875
676		25.390625
677		29.296875
678		25.390625
679		29.296875
680		25.390625
681		29.296875
682		27.343750
683		29.296875
684		27.343750
685		31.250000
686		27.343750
687		31.250000
688		29.296875
689		31.250000
690		29.296875
691		33.203125
692		29.296875
693		33.203125
694		29.296875
695		33.203125
696		29.296875
697		35.156250
698		31.250000
699		35.156250
700		31.250000
701		35.156250
702		31.250000
703		35.156250
704		33.203125
705		37.109375
706		33.203125
707		37.109375
708		33.203125
709		37.109375
710		33.203125
711		37.109375
712		33.203125
713		37.109375
714		35.156250
715		37.109375
716		35.156250
717		37.109375
718		35.156250
719		39.062500
720		35.156250
721		39.062500
722		35.156250
723		39.062500
724		35.156250
725		41.015625
726		37.109375
727		41.015625
728		37.109375
729		41.015625
730		37.109375
731		41.015625
732		37.109375
733		41.015625
734		39.062500
735		41.015625
736		37.109375
737		41.015625
738		37.109375
739		41.015625
740		39.062500
741		41.015625
742		37.109375
743		42.968750
744		37.109375
745		42.968750
746		39.062500
747		42.968750
748		39.062500
749		42.968750
750		39.062500
751		42.968750
752		39.062500
753		42.968750
754		39.062500
755		42.968750
756		39.062500
757		42.968750
758		39.062500
759		42.968750
760		39.062500
761		42.968750
762		41.015625
763		42.968750
764		41.015625
765		42.968750
766		39.062500
767		44.921875
768		41.015625
769		42.968750
770		39.062500
771		44.921875
772		41.015625
773		42.968750
774		41.015625
775		44.921875
776		39.062500
777		44.921875
778		39.062500
779		42.968750
780		39.062500
781		44.921875
782		41.015625
783		42.968750
784		39.062500
785		42.968750
786		39.062500
787		44.921875
788		39.062500
789		44.921875
790		41.015625
791		42.968750
792		41.015625
793		42.968750
794		39.062500
795		42.968750
796		41.015625
797		42.968750
798		39.062500
799		42.968750
800		39.062500
801		42.968750
802		39.062500
803		42.968750
804		39.062500
805		42.968750
806		39.062500
807		42.968750
808		39.062500
809		42.968750
810		39.062500
811		42.968750
812		39.062500
813		42.968750
814		37.109375
815		42.968750
816		39.062500
817		41.015625
818		39.062500
819		41.015625
820		37.109375
821		41.015625
822		37.109375
823		41.015625
824		37.109375
825		41.015625
826		37.109375
827		41.015625
828		37.109375
829		41.015625
830		35.156250
831		39.062500
832		35.156250
833		39.062500
834		35.156250
835		39.062500
836		35.156250
837		39.062500
838		35.156250
839		39.062500
840		35.156250
841		39.062500
842		35.156250
843		37.109375
844		33.203125
845		37.109375
846		33.203125
847		37.109375
848		33.203125
849		37.109375
850		33.203125
851		37.109375
852		33.203125
853		37.109375
854		31.250000
855		35.156250
856		31.250000
857		35.156250
858		31.250000
859		35.156250
860		31.250000
861		35.156250
862		29.296875
863		35.156250
864		29.296875
865		33.203125
866		29.296875
867		33.203125
868		29.296875
869		31.250000
870		27.343750
871		33.203125
872		27.343750
873		31.250000
874		27.343750
875		31.250000
876		25.390625
877		31.250000
878		25.390625
879		29.296875
880		25.390625
881		29.296875
882		25.390625
883		29.296875
884		25.390625
885		27.343750
886		23.437500
887		27.343750
888		23.437500
889		27.343750
890		23.437500
891		25.390625
892		21.484375
893		25.390625
894		21.484375
895		25.390625
896		21.484375
897		25.390625
898		21.484375
899		23.437500
900		19.531250
901		23.437500
902		19.531250
903		21.484375
904		17.578125
905		21.484375
906		17.578125
907		21.484375
908		17.578125
909		21.484375
910		15.625000
911		19.531250
912		15.625000
913		19.531250
914		15.625000
915		19.531250
916		15.625000
917		19.531250
918		13.671875
919		17.578125
920		13.671875
921		17.578125
922		13.671875
923		15.625000
924		11.718750
925		15.625000
926		11.718750
927		13.671875
928		9.765625
929		15.625000
930		9.765625
931		13.671875
932		9.765625
933		11.718750
934		7.812500
935		11.718750
936		7.812500
937		11.718750
938		5.859375
939		11.718750
940		5.859375
941		9.765625
942		5.859375
943		9.765625
944		3.906250
945		7.812500
946		3.906250
947		7.812500
948		3.906250
949		5.859375
950		1.953125
951		7.812500
952		1.953125
953		5.859375
954		1.953125
955		5.859375
956		0.000000
957		3.906250
958		0.000000
959		3.906250
960		-1.953125
961		1.953125
962		-1.953125
963		1.953125
964		-1.953125
965		1.953125
966		-3.906250
967		0.000000
968		-3.906250
969		0.000000
970		-5.859375
971		-1.953125
972		-5.859375
973		-1.953125
974		-5.859375
975		-1.953125
976		-5.859375
977		-1.953125
978		-7.812500
979		-3.906250
980		-7.812500
981		-3.906250
982		-9.765625
983		-5.859375
984		-9.765625
985		-5.859375
986		-9.765625
987		-7.812500
988		-11.718750
989		-7.812500
990		-11.718750
991		-7.812500
992		-13.671875
993		-9.765625
994		-13.671875
995		-9.765625
996		-13.671875
997		-9.765625
998		-15.625000
999		-11.718750
1000		-15.625000
1001		-11.718750
1002		-15.625000
1003		-13.671875
1004		-17.578125
1005		-13.671875
1006		-17.578125
1007		-13.671875
1008		-17.578125
1009		-15.625000
1010		-19.531250
1011		-13.671875
1012		-19.531250
1013		-15.625000
1014		-19.531250
1015		-15.625000
1016		-21.484375
1017		-17.578125
1018		-21.484375
1019		-17.578125
1020		-21.484375
1021		-19.531250
1022		-23.437500
1023		-19.531250
1024		-23.437500
1025		-19.531250
1026		-25.390625
1027		-21.484375
1028		-25.390625
1029		-21.484375
1030		-25.390625
1031		-21.484375
1032		-25.390625
1033		-23.437500
1034		-27.343750
1035		-23.437500
1036		-27.343750
1037		-25.390625
1038		-27.343750
1039		-25.390625
1040		-29.296875
1041		-23.437500
1042		-29.296875
1043		-25.390625
1044		-29.296875
1045		-25.390625
1046		-31.250000
1047		-27.343750
1048		-31.250000
1049		-27.343750
1050		-31.250000
1051		-27.343750
1052		-31.250000
1053		-29.296875
1054		-33.203125
1055		-29.296875
1056		-33.203125
1057		-29.296875
1058		-33.203125
1059		-29.296875
1060		-35.156250
1061		-31.250000
1062		-35.156250
1063		-31.250000
1064		-35.156250
1065		-31.250000
1066		-37.109375
1067		-33.203125
1068		-35.156250
1069		-33.203125
1070		-37.109375
1071		-31.250000
1072		-37.109375
1073		-33.203125
1074		-37.109375
1075		-35.156250
1076		-39.062500
1077		-35.156250
1078		-39.062500
1079		-35.156250
1080		-39.062500
1081		-35.156250
1082		-41.015625
1083		-35.156250
1084		-41.015625
1085		-35.156250
1086		-39.062500
1087		-37.109375
1088		-41.015625
1089		-37.109375
1090		-41.015625
1091		-37.109375
1092		-41.015625
1093		-37.109375
1094		-41.015625
1095		-39.062500
1096		-42.968750
1097		-37.109375
1098		-42.968750
1099		-39.062500
1100		-42.968750
1101		-39.062500
1102		-42.968750
1103		-39.062500
1104		-42.968750
1105		-39.062500
1106		-42.968750
1107		-39.062500
1108		-42.968750
1109		-41.015625
1110		-42.968750
1111		-41.015625
1112		-44.921875
1113		-41.015625
1114		-44.921875
1115		-41.015625
1116		-44.921875
1117		-41.015625
1118		-44.921875
1119		-41.015625
1120		-44.921875
1121		-41.015625
1122		-44.921875
1123		-41.015625
1124		-44.921875
1125		-41.015625
1126		-44.921875
1127		-41.015625
1128		-44.921875
1129		-41.015625
1130		-44.921875
1131		-42.968750
1132		-46.875000
1133		-42.968750
1134		-46.875000
1135		-42.968750
1136		-44.921875
1137		-42.968750
1138		-46.875000
1139		-41.015625
1140		-44.921875
1141		-42.968750
1142		-44.921875
1143		-42.968750
1144		-44.921875
1145		-42.968750
1146		-44.921875
1147		-42.968750
1148		-44.921875
1149		-42.968750
1150		-46.875000
1151		-42.968750
1152		-44.921875
1153		-42.968750
1154		-44.921875
1155		-42.968750
1156		-44.921875
1157		-41.015625
1158		-44.921875
1159		-42.968750
1160		-44.921875
1161		-42.968750
1162		-44.921875
1163		-41.015625
1164		-44.921875
1165		-41.015625
1166		-44.921875
1167		-41.015625
1168		-44.921875
1169		-41.015625
1170		-44.921875
1171		-41.015625
1172		-44.921875
1173		-41.015625
1174		-44.921875
1175		-41.015625
1176		-44.921875
1177		-41.015625
1178		-42.968750
1179		-41.015625
1180		-44.921875
1181		-39.062500
1182		-42.968750
1183		-39.062500
1184		-42.968750
1185		-39.062500
1186		-42.968750
1187		-39.062500
1188		-42.968750
1189		-39.062500
1190		-42.968750
1191		-39.062500
1192		-42.968750
1193		-39.062500
1194		-41.015625
1195		-39.062500
1196		-42.968750
1197		-37.109375
1198		-41.015625
1199		-39.062500
1200		-41.015625
1201		-37.109375
1202		-41.015625
1203		-37.109375
1204		-39.062500
1205		-37.109375
1206		-41.015625
1207		-35.156250
1208		-39.062500
1209		-35.156250
1210		-39.062500
1211		-35.156250
1212		-39.062500
1213		-35.156250
1214		-37.109375
1215		-35.156250
1216		-37.109375
1217		-33.203125
1218		-39.062500
1219		-33.203125
1220		-37.109375
1221		-33.203125
1222		-37.109375
1223		-33.203125
1224		-35.156250
1225		-31.250000
1226		-35.156250
1227		-33.203125
1228		-35.156250
1229		-31.250000
1230		-35.156250
1231		-29.296875
1232		-33.203125
1233		-31.250000
1234		-33.203125
1235		-29.296875
1236		-33.203125
1237		-29.296875
1238		-31.250000
1239		-29.296875
1240		-31.250000
1241		-29.296875
1242		-31.250000
1243		-27.343750
1244		-31.250000
1245		-27.343750
1246		-29.296875
1247		-27.343750
1248		-29.296875
1249		-25.390625
1250		-29.296875
1251		-25.390625
1252		-29.296875
1253		-23.437500
1254		-27.343750
1255		-25.390625
1256		-29.296875
1257		-23.437500
1258		-27.343750
1259		-23.437500
1260		-25.390625
1261		-21.484375
1262		-25.390625
1263		-21.484375
1264		-25.390625
1265		-21.484375
1266		-25.390625
1267		-19.531250
1268		-23.437500
1269		-19.531250
1270		-23.437500
1271		-19.531250
1272		-21.484375
1273		-17.578125
