Old_data/metingen laweit/30cm, resfreq1/data_81_232.txt

Channel              :		CH1
Frequency            :		682.1Hz
Period               :		1.466ms
PK-PK                :		144.5mV
Probe attenuation    :		1X
Voltage per ADC value:		0.122070mV
Time interval        :		2.00000us

index		CH1_Voltage(mV)
1		52.734375
2		52.734375
3		56.640625
4		50.781250
5		58.593750
6		52.734375
7		56.640625
8		54.687500
9		58.593750
10		54.687500
11		58.593750
12		54.687500
13		58.593750
14		54.687500
15		58.593750
16		56.640625
17		58.593750
18		56.640625
19		58.593750
20		54.687500
21		60.546875
22		56.640625
23		60.546875
24		58.593750
25		60.546875
26		56.640625
27		62.500000
28		56.640625
29		60.546875
30		58.593750
31		62.500000
32		58.593750
33		62.500000
34		58.593750
35		62.500000
36		58.593750
37		62.500000
38		58.593750
39		62.500000
40		58.593750
41		62.500000
42		58.593750
43		64.453125
44		58.593750
45		62.500000
46		58.593750
47		64.453125
48		58.593750
49		62.500000
50		60.546875
51		64.453125
52		60.546875
53		62.500000
54		60.546875
55		62.500000
56		58.593750
57		62.500000
58		60.546875
59		62.500000
60		58.593750
61		64.453125
62		60.546875
63		62.500000
64		58.593750
65		62.500000
66		60.546875
67		62.500000
68		58.593750
69		62.500000
70		58.593750
71		62.500000
72		58.593750
73		62.500000
74		58.593750
75		62.500000
76		58.593750
77		62.500000
78		58.593750
79		62.500000
80		58.593750
81		62.500000
82		58.593750
83		62.500000
84		56.640625
85		62.500000
86		56.640625
87		60.546875
88		58.593750
89		60.546875
90		56.640625
91		60.546875
92		58.593750
93		60.546875
94		56.640625
95		60.546875
96		56.640625
97		60.546875
98		56.640625
99		58.593750
100		56.640625
101		58.593750
102		54.687500
103		58.593750
104		54.687500
105		58.593750
106		52.734375
107		58.593750
108		54.687500
109		56.640625
110		54.687500
111		56.640625
112		52.734375
113		56.640625
114		52.734375
115		56.640625
116		52.734375
117		56.640625
118		52.734375
119		54.687500
120		50.781250
121		54.687500
122		50.781250
123		54.687500
124		50.781250
125		52.734375
126		48.828125
127		52.734375
128		48.828125
129		52.734375
130		46.875000
131		50.781250
132		46.875000
133		50.781250
134		46.875000
135		50.781250
136		46.875000
137		48.828125
138		44.921875
139		48.828125
140		44.921875
141		48.828125
142		42.968750
143		46.875000
144		42.968750
145		46.875000
146		42.968750
147		46.875000
148		41.015625
149		44.921875
150		41.015625
151		44.921875
152		41.015625
153		42.968750
154		39.062500
155		42.968750
156		37.109375
157		42.968750
158		37.109375
159		41.015625
160		37.109375
161		41.015625
162		35.156250
163		39.062500
164		35.156250
165		39.062500
166		33.203125
167		37.109375
168		33.203125
169		37.109375
170		33.203125
171		37.109375
172		31.250000
173		35.156250
174		31.250000
175		33.203125
176		29.296875
177		33.203125
178		27.343750
179		31.250000
180		27.343750
181		31.250000
182		25.390625
183		31.250000
184		25.390625
185		29.296875
186		23.437500
187		29.296875
188		23.437500
189		27.343750
190		21.484375
191		25.390625
192		21.484375
193		25.390625
194		19.531250
195		23.437500
196		17.578125
197		23.437500
198		17.578125
199		21.484375
200		15.625000
201		21.484375
202		15.625000
203		19.531250
204		13.671875
205		19.531250
206		13.671875
207		17.578125
208		13.671875
209		17.578125
210		11.718750
211		15.625000
212		9.765625
213		15.625000
214		9.765625
215		13.671875
216		7.812500
217		11.718750
218		7.812500
219		11.718750
220		5.859375
221		9.765625
222		5.859375
223		9.765625
224		3.906250
225		7.812500
226		3.906250
227		5.859375
228		1.953125
229		7.812500
230		0.000000
231		5.859375
232		0.000000
233		3.906250
234		-1.953125
235		1.953125
236		-3.906250
237		0.000000
238		-3.906250
239		0.000000
240		-3.906250
241		-1.953125
242		-5.859375
243		-1.953125
244		-7.812500
245		-3.906250
246		-7.812500
247		-3.906250
248		-9.765625
249		-5.859375
250		-9.765625
251		-7.812500
252		-11.718750
253		-7.812500
254		-13.671875
255		-7.812500
256		-13.671875
257		-9.765625
258		-15.625000
259		-11.718750
260		-15.625000
261		-13.671875
262		-17.578125
263		-13.671875
264		-17.578125
265		-15.625000
266		-19.531250
267		-15.625000
268		-21.484375
269		-17.578125
270		-21.484375
271		-17.578125
272		-23.437500
273		-19.531250
274		-25.390625
275		-21.484375
276		-25.390625
277		-21.484375
278		-27.343750
279		-21.484375
280		-27.343750
281		-23.437500
282		-29.296875
283		-25.390625
284		-29.296875
285		-25.390625
286		-31.250000
287		-27.343750
288		-31.250000
289		-27.343750
290		-33.203125
291		-29.296875
292		-35.156250
293		-29.296875
294		-35.156250
295		-31.250000
296		-35.156250
297		-33.203125
298		-37.109375
299		-33.203125
300		-37.109375
301		-35.156250
302		-39.062500
303		-35.156250
304		-39.062500
305		-37.109375
306		-41.015625
307		-37.109375
308		-41.015625
309		-39.062500
310		-42.968750
311		-39.062500
312		-42.968750
313		-41.015625
314		-44.921875
315		-41.015625
316		-44.921875
317		-42.968750
318		-46.875000
319		-42.968750
320		-46.875000
321		-44.921875
322		-48.828125
323		-44.921875
324		-48.828125
325		-46.875000
326		-50.781250
327		-46.875000
328		-50.781250
329		-48.828125
330		-52.734375
331		-48.828125
332		-52.734375
333		-46.875000
334		-52.734375
335		-48.828125
336		-54.687500
337		-50.781250
338		-54.687500
339		-50.781250
340		-56.640625
341		-52.734375
342		-56.640625
343		-52.734375
344		-58.593750
345		-54.687500
346		-58.593750
347		-54.687500
348		-60.546875
349		-54.687500
350		-60.546875
351		-56.640625
352		-60.546875
353		-56.640625
354		-62.500000
355		-56.640625
356		-62.500000
357		-58.593750
358		-62.500000
359		-58.593750
360		-64.453125
361		-58.593750
362		-62.500000
363		-60.546875
364		-64.453125
365		-60.546875
366		-64.453125
367		-60.546875
368		-64.453125
369		-60.546875
370		-66.406250
371		-62.500000
372		-66.406250
373		-62.500000
374		-66.406250
375		-62.500000
376		-66.406250
377		-62.500000
378		-68.359375
379		-62.500000
380		-68.359375
381		-64.453125
382		-68.359375
383		-64.453125
384		-68.359375
385		-66.406250
386		-68.359375
387		-66.406250
388		-70.312500
389		-66.406250
390		-70.312500
391		-66.406250
392		-70.312500
393		-66.406250
394		-70.312500
395		-68.359375
396		-70.312500
397		-68.359375
398		-72.265625
399		-68.359375
400		-72.265625
401		-68.359375
402		-72.265625
403		-68.359375
404		-72.265625
405		-68.359375
406		-72.265625
407		-68.359375
408		-72.265625
409		-68.359375
410		-72.265625
411		-68.359375
412		-72.265625
413		-70.312500
414		-74.218750
415		-68.359375
416		-72.265625
417		-70.312500
418		-72.265625
419		-70.312500
420		-72.265625
421		-68.359375
422		-72.265625
423		-70.312500
424		-72.265625
425		-70.312500
426		-72.265625
427		-70.312500
428		-72.265625
429		-70.312500
430		-72.265625
431		-68.359375
432		-72.265625
433		-70.312500
434		-72.265625
435		-68.359375
436		-72.265625
437		-68.359375
438		-72.265625
439		-68.359375
440		-72.265625
441		-68.359375
442		-72.265625
443		-68.359375
444		-72.265625
445		-68.359375
446		-70.312500
447		-68.359375
448		-72.265625
449		-68.359375
450		-70.312500
451		-66.406250
452		-70.312500
453		-68.359375
454		-70.312500
455		-66.406250
456		-70.312500
457		-66.406250
458		-70.312500
459		-66.406250
460		-70.312500
461		-66.406250
462		-68.359375
463		-66.406250
464		-68.359375
465		-64.453125
466		-68.359375
467		-64.453125
468		-68.359375
469		-64.453125
470		-66.406250
471		-64.453125
472		-66.406250
473		-62.500000
474		-66.406250
475		-62.500000
476		-66.406250
477		-62.500000
478		-66.406250
479		-62.500000
480		-64.453125
481		-62.500000
482		-64.453125
483		-60.546875
484		-64.453125
485		-60.546875
486		-62.500000
487		-58.593750
488		-62.500000
489		-58.593750
490		-62.500000
491		-58.593750
492		-60.546875
493		-56.640625
494		-60.546875
495		-56.640625
496		-60.546875
497		-56.640625
498		-60.546875
499		-54.687500
500		-58.593750
501		-54.687500
502		-56.640625
503		-54.687500
504		-56.640625
505		-52.734375
506		-56.640625
507		-52.734375
508		-54.687500
509		-52.734375
510		-54.687500
511		-50.781250
512		-52.734375
513		-50.781250
514		-52.734375
515		-48.828125
516		-52.734375
517		-48.828125
518		-50.781250
519		-46.875000
520		-50.781250
521		-46.875000
522		-50.781250
523		-44.921875
524		-48.828125
525		-44.921875
526		-46.875000
527		-44.921875
528		-46.875000
529		-42.968750
530		-44.921875
531		-42.968750
532		-44.921875
533		-41.015625
534		-42.968750
535		-39.062500
536		-42.968750
537		-39.062500
538		-41.015625
539		-37.109375
540		-41.015625
541		-37.109375
542		-39.062500
543		-37.109375
544		-39.062500
545		-35.156250
546		-37.109375
547		-35.156250
548		-37.109375
549		-31.250000
550		-35.156250
551		-31.250000
552		-35.156250
553		-31.250000
554		-33.203125
555		-29.296875
556		-33.203125
557		-29.296875
558		-31.250000
559		-27.343750
560		-31.250000
561		-25.390625
562		-29.296875
563		-25.390625
564		-27.343750
565		-25.390625
566		-27.343750
567		-23.437500
568		-25.390625
569		-21.484375
570		-25.390625
571		-21.484375
572		-23.437500
573		-19.531250
574		-21.484375
575		-19.531250
576		-21.484375
577		-17.578125
578		-19.531250
579		-17.578125
580		-19.531250
581		-15.625000
582		-19.531250
583		-11.718750
584		-17.578125
585		-13.671875
586		-15.625000
587		-11.718750
588		-15.625000
589		-9.765625
590		-13.671875
591		-9.765625
592		-11.718750
593		-7.812500
594		-11.718750
595		-7.812500
596		-9.765625
597		-5.859375
598		-9.765625
599		-3.906250
600		-7.812500
601		-3.906250
602		-5.859375
603		-3.906250
604		-5.859375
605		-1.953125
606		-3.906250
607		0.000000
608		-3.906250
609		0.000000
610		-1.953125
611		1.953125
612		-1.953125
613		1.953125
614		0.000000
615		3.906250
616		0.000000
617		5.859375
618		1.953125
619		5.859375
620		3.906250
621		7.812500
622		3.906250
623		7.812500
624		5.859375
625		9.765625
626		5.859375
627		9.765625
628		7.812500
629		11.718750
630		7.812500
631		11.718750
632		9.765625
633		13.671875
634		9.765625
635		13.671875
636		11.718750
637		15.625000
638		13.671875
639		15.625000
640		13.671875
641		17.578125
642		15.625000
643		19.531250
644		15.625000
645		19.531250
646		17.578125
647		19.531250
648		17.578125
649		21.484375
650		19.531250
651		23.437500
652		19.531250
653		23.437500
654		19.531250
655		25.390625
656		21.484375
657		25.390625
658		23.437500
659		27.343750
660		23.437500
661		27.343750
662		25.390625
663		29.296875
664		25.390625
665		29.296875
666		27.343750
667		31.250000
668		27.343750
669		31.250000
670		29.296875
671		33.203125
672		29.296875
673		33.203125
674		31.250000
675		35.156250
676		31.250000
677		35.156250
678		33.203125
679		35.156250
680		33.203125
681		37.109375
682		35.156250
683		39.062500
684		35.156250
685		39.062500
686		35.156250
687		39.062500
688		37.109375
689		41.015625
690		37.109375
691		41.015625
692		39.062500
693		41.015625
694		39.062500
695		42.968750
696		39.062500
697		42.968750
698		41.015625
699		44.921875
700		41.015625
701		46.875000
702		41.015625
703		44.921875
704		42.968750
705		46.875000
706		44.921875
707		46.875000
708		44.921875
709		46.875000
710		44.921875
711		48.828125
712		44.921875
713		50.781250
714		46.875000
715		48.828125
716		46.875000
717		50.781250
718		46.875000
719		50.781250
720		48.828125
721		52.734375
722		48.828125
723		52.734375
724		48.828125
725		52.734375
726		50.781250
727		52.734375
728		50.781250
729		54.687500
730		50.781250
731		54.687500
732		52.734375
733		54.687500
734		50.781250
735		56.640625
736		50.781250
737		56.640625
738		52.734375
739		56.640625
740		52.734375
741		56.640625
742		54.687500
743		56.640625
744		54.687500
745		58.593750
746		54.687500
747		58.593750
748		54.687500
749		58.593750
750		54.687500
751		58.593750
752		56.640625
753		58.593750
754		56.640625
755		58.593750
756		56.640625
757		60.546875
758		56.640625
759		60.546875
760		56.640625
761		60.546875
762		56.640625
763		60.546875
764		58.593750
765		62.500000
766		58.593750
767		60.546875
768		58.593750
769		62.500000
770		58.593750
771		62.500000
772		58.593750
773		62.500000
774		58.593750
775		62.500000
776		58.593750
777		62.500000
778		58.593750
779		62.500000
780		58.593750
781		62.500000
782		58.593750
783		62.500000
784		58.593750
785		62.500000
786		58.593750
787		62.500000
788		58.593750
789		62.500000
790		58.593750
791		62.500000
792		58.593750
793		62.500000
794		58.593750
795		62.500000
796		58.593750
797		62.500000
798		58.593750
799		62.500000
800		58.593750
801		62.500000
802		58.593750
803		62.500000
804		58.593750
805		62.500000
806		58.593750
807		62.500000
808		58.593750
809		62.500000
810		58.593750
811		60.546875
812		58.593750
813		62.500000
814		56.640625
815		60.546875
816		58.593750
817		60.546875
818		56.640625
819		62.500000
820		58.593750
821		60.546875
822		56.640625
823		60.546875
824		56.640625
825		60.546875
826		56.640625
827		60.546875
828		56.640625
829		58.593750
830		54.687500
831		60.546875
832		56.640625
833		58.593750
834		54.687500
835		58.593750
836		54.687500
837		58.593750
838		54.687500
839		58.593750
840		54.687500
841		56.640625
842		52.734375
843		58.593750
844		52.734375
845		56.640625
846		52.734375
847		56.640625
848		52.734375
849		56.640625
850		52.734375
851		54.687500
852		50.781250
853		54.687500
854		50.781250
855		54.687500
856		48.828125
857		52.734375
858		48.828125
859		52.734375
860		48.828125
861		52.734375
862		48.828125
863		50.781250
864		46.875000
865		50.781250
866		46.875000
867		50.781250
868		46.875000
869		50.781250
870		44.921875
871		48.828125
872		44.921875
873		48.828125
874		44.921875
875		46.875000
876		42.968750
877		46.875000
878		42.968750
879		46.875000
880		41.015625
881		46.875000
882		41.015625
883		44.921875
884		41.015625
885		42.968750
886		39.062500
887		42.968750
888		39.062500
889		42.968750
890		39.062500
891		42.968750
892		37.109375
893		41.015625
894		37.109375
895		39.062500
896		35.156250
897		39.062500
898		35.156250
899		37.109375
900		33.203125
901		37.109375
902		33.203125
903		37.109375
904		33.203125
905		35.156250
906		31.250000
907		35.156250
908		31.250000
909		33.203125
910		29.296875
911		33.203125
912		29.296875
913		31.250000
914		27.343750
915		31.250000
916		27.343750
917		29.296875
918		25.390625
919		29.296875
920		23.437500
921		27.343750
922		23.437500
923		27.343750
924		23.437500
925		25.390625
926		21.484375
927		25.390625
928		19.531250
929		23.437500
930		19.531250
931		23.437500
932		17.578125
933		21.484375
934		17.578125
935		19.531250
936		15.625000
937		19.531250
938		15.625000
939		17.578125
940		13.671875
941		17.578125
942		11.718750
943		15.625000
944		11.718750
945		15.625000
946		9.765625
947		13.671875
948		9.765625
949		13.671875
950		9.765625
951		11.718750
952		7.812500
953		11.718750
954		5.859375
955		9.765625
956		5.859375
957		7.812500
958		3.906250
959		7.812500
960		3.906250
961		5.859375
962		1.953125
963		5.859375
964		0.000000
965		3.906250
966		0.000000
967		1.953125
968		-1.953125
969		1.953125
970		-3.906250
971		1.953125
972		-5.859375
973		0.000000
974		-5.859375
975		-1.953125
976		-5.859375
977		-1.953125
978		-9.765625
979		-3.906250
980		-9.765625
981		-3.906250
982		-9.765625
983		-7.812500
984		-9.765625
985		-7.812500
986		-13.671875
987		-7.812500
988		-13.671875
989		-7.812500
990		-15.625000
991		-9.765625
992		-15.625000
993		-11.718750
994		-17.578125
995		-13.671875
996		-17.578125
997		-11.718750
998		-19.531250
999		-13.671875
1000		-19.531250
1001		-17.578125
1002		-23.437500
1003		-17.578125
1004		-23.437500
1005		-17.578125
1006		-25.390625
1007		-17.578125
1008		-25.390625
1009		-19.531250
1010		-25.390625
1011		-21.484375
1012		-27.343750
1013		-21.484375
1014		-27.343750
1015		-23.437500
1016		-29.296875
1017		-25.390625
1018		-29.296875
1019		-25.390625
1020		-33.203125
1021		-27.343750
1022		-33.203125
1023		-27.343750
1024		-35.156250
1025		-27.343750
1026		-33.203125
1027		-29.296875
1028		-37.109375
1029		-31.250000
1030		-37.109375
1031		-33.203125
1032		-37.109375
1033		-33.203125
1034		-37.109375
1035		-35.156250
1036		-41.015625
1037		-35.156250
1038		-42.968750
1039		-35.156250
1040		-42.968750
1041		-37.109375
1042		-44.921875
1043		-39.062500
1044		-44.921875
1045		-39.062500
1046		-44.921875
1047		-39.062500
1048		-46.875000
1049		-41.015625
1050		-46.875000
1051		-42.968750
1052		-46.875000
1053		-44.921875
1054		-50.781250
1055		-42.968750
1056		-50.781250
1057		-44.921875
1058		-50.781250
1059		-44.921875
1060		-52.734375
1061		-44.921875
1062		-52.734375
1063		-46.875000
1064		-52.734375
1065		-48.828125
1066		-52.734375
1067		-50.781250
1068		-52.734375
1069		-50.781250
1070		-54.687500
1071		-50.781250
1072		-56.640625
1073		-50.781250
1074		-58.593750
1075		-52.734375
1076		-58.593750
1077		-52.734375
1078		-60.546875
1079		-52.734375
1080		-60.546875
1081		-54.687500
1082		-58.593750
1083		-54.687500
1084		-60.546875
1085		-56.640625
1086		-62.500000
1087		-56.640625
1088		-62.500000
1089		-56.640625
1090		-64.453125
1091		-56.640625
1092		-64.453125
1093		-58.593750
1094		-64.453125
1095		-58.593750
1096		-64.453125
1097		-58.593750
1098		-66.406250
1099		-58.593750
1100		-64.453125
1101		-62.500000
1102		-64.453125
1103		-62.500000
1104		-68.359375
1105		-62.500000
1106		-68.359375
1107		-60.546875
1108		-68.359375
1109		-62.500000
1110		-70.312500
1111		-62.500000
1112		-68.359375
1113		-62.500000
1114		-70.312500
1115		-62.500000
1116		-68.359375
1117		-64.453125
1118		-68.359375
1119		-66.406250
1120		-70.312500
1121		-64.453125
1122		-72.265625
1123		-64.453125
1124		-72.265625
1125		-64.453125
1126		-72.265625
1127		-66.406250
1128		-74.218750
1129		-64.453125
1130		-74.218750
1131		-66.406250
1132		-70.312500
1133		-66.406250
1134		-72.265625
1135		-68.359375
1136		-72.265625
1137		-68.359375
1138		-74.218750
1139		-66.406250
1140		-74.218750
1141		-66.406250
1142		-74.218750
1143		-66.406250
1144		-74.218750
1145		-66.406250
1146		-74.218750
1147		-68.359375
1148		-74.218750
1149		-68.359375
1150		-72.265625
1151		-70.312500
1152		-72.265625
1153		-68.359375
1154		-74.218750
1155		-68.359375
1156		-74.218750
1157		-66.406250
1158		-74.218750
1159		-68.359375
1160		-74.218750
1161		-68.359375
1162		-74.218750
1163		-68.359375
1164		-74.218750
1165		-66.406250
1166		-74.218750
1167		-68.359375
1168		-72.265625
1169		-68.359375
1170		-74.218750
1171		-68.359375
1172		-74.218750
1173		-66.406250
1174		-72.265625
1175		-66.406250
1176		-72.265625
1177		-66.406250
1178		-72.265625
1179		-66.406250
1180		-72.265625
1181		-66.406250
1182		-72.265625
1183		-66.406250
1184		-70.312500
1185		-68.359375
1186		-70.312500
1187		-66.406250
1188		-72.265625
1189		-64.453125
1190		-70.312500
1191		-64.453125
1192		-70.312500
1193		-64.453125
1194		-70.312500
1195		-64.453125
1196		-68.359375
1197		-62.500000
1198		-68.359375
1199		-62.500000
1200		-68.359375
1201		-62.500000
1202		-66.406250
1203		-62.500000
1204		-68.359375
1205		-60.546875
1206		-66.406250
1207		-60.546875
1208		-66.406250
1209		-60.546875
1210		-66.406250
1211		-60.546875
1212		-66.406250
1213		-58.593750
1214		-64.453125
1215		-58.593750
1216		-64.453125
1217		-58.593750
1218		-62.500000
1219		-58.593750
1220		-62.500000
1221		-56.640625
1222		-62.500000
1223		-56.640625
1224		-62.500000
1225		-54.687500
1226		-60.546875
1227		-54.687500
1228		-60.546875
1229		-54.687500
1230		-60.546875
1231		-52.734375
1232		-58.593750
1233		-52.734375
1234		-56.640625
1235		-52.734375
1236		-56.640625
1237		-52.734375
1238		-56.640625
1239		-50.781250
1240		-56.640625
1241		-48.828125
1242		-54.687500
1243		-48.828125
1244		-54.687500
1245		-46.875000
1246		-52.734375
1247		-46.875000
1248		-52.734375
1249		-46.875000
1250		-50.781250
1251		-46.875000
1252		-48.828125
1253		-46.875000
1254		-48.828125
1255		-44.921875
1256		-48.828125
1257		-42.968750
1258		-46.875000
1259		-42.968750
1260		-46.875000
1261		-42.968750
1262		-44.921875
1263		-41.015625
1264		-44.921875
1265		-41.015625
1266		-44.921875
1267		-39.062500
1268		-42.968750
1269		-39.062500
