Old_data/metingen laweit/30cm, resfreq1/data_81_236.txt

Channel              :		CH1
Frequency            :		681.2Hz
Period               :		1.468ms
PK-PK                :		83.98mV
Probe attenuation    :		1X
Voltage per ADC value:		0.122070mV
Time interval        :		2.00000us

index		CH1_Voltage(mV)
1		39.062500
2		39.062500
3		31.250000
4		39.062500
5		33.203125
6		39.062500
7		33.203125
8		39.062500
9		33.203125
10		39.062500
11		33.203125
12		39.062500
13		35.156250
14		39.062500
15		35.156250
16		39.062500
17		33.203125
18		39.062500
19		33.203125
20		41.015625
21		33.203125
22		41.015625
23		33.203125
24		41.015625
25		35.156250
26		41.015625
27		33.203125
28		41.015625
29		35.156250
30		39.062500
31		37.109375
32		39.062500
33		35.156250
34		41.015625
35		33.203125
36		41.015625
37		35.156250
38		41.015625
39		35.156250
40		41.015625
41		35.156250
42		41.015625
43		35.156250
44		41.015625
45		35.156250
46		41.015625
47		37.109375
48		39.062500
49		33.203125
50		41.015625
51		35.156250
52		41.015625
53		35.156250
54		41.015625
55		35.156250
56		41.015625
57		33.203125
58		41.015625
59		35.156250
60		41.015625
61		35.156250
62		41.015625
63		37.109375
64		39.062500
65		37.109375
66		39.062500
67		35.156250
68		41.015625
69		33.203125
70		41.015625
71		35.156250
72		41.015625
73		33.203125
74		41.015625
75		33.203125
76		41.015625
77		33.203125
78		41.015625
79		35.156250
80		37.109375
81		35.156250
82		37.109375
83		33.203125
84		39.062500
85		33.203125
86		39.062500
87		33.203125
88		39.062500
89		33.203125
90		39.062500
91		33.203125
92		39.062500
93		31.250000
94		39.062500
95		33.203125
96		39.062500
97		33.203125
98		37.109375
99		31.250000
100		37.109375
101		31.250000
102		37.109375
103		31.250000
104		37.109375
105		29.296875
106		37.109375
107		29.296875
108		37.109375
109		29.296875
110		37.109375
111		29.296875
112		35.156250
113		31.250000
114		35.156250
115		31.250000
116		33.203125
117		27.343750
118		35.156250
119		27.343750
120		35.156250
121		27.343750
122		35.156250
123		27.343750
124		35.156250
125		25.390625
126		33.203125
127		27.343750
128		33.203125
129		25.390625
130		33.203125
131		27.343750
132		31.250000
133		25.390625
134		31.250000
135		25.390625
136		31.250000
137		25.390625
138		31.250000
139		23.437500
140		31.250000
141		23.437500
142		31.250000
143		23.437500
144		29.296875
145		23.437500
146		29.296875
147		25.390625
148		27.343750
149		23.437500
150		27.343750
151		21.484375
152		27.343750
153		21.484375
154		27.343750
155		21.484375
156		27.343750
157		19.531250
158		27.343750
159		19.531250
160		25.390625
161		19.531250
162		25.390625
163		21.484375
164		23.437500
165		19.531250
166		23.437500
167		17.578125
168		23.437500
169		15.625000
170		23.437500
171		15.625000
172		23.437500
173		15.625000
174		21.484375
175		15.625000
176		21.484375
177		15.625000
178		21.484375
179		15.625000
180		21.484375
181		15.625000
182		17.578125
183		13.671875
184		19.531250
185		11.718750
186		19.531250
187		11.718750
188		19.531250
189		11.718750
190		17.578125
191		9.765625
192		17.578125
193		9.765625
194		17.578125
195		9.765625
196		15.625000
197		11.718750
198		13.671875
199		7.812500
200		13.671875
201		5.859375
202		13.671875
203		7.812500
204		13.671875
205		7.812500
206		13.671875
207		5.859375
208		11.718750
209		3.906250
210		11.718750
211		3.906250
212		11.718750
213		3.906250
214		9.765625
215		5.859375
216		7.812500
217		1.953125
218		7.812500
219		1.953125
220		7.812500
221		1.953125
222		7.812500
223		1.953125
224		7.812500
225		0.000000
226		5.859375
227		0.000000
228		5.859375
229		0.000000
230		5.859375
231		0.000000
232		1.953125
233		-1.953125
234		1.953125
235		-3.906250
236		3.906250
237		-3.906250
238		1.953125
239		-3.906250
240		1.953125
241		-5.859375
242		1.953125
243		-5.859375
244		0.000000
245		-5.859375
246		0.000000
247		-5.859375
248		-1.953125
249		-5.859375
250		-1.953125
251		-7.812500
252		-1.953125
253		-9.765625
254		-1.953125
255		-9.765625
256		-3.906250
257		-9.765625
258		-3.906250
259		-11.718750
260		-3.906250
261		-11.718750
262		-5.859375
263		-11.718750
264		-5.859375
265		-11.718750
266		-7.812500
267		-13.671875
268		-7.812500
269		-13.671875
270		-7.812500
271		-13.671875
272		-7.812500
273		-15.625000
274		-9.765625
275		-15.625000
276		-9.765625
277		-15.625000
278		-9.765625
279		-17.578125
280		-9.765625
281		-15.625000
282		-13.671875
283		-17.578125
284		-11.718750
285		-19.531250
286		-11.718750
287		-19.531250
288		-13.671875
289		-21.484375
290		-13.671875
291		-21.484375
292		-13.671875
293		-21.484375
294		-13.671875
295		-21.484375
296		-15.625000
297		-21.484375
298		-15.625000
299		-21.484375
300		-17.578125
301		-23.437500
302		-17.578125
303		-23.437500
304		-17.578125
305		-23.437500
306		-17.578125
307		-25.390625
308		-17.578125
309		-25.390625
310		-19.531250
311		-27.343750
312		-19.531250
313		-27.343750
314		-19.531250
315		-25.390625
316		-21.484375
317		-25.390625
318		-23.437500
319		-27.343750
320		-21.484375
321		-29.296875
322		-21.484375
323		-29.296875
324		-23.437500
325		-29.296875
326		-23.437500
327		-29.296875
328		-23.437500
329		-31.250000
330		-23.437500
331		-31.250000
332		-25.390625
333		-29.296875
334		-27.343750
335		-31.250000
336		-25.390625
337		-33.203125
338		-25.390625
339		-33.203125
340		-25.390625
341		-33.203125
342		-27.343750
343		-33.203125
344		-27.343750
345		-33.203125
346		-27.343750
347		-33.203125
348		-27.343750
349		-33.203125
350		-29.296875
351		-35.156250
352		-29.296875
353		-37.109375
354		-29.296875
355		-35.156250
356		-29.296875
357		-37.109375
358		-29.296875
359		-37.109375
360		-29.296875
361		-37.109375
362		-29.296875
363		-37.109375
364		-31.250000
365		-37.109375
366		-33.203125
367		-35.156250
368		-33.203125
369		-39.062500
370		-31.250000
371		-39.062500
372		-31.250000
373		-39.062500
374		-31.250000
375		-39.062500
376		-33.203125
377		-39.062500
378		-31.250000
379		-39.062500
380		-33.203125
381		-39.062500
382		-33.203125
383		-37.109375
384		-35.156250
385		-39.062500
386		-33.203125
387		-41.015625
388		-33.203125
389		-39.062500
390		-33.203125
391		-41.015625
392		-33.203125
393		-41.015625
394		-33.203125
395		-41.015625
396		-33.203125
397		-39.062500
398		-35.156250
399		-39.062500
400		-37.109375
401		-39.062500
402		-35.156250
403		-41.015625
404		-35.156250
405		-41.015625
406		-35.156250
407		-41.015625
408		-35.156250
409		-41.015625
410		-35.156250
411		-41.015625
412		-33.203125
413		-41.015625
414		-35.156250
415		-39.062500
416		-35.156250
417		-39.062500
418		-35.156250
419		-41.015625
420		-35.156250
421		-41.015625
422		-35.156250
423		-41.015625
424		-33.203125
425		-41.015625
426		-35.156250
427		-41.015625
428		-35.156250
429		-41.015625
430		-35.156250
431		-39.062500
432		-33.203125
433		-37.109375
434		-35.156250
435		-41.015625
436		-33.203125
437		-39.062500
438		-33.203125
439		-41.015625
440		-33.203125
441		-39.062500
442		-33.203125
443		-39.062500
444		-33.203125
445		-39.062500
446		-33.203125
447		-39.062500
448		-33.203125
449		-37.109375
450		-35.156250
451		-37.109375
452		-35.156250
453		-39.062500
454		-31.250000
455		-39.062500
456		-31.250000
457		-37.109375
458		-31.250000
459		-37.109375
460		-31.250000
461		-37.109375
462		-31.250000
463		-37.109375
464		-31.250000
465		-37.109375
466		-31.250000
467		-35.156250
468		-31.250000
469		-35.156250
470		-31.250000
471		-35.156250
472		-29.296875
473		-37.109375
474		-29.296875
475		-35.156250
476		-29.296875
477		-35.156250
478		-29.296875
479		-35.156250
480		-29.296875
481		-33.203125
482		-29.296875
483		-33.203125
484		-29.296875
485		-31.250000
486		-27.343750
487		-31.250000
488		-27.343750
489		-31.250000
490		-25.390625
491		-33.203125
492		-25.390625
493		-31.250000
494		-25.390625
495		-31.250000
496		-25.390625
497		-31.250000
498		-23.437500
499		-29.296875
500		-25.390625
501		-27.343750
502		-25.390625
503		-29.296875
504		-23.437500
505		-29.296875
506		-21.484375
507		-27.343750
508		-21.484375
509		-27.343750
510		-21.484375
511		-27.343750
512		-21.484375
513		-27.343750
514		-21.484375
515		-27.343750
516		-21.484375
517		-25.390625
518		-21.484375
519		-25.390625
520		-19.531250
521		-25.390625
522		-19.531250
523		-25.390625
524		-17.578125
525		-23.437500
526		-17.578125
527		-23.437500
528		-17.578125
529		-21.484375
530		-15.625000
531		-21.484375
532		-15.625000
533		-19.531250
534		-17.578125
535		-19.531250
536		-15.625000
537		-19.531250
538		-13.671875
539		-19.531250
540		-13.671875
541		-19.531250
542		-11.718750
543		-19.531250
544		-11.718750
545		-17.578125
546		-11.718750
547		-17.578125
548		-11.718750
549		-15.625000
550		-11.718750
551		-13.671875
552		-11.718750
553		-15.625000
554		-7.812500
555		-13.671875
556		-7.812500
557		-13.671875
558		-7.812500
559		-13.671875
560		-7.812500
561		-13.671875
562		-7.812500
563		-13.671875
564		-5.859375
565		-11.718750
566		-5.859375
567		-9.765625
568		-5.859375
569		-9.765625
570		-5.859375
571		-9.765625
572		-3.906250
573		-7.812500
574		-3.906250
575		-7.812500
576		-1.953125
577		-7.812500
578		-1.953125
579		-7.812500
580		0.000000
581		-7.812500
582		0.000000
583		-5.859375
584		-1.953125
585		-3.906250
586		0.000000
587		-5.859375
588		1.953125
589		-3.906250
590		1.953125
591		-3.906250
592		3.906250
593		-3.906250
594		3.906250
595		-1.953125
596		3.906250
597		-1.953125
598		3.906250
599		-1.953125
600		5.859375
601		0.000000
602		3.906250
603		1.953125
604		5.859375
605		0.000000
606		7.812500
607		1.953125
608		7.812500
609		1.953125
610		9.765625
611		1.953125
612		9.765625
613		3.906250
614		9.765625
615		3.906250
616		9.765625
617		5.859375
618		9.765625
619		5.859375
620		9.765625
621		5.859375
622		13.671875
623		5.859375
624		13.671875
625		7.812500
626		13.671875
627		7.812500
628		13.671875
629		7.812500
630		15.625000
631		9.765625
632		15.625000
633		9.765625
634		15.625000
635		11.718750
636		15.625000
637		11.718750
638		17.578125
639		11.718750
640		17.578125
641		11.718750
642		17.578125
643		11.718750
644		19.531250
645		13.671875
646		19.531250
647		13.671875
648		19.531250
649		13.671875
650		21.484375
651		17.578125
652		19.531250
653		17.578125
654		21.484375
655		15.625000
656		23.437500
657		17.578125
658		23.437500
659		15.625000
660		23.437500
661		17.578125
662		23.437500
663		17.578125
664		25.390625
665		19.531250
666		25.390625
667		21.484375
668		23.437500
669		21.484375
670		23.437500
671		19.531250
672		27.343750
673		21.484375
674		27.343750
675		21.484375
676		27.343750
677		21.484375
678		29.296875
679		21.484375
680		29.296875
681		21.484375
682		29.296875
683		23.437500
684		29.296875
685		25.390625
686		27.343750
687		25.390625
688		29.296875
689		23.437500
690		31.250000
691		25.390625
692		31.250000
693		25.390625
694		31.250000
695		27.343750
696		33.203125
697		25.390625
698		33.203125
699		25.390625
700		33.203125
701		27.343750
702		31.250000
703		29.296875
704		31.250000
705		27.343750
706		33.203125
707		27.343750
708		33.203125
709		29.296875
710		35.156250
711		29.296875
712		35.156250
713		29.296875
714		35.156250
715		29.296875
716		35.156250
717		29.296875
718		35.156250
719		31.250000
720		35.156250
721		31.250000
722		37.109375
723		31.250000
724		37.109375
725		31.250000
726		37.109375
727		31.250000
728		37.109375
729		31.250000
730		37.109375
731		33.203125
732		39.062500
733		33.203125
734		39.062500
735		33.203125
736		37.109375
737		33.203125
738		37.109375
739		31.250000
740		39.062500
741		33.203125
742		39.062500
743		33.203125
744		39.062500
745		33.203125
746		41.015625
747		33.203125
748		39.062500
749		33.203125
750		41.015625
751		35.156250
752		39.062500
753		35.156250
754		39.062500
755		35.156250
756		41.015625
757		33.203125
758		41.015625
759		35.156250
760		41.015625
761		35.156250
762		41.015625
763		35.156250
764		41.015625
765		33.203125
766		41.015625
767		35.156250
768		41.015625
769		37.109375
770		41.015625
771		37.109375
772		41.015625
773		35.156250
774		41.015625
775		35.156250
776		41.015625
777		35.156250
778		41.015625
779		35.156250
780		41.015625
781		35.156250
782		41.015625
783		35.156250
784		41.015625
785		37.109375
786		41.015625
787		37.109375
788		39.062500
789		35.156250
790		41.015625
791		35.156250
792		41.015625
793		35.156250
794		41.015625
795		35.156250
796		41.015625
797		33.203125
798		41.015625
799		33.203125
800		41.015625
801		35.156250
802		41.015625
803		35.156250
804		39.062500
805		35.156250
806		39.062500
807		33.203125
808		41.015625
809		35.156250
810		41.015625
811		33.203125
812		41.015625
813		33.203125
814		39.062500
815		33.203125
816		39.062500
817		33.203125
818		39.062500
819		35.156250
820		39.062500
821		35.156250
822		37.109375
823		33.203125
824		39.062500
825		31.250000
826		39.062500
827		33.203125
828		39.062500
829		31.250000
830		39.062500
831		31.250000
832		39.062500
833		31.250000
834		37.109375
835		31.250000
836		37.109375
837		33.203125
838		35.156250
839		29.296875
840		37.109375
841		31.250000
842		37.109375
843		29.296875
844		37.109375
845		29.296875
846		35.156250
847		29.296875
848		35.156250
849		29.296875
850		35.156250
851		27.343750
852		35.156250
853		29.296875
854		33.203125
855		29.296875
856		33.203125
857		27.343750
858		33.203125
859		27.343750
860		33.203125
861		27.343750
862		33.203125
863		25.390625
864		33.203125
865		25.390625
866		33.203125
867		25.390625
868		31.250000
869		27.343750
870		29.296875
871		27.343750
872		29.296875
873		23.437500
874		31.250000
875		23.437500
876		29.296875
877		23.437500
878		29.296875
879		23.437500
880		29.296875
881		21.484375
882		29.296875
883		21.484375
884		29.296875
885		21.484375
886		27.343750
887		23.437500
888		25.390625
889		21.484375
890		25.390625
891		19.531250
892		25.390625
893		19.531250
894		25.390625
895		19.531250
896		25.390625
897		17.578125
898		25.390625
899		17.578125
900		25.390625
901		17.578125
902		23.437500
903		19.531250
904		21.484375
905		17.578125
906		21.484375
907		15.625000
908		21.484375
909		15.625000
910		21.484375
911		13.671875
912		21.484375
913		13.671875
914		21.484375
915		13.671875
916		19.531250
917		11.718750
918		19.531250
919		13.671875
920		17.578125
921		13.671875
922		17.578125
923		11.718750
924		17.578125
925		9.765625
926		17.578125
927		9.765625
928		17.578125
929		9.765625
930		15.625000
931		7.812500
932		15.625000
933		7.812500
934		13.671875
935		7.812500
936		13.671875
937		7.812500
938		11.718750
939		7.812500
940		11.718750
941		5.859375
942		11.718750
943		3.906250
944		11.718750
945		3.906250
946		11.718750
947		3.906250
948		9.765625
949		3.906250
950		9.765625
951		1.953125
952		9.765625
953		3.906250
954		7.812500
955		3.906250
956		5.859375
957		0.000000
958		7.812500
959		0.000000
960		5.859375
961		-1.953125
962		5.859375
963		-1.953125
964		3.906250
965		-1.953125
966		3.906250
967		-1.953125
968		3.906250
969		-1.953125
970		3.906250
971		-1.953125
972		0.000000
973		-3.906250
974		0.000000
975		-3.906250
976		1.953125
977		-7.812500
978		0.000000
979		-7.812500
980		0.000000
981		-7.812500
982		0.000000
983		-7.812500
984		-1.953125
985		-7.812500
986		-1.953125
987		-7.812500
988		-3.906250
989		-7.812500
990		-5.859375
991		-9.765625
992		-5.859375
993		-11.718750
994		-3.906250
995		-9.765625
996		-5.859375
997		-11.718750
998		-5.859375
999		-13.671875
1000		-7.812500
1001		-13.671875
1002		-7.812500
1003		-13.671875
1004		-7.812500
1005		-13.671875
1006		-9.765625
1007		-15.625000
1008		-9.765625
1009		-15.625000
1010		-9.765625
1011		-17.578125
1012		-11.718750
1013		-17.578125
1014		-11.718750
1015		-17.578125
1016		-13.671875
1017		-19.531250
1018		-11.718750
1019		-19.531250
1020		-13.671875
1021		-19.531250
1022		-15.625000
1023		-17.578125
1024		-15.625000
1025		-21.484375
1026		-15.625000
1027		-21.484375
1028		-15.625000
1029		-23.437500
1030		-15.625000
1031		-21.484375
1032		-17.578125
1033		-23.437500
1034		-17.578125
1035		-23.437500
1036		-17.578125
1037		-23.437500
1038		-19.531250
1039		-23.437500
1040		-19.531250
1041		-25.390625
1042		-19.531250
1043		-25.390625
1044		-19.531250
1045		-27.343750
1046		-21.484375
1047		-27.343750
1048		-21.484375
1049		-27.343750
1050		-21.484375
1051		-29.296875
1052		-21.484375
1053		-27.343750
1054		-23.437500
1055		-27.343750
1056		-23.437500
1057		-29.296875
1058		-25.390625
1059		-29.296875
1060		-23.437500
1061		-29.296875
1062		-23.437500
1063		-31.250000
1064		-23.437500
1065		-31.250000
1066		-23.437500
1067		-29.296875
1068		-25.390625
1069		-31.250000
1070		-27.343750
1071		-31.250000
1072		-27.343750
1073		-31.250000
1074		-29.296875
1075		-33.203125
1076		-27.343750
1077		-33.203125
1078		-27.343750
1079		-33.203125
1080		-29.296875
1081		-33.203125
1082		-29.296875
1083		-33.203125
1084		-29.296875
1085		-33.203125
1086		-29.296875
1087		-33.203125
1088		-31.250000
1089		-33.203125
1090		-31.250000
1091		-35.156250
1092		-31.250000
1093		-35.156250
1094		-31.250000
1095		-35.156250
1096		-33.203125
1097		-35.156250
1098		-31.250000
1099		-35.156250
1100		-33.203125
1101		-35.156250
1102		-33.203125
1103		-37.109375
1104		-31.250000
1105		-37.109375
1106		-33.203125
1107		-37.109375
1108		-33.203125
1109		-37.109375
1110		-33.203125
1111		-37.109375
1112		-33.203125
1113		-37.109375
1114		-33.203125
1115		-37.109375
1116		-35.156250
1117		-39.062500
1118		-33.203125
1119		-39.062500
1120		-35.156250
1121		-39.062500
1122		-33.203125
1123		-37.109375
1124		-35.156250
1125		-39.062500
1126		-35.156250
1127		-39.062500
1128		-35.156250
1129		-39.062500
1130		-35.156250
1131		-39.062500
1132		-35.156250
1133		-39.062500
1134		-35.156250
1135		-39.062500
1136		-35.156250
1137		-39.062500
1138		-35.156250
1139		-39.062500
1140		-35.156250
1141		-41.015625
1142		-35.156250
1143		-39.062500
1144		-37.109375
1145		-39.062500
1146		-35.156250
1147		-39.062500
1148		-37.109375
1149		-39.062500
1150		-35.156250
1151		-41.015625
1152		-35.156250
1153		-39.062500
1154		-35.156250
1155		-39.062500
1156		-37.109375
1157		-39.062500
1158		-35.156250
1159		-39.062500
1160		-35.156250
1161		-39.062500
1162		-35.156250
1163		-39.062500
1164		-35.156250
1165		-39.062500
1166		-35.156250
1167		-39.062500
1168		-35.156250
1169		-39.062500
1170		-35.156250
1171		-39.062500
1172		-33.203125
1173		-39.062500
1174		-35.156250
1175		-39.062500
1176		-35.156250
1177		-39.062500
1178		-35.156250
1179		-37.109375
1180		-33.203125
1181		-37.109375
1182		-33.203125
1183		-37.109375
1184		-33.203125
1185		-37.109375
1186		-33.203125
1187		-37.109375
1188		-33.203125
1189		-37.109375
1190		-33.203125
1191		-37.109375
1192		-33.203125
1193		-37.109375
1194		-31.250000
1195		-37.109375
1196		-33.203125
1197		-35.156250
1198		-33.203125
1199		-35.156250
1200		-31.250000
1201		-35.156250
1202		-31.250000
1203		-35.156250
1204		-31.250000
1205		-35.156250
1206		-31.250000
1207		-33.203125
1208		-31.250000
1209		-35.156250
1210		-29.296875
1211		-33.203125
1212		-29.296875
1213		-33.203125
1214		-29.296875
1215		-31.250000
1216		-29.296875
1217		-33.203125
1218		-29.296875
1219		-31.250000
1220		-29.296875
1221		-31.250000
1222		-27.343750
1223		-31.250000
1224		-27.343750
1225		-31.250000
1226		-27.343750
1227		-31.250000
1228		-25.390625
1229		-29.296875
1230		-27.343750
1231		-29.296875
1232		-27.343750
1233		-29.296875
1234		-25.390625
1235		-29.296875
1236		-25.390625
1237		-29.296875
1238		-23.437500
1239		-27.343750
1240		-23.437500
1241		-27.343750
1242		-25.390625
1243		-27.343750
1244		-21.484375
1245		-25.390625
1246		-23.437500
1247		-25.390625
1248		-21.484375
1249		-25.390625
1250		-21.484375
1251		-25.390625
1252		-21.484375
1253		-23.437500
1254		-19.531250
1255		-23.437500
1256		-19.531250
1257		-23.437500
1258		-19.531250
1259		-23.437500
1260		-17.578125
1261		-21.484375
1262		-17.578125
1263		-21.484375
1264		-17.578125
1265		-21.484375
1266		-17.578125
1267		-19.531250
1268		-15.625000
1269		-19.531250
1270		-15.625000
1271		-19.531250
1272		-15.625000
1273		-17.578125
1274		-15.625000
1275		-17.578125
