Old_data/metingen laweit/2000Hz, 26.1cm/data_81_127.txt

Channel              :		CH1
Frequency            :		1.987kHz
Period               :		0.503ms
PK-PK                :		187.5mV
Probe attenuation    :		1X
Voltage per ADC value:		0.122070mV
Time interval        :		2.00000us

index		CH1_Voltage(mV)
1		80.078125
2		80.078125
3		78.125000
4		82.031250
5		80.078125
6		83.984375
7		82.031250
8		85.937500
9		83.984375
10		87.890625
11		85.937500
12		89.843750
13		85.937500
14		89.843750
15		87.890625
16		91.796875
17		89.843750
18		93.750000
19		89.843750
20		95.703125
21		91.796875
22		93.750000
23		91.796875
24		95.703125
25		91.796875
26		95.703125
27		93.750000
28		95.703125
29		93.750000
30		95.703125
31		91.796875
32		95.703125
33		91.796875
34		95.703125
35		91.796875
36		95.703125
37		91.796875
38		95.703125
39		89.843750
40		93.750000
41		87.890625
42		91.796875
43		85.937500
44		89.843750
45		85.937500
46		89.843750
47		83.984375
48		87.890625
49		82.031250
50		85.937500
51		80.078125
52		83.984375
53		78.125000
54		82.031250
55		76.171875
56		80.078125
57		72.265625
58		78.125000
59		70.312500
60		76.171875
61		66.406250
62		72.265625
63		64.453125
64		68.359375
65		60.546875
66		66.406250
67		56.640625
68		62.500000
69		52.734375
70		58.593750
71		50.781250
72		56.640625
73		46.875000
74		52.734375
75		42.968750
76		48.828125
77		39.062500
78		44.921875
79		35.156250
80		41.015625
81		31.250000
82		37.109375
83		27.343750
84		31.250000
85		21.484375
86		27.343750
87		17.578125
88		23.437500
89		13.671875
90		19.531250
91		9.765625
92		15.625000
93		3.906250
94		9.765625
95		0.000000
96		5.859375
97		-3.906250
98		1.953125
99		-7.812500
100		-1.953125
101		-13.671875
102		-5.859375
103		-17.578125
104		-11.718750
105		-21.484375
106		-15.625000
107		-25.390625
108		-19.531250
109		-29.296875
110		-25.390625
111		-33.203125
112		-29.296875
113		-39.062500
114		-33.203125
115		-41.015625
116		-37.109375
117		-44.921875
118		-39.062500
119		-48.828125
120		-42.968750
121		-52.734375
122		-46.875000
123		-56.640625
124		-50.781250
125		-60.546875
126		-54.687500
127		-62.500000
128		-56.640625
129		-64.453125
130		-58.593750
131		-66.406250
132		-62.500000
133		-70.312500
134		-64.453125
135		-72.265625
136		-68.359375
137		-74.218750
138		-70.312500
139		-74.218750
140		-72.265625
141		-76.171875
142		-74.218750
143		-78.125000
144		-74.218750
145		-80.078125
146		-76.171875
147		-80.078125
148		-78.125000
149		-80.078125
150		-78.125000
151		-82.031250
152		-78.125000
153		-82.031250
154		-78.125000
155		-82.031250
156		-78.125000
157		-80.078125
158		-78.125000
159		-80.078125
160		-78.125000
161		-80.078125
162		-76.171875
163		-78.125000
164		-76.171875
165		-78.125000
166		-74.218750
167		-76.171875
168		-72.265625
169		-76.171875
170		-70.312500
171		-74.218750
172		-68.359375
173		-70.312500
174		-66.406250
175		-68.359375
176		-64.453125
177		-66.406250
178		-60.546875
179		-64.453125
180		-58.593750
181		-60.546875
182		-56.640625
183		-56.640625
184		-52.734375
185		-54.687500
186		-48.828125
187		-50.781250
188		-44.921875
189		-46.875000
190		-42.968750
191		-42.968750
192		-39.062500
193		-41.015625
194		-35.156250
195		-37.109375
196		-31.250000
197		-31.250000
198		-27.343750
199		-27.343750
200		-23.437500
201		-23.437500
202		-17.578125
203		-19.531250
204		-13.671875
205		-15.625000
206		-9.765625
207		-11.718750
208		-5.859375
209		-5.859375
210		0.000000
211		-1.953125
212		3.906250
213		1.953125
214		7.812500
215		5.859375
216		11.718750
217		9.765625
218		17.578125
219		15.625000
220		21.484375
221		19.531250
222		25.390625
223		23.437500
224		29.296875
225		27.343750
226		33.203125
227		31.250000
228		37.109375
229		37.109375
230		41.015625
231		41.015625
232		44.921875
233		44.921875
234		48.828125
235		48.828125
236		52.734375
237		50.781250
238		56.640625
239		54.687500
240		60.546875
241		58.593750
242		62.500000
243		62.500000
244		66.406250
245		64.453125
246		70.312500
247		66.406250
248		72.265625
249		70.312500
250		76.171875
251		72.265625
252		78.125000
253		76.171875
254		80.078125
255		78.125000
256		82.031250
257		80.078125
258		83.984375
259		82.031250
260		87.890625
261		83.984375
262		89.843750
263		85.937500
264		89.843750
265		87.890625
266		91.796875
267		89.843750
268		93.750000
269		89.843750
270		93.750000
271		91.796875
272		93.750000
273		91.796875
274		95.703125
275		93.750000
276		95.703125
277		93.750000
278		97.656250
279		93.750000
280		97.656250
281		93.750000
282		95.703125
283		91.796875
284		95.703125
285		91.796875
286		95.703125
287		91.796875
288		95.703125
289		89.843750
290		93.750000
291		89.843750
292		93.750000
293		89.843750
294		91.796875
295		87.890625
296		91.796875
297		85.937500
298		89.843750
299		83.984375
300		87.890625
301		82.031250
302		85.937500
303		80.078125
304		83.984375
305		78.125000
306		83.984375
307		76.171875
308		80.078125
309		74.218750
310		78.125000
311		70.312500
312		74.218750
313		66.406250
314		72.265625
315		64.453125
316		68.359375
317		60.546875
318		66.406250
319		58.593750
320		62.500000
321		54.687500
322		60.546875
323		50.781250
324		56.640625
325		46.875000
326		52.734375
327		42.968750
328		48.828125
329		39.062500
330		44.921875
331		35.156250
332		41.015625
333		31.250000
334		37.109375
335		25.390625
336		33.203125
337		21.484375
338		29.296875
339		17.578125
340		23.437500
341		13.671875
342		19.531250
343		7.812500
344		15.625000
345		3.906250
346		11.718750
347		0.000000
348		5.859375
349		-3.906250
350		1.953125
351		-7.812500
352		-1.953125
353		-13.671875
354		-7.812500
355		-17.578125
356		-11.718750
357		-21.484375
358		-15.625000
359		-25.390625
360		-19.531250
361		-31.250000
362		-23.437500
363		-33.203125
364		-27.343750
365		-37.109375
366		-31.250000
367		-42.968750
368		-37.109375
369		-46.875000
370		-41.015625
371		-48.828125
372		-42.968750
373		-52.734375
374		-46.875000
375		-54.687500
376		-50.781250
377		-58.593750
378		-54.687500
379		-62.500000
380		-56.640625
381		-66.406250
382		-60.546875
383		-66.406250
384		-62.500000
385		-68.359375
386		-64.453125
387		-72.265625
388		-66.406250
389		-74.218750
390		-70.312500
391		-76.171875
392		-72.265625
393		-76.171875
394		-74.218750
395		-78.125000
396		-74.218750
397		-78.125000
398		-74.218750
399		-80.078125
400		-76.171875
401		-80.078125
402		-78.125000
403		-82.031250
404		-78.125000
405		-80.078125
406		-78.125000
407		-82.031250
408		-78.125000
409		-80.078125
410		-78.125000
411		-80.078125
412		-76.171875
413		-80.078125
414		-76.171875
415		-78.125000
416		-74.218750
417		-78.125000
418		-72.265625
419		-76.171875
420		-72.265625
421		-74.218750
422		-70.312500
423		-72.265625
424		-68.359375
425		-70.312500
426		-66.406250
427		-68.359375
428		-62.500000
429		-66.406250
430		-60.546875
431		-62.500000
432		-58.593750
433		-60.546875
434		-54.687500
435		-56.640625
436		-52.734375
437		-52.734375
438		-48.828125
439		-50.781250
440		-44.921875
441		-46.875000
442		-41.015625
443		-42.968750
444		-37.109375
445		-39.062500
446		-33.203125
447		-37.109375
448		-29.296875
449		-31.250000
450		-25.390625
451		-27.343750
452		-21.484375
453		-23.437500
454		-17.578125
455		-19.531250
456		-13.671875
457		-13.671875
458		-9.765625
459		-9.765625
460		-3.906250
461		-5.859375
462		0.000000
463		-1.953125
464		3.906250
465		1.953125
466		9.765625
467		7.812500
468		11.718750
469		11.718750
470		17.578125
471		15.625000
472		21.484375
473		19.531250
474		25.390625
475		25.390625
476		29.296875
477		29.296875
478		35.156250
479		31.250000
480		39.062500
481		37.109375
482		42.968750
483		41.015625
484		46.875000
485		44.921875
486		50.781250
487		48.828125
488		52.734375
489		52.734375
490		58.593750
491		54.687500
492		60.546875
493		58.593750
494		64.453125
495		62.500000
496		66.406250
497		66.406250
498		70.312500
499		68.359375
500		72.265625
501		72.265625
502		76.171875
503		74.218750
504		78.125000
505		76.171875
506		82.031250
507		80.078125
508		83.984375
509		82.031250
510		85.937500
511		83.984375
512		87.890625
513		85.937500
514		89.843750
515		85.937500
516		89.843750
517		87.890625
518		91.796875
519		89.843750
520		93.750000
521		89.843750
522		93.750000
523		91.796875
524		95.703125
525		91.796875
526		95.703125
527		93.750000
528		95.703125
529		91.796875
530		95.703125
531		93.750000
532		95.703125
533		93.750000
534		97.656250
535		93.750000
536		95.703125
537		93.750000
538		95.703125
539		91.796875
540		95.703125
541		91.796875
542		95.703125
543		89.843750
544		93.750000
545		87.890625
546		93.750000
547		87.890625
548		91.796875
549		85.937500
550		89.843750
551		83.984375
552		87.890625
553		82.031250
554		85.937500
555		80.078125
556		83.984375
557		78.125000
558		82.031250
559		76.171875
560		80.078125
561		74.218750
562		78.125000
563		70.312500
564		76.171875
565		68.359375
566		72.265625
567		64.453125
568		70.312500
569		60.546875
570		66.406250
571		56.640625
572		62.500000
573		54.687500
574		58.593750
575		50.781250
576		56.640625
577		46.875000
578		52.734375
579		42.968750
580		48.828125
581		39.062500
582		44.921875
583		35.156250
584		41.015625
585		29.296875
586		37.109375
587		27.343750
588		33.203125
589		21.484375
590		27.343750
591		17.578125
592		23.437500
593		13.671875
594		19.531250
595		9.765625
596		15.625000
597		5.859375
598		11.718750
599		0.000000
600		5.859375
601		-3.906250
602		1.953125
603		-7.812500
604		-1.953125
605		-13.671875
606		-7.812500
607		-17.578125
608		-11.718750
609		-21.484375
610		-15.625000
611		-25.390625
612		-19.531250
613		-29.296875
614		-23.437500
615		-33.203125
616		-27.343750
617		-37.109375
618		-31.250000
619		-41.015625
620		-35.156250
621		-44.921875
622		-41.015625
623		-48.828125
624		-42.968750
625		-52.734375
626		-46.875000
627		-54.687500
628		-50.781250
629		-60.546875
630		-54.687500
631		-60.546875
632		-56.640625
633		-64.453125
634		-60.546875
635		-66.406250
636		-62.500000
637		-70.312500
638		-64.453125
639		-70.312500
640		-66.406250
641		-74.218750
642		-70.312500
643		-74.218750
644		-72.265625
645		-76.171875
646		-74.218750
647		-78.125000
648		-74.218750
649		-78.125000
650		-74.218750
651		-80.078125
652		-76.171875
653		-80.078125
654		-78.125000
655		-80.078125
656		-78.125000
657		-80.078125
658		-78.125000
659		-82.031250
660		-78.125000
661		-80.078125
662		-78.125000
663		-80.078125
664		-76.171875
665		-80.078125
666		-76.171875
667		-78.125000
668		-74.218750
669		-78.125000
670		-74.218750
671		-76.171875
672		-72.265625
673		-74.218750
674		-70.312500
675		-72.265625
676		-68.359375
677		-70.312500
678		-66.406250
679		-68.359375
680		-64.453125
681		-66.406250
682		-60.546875
683		-62.500000
684		-58.593750
685		-60.546875
686		-54.687500
687		-56.640625
688		-52.734375
689		-52.734375
690		-48.828125
691		-50.781250
692		-44.921875
693		-46.875000
694		-41.015625
695		-42.968750
696		-37.109375
697		-39.062500
698		-33.203125
699		-35.156250
700		-29.296875
701		-31.250000
702		-25.390625
703		-27.343750
704		-21.484375
705		-23.437500
706		-15.625000
707		-19.531250
708		-13.671875
709		-13.671875
710		-7.812500
711		-9.765625
712		-3.906250
713		-5.859375
714		0.000000
715		-1.953125
716		5.859375
717		3.906250
718		7.812500
719		5.859375
720		13.671875
721		11.718750
722		17.578125
723		15.625000
724		21.484375
725		19.531250
726		27.343750
727		25.390625
728		29.296875
729		29.296875
730		35.156250
731		33.203125
732		39.062500
733		37.109375
734		42.968750
735		41.015625
736		46.875000
737		44.921875
738		50.781250
739		48.828125
740		54.687500
741		52.734375
742		58.593750
743		54.687500
744		60.546875
745		58.593750
746		64.453125
747		62.500000
748		68.359375
749		66.406250
750		70.312500
751		68.359375
752		72.265625
753		72.265625
754		76.171875
755		74.218750
756		78.125000
757		76.171875
758		80.078125
759		78.125000
760		83.984375
761		82.031250
762		85.937500
763		83.984375
764		87.890625
765		83.984375
766		89.843750
767		87.890625
768		91.796875
769		87.890625
770		91.796875
771		89.843750
772		93.750000
773		89.843750
774		93.750000
775		91.796875
776		95.703125
777		91.796875
778		95.703125
779		93.750000
780		95.703125
781		93.750000
782		97.656250
783		93.750000
784		97.656250
785		93.750000
786		97.656250
787		93.750000
788		95.703125
789		93.750000
790		95.703125
791		91.796875
792		95.703125
793		91.796875
794		95.703125
795		89.843750
796		93.750000
797		89.843750
798		91.796875
799		87.890625
800		91.796875
801		85.937500
802		89.843750
803		83.984375
804		89.843750
805		82.031250
806		85.937500
807		80.078125
808		83.984375
809		78.125000
810		82.031250
811		76.171875
812		80.078125
813		74.218750
814		78.125000
815		70.312500
816		76.171875
817		66.406250
818		72.265625
819		64.453125
820		68.359375
821		60.546875
822		66.406250
823		56.640625
824		62.500000
825		54.687500
826		58.593750
827		50.781250
828		56.640625
829		46.875000
830		52.734375
831		42.968750
832		48.828125
833		39.062500
834		44.921875
835		35.156250
836		41.015625
837		31.250000
838		37.109375
839		27.343750
840		33.203125
841		21.484375
842		27.343750
843		17.578125
844		23.437500
845		13.671875
846		19.531250
847		9.765625
848		13.671875
849		3.906250
850		11.718750
851		0.000000
852		5.859375
853		-3.906250
854		1.953125
855		-7.812500
856		-1.953125
857		-13.671875
858		-7.812500
859		-17.578125
860		-11.718750
861		-21.484375
862		-13.671875
863		-25.390625
864		-19.531250
865		-29.296875
866		-25.390625
867		-33.203125
868		-27.343750
869		-37.109375
870		-33.203125
871		-41.015625
872		-37.109375
873		-44.921875
874		-41.015625
875		-48.828125
876		-42.968750
877		-52.734375
878		-46.875000
879		-54.687500
880		-50.781250
881		-60.546875
882		-54.687500
883		-62.500000
884		-56.640625
885		-64.453125
886		-60.546875
887		-66.406250
888		-62.500000
889		-68.359375
890		-64.453125
891		-72.265625
892		-66.406250
893		-74.218750
894		-70.312500
895		-74.218750
896		-72.265625
897		-76.171875
898		-72.265625
899		-78.125000
900		-74.218750
901		-78.125000
902		-76.171875
903		-80.078125
904		-76.171875
905		-80.078125
906		-76.171875
907		-80.078125
908		-78.125000
909		-80.078125
910		-78.125000
911		-82.031250
912		-78.125000
913		-80.078125
914		-78.125000
915		-80.078125
916		-76.171875
917		-78.125000
918		-76.171875
919		-78.125000
920		-74.218750
921		-76.171875
922		-72.265625
923		-76.171875
924		-72.265625
925		-74.218750
926		-70.312500
927		-72.265625
928		-68.359375
929		-70.312500
930		-66.406250
931		-66.406250
932		-62.500000
933		-66.406250
934		-60.546875
935		-62.500000
936		-56.640625
937		-58.593750
938		-54.687500
939		-56.640625
940		-50.781250
941		-52.734375
942		-48.828125
943		-50.781250
944		-44.921875
945		-46.875000
946		-41.015625
947		-42.968750
948		-37.109375
949		-39.062500
950		-33.203125
951		-35.156250
952		-29.296875
953		-31.250000
954		-25.390625
955		-27.343750
956		-19.531250
957		-23.437500
958		-17.578125
959		-19.531250
960		-11.718750
961		-13.671875
962		-7.812500
963		-9.765625
964		-3.906250
965		-5.859375
966		1.953125
967		0.000000
968		5.859375
969		3.906250
970		9.765625
971		7.812500
972		13.671875
973		11.718750
974		17.578125
975		15.625000
976		23.437500
977		19.531250
978		27.343750
979		25.390625
980		31.250000
981		29.296875
982		35.156250
983		33.203125
984		41.015625
985		37.109375
986		44.921875
987		41.015625
988		46.875000
989		44.921875
990		50.781250
991		46.875000
992		54.687500
993		50.781250
994		58.593750
995		56.640625
996		60.546875
997		60.546875
998		64.453125
999		62.500000
1000		70.312500
1001		64.453125
1002		70.312500
1003		68.359375
1004		74.218750
1005		72.265625
1006		76.171875
1007		74.218750
1008		80.078125
1009		76.171875
1010		83.984375
1011		78.125000
1012		83.984375
1013		82.031250
1014		85.937500
1015		83.984375
1016		87.890625
1017		83.984375
1018		89.843750
1019		83.984375
1020		91.796875
1021		85.937500
1022		93.750000
1023		87.890625
1024		95.703125
1025		87.890625
1026		95.703125
1027		89.843750
1028		97.656250
1029		93.750000
1030		95.703125
1031		93.750000
1032		95.703125
1033		91.796875
1034		97.656250
1035		91.796875
1036		99.609375
1037		91.796875
1038		99.609375
1039		91.796875
1040		97.656250
1041		91.796875
1042		97.656250
1043		89.843750
1044		97.656250
1045		91.796875
1046		97.656250
1047		89.843750
1048		93.750000
1049		87.890625
1050		91.796875
1051		85.937500
1052		93.750000
1053		83.984375
1054		91.796875
1055		82.031250
1056		89.843750
1057		82.031250
1058		87.890625
1059		78.125000
1060		85.937500
1061		76.171875
1062		83.984375
1063		76.171875
1064		80.078125
1065		74.218750
1066		78.125000
1067		68.359375
1068		76.171875
1069		66.406250
1070		74.218750
1071		62.500000
1072		70.312500
1073		58.593750
1074		68.359375
1075		56.640625
1076		64.453125
1077		52.734375
1078		60.546875
1079		50.781250
1080		58.593750
1081		46.875000
1082		52.734375
1083		42.968750
1084		48.828125
1085		37.109375
1086		46.875000
1087		33.203125
1088		42.968750
1089		29.296875
1090		39.062500
1091		25.390625
1092		35.156250
1093		21.484375
1094		29.296875
1095		17.578125
1096		23.437500
1097		13.671875
1098		19.531250
1099		9.765625
1100		13.671875
1101		1.953125
1102		11.718750
1103		-1.953125
1104		7.812500
1105		-3.906250
1106		3.906250
1107		-11.718750
1108		0.000000
1109		-15.625000
1110		-5.859375
1111		-19.531250
1112		-7.812500
1113		-21.484375
1114		-15.625000
1115		-25.390625
1116		-19.531250
1117		-31.250000
1118		-23.437500
1119		-35.156250
1120		-25.390625
1121		-39.062500
1122		-29.296875
1123		-42.968750
1124		-35.156250
1125		-46.875000
1126		-37.109375
1127		-50.781250
1128		-41.015625
1129		-52.734375
1130		-44.921875
1131		-54.687500
1132		-50.781250
1133		-58.593750
1134		-54.687500
1135		-64.453125
1136		-54.687500
1137		-66.406250
1138		-56.640625
1139		-68.359375
1140		-60.546875
1141		-70.312500
1142		-62.500000
1143		-74.218750
1144		-64.453125
1145		-74.218750
1146		-68.359375
1147		-74.218750
1148		-72.265625
1149		-76.171875
1150		-72.265625
1151		-78.125000
1152		-72.265625
1153		-80.078125
1154		-72.265625
1155		-82.031250
1156		-74.218750
1157		-82.031250
1158		-76.171875
1159		-82.031250
1160		-76.171875
1161		-82.031250
1162		-76.171875
1163		-82.031250
1164		-76.171875
1165		-80.078125
1166		-78.125000
1167		-82.031250
1168		-74.218750
1169		-80.078125
1170		-74.218750
1171		-80.078125
1172		-72.265625
1173		-78.125000
1174		-70.312500
1175		-78.125000
1176		-68.359375
1177		-76.171875
1178		-68.359375
1179		-74.218750
1180		-66.406250
1181		-68.359375
1182		-66.406250
1183		-66.406250
1184		-62.500000
1185		-66.406250
1186		-58.593750
1187		-64.453125
1188		-54.687500
1189		-62.500000
1190		-52.734375
1191		-58.593750
1192		-48.828125
1193		-54.687500
1194		-46.875000
1195		-52.734375
1196		-41.015625
1197		-48.828125
1198		-41.015625
1199		-42.968750
1200		-37.109375
1201		-39.062500
1202		-31.250000
1203		-37.109375
1204		-27.343750
1205		-33.203125
1206		-23.437500
1207		-29.296875
1208		-19.531250
1209		-23.437500
1210		-15.625000
1211		-19.531250
1212		-9.765625
1213		-15.625000
1214		-7.812500
1215		-9.765625
1216		-3.906250
1217		-5.859375
1218		0.000000
1219		-1.953125
1220		7.812500
1221		1.953125
1222		11.718750
1223		5.859375
1224		15.625000
1225		9.765625
1226		19.531250
1227		15.625000
1228		23.437500
1229		19.531250
1230		27.343750
1231		25.390625
1232		31.250000
1233		29.296875
1234		35.156250
1235		33.203125
1236		41.015625
1237		35.156250
1238		44.921875
1239		39.062500
1240		48.828125
1241		44.921875
1242		52.734375
1243		46.875000
1244		56.640625
1245		50.781250
1246		60.546875
1247		54.687500
1248		60.546875
1249		60.546875
1250		64.453125
1251		62.500000
1252		70.312500
1253		64.453125
1254		74.218750
1255		66.406250
1256		76.171875
1257		70.312500
1258		80.078125
1259		72.265625
1260		82.031250
1261		74.218750
1262		83.984375
1263		78.125000
1264		85.937500
1265		82.031250
1266		85.937500
1267		83.984375
1268		87.890625
1269		83.984375
1270		89.843750
1271		85.937500
1272		91.796875
1273		85.937500
1274		93.750000
