Old_data/metingen laweit/2000Hz, 26.1cm/data_81_138.txt

Channel              :		CH1
Frequency            :		1.989kHz
Period               :		0.503ms
PK-PK                :		154.3mV
Probe attenuation    :		1X
Voltage per ADC value:		0.122070mV
Time interval        :		2.00000us

index		CH1_Voltage(mV)
1		48.828125
2		48.828125
3		54.687500
4		52.734375
5		56.640625
6		54.687500
7		58.593750
8		56.640625
9		60.546875
10		58.593750
11		64.453125
12		62.500000
13		66.406250
14		64.453125
15		68.359375
16		64.453125
17		70.312500
18		68.359375
19		70.312500
20		68.359375
21		72.265625
22		70.312500
23		74.218750
24		72.265625
25		76.171875
26		72.265625
27		76.171875
28		74.218750
29		78.125000
30		76.171875
31		78.125000
32		76.171875
33		80.078125
34		76.171875
35		80.078125
36		78.125000
37		80.078125
38		78.125000
39		80.078125
40		78.125000
41		80.078125
42		78.125000
43		80.078125
44		76.171875
45		80.078125
46		76.171875
47		80.078125
48		76.171875
49		80.078125
50		74.218750
51		80.078125
52		74.218750
53		78.125000
54		72.265625
55		76.171875
56		72.265625
57		76.171875
58		70.312500
59		74.218750
60		68.359375
61		74.218750
62		68.359375
63		70.312500
64		64.453125
65		70.312500
66		62.500000
67		68.359375
68		62.500000
69		64.453125
70		58.593750
71		62.500000
72		56.640625
73		62.500000
74		54.687500
75		58.593750
76		50.781250
77		56.640625
78		48.828125
79		52.734375
80		46.875000
81		50.781250
82		42.968750
83		46.875000
84		39.062500
85		44.921875
86		37.109375
87		41.015625
88		33.203125
89		39.062500
90		29.296875
91		35.156250
92		25.390625
93		31.250000
94		23.437500
95		29.296875
96		19.531250
97		25.390625
98		15.625000
99		21.484375
100		11.718750
101		17.578125
102		7.812500
103		13.671875
104		5.859375
105		9.765625
106		1.953125
107		7.812500
108		-1.953125
109		3.906250
110		-5.859375
111		0.000000
112		-9.765625
113		-3.906250
114		-13.671875
115		-7.812500
116		-17.578125
117		-9.765625
118		-19.531250
119		-13.671875
120		-23.437500
121		-19.531250
122		-27.343750
123		-21.484375
124		-31.250000
125		-25.390625
126		-33.203125
127		-27.343750
128		-37.109375
129		-31.250000
130		-39.062500
131		-35.156250
132		-42.968750
133		-37.109375
134		-44.921875
135		-41.015625
136		-46.875000
137		-42.968750
138		-50.781250
139		-46.875000
140		-52.734375
141		-46.875000
142		-54.687500
143		-50.781250
144		-56.640625
145		-52.734375
146		-58.593750
147		-54.687500
148		-60.546875
149		-54.687500
150		-60.546875
151		-56.640625
152		-62.500000
153		-58.593750
154		-64.453125
155		-60.546875
156		-64.453125
157		-60.546875
158		-66.406250
159		-62.500000
160		-66.406250
161		-62.500000
162		-66.406250
163		-62.500000
164		-66.406250
165		-62.500000
166		-66.406250
167		-64.453125
168		-68.359375
169		-62.500000
170		-66.406250
171		-62.500000
172		-64.453125
173		-62.500000
174		-66.406250
175		-62.500000
176		-64.453125
177		-60.546875
178		-62.500000
179		-60.546875
180		-62.500000
181		-58.593750
182		-60.546875
183		-56.640625
184		-58.593750
185		-54.687500
186		-56.640625
187		-52.734375
188		-54.687500
189		-50.781250
190		-52.734375
191		-48.828125
192		-50.781250
193		-46.875000
194		-48.828125
195		-42.968750
196		-44.921875
197		-41.015625
198		-42.968750
199		-39.062500
200		-41.015625
201		-35.156250
202		-37.109375
203		-33.203125
204		-35.156250
205		-29.296875
206		-31.250000
207		-25.390625
208		-27.343750
209		-21.484375
210		-25.390625
211		-19.531250
212		-21.484375
213		-15.625000
214		-17.578125
215		-11.718750
216		-13.671875
217		-7.812500
218		-9.765625
219		-5.859375
220		-7.812500
221		-1.953125
222		-3.906250
223		1.953125
224		0.000000
225		5.859375
226		3.906250
227		9.765625
228		7.812500
229		13.671875
230		11.718750
231		15.625000
232		13.671875
233		19.531250
234		17.578125
235		23.437500
236		21.484375
237		27.343750
238		25.390625
239		31.250000
240		29.296875
241		35.156250
242		31.250000
243		37.109375
244		35.156250
245		41.015625
246		39.062500
247		42.968750
248		41.015625
249		46.875000
250		44.921875
251		48.828125
252		46.875000
253		52.734375
254		50.781250
255		54.687500
256		52.734375
257		58.593750
258		54.687500
259		60.546875
260		58.593750
261		62.500000
262		60.546875
263		64.453125
264		62.500000
265		66.406250
266		64.453125
267		68.359375
268		66.406250
269		70.312500
270		68.359375
271		72.265625
272		70.312500
273		72.265625
274		70.312500
275		74.218750
276		72.265625
277		76.171875
278		74.218750
279		76.171875
280		74.218750
281		78.125000
282		76.171875
283		78.125000
284		76.171875
285		80.078125
286		76.171875
287		80.078125
288		78.125000
289		80.078125
290		76.171875
291		82.031250
292		76.171875
293		80.078125
294		78.125000
295		80.078125
296		76.171875
297		80.078125
298		76.171875
299		80.078125
300		76.171875
301		80.078125
302		76.171875
303		78.125000
304		74.218750
305		78.125000
306		72.265625
307		76.171875
308		72.265625
309		74.218750
310		70.312500
311		74.218750
312		68.359375
313		72.265625
314		66.406250
315		70.312500
316		64.453125
317		68.359375
318		62.500000
319		66.406250
320		60.546875
321		64.453125
322		58.593750
323		62.500000
324		54.687500
325		60.546875
326		52.734375
327		58.593750
328		50.781250
329		54.687500
330		46.875000
331		52.734375
332		44.921875
333		50.781250
334		41.015625
335		46.875000
336		39.062500
337		44.921875
338		35.156250
339		41.015625
340		31.250000
341		37.109375
342		29.296875
343		35.156250
344		25.390625
345		31.250000
346		21.484375
347		27.343750
348		17.578125
349		23.437500
350		15.625000
351		19.531250
352		11.718750
353		17.578125
354		7.812500
355		13.671875
356		3.906250
357		9.765625
358		0.000000
359		5.859375
360		-3.906250
361		1.953125
362		-7.812500
363		-1.953125
364		-9.765625
365		-5.859375
366		-13.671875
367		-9.765625
368		-17.578125
369		-11.718750
370		-21.484375
371		-15.625000
372		-23.437500
373		-19.531250
374		-29.296875
375		-23.437500
376		-31.250000
377		-25.390625
378		-35.156250
379		-29.296875
380		-37.109375
381		-33.203125
382		-39.062500
383		-35.156250
384		-42.968750
385		-39.062500
386		-46.875000
387		-41.015625
388		-48.828125
389		-42.968750
390		-50.781250
391		-46.875000
392		-52.734375
393		-48.828125
394		-54.687500
395		-50.781250
396		-56.640625
397		-52.734375
398		-58.593750
399		-54.687500
400		-60.546875
401		-56.640625
402		-62.500000
403		-58.593750
404		-62.500000
405		-58.593750
406		-64.453125
407		-60.546875
408		-66.406250
409		-60.546875
410		-66.406250
411		-62.500000
412		-66.406250
413		-62.500000
414		-66.406250
415		-64.453125
416		-66.406250
417		-62.500000
418		-66.406250
419		-62.500000
420		-66.406250
421		-62.500000
422		-66.406250
423		-62.500000
424		-66.406250
425		-62.500000
426		-64.453125
427		-62.500000
428		-64.453125
429		-60.546875
430		-62.500000
431		-58.593750
432		-60.546875
433		-56.640625
434		-58.593750
435		-56.640625
436		-58.593750
437		-54.687500
438		-56.640625
439		-52.734375
440		-54.687500
441		-48.828125
442		-52.734375
443		-46.875000
444		-48.828125
445		-44.921875
446		-46.875000
447		-42.968750
448		-44.921875
449		-39.062500
450		-41.015625
451		-37.109375
452		-39.062500
453		-33.203125
454		-37.109375
455		-31.250000
456		-33.203125
457		-27.343750
458		-29.296875
459		-25.390625
460		-27.343750
461		-21.484375
462		-23.437500
463		-17.578125
464		-19.531250
465		-13.671875
466		-15.625000
467		-9.765625
468		-13.671875
469		-7.812500
470		-9.765625
471		-3.906250
472		-5.859375
473		0.000000
474		-1.953125
475		3.906250
476		0.000000
477		7.812500
478		5.859375
479		9.765625
480		9.765625
481		13.671875
482		11.718750
483		17.578125
484		15.625000
485		23.437500
486		19.531250
487		25.390625
488		23.437500
489		29.296875
490		27.343750
491		31.250000
492		29.296875
493		35.156250
494		33.203125
495		39.062500
496		37.109375
497		42.968750
498		39.062500
499		44.921875
500		42.968750
501		46.875000
502		46.875000
503		50.781250
504		48.828125
505		52.734375
506		50.781250
507		56.640625
508		54.687500
509		58.593750
510		56.640625
511		60.546875
512		58.593750
513		62.500000
514		60.546875
515		64.453125
516		62.500000
517		68.359375
518		66.406250
519		68.359375
520		66.406250
521		72.265625
522		68.359375
523		72.265625
524		70.312500
525		74.218750
526		72.265625
527		76.171875
528		72.265625
529		76.171875
530		74.218750
531		78.125000
532		76.171875
533		78.125000
534		76.171875
535		80.078125
536		76.171875
537		80.078125
538		78.125000
539		80.078125
540		78.125000
541		80.078125
542		76.171875
543		80.078125
544		78.125000
545		80.078125
546		78.125000
547		80.078125
548		76.171875
549		80.078125
550		76.171875
551		80.078125
552		76.171875
553		80.078125
554		74.218750
555		78.125000
556		74.218750
557		76.171875
558		72.265625
559		76.171875
560		70.312500
561		76.171875
562		70.312500
563		74.218750
564		68.359375
565		72.265625
566		66.406250
567		70.312500
568		64.453125
569		68.359375
570		60.546875
571		66.406250
572		60.546875
573		64.453125
574		56.640625
575		60.546875
576		54.687500
577		58.593750
578		52.734375
579		58.593750
580		48.828125
581		54.687500
582		46.875000
583		50.781250
584		42.968750
585		48.828125
586		41.015625
587		44.921875
588		37.109375
589		42.968750
590		35.156250
591		39.062500
592		31.250000
593		37.109375
594		27.343750
595		33.203125
596		23.437500
597		29.296875
598		21.484375
599		27.343750
600		17.578125
601		21.484375
602		13.671875
603		19.531250
604		9.765625
605		15.625000
606		5.859375
607		11.718750
608		1.953125
609		7.812500
610		-1.953125
611		3.906250
612		-3.906250
613		0.000000
614		-7.812500
615		-1.953125
616		-11.718750
617		-5.859375
618		-15.625000
619		-9.765625
620		-19.531250
621		-13.671875
622		-21.484375
623		-15.625000
624		-25.390625
625		-19.531250
626		-29.296875
627		-23.437500
628		-31.250000
629		-27.343750
630		-35.156250
631		-29.296875
632		-39.062500
633		-33.203125
634		-41.015625
635		-35.156250
636		-44.921875
637		-39.062500
638		-46.875000
639		-42.968750
640		-48.828125
641		-44.921875
642		-50.781250
643		-46.875000
644		-54.687500
645		-48.828125
646		-56.640625
647		-50.781250
648		-56.640625
649		-52.734375
650		-58.593750
651		-54.687500
652		-60.546875
653		-56.640625
654		-62.500000
655		-58.593750
656		-62.500000
657		-58.593750
658		-64.453125
659		-60.546875
660		-64.453125
661		-60.546875
662		-66.406250
663		-62.500000
664		-66.406250
665		-62.500000
666		-66.406250
667		-62.500000
668		-66.406250
669		-62.500000
670		-66.406250
671		-62.500000
672		-66.406250
673		-62.500000
674		-64.453125
675		-62.500000
676		-64.453125
677		-62.500000
678		-64.453125
679		-60.546875
680		-62.500000
681		-58.593750
682		-62.500000
683		-58.593750
684		-60.546875
685		-56.640625
686		-58.593750
687		-54.687500
688		-56.640625
689		-52.734375
690		-54.687500
691		-50.781250
692		-52.734375
693		-48.828125
694		-52.734375
695		-46.875000
696		-48.828125
697		-42.968750
698		-46.875000
699		-41.015625
700		-42.968750
701		-39.062500
702		-41.015625
703		-35.156250
704		-37.109375
705		-31.250000
706		-35.156250
707		-29.296875
708		-31.250000
709		-27.343750
710		-27.343750
711		-23.437500
712		-25.390625
713		-19.531250
714		-21.484375
715		-15.625000
716		-17.578125
717		-13.671875
718		-15.625000
719		-9.765625
720		-11.718750
721		-5.859375
722		-7.812500
723		-1.953125
724		-3.906250
725		1.953125
726		0.000000
727		5.859375
728		3.906250
729		7.812500
730		5.859375
731		11.718750
732		9.765625
733		15.625000
734		13.671875
735		19.531250
736		17.578125
737		23.437500
738		21.484375
739		27.343750
740		23.437500
741		29.296875
742		27.343750
743		33.203125
744		31.250000
745		37.109375
746		35.156250
747		41.015625
748		39.062500
749		42.968750
750		41.015625
751		46.875000
752		42.968750
753		48.828125
754		46.875000
755		50.781250
756		50.781250
757		54.687500
758		52.734375
759		56.640625
760		54.687500
761		60.546875
762		56.640625
763		62.500000
764		60.546875
765		64.453125
766		62.500000
767		66.406250
768		64.453125
769		68.359375
770		66.406250
771		70.312500
772		68.359375
773		72.265625
774		70.312500
775		74.218750
776		72.265625
777		74.218750
778		72.265625
779		76.171875
780		74.218750
781		78.125000
782		74.218750
783		78.125000
784		76.171875
785		80.078125
786		76.171875
787		80.078125
788		78.125000
789		80.078125
790		76.171875
791		82.031250
792		78.125000
793		80.078125
794		78.125000
795		80.078125
796		78.125000
797		80.078125
798		78.125000
799		80.078125
800		78.125000
801		80.078125
802		76.171875
803		78.125000
804		76.171875
805		78.125000
806		74.218750
807		78.125000
808		74.218750
809		76.171875
810		72.265625
811		76.171875
812		70.312500
813		74.218750
814		68.359375
815		74.218750
816		68.359375
817		72.265625
818		66.406250
819		70.312500
820		64.453125
821		68.359375
822		60.546875
823		66.406250
824		60.546875
825		64.453125
826		56.640625
827		60.546875
828		54.687500
829		58.593750
830		50.781250
831		56.640625
832		48.828125
833		52.734375
834		46.875000
835		50.781250
836		42.968750
837		46.875000
838		39.062500
839		44.921875
840		37.109375
841		41.015625
842		33.203125
843		39.062500
844		29.296875
845		35.156250
846		27.343750
847		31.250000
848		23.437500
849		29.296875
850		19.531250
851		25.390625
852		15.625000
853		21.484375
854		13.671875
855		19.531250
856		7.812500
857		13.671875
858		5.859375
859		9.765625
860		1.953125
861		7.812500
862		-1.953125
863		3.906250
864		-5.859375
865		0.000000
866		-9.765625
867		-3.906250
868		-11.718750
869		-7.812500
870		-15.625000
871		-9.765625
872		-19.531250
873		-13.671875
874		-23.437500
875		-17.578125
876		-27.343750
877		-21.484375
878		-29.296875
879		-25.390625
880		-33.203125
881		-27.343750
882		-35.156250
883		-31.250000
884		-39.062500
885		-33.203125
886		-41.015625
887		-37.109375
888		-44.921875
889		-41.015625
890		-46.875000
891		-42.968750
892		-48.828125
893		-44.921875
894		-50.781250
895		-46.875000
896		-52.734375
897		-48.828125
898		-56.640625
899		-52.734375
900		-56.640625
901		-54.687500
902		-58.593750
903		-56.640625
904		-60.546875
905		-56.640625
906		-62.500000
907		-58.593750
908		-62.500000
909		-58.593750
910		-64.453125
911		-60.546875
912		-66.406250
913		-60.546875
914		-66.406250
915		-62.500000
916		-66.406250
917		-62.500000
918		-66.406250
919		-62.500000
920		-66.406250
921		-62.500000
922		-66.406250
923		-62.500000
924		-66.406250
925		-62.500000
926		-64.453125
927		-62.500000
928		-64.453125
929		-60.546875
930		-64.453125
931		-60.546875
932		-62.500000
933		-58.593750
934		-60.546875
935		-58.593750
936		-58.593750
937		-56.640625
938		-58.593750
939		-52.734375
940		-56.640625
941		-50.781250
942		-54.687500
943		-50.781250
944		-50.781250
945		-46.875000
946		-48.828125
947		-44.921875
948		-46.875000
949		-42.968750
950		-44.921875
951		-41.015625
952		-41.015625
953		-37.109375
954		-39.062500
955		-33.203125
956		-37.109375
957		-31.250000
958		-33.203125
959		-27.343750
960		-29.296875
961		-25.390625
962		-27.343750
963		-21.484375
964		-23.437500
965		-17.578125
966		-19.531250
967		-15.625000
968		-15.625000
969		-11.718750
970		-13.671875
971		-7.812500
972		-9.765625
973		-3.906250
974		-5.859375
975		0.000000
976		-1.953125
977		3.906250
978		1.953125
979		5.859375
980		3.906250
981		9.765625
982		7.812500
983		13.671875
984		11.718750
985		17.578125
986		15.625000
987		21.484375
988		19.531250
989		25.390625
990		21.484375
991		27.343750
992		25.390625
993		31.250000
994		29.296875
995		35.156250
996		33.203125
997		37.109375
998		35.156250
999		42.968750
1000		39.062500
1001		44.921875
1002		42.968750
1003		46.875000
1004		44.921875
1005		50.781250
1006		48.828125
1007		52.734375
1008		50.781250
1009		56.640625
1010		54.687500
1011		58.593750
1012		56.640625
1013		60.546875
1014		58.593750
1015		64.453125
1016		60.546875
1017		64.453125
1018		62.500000
1019		68.359375
1020		66.406250
1021		70.312500
1022		68.359375
1023		72.265625
1024		68.359375
1025		74.218750
1026		70.312500
1027		74.218750
1028		72.265625
1029		76.171875
1030		72.265625
1031		78.125000
1032		72.265625
1033		80.078125
1034		74.218750
1035		80.078125
1036		76.171875
1037		80.078125
1038		76.171875
1039		80.078125
1040		76.171875
1041		82.031250
1042		78.125000
1043		82.031250
1044		78.125000
1045		80.078125
1046		76.171875
1047		82.031250
1048		76.171875
1049		82.031250
1050		76.171875
1051		82.031250
1052		78.125000
1053		80.078125
1054		76.171875
1055		80.078125
1056		76.171875
1057		80.078125
1058		74.218750
1059		78.125000
1060		74.218750
1061		76.171875
1062		72.265625
1063		76.171875
1064		70.312500
1065		76.171875
1066		66.406250
1067		74.218750
1068		66.406250
1069		72.265625
1070		66.406250
1071		70.312500
1072		62.500000
1073		68.359375
1074		58.593750
1075		66.406250
1076		58.593750
1077		64.453125
1078		56.640625
1079		60.546875
1080		52.734375
1081		58.593750
1082		48.828125
1083		58.593750
1084		46.875000
1085		54.687500
1086		44.921875
1087		52.734375
1088		41.015625
1089		48.828125
1090		39.062500
1091		44.921875
1092		37.109375
1093		42.968750
1094		33.203125
1095		37.109375
1096		29.296875
1097		35.156250
1098		23.437500
1099		33.203125
1100		21.484375
1101		31.250000
1102		17.578125
1103		25.390625
1104		13.671875
1105		23.437500
1106		9.765625
1107		19.531250
1108		5.859375
1109		15.625000
1110		5.859375
1111		9.765625
1112		1.953125
1113		5.859375
1114		-3.906250
1115		3.906250
1116		-7.812500
1117		0.000000
1118		-11.718750
1119		-1.953125
1120		-15.625000
1121		-5.859375
1122		-19.531250
1123		-9.765625
1124		-23.437500
1125		-13.671875
1126		-23.437500
1127		-17.578125
1128		-27.343750
1129		-21.484375
1130		-33.203125
1131		-25.390625
1132		-35.156250
1133		-27.343750
1134		-37.109375
1135		-29.296875
1136		-41.015625
1137		-33.203125
1138		-42.968750
1139		-35.156250
1140		-44.921875
1141		-39.062500
1142		-48.828125
1143		-41.015625
1144		-48.828125
1145		-44.921875
1146		-52.734375
1147		-48.828125
1148		-56.640625
1149		-48.828125
1150		-58.593750
1151		-50.781250
1152		-60.546875
1153		-50.781250
1154		-60.546875
1155		-52.734375
1156		-62.500000
1157		-54.687500
1158		-64.453125
1159		-56.640625
1160		-64.453125
1161		-58.593750
1162		-64.453125
1163		-60.546875
1164		-66.406250
1165		-60.546875
1166		-66.406250
1167		-60.546875
1168		-68.359375
1169		-60.546875
1170		-68.359375
1171		-60.546875
1172		-68.359375
1173		-60.546875
1174		-68.359375
1175		-60.546875
1176		-66.406250
1177		-58.593750
1178		-64.453125
1179		-60.546875
1180		-62.500000
1181		-60.546875
1182		-64.453125
1183		-56.640625
1184		-62.500000
1185		-56.640625
1186		-62.500000
1187		-54.687500
1188		-60.546875
1189		-52.734375
1190		-58.593750
1191		-50.781250
1192		-58.593750
1193		-48.828125
1194		-52.734375
1195		-48.828125
1196		-50.781250
1197		-46.875000
1198		-50.781250
1199		-42.968750
1200		-48.828125
1201		-39.062500
1202		-44.921875
1203		-37.109375
1204		-42.968750
1205		-35.156250
1206		-41.015625
1207		-31.250000
1208		-37.109375
1209		-27.343750
1210		-33.203125
1211		-27.343750
1212		-27.343750
1213		-23.437500
1214		-25.390625
1215		-17.578125
1216		-25.390625
1217		-15.625000
1218		-21.484375
1219		-11.718750
1220		-17.578125
1221		-7.812500
1222		-13.671875
1223		-3.906250
1224		-9.765625
1225		0.000000
1226		-5.859375
1227		1.953125
1228		0.000000
1229		3.906250
1230		3.906250
1231		7.812500
1232		3.906250
1233		13.671875
1234		7.812500
1235		17.578125
1236		11.718750
1237		21.484375
1238		15.625000
1239		23.437500
1240		19.531250
1241		27.343750
1242		21.484375
1243		31.250000
1244		25.390625
1245		33.203125
1246		31.250000
1247		37.109375
1248		33.203125
1249		41.015625
1250		37.109375
1251		44.921875
1252		39.062500
1253		46.875000
1254		41.015625
1255		50.781250
1256		44.921875
1257		52.734375
1258		46.875000
1259		56.640625
1260		50.781250
1261		58.593750
1262		54.687500
1263		58.593750
1264		56.640625
1265		62.500000
1266		58.593750
1267		66.406250
1268		60.546875
1269		68.359375
1270		62.500000
1271		70.312500
1272		64.453125
1273		72.265625
1274		66.406250
1275		74.218750
1276		66.406250
