metingen laweit/1000Hz, 50.0cm/data_81_m348.txt

Channel              :		CH1
Frequency            :		1.061kHz
Period               :		0.942ms
PK-PK                :		306.6mV
Probe attenuation    :		1X
Voltage per ADC value:		0.122070mV
Time interval        :		2.00000us

index		CH1_Voltage(mV)
1		89.843750
2		89.843750
3		82.031250
4		87.890625
5		80.078125
6		83.984375
7		78.125000
8		82.031250
9		74.218750
10		80.078125
11		70.312500
12		76.171875
13		68.359375
14		72.265625
15		64.453125
16		70.312500
17		62.500000
18		66.406250
19		58.593750
20		64.453125
21		54.687500
22		62.500000
23		50.781250
24		56.640625
25		46.875000
26		52.734375
27		42.968750
28		48.828125
29		41.015625
30		46.875000
31		37.109375
32		42.968750
33		33.203125
34		39.062500
35		29.296875
36		35.156250
37		25.390625
38		31.250000
39		21.484375
40		27.343750
41		15.625000
42		23.437500
43		13.671875
44		19.531250
45		9.765625
46		15.625000
47		5.859375
48		11.718750
49		1.953125
50		7.812500
51		-1.953125
52		3.906250
53		-5.859375
54		0.000000
55		-9.765625
56		-3.906250
57		-13.671875
58		-7.812500
59		-17.578125
60		-11.718750
61		-21.484375
62		-15.625000
63		-25.390625
64		-19.531250
65		-29.296875
66		-23.437500
67		-33.203125
68		-27.343750
69		-37.109375
70		-31.250000
71		-41.015625
72		-35.156250
73		-44.921875
74		-39.062500
75		-48.828125
76		-42.968750
77		-52.734375
78		-46.875000
79		-58.593750
80		-50.781250
81		-60.546875
82		-54.687500
83		-64.453125
84		-58.593750
85		-68.359375
86		-62.500000
87		-72.265625
88		-66.406250
89		-76.171875
90		-70.312500
91		-78.125000
92		-74.218750
93		-82.031250
94		-78.125000
95		-85.937500
96		-82.031250
97		-89.843750
98		-85.937500
99		-93.750000
100		-87.890625
101		-97.656250
102		-91.796875
103		-99.609375
104		-95.703125
105		-103.515625
106		-97.656250
107		-105.468750
108		-101.562500
109		-109.375000
110		-105.468750
111		-113.281250
112		-107.421875
113		-115.234375
114		-109.375000
115		-119.140625
116		-113.281250
117		-121.093750
118		-117.187500
119		-125.000000
120		-119.140625
121		-126.953125
122		-123.046875
123		-128.906250
124		-125.000000
125		-132.812500
126		-126.953125
127		-134.765625
128		-128.906250
129		-136.718750
130		-132.812500
131		-138.671875
132		-134.765625
133		-140.625000
134		-136.718750
135		-142.578125
136		-138.671875
137		-146.484375
138		-140.625000
139		-146.484375
140		-142.578125
141		-148.437500
142		-144.531250
143		-150.390625
144		-146.484375
145		-152.343750
146		-146.484375
147		-152.343750
148		-148.437500
149		-154.296875
150		-150.390625
151		-156.250000
152		-152.343750
153		-156.250000
154		-152.343750
155		-158.203125
156		-152.343750
157		-158.203125
158		-154.296875
159		-160.156250
160		-154.296875
161		-158.203125
162		-156.250000
163		-160.156250
164		-156.250000
165		-160.156250
166		-156.250000
167		-160.156250
168		-156.250000
169		-160.156250
170		-156.250000
171		-160.156250
172		-156.250000
173		-160.156250
174		-156.250000
175		-158.203125
176		-156.250000
177		-160.156250
178		-154.296875
179		-158.203125
180		-156.250000
181		-158.203125
182		-154.296875
183		-156.250000
184		-154.296875
185		-156.250000
186		-152.343750
187		-154.296875
188		-152.343750
189		-154.296875
190		-150.390625
191		-152.343750
192		-150.390625
193		-152.343750
194		-146.484375
195		-150.390625
196		-146.484375
197		-148.437500
198		-144.531250
199		-146.484375
200		-142.578125
201		-146.484375
202		-140.625000
203		-142.578125
204		-138.671875
205		-142.578125
206		-136.718750
207		-138.671875
208		-134.765625
209		-136.718750
210		-132.812500
211		-136.718750
212		-128.906250
213		-134.765625
214		-125.000000
215		-132.812500
216		-123.046875
217		-126.953125
218		-123.046875
219		-125.000000
220		-119.140625
221		-121.093750
222		-115.234375
223		-117.187500
224		-113.281250
225		-115.234375
226		-111.328125
227		-113.281250
228		-105.468750
229		-109.375000
230		-101.562500
231		-109.375000
232		-99.609375
233		-105.468750
234		-97.656250
235		-99.609375
236		-93.750000
237		-95.703125
238		-89.843750
239		-91.796875
240		-85.937500
241		-87.890625
242		-83.984375
243		-83.984375
244		-76.171875
245		-82.031250
246		-74.218750
247		-80.078125
248		-70.312500
249		-76.171875
250		-66.406250
251		-70.312500
252		-62.500000
253		-66.406250
254		-60.546875
255		-62.500000
256		-56.640625
257		-58.593750
258		-52.734375
259		-54.687500
260		-48.828125
261		-50.781250
262		-42.968750
263		-46.875000
264		-39.062500
265		-42.968750
266		-33.203125
267		-39.062500
268		-33.203125
269		-37.109375
270		-27.343750
271		-29.296875
272		-23.437500
273		-27.343750
274		-19.531250
275		-21.484375
276		-15.625000
277		-17.578125
278		-9.765625
279		-15.625000
280		-5.859375
281		-9.765625
282		-1.953125
283		-5.859375
284		1.953125
285		-1.953125
286		3.906250
287		1.953125
288		9.765625
289		5.859375
290		11.718750
291		9.765625
292		15.625000
293		13.671875
294		19.531250
295		15.625000
296		25.390625
297		19.531250
298		29.296875
299		23.437500
300		33.203125
301		27.343750
302		37.109375
303		33.203125
304		39.062500
305		35.156250
306		42.968750
307		39.062500
308		44.921875
309		42.968750
310		48.828125
311		46.875000
312		54.687500
313		48.828125
314		56.640625
315		52.734375
316		60.546875
317		56.640625
318		64.453125
319		58.593750
320		66.406250
321		62.500000
322		70.312500
323		64.453125
324		72.265625
325		70.312500
326		74.218750
327		74.218750
328		80.078125
329		74.218750
330		82.031250
331		76.171875
332		85.937500
333		80.078125
334		87.890625
335		83.984375
336		89.843750
337		85.937500
338		91.796875
339		87.890625
340		95.703125
341		91.796875
342		97.656250
343		95.703125
344		99.609375
345		95.703125
346		103.515625
347		97.656250
348		105.468750
349		99.609375
350		107.421875
351		101.562500
352		111.328125
353		103.515625
354		111.328125
355		105.468750
356		115.234375
357		109.375000
358		115.234375
359		111.328125
360		115.234375
361		113.281250
362		119.140625
363		113.281250
364		121.093750
365		115.234375
366		123.046875
367		115.234375
368		125.000000
369		117.187500
370		126.953125
371		119.140625
372		126.953125
373		123.046875
374		128.906250
375		125.000000
376		126.953125
377		125.000000
378		128.906250
379		123.046875
380		132.812500
381		125.000000
382		132.812500
383		126.953125
384		132.812500
385		126.953125
386		134.765625
387		128.906250
388		134.765625
389		128.906250
390		134.765625
391		130.859375
392		134.765625
393		130.859375
394		134.765625
395		130.859375
396		136.718750
397		128.906250
398		136.718750
399		128.906250
400		138.671875
401		130.859375
402		138.671875
403		130.859375
404		136.718750
405		130.859375
406		136.718750
407		130.859375
408		136.718750
409		132.812500
410		136.718750
411		130.859375
412		136.718750
413		130.859375
414		136.718750
415		128.906250
416		136.718750
417		128.906250
418		136.718750
419		128.906250
420		136.718750
421		128.906250
422		134.765625
423		126.953125
424		134.765625
425		128.906250
426		132.812500
427		126.953125
428		130.859375
429		125.000000
430		132.812500
431		123.046875
432		130.859375
433		123.046875
434		130.859375
435		121.093750
436		128.906250
437		119.140625
438		126.953125
439		119.140625
440		125.000000
441		119.140625
442		123.046875
443		117.187500
444		121.093750
445		113.281250
446		121.093750
447		111.328125
448		121.093750
449		111.328125
450		117.187500
451		109.375000
452		117.187500
453		105.468750
454		115.234375
455		103.515625
456		113.281250
457		103.515625
458		109.375000
459		103.515625
460		105.468750
461		99.609375
462		105.468750
463		95.703125
464		105.468750
465		93.750000
466		101.562500
467		89.843750
468		99.609375
469		87.890625
470		95.703125
471		85.937500
472		93.750000
473		83.984375
474		91.796875
475		82.031250
476		87.890625
477		80.078125
478		83.984375
479		74.218750
480		82.031250
481		70.312500
482		80.078125
483		68.359375
484		78.125000
485		64.453125
486		74.218750
487		62.500000
488		70.312500
489		58.593750
490		66.406250
491		56.640625
492		64.453125
493		52.734375
494		58.593750
495		48.828125
496		54.687500
497		44.921875
498		54.687500
499		41.015625
500		50.781250
501		37.109375
502		46.875000
503		33.203125
504		42.968750
505		29.296875
506		41.015625
507		27.343750
508		35.156250
509		25.390625
510		29.296875
511		19.531250
512		25.390625
513		13.671875
514		23.437500
515		11.718750
516		21.484375
517		7.812500
518		15.625000
519		3.906250
520		13.671875
521		-1.953125
522		9.765625
523		-3.906250
524		3.906250
525		-5.859375
526		1.953125
527		-9.765625
528		-5.859375
529		-15.625000
530		-9.765625
531		-21.484375
532		-11.718750
533		-25.390625
534		-15.625000
535		-29.296875
536		-17.578125
537		-33.203125
538		-23.437500
539		-37.109375
540		-27.343750
541		-39.062500
542		-31.250000
543		-42.968750
544		-37.109375
545		-46.875000
546		-41.015625
547		-52.734375
548		-42.968750
549		-56.640625
550		-46.875000
551		-60.546875
552		-50.781250
553		-64.453125
554		-54.687500
555		-66.406250
556		-58.593750
557		-72.265625
558		-60.546875
559		-72.265625
560		-66.406250
561		-76.171875
562		-72.265625
563		-80.078125
564		-74.218750
565		-85.937500
566		-76.171875
567		-89.843750
568		-80.078125
569		-93.750000
570		-85.937500
571		-97.656250
572		-87.890625
573		-99.609375
574		-91.796875
575		-101.562500
576		-93.750000
577		-103.515625
578		-99.609375
579		-109.375000
580		-103.515625
581		-113.281250
582		-103.515625
583		-115.234375
584		-107.421875
585		-119.140625
586		-109.375000
587		-121.093750
588		-111.328125
589		-125.000000
590		-115.234375
591		-126.953125
592		-119.140625
593		-126.953125
594		-123.046875
595		-130.859375
596		-125.000000
597		-134.765625
598		-126.953125
599		-136.718750
600		-128.906250
601		-138.671875
602		-130.859375
603		-140.625000
604		-132.812500
605		-144.531250
606		-136.718750
607		-144.531250
608		-136.718750
609		-146.484375
610		-138.671875
611		-146.484375
612		-142.578125
613		-150.390625
614		-142.578125
615		-152.343750
616		-144.531250
617		-154.296875
618		-146.484375
619		-154.296875
620		-146.484375
621		-156.250000
622		-148.437500
623		-158.203125
624		-150.390625
625		-158.203125
626		-150.390625
627		-156.250000
628		-154.296875
629		-158.203125
630		-154.296875
631		-160.156250
632		-152.343750
633		-162.109375
634		-154.296875
635		-162.109375
636		-154.296875
637		-162.109375
638		-154.296875
639		-162.109375
640		-154.296875
641		-162.109375
642		-154.296875
643		-160.156250
644		-154.296875
645		-158.203125
646		-156.250000
647		-160.156250
648		-154.296875
649		-160.156250
650		-152.343750
651		-160.156250
652		-152.343750
653		-160.156250
654		-152.343750
655		-158.203125
656		-150.390625
657		-158.203125
658		-150.390625
659		-156.250000
660		-148.437500
661		-154.296875
662		-150.390625
663		-152.343750
664		-146.484375
665		-154.296875
666		-144.531250
667		-152.343750
668		-142.578125
669		-148.437500
670		-142.578125
671		-148.437500
672		-140.625000
673		-146.484375
674		-138.671875
675		-144.531250
676		-136.718750
677		-140.625000
678		-136.718750
679		-138.671875
680		-132.812500
681		-136.718750
682		-128.906250
683		-134.765625
684		-126.953125
685		-132.812500
686		-125.000000
687		-130.859375
688		-121.093750
689		-126.953125
690		-119.140625
691		-125.000000
692		-115.234375
693		-123.046875
694		-115.234375
695		-117.187500
696		-111.328125
697		-113.281250
698		-107.421875
699		-113.281250
700		-105.468750
701		-109.375000
702		-101.562500
703		-107.421875
704		-97.656250
705		-103.515625
706		-93.750000
707		-99.609375
708		-91.796875
709		-95.703125
710		-87.890625
711		-89.843750
712		-85.937500
713		-85.937500
714		-82.031250
715		-83.984375
716		-76.171875
717		-80.078125
718		-72.265625
719		-78.125000
720		-68.359375
721		-74.218750
722		-64.453125
723		-70.312500
724		-62.500000
725		-66.406250
726		-56.640625
727		-60.546875
728		-54.687500
729		-56.640625
730		-50.781250
731		-52.734375
732		-44.921875
733		-50.781250
734		-41.015625
735		-46.875000
736		-35.156250
737		-41.015625
738		-33.203125
739		-39.062500
740		-29.296875
741		-35.156250
742		-25.390625
743		-29.296875
744		-21.484375
745		-23.437500
746		-19.531250
747		-19.531250
748		-15.625000
749		-17.578125
750		-9.765625
751		-13.671875
752		-3.906250
753		-11.718750
754		0.000000
755		-5.859375
756		3.906250
757		-1.953125
758		5.859375
759		1.953125
760		9.765625
761		7.812500
762		13.671875
763		11.718750
764		17.578125
765		15.625000
766		23.437500
767		17.578125
768		27.343750
769		21.484375
770		29.296875
771		25.390625
772		35.156250
773		29.296875
774		37.109375
775		33.203125
776		41.015625
777		35.156250
778		42.968750
779		41.015625
780		46.875000
781		44.921875
782		52.734375
783		46.875000
784		54.687500
785		48.828125
786		58.593750
787		52.734375
788		62.500000
789		58.593750
790		66.406250
791		60.546875
792		68.359375
793		62.500000
794		72.265625
795		68.359375
796		72.265625
797		72.265625
798		76.171875
799		72.265625
800		80.078125
801		74.218750
802		83.984375
803		78.125000
804		85.937500
805		82.031250
806		89.843750
807		82.031250
808		91.796875
809		87.890625
810		95.703125
811		89.843750
812		95.703125
813		93.750000
814		97.656250
815		95.703125
816		101.562500
817		95.703125
818		105.468750
819		97.656250
820		107.421875
821		101.562500
822		109.375000
823		103.515625
824		111.328125
825		105.468750
826		113.281250
827		109.375000
828		113.281250
829		111.328125
830		115.234375
831		111.328125
832		117.187500
833		111.328125
834		121.093750
835		113.281250
836		123.046875
837		115.234375
838		123.046875
839		117.187500
840		125.000000
841		117.187500
842		126.953125
843		119.140625
844		126.953125
845		123.046875
846		126.953125
847		125.000000
848		126.953125
849		125.000000
850		130.859375
851		125.000000
852		132.812500
853		125.000000
854		132.812500
855		125.000000
856		134.765625
857		126.953125
858		134.765625
859		126.953125
860		134.765625
861		128.906250
862		134.765625
863		130.859375
864		134.765625
865		130.859375
866		134.765625
867		130.859375
868		136.718750
869		130.859375
870		138.671875
871		130.859375
872		138.671875
873		130.859375
874		138.671875
875		130.859375
876		138.671875
877		130.859375
878		138.671875
879		132.812500
880		134.765625
881		132.812500
882		134.765625
883		130.859375
884		138.671875
885		130.859375
886		138.671875
887		128.906250
888		136.718750
889		128.906250
890		136.718750
891		128.906250
892		136.718750
893		128.906250
894		134.765625
895		128.906250
896		132.812500
897		128.906250
898		130.859375
899		125.000000
900		132.812500
901		123.046875
902		130.859375
903		123.046875
904		130.859375
905		121.093750
906		130.859375
907		121.093750
908		128.906250
909		119.140625
910		126.953125
911		119.140625
912		125.000000
913		119.140625
914		123.046875
915		117.187500
916		121.093750
917		113.281250
918		121.093750
919		111.328125
920		119.140625
921		111.328125
922		119.140625
923		107.421875
924		117.187500
925		105.468750
926		115.234375
927		103.515625
928		111.328125
929		103.515625
930		109.375000
931		101.562500
932		105.468750
933		97.656250
934		103.515625
935		95.703125
936		103.515625
937		93.750000
938		99.609375
939		89.843750
940		99.609375
941		87.890625
942		95.703125
943		85.937500
944		91.796875
945		83.984375
946		89.843750
947		82.031250
948		85.937500
949		76.171875
950		83.984375
951		74.218750
952		82.031250
953		70.312500
954		80.078125
955		68.359375
956		76.171875
957		64.453125
958		72.265625
959		62.500000
960		70.312500
961		58.593750
962		68.359375
963		56.640625
964		60.546875
965		52.734375
966		58.593750
967		48.828125
968		56.640625
969		42.968750
970		52.734375
971		39.062500
972		48.828125
973		37.109375
974		46.875000
975		33.203125
976		41.015625
977		27.343750
978		39.062500
979		27.343750
980		33.203125
981		23.437500
982		29.296875
983		19.531250
984		25.390625
985		13.671875
986		23.437500
987		9.765625
988		19.531250
989		5.859375
990		15.625000
991		1.953125
992		11.718750
993		0.000000
994		7.812500
995		-3.906250
996		3.906250
997		-7.812500
998		-1.953125
999		-11.718750
1000		-5.859375
1001		-17.578125
1002		-7.812500
1003		-21.484375
1004		-13.671875
1005		-25.390625
1006		-15.625000
1007		-31.250000
1008		-19.531250
1009		-33.203125
1010		-23.437500
1011		-37.109375
1012		-27.343750
1013		-39.062500
1014		-33.203125
1015		-42.968750
1016		-37.109375
1017		-50.781250
1018		-41.015625
1019		-52.734375
1020		-42.968750
1021		-56.640625
1022		-46.875000
1023		-62.500000
1024		-50.781250
1025		-64.453125
1026		-56.640625
1027		-68.359375
1028		-58.593750
1029		-70.312500
1030		-62.500000
1031		-74.218750
1032		-68.359375
1033		-80.078125
1034		-72.265625
1035		-83.984375
1036		-74.218750
1037		-87.890625
1038		-78.125000
1039		-89.843750
1040		-82.031250
1041		-93.750000
1042		-85.937500
1043		-97.656250
1044		-87.890625
1045		-99.609375
1046		-91.796875
1047		-101.562500
1048		-97.656250
1049		-105.468750
1050		-99.609375
1051		-111.328125
1052		-101.562500
1053		-113.281250
1054		-103.515625
1055		-117.187500
1056		-109.375000
1057		-119.140625
1058		-111.328125
1059		-123.046875
1060		-113.281250
1061		-125.000000
1062		-117.187500
1063		-126.953125
1064		-119.140625
1065		-128.906250
1066		-125.000000
1067		-132.812500
1068		-126.953125
1069		-136.718750
1070		-126.953125
1071		-138.671875
1072		-128.906250
1073		-140.625000
1074		-130.859375
1075		-142.578125
1076		-134.765625
1077		-144.531250
1078		-134.765625
1079		-146.484375
1080		-136.718750
1081		-144.531250
1082		-142.578125
1083		-146.484375
1084		-144.531250
1085		-152.343750
1086		-142.578125
1087		-152.343750
1088		-144.531250
1089		-154.296875
1090		-146.484375
1091		-156.250000
1092		-146.484375
1093		-156.250000
1094		-148.437500
1095		-156.250000
1096		-150.390625
1097		-156.250000
1098		-152.343750
1099		-156.250000
1100		-154.296875
1101		-160.156250
1102		-152.343750
1103		-160.156250
1104		-152.343750
1105		-160.156250
1106		-152.343750
1107		-162.109375
1108		-154.296875
1109		-162.109375
1110		-154.296875
1111		-162.109375
1112		-154.296875
1113		-160.156250
1114		-154.296875
1115		-158.203125
1116		-156.250000
1117		-160.156250
1118		-154.296875
1119		-162.109375
1120		-154.296875
1121		-160.156250
1122		-152.343750
1123		-160.156250
1124		-152.343750
1125		-158.203125
1126		-152.343750
1127		-158.203125
1128		-150.390625
1129		-158.203125
1130		-150.390625
1131		-154.296875
1132		-150.390625
1133		-152.343750
1134		-150.390625
1135		-154.296875
1136		-146.484375
1137		-152.343750
1138		-144.531250
1139		-150.390625
1140		-142.578125
1141		-150.390625
1142		-142.578125
1143		-148.437500
1144		-138.671875
1145		-146.484375
1146		-136.718750
1147		-142.578125
1148		-136.718750
1149		-138.671875
1150		-134.765625
1151		-136.718750
1152		-130.859375
1153		-136.718750
1154		-128.906250
1155		-134.765625
1156		-126.953125
1157		-130.859375
1158		-123.046875
1159		-128.906250
1160		-121.093750
1161		-126.953125
1162		-119.140625
1163		-123.046875
1164		-115.234375
1165		-119.140625
1166		-113.281250
1167		-115.234375
1168		-111.328125
1169		-115.234375
1170		-107.421875
1171		-113.281250
1172		-103.515625
1173		-109.375000
1174		-99.609375
1175		-105.468750
1176		-95.703125
1177		-101.562500
1178		-91.796875
1179		-97.656250
1180		-89.843750
1181		-93.750000
1182		-87.890625
1183		-89.843750
1184		-83.984375
1185		-85.937500
1186		-78.125000
1187		-83.984375
1188		-76.171875
1189		-80.078125
1190		-70.312500
1191		-76.171875
1192		-68.359375
1193		-72.265625
1194		-62.500000
1195		-68.359375
1196		-60.546875
1197		-64.453125
1198		-56.640625
1199		-58.593750
1200		-52.734375
1201		-54.687500
1202		-48.828125
1203		-52.734375
1204		-44.921875
1205		-48.828125
1206		-39.062500
1207		-44.921875
1208		-35.156250
1209		-41.015625
1210		-31.250000
1211		-39.062500
1212		-27.343750
1213		-31.250000
1214		-23.437500
1215		-27.343750
1216		-21.484375
1217		-23.437500
1218		-17.578125
1219		-19.531250
1220		-9.765625
1221		-17.578125
1222		-7.812500
1223		-11.718750
1224		-3.906250
1225		-9.765625
