metingen laweit/1000Hz, 50.0cm/data_81_m463.txt

Channel              :		CH1
Frequency            :		1.061kHz
Period               :		0.942ms
PK-PK                :		246.1mV
Probe attenuation    :		1X
Voltage per ADC value:		0.122070mV
Time interval        :		2.00000us

index		CH1_Voltage(mV)
1		52.734375
2		52.734375
3		42.968750
4		50.781250
5		41.015625
6		46.875000
7		39.062500
8		44.921875
9		35.156250
10		42.968750
11		33.203125
12		41.015625
13		29.296875
14		39.062500
15		27.343750
16		35.156250
17		23.437500
18		31.250000
19		21.484375
20		29.296875
21		19.531250
22		25.390625
23		17.578125
24		21.484375
25		11.718750
26		19.531250
27		9.765625
28		17.578125
29		5.859375
30		13.671875
31		1.953125
32		11.718750
33		0.000000
34		7.812500
35		-3.906250
36		5.859375
37		-5.859375
38		1.953125
39		-7.812500
40		-1.953125
41		-11.718750
42		-5.859375
43		-15.625000
44		-5.859375
45		-17.578125
46		-11.718750
47		-23.437500
48		-13.671875
49		-25.390625
50		-17.578125
51		-29.296875
52		-19.531250
53		-31.250000
54		-23.437500
55		-33.203125
56		-27.343750
57		-35.156250
58		-31.250000
59		-41.015625
60		-35.156250
61		-44.921875
62		-35.156250
63		-46.875000
64		-39.062500
65		-50.781250
66		-42.968750
67		-52.734375
68		-44.921875
69		-56.640625
70		-48.828125
71		-58.593750
72		-50.781250
73		-60.546875
74		-56.640625
75		-66.406250
76		-58.593750
77		-70.312500
78		-60.546875
79		-70.312500
80		-64.453125
81		-74.218750
82		-66.406250
83		-78.125000
84		-70.312500
85		-80.078125
86		-70.312500
87		-82.031250
88		-74.218750
89		-83.984375
90		-80.078125
91		-85.937500
92		-82.031250
93		-91.796875
94		-83.984375
95		-93.750000
96		-83.984375
97		-95.703125
98		-87.890625
99		-97.656250
100		-91.796875
101		-99.609375
102		-93.750000
103		-103.515625
104		-95.703125
105		-103.515625
106		-97.656250
107		-105.468750
108		-101.562500
109		-109.375000
110		-103.515625
111		-111.328125
112		-105.468750
113		-113.281250
114		-105.468750
115		-115.234375
116		-107.421875
117		-117.187500
118		-109.375000
119		-119.140625
120		-113.281250
121		-119.140625
122		-113.281250
123		-121.093750
124		-117.187500
125		-121.093750
126		-119.140625
127		-126.953125
128		-119.140625
129		-126.953125
130		-119.140625
131		-128.906250
132		-121.093750
133		-128.906250
134		-123.046875
135		-130.859375
136		-123.046875
137		-130.859375
138		-125.000000
139		-130.859375
140		-126.953125
141		-130.859375
142		-128.906250
143		-134.765625
144		-126.953125
145		-134.765625
146		-126.953125
147		-136.718750
148		-128.906250
149		-134.765625
150		-128.906250
151		-136.718750
152		-128.906250
153		-136.718750
154		-128.906250
155		-136.718750
156		-130.859375
157		-134.765625
158		-130.859375
159		-136.718750
160		-130.859375
161		-136.718750
162		-128.906250
163		-136.718750
164		-130.859375
165		-136.718750
166		-128.906250
167		-136.718750
168		-128.906250
169		-134.765625
170		-128.906250
171		-134.765625
172		-128.906250
173		-132.812500
174		-128.906250
175		-130.859375
176		-128.906250
177		-132.812500
178		-125.000000
179		-132.812500
180		-125.000000
181		-130.859375
182		-123.046875
183		-130.859375
184		-123.046875
185		-128.906250
186		-121.093750
187		-126.953125
188		-119.140625
189		-125.000000
190		-119.140625
191		-123.046875
192		-119.140625
193		-121.093750
194		-115.234375
195		-121.093750
196		-113.281250
197		-119.140625
198		-111.328125
199		-117.187500
200		-109.375000
201		-117.187500
202		-107.421875
203		-113.281250
204		-105.468750
205		-111.328125
206		-105.468750
207		-107.421875
208		-103.515625
209		-105.468750
210		-101.562500
211		-105.468750
212		-97.656250
213		-103.515625
214		-93.750000
215		-101.562500
216		-93.750000
217		-99.609375
218		-89.843750
219		-95.703125
220		-87.890625
221		-93.750000
222		-85.937500
223		-89.843750
224		-83.984375
225		-85.937500
226		-82.031250
227		-83.984375
228		-78.125000
229		-83.984375
230		-74.218750
231		-80.078125
232		-70.312500
233		-78.125000
234		-68.359375
235		-74.218750
236		-64.453125
237		-70.312500
238		-62.500000
239		-68.359375
240		-60.546875
241		-62.500000
242		-58.593750
243		-60.546875
244		-54.687500
245		-58.593750
246		-50.781250
247		-56.640625
248		-46.875000
249		-52.734375
250		-42.968750
251		-50.781250
252		-41.015625
253		-46.875000
254		-39.062500
255		-42.968750
256		-35.156250
257		-39.062500
258		-33.203125
259		-35.156250
260		-29.296875
261		-33.203125
262		-25.390625
263		-31.250000
264		-21.484375
265		-27.343750
266		-19.531250
267		-23.437500
268		-15.625000
269		-21.484375
270		-13.671875
271		-17.578125
272		-9.765625
273		-13.671875
274		-7.812500
275		-9.765625
276		-3.906250
277		-5.859375
278		0.000000
279		-5.859375
280		3.906250
281		-1.953125
282		5.859375
283		0.000000
284		9.765625
285		3.906250
286		11.718750
287		5.859375
288		15.625000
289		9.765625
290		17.578125
291		15.625000
292		19.531250
293		17.578125
294		23.437500
295		19.531250
296		27.343750
297		21.484375
298		31.250000
299		25.390625
300		33.203125
301		27.343750
302		35.156250
303		31.250000
304		37.109375
305		33.203125
306		41.015625
307		35.156250
308		42.968750
309		39.062500
310		44.921875
311		41.015625
312		48.828125
313		42.968750
314		50.781250
315		44.921875
316		52.734375
317		48.828125
318		56.640625
319		50.781250
320		58.593750
321		52.734375
322		60.546875
323		54.687500
324		62.500000
325		58.593750
326		64.453125
327		60.546875
328		66.406250
329		60.546875
330		70.312500
331		64.453125
332		72.265625
333		66.406250
334		74.218750
335		66.406250
336		76.171875
337		70.312500
338		78.125000
339		72.265625
340		78.125000
341		76.171875
342		80.078125
343		78.125000
344		80.078125
345		76.171875
346		83.984375
347		78.125000
348		85.937500
349		80.078125
350		87.890625
351		80.078125
352		89.843750
353		82.031250
354		89.843750
355		83.984375
356		91.796875
357		85.937500
358		91.796875
359		87.890625
360		91.796875
361		87.890625
362		95.703125
363		89.843750
364		95.703125
365		89.843750
366		95.703125
367		91.796875
368		97.656250
369		91.796875
370		97.656250
371		91.796875
372		99.609375
373		93.750000
374		101.562500
375		95.703125
376		99.609375
377		95.703125
378		101.562500
379		93.750000
380		101.562500
381		93.750000
382		103.515625
383		95.703125
384		103.515625
385		95.703125
386		103.515625
387		95.703125
388		103.515625
389		97.656250
390		103.515625
391		97.656250
392		103.515625
393		99.609375
394		101.562500
395		97.656250
396		103.515625
397		97.656250
398		103.515625
399		97.656250
400		103.515625
401		95.703125
402		103.515625
403		95.703125
404		103.515625
405		95.703125
406		103.515625
407		95.703125
408		101.562500
409		97.656250
410		99.609375
411		95.703125
412		99.609375
413		93.750000
414		101.562500
415		93.750000
416		99.609375
417		91.796875
418		99.609375
419		91.796875
420		97.656250
421		89.843750
422		97.656250
423		89.843750
424		95.703125
425		89.843750
426		93.750000
427		87.890625
428		91.796875
429		85.937500
430		93.750000
431		83.984375
432		91.796875
433		82.031250
434		91.796875
435		82.031250
436		89.843750
437		80.078125
438		87.890625
439		78.125000
440		85.937500
441		78.125000
442		85.937500
443		78.125000
444		82.031250
445		74.218750
446		80.078125
447		72.265625
448		80.078125
449		70.312500
450		78.125000
451		68.359375
452		76.171875
453		66.406250
454		74.218750
455		64.453125
456		72.265625
457		62.500000
458		70.312500
459		62.500000
460		66.406250
461		60.546875
462		64.453125
463		56.640625
464		64.453125
465		54.687500
466		60.546875
467		50.781250
468		60.546875
469		48.828125
470		56.640625
471		44.921875
472		54.687500
473		44.921875
474		52.734375
475		42.968750
476		48.828125
477		41.015625
478		44.921875
479		35.156250
480		42.968750
481		33.203125
482		41.015625
483		31.250000
484		39.062500
485		27.343750
486		35.156250
487		23.437500
488		33.203125
489		23.437500
490		31.250000
491		19.531250
492		27.343750
493		17.578125
494		23.437500
495		13.671875
496		19.531250
497		9.765625
498		17.578125
499		5.859375
500		15.625000
501		3.906250
502		13.671875
503		1.953125
504		9.765625
505		-1.953125
506		5.859375
507		-5.859375
508		3.906250
509		-5.859375
510		-1.953125
511		-9.765625
512		-3.906250
513		-13.671875
514		-5.859375
515		-17.578125
516		-9.765625
517		-21.484375
518		-11.718750
519		-23.437500
520		-15.625000
521		-27.343750
522		-19.531250
523		-29.296875
524		-23.437500
525		-31.250000
526		-25.390625
527		-35.156250
528		-29.296875
529		-39.062500
530		-33.203125
531		-42.968750
532		-35.156250
533		-46.875000
534		-37.109375
535		-48.828125
536		-41.015625
537		-52.734375
538		-42.968750
539		-56.640625
540		-46.875000
541		-56.640625
542		-48.828125
543		-60.546875
544		-54.687500
545		-62.500000
546		-58.593750
547		-68.359375
548		-58.593750
549		-70.312500
550		-62.500000
551		-72.265625
552		-64.453125
553		-74.218750
554		-68.359375
555		-80.078125
556		-70.312500
557		-82.031250
558		-74.218750
559		-82.031250
560		-76.171875
561		-85.937500
562		-80.078125
563		-89.843750
564		-83.984375
565		-93.750000
566		-83.984375
567		-95.703125
568		-85.937500
569		-97.656250
570		-89.843750
571		-99.609375
572		-91.796875
573		-101.562500
574		-95.703125
575		-103.515625
576		-95.703125
577		-105.468750
578		-101.562500
579		-107.421875
580		-103.515625
581		-111.328125
582		-103.515625
583		-113.281250
584		-105.468750
585		-115.234375
586		-107.421875
587		-117.187500
588		-109.375000
589		-119.140625
590		-111.328125
591		-121.093750
592		-113.281250
593		-119.140625
594		-117.187500
595		-121.093750
596		-117.187500
597		-125.000000
598		-119.140625
599		-126.953125
600		-119.140625
601		-128.906250
602		-121.093750
603		-130.859375
604		-123.046875
605		-130.859375
606		-123.046875
607		-130.859375
608		-125.000000
609		-130.859375
610		-125.000000
611		-130.859375
612		-128.906250
613		-132.812500
614		-126.953125
615		-134.765625
616		-126.953125
617		-134.765625
618		-128.906250
619		-136.718750
620		-128.906250
621		-136.718750
622		-128.906250
623		-138.671875
624		-130.859375
625		-136.718750
626		-130.859375
627		-134.765625
628		-132.812500
629		-134.765625
630		-132.812500
631		-136.718750
632		-130.859375
633		-136.718750
634		-130.859375
635		-138.671875
636		-130.859375
637		-136.718750
638		-130.859375
639		-136.718750
640		-128.906250
641		-136.718750
642		-128.906250
643		-134.765625
644		-128.906250
645		-132.812500
646		-128.906250
647		-132.812500
648		-126.953125
649		-132.812500
650		-126.953125
651		-130.859375
652		-125.000000
653		-130.859375
654		-125.000000
655		-130.859375
656		-123.046875
657		-128.906250
658		-121.093750
659		-126.953125
660		-121.093750
661		-125.000000
662		-121.093750
663		-123.046875
664		-119.140625
665		-123.046875
666		-115.234375
667		-121.093750
668		-113.281250
669		-119.140625
670		-113.281250
671		-119.140625
672		-111.328125
673		-115.234375
674		-107.421875
675		-113.281250
676		-105.468750
677		-111.328125
678		-105.468750
679		-107.421875
680		-103.515625
681		-105.468750
682		-99.609375
683		-105.468750
684		-97.656250
685		-103.515625
686		-95.703125
687		-101.562500
688		-91.796875
689		-97.656250
690		-89.843750
691		-97.656250
692		-87.890625
693		-93.750000
694		-85.937500
695		-87.890625
696		-83.984375
697		-85.937500
698		-80.078125
699		-83.984375
700		-76.171875
701		-83.984375
702		-74.218750
703		-80.078125
704		-70.312500
705		-76.171875
706		-68.359375
707		-74.218750
708		-66.406250
709		-70.312500
710		-62.500000
711		-66.406250
712		-60.546875
713		-62.500000
714		-58.593750
715		-60.546875
716		-54.687500
717		-58.593750
718		-50.781250
719		-56.640625
720		-46.875000
721		-52.734375
722		-44.921875
723		-48.828125
724		-41.015625
725		-44.921875
726		-37.109375
727		-42.968750
728		-37.109375
729		-37.109375
730		-33.203125
731		-35.156250
732		-27.343750
733		-33.203125
734		-25.390625
735		-31.250000
736		-21.484375
737		-27.343750
738		-17.578125
739		-23.437500
740		-15.625000
741		-19.531250
742		-11.718750
743		-15.625000
744		-9.765625
745		-11.718750
746		-7.812500
747		-9.765625
748		-3.906250
749		-7.812500
750		0.000000
751		-3.906250
752		3.906250
753		-1.953125
754		5.859375
755		0.000000
756		9.765625
757		3.906250
758		11.718750
759		7.812500
760		15.625000
761		11.718750
762		17.578125
763		15.625000
764		19.531250
765		17.578125
766		25.390625
767		19.531250
768		27.343750
769		21.484375
770		29.296875
771		25.390625
772		33.203125
773		27.343750
774		35.156250
775		29.296875
776		39.062500
777		33.203125
778		39.062500
779		37.109375
780		42.968750
781		41.015625
782		46.875000
783		41.015625
784		48.828125
785		42.968750
786		52.734375
787		46.875000
788		54.687500
789		48.828125
790		56.640625
791		50.781250
792		58.593750
793		52.734375
794		60.546875
795		56.640625
796		62.500000
797		58.593750
798		64.453125
799		60.546875
800		66.406250
801		60.546875
802		70.312500
803		64.453125
804		70.312500
805		66.406250
806		74.218750
807		68.359375
808		76.171875
809		70.312500
810		78.125000
811		72.265625
812		78.125000
813		76.171875
814		78.125000
815		76.171875
816		82.031250
817		76.171875
818		83.984375
819		78.125000
820		85.937500
821		80.078125
822		87.890625
823		82.031250
824		87.890625
825		82.031250
826		89.843750
827		83.984375
828		89.843750
829		85.937500
830		91.796875
831		87.890625
832		91.796875
833		87.890625
834		93.750000
835		87.890625
836		95.703125
837		87.890625
838		95.703125
839		89.843750
840		97.656250
841		89.843750
842		97.656250
843		91.796875
844		99.609375
845		93.750000
846		99.609375
847		95.703125
848		97.656250
849		93.750000
850		101.562500
851		93.750000
852		101.562500
853		95.703125
854		101.562500
855		95.703125
856		101.562500
857		95.703125
858		101.562500
859		95.703125
860		103.515625
861		95.703125
862		103.515625
863		97.656250
864		101.562500
865		97.656250
866		101.562500
867		95.703125
868		103.515625
869		95.703125
870		103.515625
871		95.703125
872		103.515625
873		95.703125
874		101.562500
875		95.703125
876		101.562500
877		93.750000
878		101.562500
879		97.656250
880		99.609375
881		95.703125
882		99.609375
883		93.750000
884		99.609375
885		91.796875
886		99.609375
887		91.796875
888		99.609375
889		91.796875
890		99.609375
891		91.796875
892		97.656250
893		89.843750
894		95.703125
895		89.843750
896		95.703125
897		89.843750
898		93.750000
899		87.890625
900		91.796875
901		83.984375
902		91.796875
903		83.984375
904		91.796875
905		82.031250
906		89.843750
907		82.031250
908		89.843750
909		80.078125
910		87.890625
911		78.125000
912		85.937500
913		78.125000
914		82.031250
915		76.171875
916		80.078125
917		74.218750
918		80.078125
919		70.312500
920		80.078125
921		70.312500
922		78.125000
923		66.406250
924		74.218750
925		66.406250
926		72.265625
927		64.453125
928		70.312500
929		64.453125
930		68.359375
931		60.546875
932		66.406250
933		56.640625
934		64.453125
935		54.687500
936		62.500000
937		52.734375
938		60.546875
939		50.781250
940		58.593750
941		46.875000
942		56.640625
943		44.921875
944		52.734375
945		42.968750
946		50.781250
947		42.968750
948		46.875000
949		37.109375
950		44.921875
951		35.156250
952		42.968750
953		31.250000
954		41.015625
955		29.296875
956		37.109375
957		27.343750
958		35.156250
959		23.437500
960		31.250000
961		19.531250
962		29.296875
963		19.531250
964		23.437500
965		17.578125
966		21.484375
967		11.718750
968		19.531250
969		7.812500
970		17.578125
971		5.859375
972		13.671875
973		1.953125
974		11.718750
975		0.000000
976		7.812500
977		-3.906250
978		3.906250
979		-3.906250
980		1.953125
981		-7.812500
982		-1.953125
983		-13.671875
984		-5.859375
985		-15.625000
986		-7.812500
987		-19.531250
988		-11.718750
989		-21.484375
990		-13.671875
991		-27.343750
992		-17.578125
993		-29.296875
994		-21.484375
995		-31.250000
996		-23.437500
997		-33.203125
998		-27.343750
999		-37.109375
1000		-31.250000
1001		-41.015625
1002		-33.203125
1003		-44.921875
1004		-37.109375
1005		-48.828125
1006		-39.062500
1007		-50.781250
1008		-41.015625
1009		-52.734375
1010		-44.921875
1011		-56.640625
1012		-48.828125
1013		-58.593750
1014		-52.734375
1015		-60.546875
1016		-56.640625
1017		-66.406250
1018		-58.593750
1019		-68.359375
1020		-60.546875
1021		-72.265625
1022		-62.500000
1023		-74.218750
1024		-66.406250
1025		-78.125000
1026		-68.359375
1027		-80.078125
1028		-72.265625
1029		-82.031250
1030		-76.171875
1031		-83.984375
1032		-80.078125
1033		-87.890625
1034		-82.031250
1035		-91.796875
1036		-83.984375
1037		-93.750000
1038		-85.937500
1039		-95.703125
1040		-87.890625
1041		-99.609375
1042		-89.843750
1043		-101.562500
1044		-93.750000
1045		-103.515625
1046		-95.703125
1047		-103.515625
1048		-99.609375
1049		-105.468750
1050		-101.562500
1051		-109.375000
1052		-101.562500
1053		-113.281250
1054		-103.515625
1055		-113.281250
1056		-107.421875
1057		-115.234375
1058		-109.375000
1059		-117.187500
1060		-109.375000
1061		-119.140625
1062		-111.328125
1063		-121.093750
1064		-115.234375
1065		-121.093750
1066		-117.187500
1067		-125.000000
1068		-119.140625
1069		-126.953125
1070		-117.187500
1071		-126.953125
1072		-121.093750
1073		-128.906250
1074		-121.093750
1075		-128.906250
1076		-123.046875
1077		-130.859375
1078		-125.000000
1079		-130.859375
1080		-125.000000
1081		-130.859375
1082		-126.953125
1083		-130.859375
1084		-128.906250
1085		-134.765625
1086		-126.953125
1087		-134.765625
1088		-128.906250
1089		-134.765625
1090		-128.906250
1091		-136.718750
1092		-128.906250
1093		-136.718750
1094		-128.906250
1095		-138.671875
1096		-128.906250
1097		-136.718750
1098		-130.859375
1099		-134.765625
1100		-132.812500
1101		-136.718750
1102		-130.859375
1103		-136.718750
1104		-130.859375
1105		-136.718750
1106		-130.859375
1107		-136.718750
1108		-128.906250
1109		-136.718750
1110		-128.906250
1111		-134.765625
1112		-128.906250
1113		-134.765625
1114		-128.906250
1115		-132.812500
1116		-128.906250
1117		-132.812500
1118		-126.953125
1119		-132.812500
1120		-126.953125
1121		-132.812500
1122		-125.000000
1123		-130.859375
1124		-125.000000
1125		-130.859375
1126		-123.046875
1127		-128.906250
1128		-121.093750
1129		-126.953125
1130		-119.140625
1131		-125.000000
1132		-121.093750
1133		-123.046875
1134		-119.140625
1135		-123.046875
1136		-115.234375
1137		-121.093750
1138		-115.234375
1139		-121.093750
1140		-113.281250
1141		-119.140625
1142		-109.375000
1143		-117.187500
1144		-109.375000
1145		-115.234375
1146		-107.421875
1147		-111.328125
1148		-105.468750
1149		-107.421875
1150		-103.515625
1151		-107.421875
1152		-101.562500
1153		-105.468750
1154		-97.656250
1155		-103.515625
1156		-95.703125
1157		-101.562500
1158		-93.750000
1159		-99.609375
1160		-91.796875
1161		-97.656250
1162		-87.890625
1163		-93.750000
1164		-85.937500
1165		-89.843750
1166		-83.984375
1167		-85.937500
1168		-82.031250
1169		-85.937500
1170		-78.125000
1171		-82.031250
1172		-76.171875
1173		-80.078125
1174		-72.265625
1175		-76.171875
1176		-70.312500
1177		-76.171875
1178		-66.406250
1179		-70.312500
1180		-62.500000
1181		-70.312500
1182		-62.500000
1183		-64.453125
1184		-58.593750
1185		-60.546875
1186		-54.687500
1187		-60.546875
1188		-50.781250
1189		-56.640625
1190		-46.875000
1191		-52.734375
1192		-42.968750
1193		-50.781250
1194		-42.968750
1195		-46.875000
1196		-39.062500
1197		-44.921875
1198		-35.156250
1199		-39.062500
1200		-33.203125
1201		-35.156250
1202		-29.296875
1203		-33.203125
1204		-25.390625
1205		-31.250000
1206		-23.437500
1207		-27.343750
1208		-19.531250
1209		-23.437500
1210		-17.578125
1211		-21.484375
1212		-13.671875
1213		-19.531250
1214		-9.765625
1215		-13.671875
1216		-7.812500
1217		-9.765625
1218		-5.859375
1219		-7.812500
1220		0.000000
1221		-5.859375
1222		1.953125
1223		-3.906250
1224		5.859375
1225		1.953125
1226		7.812500
1227		3.906250
1228		11.718750
1229		5.859375
1230		13.671875
1231		9.765625
1232		15.625000
1233		13.671875
1234		19.531250
1235		17.578125
1236		23.437500
1237		19.531250
1238		25.390625
1239		19.531250
1240		29.296875
