metingen laweit/1000Hz, 50.0cm/data_81_m278.txt

Channel              :		CH1
Frequency            :		1.050kHz
Period               :		0.952ms
PK-PK                :		146.5mV
Probe attenuation    :		1X
Voltage per ADC value:		0.122070mV
Time interval        :		2.00000us

index		CH1_Voltage(mV)
1		-27.343750
2		-27.343750
3		-23.437500
4		-29.296875
5		-25.390625
6		-31.250000
7		-27.343750
8		-33.203125
9		-29.296875
10		-35.156250
11		-31.250000
12		-35.156250
13		-31.250000
14		-39.062500
15		-33.203125
16		-39.062500
17		-35.156250
18		-41.015625
19		-37.109375
20		-42.968750
21		-39.062500
22		-44.921875
23		-41.015625
24		-46.875000
25		-42.968750
26		-46.875000
27		-44.921875
28		-50.781250
29		-44.921875
30		-50.781250
31		-46.875000
32		-52.734375
33		-48.828125
34		-52.734375
35		-48.828125
36		-54.687500
37		-50.781250
38		-56.640625
39		-52.734375
40		-58.593750
41		-52.734375
42		-58.593750
43		-54.687500
44		-60.546875
45		-56.640625
46		-60.546875
47		-56.640625
48		-62.500000
49		-58.593750
50		-64.453125
51		-60.546875
52		-64.453125
53		-60.546875
54		-66.406250
55		-62.500000
56		-66.406250
57		-62.500000
58		-68.359375
59		-64.453125
60		-68.359375
61		-66.406250
62		-70.312500
63		-64.453125
64		-70.312500
65		-68.359375
66		-72.265625
67		-68.359375
68		-72.265625
69		-70.312500
70		-74.218750
71		-70.312500
72		-74.218750
73		-70.312500
74		-74.218750
75		-70.312500
76		-74.218750
77		-72.265625
78		-76.171875
79		-72.265625
80		-76.171875
81		-72.265625
82		-76.171875
83		-72.265625
84		-76.171875
85		-74.218750
86		-78.125000
87		-74.218750
88		-78.125000
89		-74.218750
90		-78.125000
91		-74.218750
92		-78.125000
93		-76.171875
94		-78.125000
95		-76.171875
96		-78.125000
97		-76.171875
98		-78.125000
99		-76.171875
100		-78.125000
101		-74.218750
102		-78.125000
103		-74.218750
104		-78.125000
105		-74.218750
106		-78.125000
107		-74.218750
108		-78.125000
109		-74.218750
110		-78.125000
111		-76.171875
112		-78.125000
113		-72.265625
114		-76.171875
115		-74.218750
116		-76.171875
117		-72.265625
118		-76.171875
119		-72.265625
120		-76.171875
121		-72.265625
122		-74.218750
123		-72.265625
124		-74.218750
125		-72.265625
126		-74.218750
127		-70.312500
128		-72.265625
129		-68.359375
130		-72.265625
131		-70.312500
132		-72.265625
133		-68.359375
134		-72.265625
135		-66.406250
136		-70.312500
137		-66.406250
138		-70.312500
139		-64.453125
140		-68.359375
141		-64.453125
142		-66.406250
143		-64.453125
144		-66.406250
145		-62.500000
146		-64.453125
147		-62.500000
148		-64.453125
149		-60.546875
150		-62.500000
151		-60.546875
152		-64.453125
153		-56.640625
154		-60.546875
155		-56.640625
156		-58.593750
157		-54.687500
158		-58.593750
159		-52.734375
160		-56.640625
161		-52.734375
162		-54.687500
163		-50.781250
164		-54.687500
165		-50.781250
166		-52.734375
167		-48.828125
168		-52.734375
169		-44.921875
170		-50.781250
171		-46.875000
172		-48.828125
173		-44.921875
174		-46.875000
175		-41.015625
176		-44.921875
177		-41.015625
178		-42.968750
179		-41.015625
180		-42.968750
181		-37.109375
182		-41.015625
183		-37.109375
184		-39.062500
185		-33.203125
186		-37.109375
187		-33.203125
188		-35.156250
189		-31.250000
190		-33.203125
191		-29.296875
192		-31.250000
193		-29.296875
194		-29.296875
195		-27.343750
196		-29.296875
197		-23.437500
198		-27.343750
199		-21.484375
200		-25.390625
201		-21.484375
202		-25.390625
203		-19.531250
204		-21.484375
205		-17.578125
206		-21.484375
207		-15.625000
208		-19.531250
209		-15.625000
210		-15.625000
211		-13.671875
212		-13.671875
213		-9.765625
214		-13.671875
215		-9.765625
216		-11.718750
217		-7.812500
218		-9.765625
219		-3.906250
220		-7.812500
221		-3.906250
222		-5.859375
223		-1.953125
224		-3.906250
225		1.953125
226		-1.953125
227		1.953125
228		0.000000
229		1.953125
230		0.000000
231		5.859375
232		1.953125
233		5.859375
234		3.906250
235		7.812500
236		3.906250
237		9.765625
238		7.812500
239		11.718750
240		9.765625
241		13.671875
242		9.765625
243		15.625000
244		13.671875
245		15.625000
246		13.671875
247		17.578125
248		15.625000
249		19.531250
250		17.578125
251		21.484375
252		19.531250
253		23.437500
254		19.531250
255		25.390625
256		21.484375
257		25.390625
258		23.437500
259		27.343750
260		25.390625
261		27.343750
262		27.343750
263		29.296875
264		25.390625
265		31.250000
266		29.296875
267		33.203125
268		29.296875
269		35.156250
270		31.250000
271		35.156250
272		33.203125
273		37.109375
274		35.156250
275		39.062500
276		33.203125
277		39.062500
278		37.109375
279		39.062500
280		37.109375
281		41.015625
282		39.062500
283		42.968750
284		39.062500
285		44.921875
286		39.062500
287		46.875000
288		41.015625
289		44.921875
290		42.968750
291		46.875000
292		42.968750
293		48.828125
294		44.921875
295		48.828125
296		44.921875
297		48.828125
298		46.875000
299		50.781250
300		46.875000
301		50.781250
302		46.875000
303		52.734375
304		48.828125
305		52.734375
306		48.828125
307		52.734375
308		50.781250
309		54.687500
310		52.734375
311		54.687500
312		52.734375
313		54.687500
314		50.781250
315		56.640625
316		52.734375
317		56.640625
318		52.734375
319		56.640625
320		52.734375
321		58.593750
322		54.687500
323		58.593750
324		54.687500
325		58.593750
326		54.687500
327		58.593750
328		54.687500
329		56.640625
330		54.687500
331		60.546875
332		54.687500
333		58.593750
334		56.640625
335		58.593750
336		54.687500
337		58.593750
338		56.640625
339		60.546875
340		56.640625
341		58.593750
342		56.640625
343		60.546875
344		56.640625
345		58.593750
346		56.640625
347		58.593750
348		54.687500
349		60.546875
350		54.687500
351		58.593750
352		54.687500
353		58.593750
354		52.734375
355		60.546875
356		54.687500
357		58.593750
358		54.687500
359		56.640625
360		52.734375
361		58.593750
362		54.687500
363		56.640625
364		52.734375
365		56.640625
366		52.734375
367		56.640625
368		50.781250
369		54.687500
370		48.828125
371		56.640625
372		50.781250
373		52.734375
374		50.781250
375		52.734375
376		48.828125
377		52.734375
378		48.828125
379		50.781250
380		46.875000
381		50.781250
382		46.875000
383		48.828125
384		46.875000
385		48.828125
386		44.921875
387		48.828125
388		42.968750
389		46.875000
390		42.968750
391		46.875000
392		41.015625
393		44.921875
394		41.015625
395		42.968750
396		41.015625
397		42.968750
398		37.109375
399		42.968750
400		37.109375
401		41.015625
402		35.156250
403		39.062500
404		33.203125
405		39.062500
406		33.203125
407		37.109375
408		31.250000
409		37.109375
410		31.250000
411		35.156250
412		29.296875
413		33.203125
414		27.343750
415		31.250000
416		27.343750
417		31.250000
418		25.390625
419		29.296875
420		19.531250
421		29.296875
422		21.484375
423		25.390625
424		21.484375
425		23.437500
426		17.578125
427		23.437500
428		17.578125
429		21.484375
430		15.625000
431		19.531250
432		13.671875
433		17.578125
434		11.718750
435		15.625000
436		9.765625
437		13.671875
438		7.812500
439		15.625000
440		7.812500
441		11.718750
442		5.859375
443		9.765625
444		3.906250
445		7.812500
446		1.953125
447		5.859375
448		0.000000
449		3.906250
450		-1.953125
451		1.953125
452		-3.906250
453		0.000000
454		-5.859375
455		0.000000
456		-5.859375
457		-3.906250
458		-9.765625
459		-3.906250
460		-9.765625
461		-5.859375
462		-11.718750
463		-9.765625
464		-15.625000
465		-9.765625
466		-15.625000
467		-11.718750
468		-17.578125
469		-13.671875
470		-21.484375
471		-15.625000
472		-21.484375
473		-17.578125
474		-23.437500
475		-19.531250
476		-25.390625
477		-21.484375
478		-27.343750
479		-23.437500
480		-27.343750
481		-25.390625
482		-31.250000
483		-25.390625
484		-33.203125
485		-27.343750
486		-33.203125
487		-29.296875
488		-37.109375
489		-31.250000
490		-37.109375
491		-33.203125
492		-39.062500
493		-35.156250
494		-41.015625
495		-37.109375
496		-41.015625
497		-39.062500
498		-42.968750
499		-41.015625
500		-44.921875
501		-41.015625
502		-46.875000
503		-42.968750
504		-50.781250
505		-42.968750
506		-50.781250
507		-46.875000
508		-50.781250
509		-46.875000
510		-54.687500
511		-48.828125
512		-54.687500
513		-50.781250
514		-54.687500
515		-52.734375
516		-56.640625
517		-52.734375
518		-58.593750
519		-54.687500
520		-60.546875
521		-54.687500
522		-62.500000
523		-54.687500
524		-62.500000
525		-58.593750
526		-62.500000
527		-58.593750
528		-64.453125
529		-60.546875
530		-66.406250
531		-62.500000
532		-66.406250
533		-62.500000
534		-66.406250
535		-64.453125
536		-68.359375
537		-64.453125
538		-70.312500
539		-64.453125
540		-70.312500
541		-66.406250
542		-70.312500
543		-68.359375
544		-72.265625
545		-68.359375
546		-72.265625
547		-70.312500
548		-74.218750
549		-68.359375
550		-74.218750
551		-70.312500
552		-74.218750
553		-70.312500
554		-78.125000
555		-70.312500
556		-74.218750
557		-72.265625
558		-76.171875
559		-72.265625
560		-76.171875
561		-72.265625
562		-76.171875
563		-74.218750
564		-76.171875
565		-74.218750
566		-76.171875
567		-74.218750
568		-78.125000
569		-74.218750
570		-78.125000
571		-74.218750
572		-80.078125
573		-72.265625
574		-78.125000
575		-74.218750
576		-78.125000
577		-74.218750
578		-78.125000
579		-74.218750
580		-78.125000
581		-74.218750
582		-78.125000
583		-74.218750
584		-78.125000
585		-74.218750
586		-78.125000
587		-74.218750
588		-78.125000
589		-70.312500
590		-76.171875
591		-72.265625
592		-76.171875
593		-72.265625
594		-76.171875
595		-72.265625
596		-74.218750
597		-72.265625
598		-74.218750
599		-72.265625
600		-74.218750
601		-70.312500
602		-72.265625
603		-70.312500
604		-72.265625
605		-68.359375
606		-74.218750
607		-66.406250
608		-70.312500
609		-68.359375
610		-70.312500
611		-66.406250
612		-68.359375
613		-66.406250
614		-68.359375
615		-64.453125
616		-68.359375
617		-62.500000
618		-66.406250
619		-64.453125
620		-66.406250
621		-62.500000
622		-66.406250
623		-58.593750
624		-62.500000
625		-58.593750
626		-62.500000
627		-58.593750
628		-62.500000
629		-56.640625
630		-58.593750
631		-56.640625
632		-58.593750
633		-54.687500
634		-56.640625
635		-54.687500
636		-56.640625
637		-52.734375
638		-54.687500
639		-48.828125
640		-52.734375
641		-50.781250
642		-50.781250
643		-48.828125
644		-50.781250
645		-46.875000
646		-48.828125
647		-44.921875
648		-46.875000
649		-44.921875
650		-44.921875
651		-42.968750
652		-44.921875
653		-41.015625
654		-42.968750
655		-39.062500
656		-42.968750
657		-35.156250
658		-41.015625
659		-35.156250
660		-39.062500
661		-35.156250
662		-37.109375
663		-31.250000
664		-35.156250
665		-31.250000
666		-33.203125
667		-27.343750
668		-31.250000
669		-27.343750
670		-29.296875
671		-25.390625
672		-29.296875
673		-21.484375
674		-25.390625
675		-21.484375
676		-23.437500
677		-21.484375
678		-23.437500
679		-19.531250
680		-21.484375
681		-17.578125
682		-19.531250
683		-15.625000
684		-19.531250
685		-13.671875
686		-15.625000
687		-11.718750
688		-13.671875
689		-9.765625
690		-15.625000
691		-7.812500
692		-9.765625
693		-5.859375
694		-7.812500
695		-3.906250
696		-7.812500
697		-3.906250
698		-5.859375
699		-1.953125
700		-3.906250
701		1.953125
702		-1.953125
703		1.953125
704		0.000000
705		3.906250
706		0.000000
707		7.812500
708		3.906250
709		7.812500
710		5.859375
711		9.765625
712		7.812500
713		9.765625
714		7.812500
715		11.718750
716		9.765625
717		13.671875
718		11.718750
719		15.625000
720		13.671875
721		17.578125
722		13.671875
723		21.484375
724		13.671875
725		21.484375
726		17.578125
727		23.437500
728		19.531250
729		23.437500
730		19.531250
731		23.437500
732		23.437500
733		25.390625
734		23.437500
735		27.343750
736		25.390625
737		29.296875
738		27.343750
739		31.250000
740		25.390625
741		33.203125
742		29.296875
743		33.203125
744		31.250000
745		35.156250
746		33.203125
747		37.109375
748		33.203125
749		37.109375
750		35.156250
751		39.062500
752		35.156250
753		41.015625
754		37.109375
755		41.015625
756		37.109375
757		44.921875
758		41.015625
759		42.968750
760		39.062500
761		44.921875
762		41.015625
763		44.921875
764		42.968750
765		46.875000
766		44.921875
767		46.875000
768		42.968750
769		48.828125
770		46.875000
771		48.828125
772		46.875000
773		50.781250
774		44.921875
775		52.734375
776		48.828125
777		52.734375
778		48.828125
779		52.734375
780		48.828125
781		54.687500
782		50.781250
783		54.687500
784		50.781250
785		54.687500
786		52.734375
787		54.687500
788		52.734375
789		56.640625
790		50.781250
791		56.640625
792		52.734375
793		56.640625
794		54.687500
795		58.593750
796		52.734375
797		58.593750
798		54.687500
799		58.593750
800		56.640625
801		58.593750
802		54.687500
803		58.593750
804		56.640625
805		58.593750
806		54.687500
807		60.546875
808		54.687500
809		60.546875
810		56.640625
811		58.593750
812		54.687500
813		60.546875
814		56.640625
815		60.546875
816		56.640625
817		58.593750
818		54.687500
819		60.546875
820		56.640625
821		60.546875
822		56.640625
823		58.593750
824		54.687500
825		62.500000
826		56.640625
827		60.546875
828		56.640625
829		58.593750
830		54.687500
831		60.546875
832		56.640625
833		58.593750
834		54.687500
835		58.593750
836		54.687500
837		58.593750
838		54.687500
839		58.593750
840		52.734375
841		58.593750
842		52.734375
843		56.640625
844		52.734375
845		56.640625
846		50.781250
847		56.640625
848		52.734375
849		54.687500
850		50.781250
851		52.734375
852		48.828125
853		54.687500
854		48.828125
855		52.734375
856		48.828125
857		52.734375
858		46.875000
859		52.734375
860		46.875000
861		50.781250
862		44.921875
863		48.828125
864		44.921875
865		50.781250
866		42.968750
867		46.875000
868		41.015625
869		44.921875
870		41.015625
871		44.921875
872		41.015625
873		42.968750
874		37.109375
875		42.968750
876		37.109375
877		41.015625
878		35.156250
879		42.968750
880		33.203125
881		41.015625
882		33.203125
883		37.109375
884		33.203125
885		37.109375
886		31.250000
887		37.109375
888		29.296875
889		33.203125
890		25.390625
891		33.203125
892		27.343750
893		31.250000
894		23.437500
895		31.250000
896		23.437500
897		27.343750
898		21.484375
899		29.296875
900		21.484375
901		25.390625
902		19.531250
903		23.437500
904		17.578125
905		23.437500
906		15.625000
907		19.531250
908		11.718750
909		19.531250
910		13.671875
911		17.578125
912		11.718750
913		17.578125
914		7.812500
915		15.625000
916		7.812500
917		11.718750
918		5.859375
919		9.765625
920		1.953125
921		9.765625
922		1.953125
923		5.859375
924		-1.953125
925		5.859375
926		-1.953125
927		3.906250
928		-3.906250
929		1.953125
930		-5.859375
931		0.000000
932		-5.859375
933		-1.953125
934		-7.812500
935		-3.906250
936		-9.765625
937		-5.859375
938		-11.718750
939		-5.859375
940		-13.671875
941		-9.765625
942		-17.578125
943		-9.765625
944		-17.578125
945		-11.718750
946		-19.531250
947		-13.671875
948		-21.484375
949		-15.625000
950		-23.437500
951		-19.531250
952		-25.390625
953		-19.531250
954		-25.390625
955		-21.484375
956		-27.343750
957		-23.437500
958		-31.250000
959		-23.437500
960		-31.250000
961		-27.343750
962		-35.156250
963		-27.343750
964		-37.109375
965		-29.296875
966		-35.156250
967		-33.203125
968		-37.109375
969		-35.156250
970		-39.062500
971		-35.156250
972		-42.968750
973		-35.156250
974		-44.921875
975		-37.109375
976		-44.921875
977		-39.062500
978		-48.828125
979		-41.015625
980		-46.875000
981		-42.968750
982		-48.828125
983		-42.968750
984		-50.781250
985		-46.875000
986		-52.734375
987		-46.875000
988		-54.687500
989		-46.875000
990		-54.687500
991		-50.781250
992		-58.593750
993		-50.781250
994		-56.640625
995		-54.687500
996		-58.593750
997		-54.687500
998		-60.546875
999		-54.687500
1000		-60.546875
1001		-58.593750
1002		-62.500000
1003		-58.593750
1004		-64.453125
1005		-60.546875
1006		-64.453125
1007		-58.593750
1008		-68.359375
1009		-60.546875
1010		-66.406250
1011		-62.500000
1012		-68.359375
1013		-64.453125
1014		-70.312500
1015		-64.453125
1016		-68.359375
1017		-66.406250
1018		-70.312500
1019		-66.406250
1020		-72.265625
1021		-66.406250
1022		-72.265625
1023		-68.359375
1024		-72.265625
1025		-68.359375
1026		-74.218750
1027		-66.406250
1028		-72.265625
1029		-70.312500
1030		-76.171875
1031		-68.359375
1032		-76.171875
1033		-68.359375
1034		-74.218750
1035		-72.265625
1036		-76.171875
1037		-70.312500
1038		-78.125000
1039		-70.312500
1040		-76.171875
1041		-72.265625
1042		-78.125000
1043		-70.312500
1044		-76.171875
1045		-72.265625
1046		-78.125000
1047		-70.312500
1048		-80.078125
1049		-70.312500
1050		-76.171875
1051		-74.218750
1052		-76.171875
1053		-74.218750
1054		-78.125000
1055		-72.265625
1056		-78.125000
1057		-72.265625
1058		-78.125000
1059		-70.312500
1060		-78.125000
1061		-70.312500
1062		-76.171875
1063		-72.265625
1064		-78.125000
1065		-70.312500
1066		-76.171875
1067		-70.312500
1068		-74.218750
1069		-72.265625
1070		-74.218750
1071		-72.265625
1072		-74.218750
1073		-68.359375
1074		-72.265625
1075		-70.312500
1076		-74.218750
1077		-68.359375
1078		-72.265625
1079		-68.359375
1080		-72.265625
1081		-66.406250
1082		-72.265625
1083		-64.453125
1084		-70.312500
1085		-66.406250
1086		-68.359375
1087		-66.406250
1088		-68.359375
1089		-64.453125
1090		-68.359375
1091		-62.500000
1092		-68.359375
1093		-60.546875
1094		-66.406250
1095		-62.500000
1096		-66.406250
1097		-58.593750
1098		-64.453125
1099		-58.593750
1100		-62.500000
1101		-58.593750
1102		-60.546875
1103		-58.593750
1104		-60.546875
1105		-54.687500
1106		-60.546875
1107		-54.687500
1108		-56.640625
1109		-52.734375
1110		-58.593750
1111		-50.781250
1112		-54.687500
1113		-50.781250
1114		-54.687500
1115		-46.875000
1116		-54.687500
1117		-46.875000
1118		-50.781250
1119		-46.875000
1120		-48.828125
1121		-44.921875
1122		-48.828125
1123		-42.968750
1124		-46.875000
1125		-42.968750
1126		-44.921875
1127		-39.062500
1128		-44.921875
1129		-37.109375
1130		-42.968750
1131		-35.156250
1132		-42.968750
1133		-35.156250
1134		-37.109375
1135		-35.156250
1136		-37.109375
1137		-33.203125
1138		-37.109375
1139		-31.250000
1140		-35.156250
1141		-29.296875
1142		-31.250000
1143		-25.390625
1144		-33.203125
1145		-23.437500
1146		-29.296875
1147		-23.437500
1148		-29.296875
1149		-21.484375
1150		-25.390625
1151		-21.484375
1152		-23.437500
1153		-19.531250
1154		-23.437500
1155		-17.578125
1156		-19.531250
1157		-13.671875
1158		-19.531250
1159		-13.671875
1160		-17.578125
1161		-9.765625
1162		-15.625000
1163		-9.765625
1164		-13.671875
1165		-7.812500
1166		-13.671875
1167		-5.859375
1168		-9.765625
1169		-5.859375
1170		-7.812500
1171		-1.953125
1172		-7.812500
1173		-1.953125
1174		-5.859375
1175		0.000000
1176		-3.906250
1177		3.906250
1178		-1.953125
1179		3.906250
1180		0.000000
1181		7.812500
1182		0.000000
1183		9.765625
1184		5.859375
1185		7.812500
1186		5.859375
1187		9.765625
1188		7.812500
1189		11.718750
1190		7.812500
1191		13.671875
1192		11.718750
1193		15.625000
1194		11.718750
1195		17.578125
1196		11.718750
1197		19.531250
1198		13.671875
1199		23.437500
1200		15.625000
1201		21.484375
1202		19.531250
1203		23.437500
1204		21.484375
1205		25.390625
1206		21.484375
1207		27.343750
1208		23.437500
1209		27.343750
1210		23.437500
1211		31.250000
1212		23.437500
1213		33.203125
1214		27.343750
1215		31.250000
1216		27.343750
1217		35.156250
1218		31.250000
1219		33.203125
1220		33.203125
1221		35.156250
1222		33.203125
1223		39.062500
1224		33.203125
1225		39.062500
1226		35.156250
1227		39.062500
1228		35.156250
1229		42.968750
1230		37.109375
1231		44.921875
1232		37.109375
1233		44.921875
1234		39.062500
1235		44.921875
1236		42.968750
1237		44.921875
1238		42.968750
1239		46.875000
1240		41.015625
1241		48.828125
1242		42.968750
1243		48.828125
1244		42.968750
1245		52.734375
1246		44.921875
1247		50.781250
1248		44.921875
1249		52.734375
1250		46.875000
1251		52.734375
1252		50.781250
1253		52.734375
1254		50.781250
1255		52.734375
1256		48.828125
1257		56.640625
1258		48.828125
1259		56.640625
1260		50.781250
1261		58.593750
1262		50.781250
1263		58.593750
1264		50.781250
1265		58.593750
1266		52.734375
