metingen laweit/1000Hz, 50.0cm/data_81_m32.txt

Channel              :		CH1
Frequency            :		1.056kHz
Period               :		0.947ms
PK-PK                :		304.7mV
Probe attenuation    :		1X
Voltage per ADC value:		0.122070mV
Time interval        :		2.00000us

index		CH1_Voltage(mV)
1		46.875000
2		46.875000
3		54.687500
4		42.968750
5		52.734375
6		41.015625
7		48.828125
8		35.156250
9		46.875000
10		33.203125
11		41.015625
12		31.250000
13		39.062500
14		27.343750
15		33.203125
16		23.437500
17		29.296875
18		19.531250
19		27.343750
20		11.718750
21		23.437500
22		11.718750
23		19.531250
24		5.859375
25		15.625000
26		1.953125
27		11.718750
28		-1.953125
29		7.812500
30		-3.906250
31		3.906250
32		-7.812500
33		-1.953125
34		-13.671875
35		-5.859375
36		-17.578125
37		-7.812500
38		-21.484375
39		-11.718750
40		-25.390625
41		-15.625000
42		-29.296875
43		-19.531250
44		-33.203125
45		-23.437500
46		-35.156250
47		-29.296875
48		-39.062500
49		-33.203125
50		-46.875000
51		-37.109375
52		-48.828125
53		-41.015625
54		-54.687500
55		-42.968750
56		-56.640625
57		-48.828125
58		-60.546875
59		-50.781250
60		-64.453125
61		-56.640625
62		-68.359375
63		-58.593750
64		-70.312500
65		-64.453125
66		-74.218750
67		-68.359375
68		-80.078125
69		-72.265625
70		-83.984375
71		-74.218750
72		-85.937500
73		-78.125000
74		-89.843750
75		-80.078125
76		-93.750000
77		-85.937500
78		-97.656250
79		-87.890625
80		-97.656250
81		-91.796875
82		-103.515625
83		-97.656250
84		-105.468750
85		-99.609375
86		-109.375000
87		-103.515625
88		-113.281250
89		-105.468750
90		-115.234375
91		-109.375000
92		-119.140625
93		-111.328125
94		-121.093750
95		-115.234375
96		-123.046875
97		-117.187500
98		-125.000000
99		-121.093750
100		-128.906250
101		-123.046875
102		-132.812500
103		-125.000000
104		-136.718750
105		-126.953125
106		-136.718750
107		-128.906250
108		-140.625000
109		-130.859375
110		-142.578125
111		-134.765625
112		-142.578125
113		-136.718750
114		-142.578125
115		-138.671875
116		-144.531250
117		-142.578125
118		-148.437500
119		-142.578125
120		-150.390625
121		-142.578125
122		-152.343750
123		-144.531250
124		-154.296875
125		-146.484375
126		-154.296875
127		-146.484375
128		-156.250000
129		-148.437500
130		-156.250000
131		-150.390625
132		-156.250000
133		-152.343750
134		-158.203125
135		-152.343750
136		-160.156250
137		-152.343750
138		-160.156250
139		-152.343750
140		-160.156250
141		-154.296875
142		-160.156250
143		-154.296875
144		-160.156250
145		-154.296875
146		-160.156250
147		-154.296875
148		-158.203125
149		-156.250000
150		-160.156250
151		-154.296875
152		-160.156250
153		-154.296875
154		-160.156250
155		-152.343750
156		-160.156250
157		-152.343750
158		-158.203125
159		-152.343750
160		-158.203125
161		-152.343750
162		-158.203125
163		-150.390625
164		-156.250000
165		-150.390625
166		-152.343750
167		-150.390625
168		-154.296875
169		-146.484375
170		-152.343750
171		-144.531250
172		-152.343750
173		-144.531250
174		-150.390625
175		-140.625000
176		-148.437500
177		-140.625000
178		-146.484375
179		-138.671875
180		-144.531250
181		-136.718750
182		-140.625000
183		-136.718750
184		-138.671875
185		-134.765625
186		-138.671875
187		-130.859375
188		-134.765625
189		-128.906250
190		-134.765625
191		-125.000000
192		-130.859375
193		-123.046875
194		-128.906250
195		-119.140625
196		-125.000000
197		-117.187500
198		-121.093750
199		-115.234375
200		-117.187500
201		-113.281250
202		-115.234375
203		-107.421875
204		-113.281250
205		-103.515625
206		-111.328125
207		-101.562500
208		-107.421875
209		-97.656250
210		-103.515625
211		-95.703125
212		-99.609375
213		-91.796875
214		-97.656250
215		-89.843750
216		-91.796875
217		-85.937500
218		-87.890625
219		-80.078125
220		-85.937500
221		-76.171875
222		-83.984375
223		-72.265625
224		-78.125000
225		-70.312500
226		-76.171875
227		-66.406250
228		-72.265625
229		-62.500000
230		-68.359375
231		-58.593750
232		-60.546875
233		-56.640625
234		-56.640625
235		-52.734375
236		-54.687500
237		-46.875000
238		-50.781250
239		-42.968750
240		-48.828125
241		-37.109375
242		-42.968750
243		-35.156250
244		-41.015625
245		-31.250000
246		-35.156250
247		-25.390625
248		-31.250000
249		-23.437500
250		-25.390625
251		-19.531250
252		-21.484375
253		-13.671875
254		-19.531250
255		-9.765625
256		-15.625000
257		-5.859375
258		-11.718750
259		-1.953125
260		-7.812500
261		0.000000
262		-3.906250
263		5.859375
264		0.000000
265		7.812500
266		5.859375
267		11.718750
268		9.765625
269		15.625000
270		11.718750
271		21.484375
272		15.625000
273		25.390625
274		19.531250
275		29.296875
276		23.437500
277		31.250000
278		27.343750
279		37.109375
280		29.296875
281		39.062500
282		37.109375
283		41.015625
284		41.015625
285		44.921875
286		42.968750
287		50.781250
288		44.921875
289		52.734375
290		48.828125
291		56.640625
292		52.734375
293		60.546875
294		54.687500
295		64.453125
296		58.593750
297		66.406250
298		62.500000
299		68.359375
300		66.406250
301		70.312500
302		70.312500
303		76.171875
304		70.312500
305		78.125000
306		74.218750
307		82.031250
308		76.171875
309		85.937500
310		80.078125
311		87.890625
312		82.031250
313		91.796875
314		85.937500
315		93.750000
316		89.843750
317		93.750000
318		91.796875
319		95.703125
320		93.750000
321		101.562500
322		95.703125
323		103.515625
324		97.656250
325		105.468750
326		99.609375
327		107.421875
328		101.562500
329		109.375000
330		103.515625
331		111.328125
332		105.468750
333		113.281250
334		109.375000
335		113.281250
336		111.328125
337		117.187500
338		111.328125
339		119.140625
340		113.281250
341		121.093750
342		115.234375
343		123.046875
344		115.234375
345		123.046875
346		117.187500
347		126.953125
348		119.140625
349		126.953125
350		123.046875
351		126.953125
352		125.000000
353		126.953125
354		123.046875
355		130.859375
356		125.000000
357		130.859375
358		125.000000
359		132.812500
360		125.000000
361		132.812500
362		126.953125
363		134.765625
364		126.953125
365		134.765625
366		128.906250
367		134.765625
368		130.859375
369		134.765625
370		130.859375
371		136.718750
372		128.906250
373		138.671875
374		130.859375
375		138.671875
376		130.859375
377		138.671875
378		130.859375
379		138.671875
380		130.859375
381		138.671875
382		130.859375
383		138.671875
384		134.765625
385		136.718750
386		134.765625
387		136.718750
388		130.859375
389		138.671875
390		130.859375
391		138.671875
392		130.859375
393		138.671875
394		130.859375
395		138.671875
396		130.859375
397		136.718750
398		128.906250
399		136.718750
400		130.859375
401		134.765625
402		130.859375
403		132.812500
404		126.953125
405		134.765625
406		126.953125
407		134.765625
408		125.000000
409		132.812500
410		125.000000
411		132.812500
412		123.046875
413		130.859375
414		121.093750
415		128.906250
416		121.093750
417		128.906250
418		121.093750
419		125.000000
420		117.187500
421		125.000000
422		117.187500
423		125.000000
424		115.234375
425		123.046875
426		113.281250
427		121.093750
428		111.328125
429		119.140625
430		109.375000
431		117.187500
432		107.421875
433		115.234375
434		107.421875
435		111.328125
436		105.468750
437		109.375000
438		101.562500
439		109.375000
440		99.609375
441		107.421875
442		97.656250
443		105.468750
444		93.750000
445		103.515625
446		91.796875
447		99.609375
448		89.843750
449		97.656250
450		89.843750
451		93.750000
452		85.937500
453		89.843750
454		82.031250
455		87.890625
456		78.125000
457		87.890625
458		76.171875
459		83.984375
460		72.265625
461		82.031250
462		70.312500
463		78.125000
464		64.453125
465		74.218750
466		62.500000
467		72.265625
468		60.546875
469		66.406250
470		58.593750
471		62.500000
472		52.734375
473		62.500000
474		48.828125
475		58.593750
476		44.921875
477		54.687500
478		42.968750
479		50.781250
480		39.062500
481		46.875000
482		35.156250
483		42.968750
484		33.203125
485		41.015625
486		29.296875
487		35.156250
488		23.437500
489		31.250000
490		19.531250
491		29.296875
492		15.625000
493		25.390625
494		11.718750
495		21.484375
496		7.812500
497		17.578125
498		5.859375
499		13.671875
500		1.953125
501		9.765625
502		-1.953125
503		3.906250
504		-7.812500
505		0.000000
506		-11.718750
507		-1.953125
508		-13.671875
509		-5.859375
510		-19.531250
511		-9.765625
512		-23.437500
513		-13.671875
514		-27.343750
515		-17.578125
516		-31.250000
517		-21.484375
518		-33.203125
519		-27.343750
520		-37.109375
521		-31.250000
522		-42.968750
523		-35.156250
524		-46.875000
525		-37.109375
526		-50.781250
527		-42.968750
528		-56.640625
529		-44.921875
530		-58.593750
531		-48.828125
532		-62.500000
533		-54.687500
534		-64.453125
535		-58.593750
536		-68.359375
537		-62.500000
538		-74.218750
539		-66.406250
540		-78.125000
541		-68.359375
542		-80.078125
543		-72.265625
544		-83.984375
545		-76.171875
546		-89.843750
547		-78.125000
548		-91.796875
549		-82.031250
550		-93.750000
551		-85.937500
552		-95.703125
553		-91.796875
554		-99.609375
555		-95.703125
556		-105.468750
557		-97.656250
558		-107.421875
559		-99.609375
560		-111.328125
561		-103.515625
562		-113.281250
563		-105.468750
564		-117.187500
565		-109.375000
566		-121.093750
567		-111.328125
568		-121.093750
569		-115.234375
570		-123.046875
571		-119.140625
572		-128.906250
573		-121.093750
574		-132.812500
575		-123.046875
576		-132.812500
577		-125.000000
578		-134.765625
579		-128.906250
580		-138.671875
581		-130.859375
582		-140.625000
583		-132.812500
584		-140.625000
585		-132.812500
586		-142.578125
587		-138.671875
588		-146.484375
589		-140.625000
590		-148.437500
591		-138.671875
592		-150.390625
593		-140.625000
594		-150.390625
595		-142.578125
596		-152.343750
597		-144.531250
598		-152.343750
599		-146.484375
600		-154.296875
601		-146.484375
602		-154.296875
603		-150.390625
604		-154.296875
605		-152.343750
606		-158.203125
607		-150.390625
608		-158.203125
609		-150.390625
610		-158.203125
611		-152.343750
612		-160.156250
613		-152.343750
614		-160.156250
615		-152.343750
616		-160.156250
617		-152.343750
618		-160.156250
619		-154.296875
620		-158.203125
621		-154.296875
622		-160.156250
623		-152.343750
624		-160.156250
625		-152.343750
626		-160.156250
627		-152.343750
628		-160.156250
629		-152.343750
630		-158.203125
631		-150.390625
632		-158.203125
633		-150.390625
634		-156.250000
635		-150.390625
636		-154.296875
637		-150.390625
638		-152.343750
639		-148.437500
640		-154.296875
641		-146.484375
642		-152.343750
643		-144.531250
644		-150.390625
645		-142.578125
646		-148.437500
647		-142.578125
648		-148.437500
649		-138.671875
650		-146.484375
651		-136.718750
652		-144.531250
653		-136.718750
654		-138.671875
655		-136.718750
656		-138.671875
657		-132.812500
658		-138.671875
659		-128.906250
660		-136.718750
661		-126.953125
662		-132.812500
663		-125.000000
664		-130.859375
665		-123.046875
666		-128.906250
667		-119.140625
668		-125.000000
669		-117.187500
670		-121.093750
671		-115.234375
672		-117.187500
673		-111.328125
674		-117.187500
675		-109.375000
676		-115.234375
677		-105.468750
678		-109.375000
679		-101.562500
680		-107.421875
681		-99.609375
682		-103.515625
683		-95.703125
684		-101.562500
685		-91.796875
686		-95.703125
687		-89.843750
688		-91.796875
689		-85.937500
690		-89.843750
691		-80.078125
692		-87.890625
693		-78.125000
694		-83.984375
695		-74.218750
696		-78.125000
697		-70.312500
698		-74.218750
699		-66.406250
700		-72.265625
701		-62.500000
702		-68.359375
703		-60.546875
704		-62.500000
705		-56.640625
706		-58.593750
707		-50.781250
708		-54.687500
709		-46.875000
710		-52.734375
711		-42.968750
712		-48.828125
713		-39.062500
714		-44.921875
715		-35.156250
716		-39.062500
717		-31.250000
718		-35.156250
719		-27.343750
720		-29.296875
721		-25.390625
722		-25.390625
723		-21.484375
724		-23.437500
725		-13.671875
726		-19.531250
727		-11.718750
728		-15.625000
729		-7.812500
730		-13.671875
731		-3.906250
732		-9.765625
733		1.953125
734		-3.906250
735		3.906250
736		0.000000
737		7.812500
738		5.859375
739		9.765625
740		9.765625
741		17.578125
742		11.718750
743		21.484375
744		15.625000
745		25.390625
746		17.578125
747		27.343750
748		21.484375
749		33.203125
750		27.343750
751		35.156250
752		31.250000
753		37.109375
754		35.156250
755		41.015625
756		39.062500
757		46.875000
758		41.015625
759		48.828125
760		44.921875
761		54.687500
762		48.828125
763		56.640625
764		50.781250
765		60.546875
766		54.687500
767		62.500000
768		58.593750
769		66.406250
770		62.500000
771		68.359375
772		66.406250
773		70.312500
774		68.359375
775		76.171875
776		70.312500
777		80.078125
778		72.265625
779		82.031250
780		76.171875
781		83.984375
782		78.125000
783		87.890625
784		82.031250
785		91.796875
786		83.984375
787		91.796875
788		89.843750
789		93.750000
790		91.796875
791		99.609375
792		91.796875
793		101.562500
794		93.750000
795		103.515625
796		97.656250
797		105.468750
798		99.609375
799		107.421875
800		101.562500
801		109.375000
802		103.515625
803		111.328125
804		107.421875
805		113.281250
806		111.328125
807		113.281250
808		111.328125
809		117.187500
810		111.328125
811		119.140625
812		113.281250
813		121.093750
814		115.234375
815		123.046875
816		117.187500
817		125.000000
818		119.140625
819		126.953125
820		119.140625
821		125.000000
822		123.046875
823		126.953125
824		123.046875
825		130.859375
826		123.046875
827		130.859375
828		125.000000
829		132.812500
830		126.953125
831		132.812500
832		126.953125
833		134.765625
834		128.906250
835		136.718750
836		128.906250
837		136.718750
838		130.859375
839		134.765625
840		130.859375
841		136.718750
842		130.859375
843		138.671875
844		130.859375
845		138.671875
846		132.812500
847		140.625000
848		130.859375
849		140.625000
850		132.812500
851		140.625000
852		132.812500
853		140.625000
854		134.765625
855		138.671875
856		136.718750
857		138.671875
858		132.812500
859		140.625000
860		132.812500
861		140.625000
862		132.812500
863		140.625000
864		132.812500
865		140.625000
866		132.812500
867		140.625000
868		130.859375
869		140.625000
870		132.812500
871		138.671875
872		132.812500
873		136.718750
874		130.859375
875		136.718750
876		128.906250
877		138.671875
878		128.906250
879		136.718750
880		126.953125
881		136.718750
882		126.953125
883		134.765625
884		125.000000
885		132.812500
886		125.000000
887		132.812500
888		126.953125
889		128.906250
890		125.000000
891		128.906250
892		121.093750
893		128.906250
894		119.140625
895		126.953125
896		117.187500
897		126.953125
898		115.234375
899		123.046875
900		113.281250
901		121.093750
902		113.281250
903		121.093750
904		111.328125
905		119.140625
906		111.328125
907		115.234375
908		107.421875
909		113.281250
910		105.468750
911		111.328125
912		101.562500
913		111.328125
914		99.609375
915		107.421875
916		97.656250
917		107.421875
918		95.703125
919		103.515625
920		93.750000
921		101.562500
922		93.750000
923		97.656250
924		87.890625
925		93.750000
926		83.984375
927		93.750000
928		82.031250
929		89.843750
930		78.125000
931		87.890625
932		76.171875
933		85.937500
934		74.218750
935		82.031250
936		70.312500
937		78.125000
938		68.359375
939		74.218750
940		66.406250
941		72.265625
942		60.546875
943		68.359375
944		56.640625
945		66.406250
946		54.687500
947		64.453125
948		50.781250
949		60.546875
950		46.875000
951		56.640625
952		42.968750
953		52.734375
954		41.015625
955		48.828125
956		39.062500
957		44.921875
958		31.250000
959		41.015625
960		29.296875
961		39.062500
962		25.390625
963		33.203125
964		21.484375
965		31.250000
966		17.578125
967		25.390625
968		13.671875
969		23.437500
970		9.765625
971		19.531250
972		7.812500
973		13.671875
974		3.906250
975		9.765625
976		-1.953125
977		7.812500
978		-5.859375
979		3.906250
980		-9.765625
981		0.000000
982		-13.671875
983		-3.906250
984		-17.578125
985		-7.812500
986		-21.484375
987		-11.718750
988		-23.437500
989		-15.625000
990		-27.343750
991		-21.484375
992		-33.203125
993		-25.390625
994		-37.109375
995		-29.296875
996		-41.015625
997		-33.203125
998		-46.875000
999		-35.156250
1000		-48.828125
1001		-41.015625
1002		-54.687500
1003		-44.921875
1004		-54.687500
1005		-46.875000
1006		-58.593750
1007		-52.734375
1008		-62.500000
1009		-56.640625
1010		-68.359375
1011		-58.593750
1012		-72.265625
1013		-64.453125
1014		-76.171875
1015		-66.406250
1016		-80.078125
1017		-70.312500
1018		-82.031250
1019		-74.218750
1020		-85.937500
1021		-76.171875
1022		-87.890625
1023		-83.984375
1024		-91.796875
1025		-85.937500
1026		-97.656250
1027		-89.843750
1028		-99.609375
1029		-89.843750
1030		-101.562500
1031		-95.703125
1032		-107.421875
1033		-97.656250
1034		-109.375000
1035		-99.609375
1036		-111.328125
1037		-103.515625
1038		-115.234375
1039		-107.421875
1040		-115.234375
1041		-111.328125
1042		-121.093750
1043		-115.234375
1044		-125.000000
1045		-115.234375
1046		-126.953125
1047		-119.140625
1048		-128.906250
1049		-121.093750
1050		-132.812500
1051		-123.046875
1052		-134.765625
1053		-125.000000
1054		-136.718750
1055		-128.906250
1056		-134.765625
1057		-132.812500
1058		-138.671875
1059		-132.812500
1060		-142.578125
1061		-134.765625
1062		-144.531250
1063		-134.765625
1064		-146.484375
1065		-138.671875
1066		-146.484375
1067		-140.625000
1068		-148.437500
1069		-140.625000
1070		-150.390625
1071		-142.578125
1072		-148.437500
1073		-144.531250
1074		-150.390625
1075		-146.484375
1076		-152.343750
1077		-146.484375
1078		-154.296875
1079		-146.484375
1080		-156.250000
1081		-148.437500
1082		-156.250000
1083		-148.437500
1084		-156.250000
1085		-150.390625
1086		-158.203125
1087		-150.390625
1088		-158.203125
1089		-150.390625
1090		-154.296875
1091		-152.343750
1092		-154.296875
1093		-152.343750
1094		-158.203125
1095		-150.390625
1096		-158.203125
1097		-150.390625
1098		-158.203125
1099		-150.390625
1100		-158.203125
1101		-150.390625
1102		-156.250000
1103		-148.437500
1104		-156.250000
1105		-148.437500
1106		-154.296875
1107		-150.390625
1108		-152.343750
1109		-148.437500
1110		-152.343750
1111		-146.484375
1112		-152.343750
1113		-144.531250
1114		-152.343750
1115		-142.578125
1116		-150.390625
1117		-142.578125
1118		-148.437500
1119		-140.625000
1120		-146.484375
1121		-138.671875
1122		-144.531250
1123		-138.671875
1124		-140.625000
1125		-138.671875
1126		-138.671875
1127		-134.765625
1128		-138.671875
1129		-130.859375
1130		-136.718750
1131		-128.906250
1132		-134.765625
1133		-126.953125
1134		-132.812500
1135		-125.000000
1136		-130.859375
1137		-123.046875
1138		-128.906250
1139		-119.140625
1140		-123.046875
1141		-119.140625
1142		-121.093750
1143		-115.234375
1144		-119.140625
1145		-111.328125
1146		-117.187500
1147		-109.375000
1148		-113.281250
1149		-105.468750
1150		-111.328125
1151		-101.562500
1152		-107.421875
1153		-99.609375
1154		-105.468750
1155		-95.703125
1156		-99.609375
1157		-93.750000
1158		-95.703125
1159		-91.796875
1160		-91.796875
1161		-85.937500
1162		-91.796875
1163		-82.031250
1164		-87.890625
1165		-78.125000
1166		-83.984375
1167		-74.218750
1168		-80.078125
1169		-72.265625
1170		-78.125000
1171		-68.359375
1172		-72.265625
1173		-64.453125
1174		-66.406250
1175		-62.500000
1176		-62.500000
1177		-58.593750
1178		-60.546875
1179		-52.734375
1180		-58.593750
1181		-46.875000
1182		-52.734375
1183		-44.921875
1184		-48.828125
1185		-41.015625
1186		-44.921875
1187		-35.156250
1188		-42.968750
1189		-31.250000
1190		-37.109375
1191		-29.296875
1192		-31.250000
1193		-27.343750
1194		-27.343750
1195		-21.484375
1196		-25.390625
1197		-15.625000
1198		-21.484375
1199		-11.718750
1200		-17.578125
1201		-7.812500
1202		-13.671875
1203		-3.906250
1204		-9.765625
1205		0.000000
1206		-5.859375
1207		1.953125
1208		0.000000
1209		5.859375
1210		3.906250
1211		9.765625
1212		5.859375
1213		15.625000
1214		9.765625
1215		19.531250
1216		13.671875
1217		21.484375
1218		17.578125
1219		27.343750
1220		21.484375
1221		31.250000
1222		25.390625
1223		33.203125
1224		31.250000
1225		37.109375
1226		35.156250
