metingen laweit/1000Hz, 50.0cm/data_81_m311.txt

Channel              :		CH1
Frequency            :		1.052kHz
Period               :		0.951ms
PK-PK                :		291.0mV
Probe attenuation    :		1X
Voltage per ADC value:		0.122070mV
Time interval        :		2.00000us

index		CH1_Voltage(mV)
1		0.000000
2		0.000000
3		-9.765625
4		-5.859375
5		-13.671875
6		-7.812500
7		-17.578125
8		-11.718750
9		-21.484375
10		-15.625000
11		-25.390625
12		-19.531250
13		-29.296875
14		-23.437500
15		-33.203125
16		-27.343750
17		-37.109375
18		-31.250000
19		-41.015625
20		-35.156250
21		-44.921875
22		-39.062500
23		-46.875000
24		-42.968750
25		-50.781250
26		-44.921875
27		-54.687500
28		-48.828125
29		-58.593750
30		-52.734375
31		-62.500000
32		-56.640625
33		-66.406250
34		-60.546875
35		-68.359375
36		-64.453125
37		-72.265625
38		-68.359375
39		-76.171875
40		-72.265625
41		-80.078125
42		-74.218750
43		-82.031250
44		-78.125000
45		-85.937500
46		-82.031250
47		-89.843750
48		-85.937500
49		-93.750000
50		-87.890625
51		-95.703125
52		-89.843750
53		-99.609375
54		-93.750000
55		-101.562500
56		-97.656250
57		-105.468750
58		-99.609375
59		-109.375000
60		-103.515625
61		-111.328125
62		-105.468750
63		-113.281250
64		-109.375000
65		-117.187500
66		-113.281250
67		-121.093750
68		-115.234375
69		-123.046875
70		-117.187500
71		-125.000000
72		-121.093750
73		-128.906250
74		-123.046875
75		-128.906250
76		-125.000000
77		-132.812500
78		-126.953125
79		-134.765625
80		-128.906250
81		-136.718750
82		-132.812500
83		-138.671875
84		-134.765625
85		-140.625000
86		-136.718750
87		-142.578125
88		-138.671875
89		-144.531250
90		-140.625000
91		-146.484375
92		-140.625000
93		-148.437500
94		-142.578125
95		-150.390625
96		-144.531250
97		-150.390625
98		-146.484375
99		-150.390625
100		-148.437500
101		-152.343750
102		-148.437500
103		-154.296875
104		-150.390625
105		-154.296875
106		-150.390625
107		-154.296875
108		-152.343750
109		-156.250000
110		-152.343750
111		-156.250000
112		-154.296875
113		-156.250000
114		-154.296875
115		-158.203125
116		-154.296875
117		-158.203125
118		-154.296875
119		-158.203125
120		-154.296875
121		-158.203125
122		-154.296875
123		-158.203125
124		-154.296875
125		-158.203125
126		-154.296875
127		-158.203125
128		-154.296875
129		-158.203125
130		-154.296875
131		-158.203125
132		-154.296875
133		-156.250000
134		-154.296875
135		-156.250000
136		-152.343750
137		-154.296875
138		-150.390625
139		-154.296875
140		-150.390625
141		-152.343750
142		-148.437500
143		-152.343750
144		-148.437500
145		-150.390625
146		-146.484375
147		-150.390625
148		-144.531250
149		-146.484375
150		-142.578125
151		-146.484375
152		-142.578125
153		-144.531250
154		-140.625000
155		-142.578125
156		-138.671875
157		-140.625000
158		-136.718750
159		-138.671875
160		-134.765625
161		-136.718750
162		-130.859375
163		-134.765625
164		-128.906250
165		-132.812500
166		-126.953125
167		-128.906250
168		-123.046875
169		-126.953125
170		-121.093750
171		-125.000000
172		-119.140625
173		-121.093750
174		-117.187500
175		-119.140625
176		-113.281250
177		-115.234375
178		-109.375000
179		-113.281250
180		-107.421875
181		-109.375000
182		-105.468750
183		-107.421875
184		-101.562500
185		-103.515625
186		-99.609375
187		-101.562500
188		-95.703125
189		-97.656250
190		-91.796875
191		-93.750000
192		-89.843750
193		-89.843750
194		-85.937500
195		-87.890625
196		-82.031250
197		-83.984375
198		-78.125000
199		-80.078125
200		-74.218750
201		-76.171875
202		-70.312500
203		-74.218750
204		-66.406250
205		-68.359375
206		-64.453125
207		-66.406250
208		-60.546875
209		-62.500000
210		-56.640625
211		-58.593750
212		-52.734375
213		-54.687500
214		-48.828125
215		-50.781250
216		-44.921875
217		-46.875000
218		-41.015625
219		-42.968750
220		-37.109375
221		-39.062500
222		-33.203125
223		-35.156250
224		-29.296875
225		-31.250000
226		-25.390625
227		-27.343750
228		-21.484375
229		-25.390625
230		-17.578125
231		-21.484375
232		-13.671875
233		-15.625000
234		-11.718750
235		-11.718750
236		-7.812500
237		-7.812500
238		-3.906250
239		-5.859375
240		0.000000
241		-1.953125
242		3.906250
243		1.953125
244		7.812500
245		5.859375
246		11.718750
247		9.765625
248		15.625000
249		13.671875
250		17.578125
251		17.578125
252		23.437500
253		19.531250
254		25.390625
255		23.437500
256		29.296875
257		27.343750
258		33.203125
259		31.250000
260		37.109375
261		33.203125
262		41.015625
263		37.109375
264		42.968750
265		41.015625
266		46.875000
267		44.921875
268		48.828125
269		46.875000
270		52.734375
271		48.828125
272		56.640625
273		52.734375
274		58.593750
275		56.640625
276		60.546875
277		60.546875
278		64.453125
279		60.546875
280		68.359375
281		64.453125
282		70.312500
283		68.359375
284		72.265625
285		70.312500
286		76.171875
287		70.312500
288		80.078125
289		74.218750
290		80.078125
291		78.125000
292		82.031250
293		80.078125
294		85.937500
295		83.984375
296		87.890625
297		83.984375
298		91.796875
299		87.890625
300		91.796875
301		89.843750
302		93.750000
303		89.843750
304		97.656250
305		93.750000
306		97.656250
307		95.703125
308		99.609375
309		97.656250
310		103.515625
311		97.656250
312		105.468750
313		99.609375
314		107.421875
315		103.515625
316		107.421875
317		105.468750
318		107.421875
319		105.468750
320		111.328125
321		105.468750
322		113.281250
323		107.421875
324		115.234375
325		109.375000
326		115.234375
327		109.375000
328		117.187500
329		111.328125
330		119.140625
331		111.328125
332		119.140625
333		115.234375
334		119.140625
335		117.187500
336		119.140625
337		113.281250
338		123.046875
339		115.234375
340		123.046875
341		117.187500
342		123.046875
343		115.234375
344		125.000000
345		117.187500
346		125.000000
347		117.187500
348		125.000000
349		121.093750
350		123.046875
351		121.093750
352		123.046875
353		119.140625
354		126.953125
355		119.140625
356		125.000000
357		119.140625
358		126.953125
359		119.140625
360		125.000000
361		119.140625
362		125.000000
363		117.187500
364		126.953125
365		119.140625
366		125.000000
367		121.093750
368		123.046875
369		117.187500
370		125.000000
371		117.187500
372		125.000000
373		117.187500
374		123.046875
375		117.187500
376		123.046875
377		115.234375
378		123.046875
379		115.234375
380		123.046875
381		113.281250
382		121.093750
383		115.234375
384		117.187500
385		113.281250
386		117.187500
387		111.328125
388		117.187500
389		109.375000
390		117.187500
391		109.375000
392		115.234375
393		107.421875
394		113.281250
395		105.468750
396		113.281250
397		103.515625
398		113.281250
399		105.468750
400		109.375000
401		103.515625
402		107.421875
403		99.609375
404		105.468750
405		97.656250
406		107.421875
407		95.703125
408		103.515625
409		93.750000
410		101.562500
411		91.796875
412		101.562500
413		89.843750
414		97.656250
415		87.890625
416		95.703125
417		87.890625
418		91.796875
419		85.937500
420		89.843750
421		82.031250
422		89.843750
423		78.125000
424		85.937500
425		76.171875
426		83.984375
427		74.218750
428		82.031250
429		70.312500
430		80.078125
431		68.359375
432		76.171875
433		68.359375
434		72.265625
435		64.453125
436		68.359375
437		58.593750
438		68.359375
439		56.640625
440		64.453125
441		54.687500
442		62.500000
443		48.828125
444		58.593750
445		46.875000
446		56.640625
447		44.921875
448		52.734375
449		42.968750
450		50.781250
451		39.062500
452		44.921875
453		33.203125
454		41.015625
455		31.250000
456		41.015625
457		27.343750
458		37.109375
459		23.437500
460		33.203125
461		21.484375
462		29.296875
463		17.578125
464		27.343750
465		13.671875
466		23.437500
467		11.718750
468		17.578125
469		7.812500
470		13.671875
471		1.953125
472		11.718750
473		-1.953125
474		7.812500
475		-3.906250
476		3.906250
477		-7.812500
478		0.000000
479		-13.671875
480		-1.953125
481		-17.578125
482		-7.812500
483		-17.578125
484		-11.718750
485		-21.484375
486		-15.625000
487		-27.343750
488		-19.531250
489		-31.250000
490		-21.484375
491		-35.156250
492		-25.390625
493		-39.062500
494		-29.296875
495		-42.968750
496		-33.203125
497		-46.875000
498		-37.109375
499		-48.828125
500		-41.015625
501		-50.781250
502		-46.875000
503		-54.687500
504		-50.781250
505		-60.546875
506		-50.781250
507		-64.453125
508		-54.687500
509		-68.359375
510		-58.593750
511		-72.265625
512		-62.500000
513		-74.218750
514		-66.406250
515		-78.125000
516		-68.359375
517		-80.078125
518		-74.218750
519		-83.984375
520		-78.125000
521		-89.843750
522		-80.078125
523		-91.796875
524		-83.984375
525		-95.703125
526		-85.937500
527		-99.609375
528		-89.843750
529		-101.562500
530		-93.750000
531		-105.468750
532		-95.703125
533		-105.468750
534		-99.609375
535		-109.375000
536		-103.515625
537		-113.281250
538		-107.421875
539		-117.187500
540		-107.421875
541		-119.140625
542		-111.328125
543		-123.046875
544		-113.281250
545		-125.000000
546		-115.234375
547		-126.953125
548		-119.140625
549		-128.906250
550		-121.093750
551		-130.859375
552		-126.953125
553		-132.812500
554		-128.906250
555		-136.718750
556		-128.906250
557		-138.671875
558		-130.859375
559		-140.625000
560		-132.812500
561		-142.578125
562		-134.765625
563		-144.531250
564		-136.718750
565		-146.484375
566		-138.671875
567		-146.484375
568		-140.625000
569		-146.484375
570		-144.531250
571		-150.390625
572		-144.531250
573		-152.343750
574		-144.531250
575		-154.296875
576		-144.531250
577		-154.296875
578		-146.484375
579		-156.250000
580		-146.484375
581		-156.250000
582		-148.437500
583		-156.250000
584		-148.437500
585		-156.250000
586		-152.343750
587		-156.250000
588		-154.296875
589		-158.203125
590		-150.390625
591		-158.203125
592		-152.343750
593		-160.156250
594		-152.343750
595		-160.156250
596		-150.390625
597		-160.156250
598		-152.343750
599		-160.156250
600		-152.343750
601		-156.250000
602		-152.343750
603		-156.250000
604		-154.296875
605		-158.203125
606		-150.390625
607		-158.203125
608		-150.390625
609		-156.250000
610		-150.390625
611		-156.250000
612		-148.437500
613		-156.250000
614		-148.437500
615		-154.296875
616		-146.484375
617		-152.343750
618		-146.484375
619		-150.390625
620		-146.484375
621		-150.390625
622		-144.531250
623		-148.437500
624		-142.578125
625		-148.437500
626		-140.625000
627		-146.484375
628		-138.671875
629		-144.531250
630		-136.718750
631		-144.531250
632		-134.765625
633		-140.625000
634		-132.812500
635		-136.718750
636		-132.812500
637		-134.765625
638		-130.859375
639		-134.765625
640		-126.953125
641		-132.812500
642		-123.046875
643		-128.906250
644		-121.093750
645		-126.953125
646		-119.140625
647		-125.000000
648		-115.234375
649		-121.093750
650		-111.328125
651		-119.140625
652		-113.281250
653		-113.281250
654		-109.375000
655		-111.328125
656		-103.515625
657		-109.375000
658		-99.609375
659		-107.421875
660		-97.656250
661		-105.468750
662		-95.703125
663		-99.609375
664		-91.796875
665		-97.656250
666		-87.890625
667		-93.750000
668		-85.937500
669		-87.890625
670		-83.984375
671		-85.937500
672		-80.078125
673		-82.031250
674		-74.218750
675		-80.078125
676		-70.312500
677		-76.171875
678		-66.406250
679		-72.265625
680		-62.500000
681		-68.359375
682		-60.546875
683		-66.406250
684		-56.640625
685		-60.546875
686		-54.687500
687		-56.640625
688		-50.781250
689		-52.734375
690		-44.921875
691		-50.781250
692		-41.015625
693		-46.875000
694		-39.062500
695		-42.968750
696		-33.203125
697		-39.062500
698		-29.296875
699		-35.156250
700		-25.390625
701		-31.250000
702		-23.437500
703		-25.390625
704		-19.531250
705		-21.484375
706		-13.671875
707		-19.531250
708		-11.718750
709		-15.625000
710		-5.859375
711		-11.718750
712		-3.906250
713		-7.812500
714		0.000000
715		-5.859375
716		5.859375
717		0.000000
718		7.812500
719		3.906250
720		9.765625
721		7.812500
722		13.671875
723		11.718750
724		17.578125
725		13.671875
726		21.484375
727		17.578125
728		25.390625
729		21.484375
730		27.343750
731		25.390625
732		33.203125
733		29.296875
734		35.156250
735		31.250000
736		37.109375
737		37.109375
738		41.015625
739		39.062500
740		46.875000
741		41.015625
742		50.781250
743		42.968750
744		52.734375
745		46.875000
746		56.640625
747		50.781250
748		58.593750
749		52.734375
750		60.546875
751		56.640625
752		62.500000
753		62.500000
754		66.406250
755		64.453125
756		68.359375
757		66.406250
758		74.218750
759		66.406250
760		76.171875
761		70.312500
762		80.078125
763		72.265625
764		82.031250
765		76.171875
766		83.984375
767		78.125000
768		85.937500
769		82.031250
770		85.937500
771		85.937500
772		89.843750
773		85.937500
774		93.750000
775		87.890625
776		95.703125
777		89.843750
778		97.656250
779		91.796875
780		99.609375
781		93.750000
782		101.562500
783		95.703125
784		103.515625
785		97.656250
786		105.468750
787		101.562500
788		105.468750
789		103.515625
790		107.421875
791		101.562500
792		111.328125
793		103.515625
794		111.328125
795		105.468750
796		113.281250
797		107.421875
798		113.281250
799		107.421875
800		117.187500
801		109.375000
802		117.187500
803		113.281250
804		115.234375
805		113.281250
806		117.187500
807		113.281250
808		121.093750
809		113.281250
810		121.093750
811		115.234375
812		123.046875
813		115.234375
814		123.046875
815		117.187500
816		125.000000
817		117.187500
818		123.046875
819		119.140625
820		123.046875
821		119.140625
822		123.046875
823		119.140625
824		125.000000
825		119.140625
826		126.953125
827		119.140625
828		126.953125
829		119.140625
830		126.953125
831		119.140625
832		126.953125
833		119.140625
834		126.953125
835		119.140625
836		126.953125
837		121.093750
838		125.000000
839		123.046875
840		125.000000
841		119.140625
842		126.953125
843		119.140625
844		126.953125
845		119.140625
846		126.953125
847		117.187500
848		125.000000
849		117.187500
850		125.000000
851		117.187500
852		125.000000
853		117.187500
854		123.046875
855		117.187500
856		121.093750
857		115.234375
858		121.093750
859		113.281250
860		121.093750
861		111.328125
862		121.093750
863		111.328125
864		119.140625
865		111.328125
866		117.187500
867		109.375000
868		117.187500
869		109.375000
870		115.234375
871		109.375000
872		111.328125
873		105.468750
874		111.328125
875		103.515625
876		111.328125
877		101.562500
878		109.375000
879		99.609375
880		107.421875
881		97.656250
882		107.421875
883		95.703125
884		103.515625
885		95.703125
886		103.515625
887		93.750000
888		97.656250
889		93.750000
890		95.703125
891		87.890625
892		95.703125
893		85.937500
894		93.750000
895		83.984375
896		91.796875
897		82.031250
898		89.843750
899		78.125000
900		87.890625
901		76.171875
902		83.984375
903		76.171875
904		82.031250
905		72.265625
906		78.125000
907		68.359375
908		74.218750
909		64.453125
910		74.218750
911		62.500000
912		72.265625
913		60.546875
914		68.359375
915		56.640625
916		66.406250
917		54.687500
918		62.500000
919		50.781250
920		60.546875
921		50.781250
922		54.687500
923		46.875000
924		50.781250
925		42.968750
926		50.781250
927		39.062500
928		46.875000
929		35.156250
930		44.921875
931		31.250000
932		41.015625
933		27.343750
934		37.109375
935		23.437500
936		33.203125
937		23.437500
938		29.296875
939		19.531250
940		23.437500
941		15.625000
942		21.484375
943		9.765625
944		19.531250
945		5.859375
946		15.625000
947		3.906250
948		9.765625
949		0.000000
950		7.812500
951		-5.859375
952		5.859375
953		-5.859375
954		0.000000
955		-9.765625
956		-5.859375
957		-13.671875
958		-7.812500
959		-19.531250
960		-9.765625
961		-23.437500
962		-13.671875
963		-27.343750
964		-17.578125
965		-31.250000
966		-21.484375
967		-35.156250
968		-25.390625
969		-39.062500
970		-29.296875
971		-39.062500
972		-35.156250
973		-42.968750
974		-39.062500
975		-48.828125
976		-41.015625
977		-52.734375
978		-44.921875
979		-56.640625
980		-46.875000
981		-60.546875
982		-50.781250
983		-62.500000
984		-54.687500
985		-68.359375
986		-58.593750
987		-68.359375
988		-62.500000
989		-72.265625
990		-68.359375
991		-78.125000
992		-70.312500
993		-82.031250
994		-72.265625
995		-83.984375
996		-76.171875
997		-89.843750
998		-80.078125
999		-91.796875
1000		-83.984375
1001		-95.703125
1002		-83.984375
1003		-97.656250
1004		-89.843750
1005		-99.609375
1006		-93.750000
1007		-101.562500
1008		-97.656250
1009		-107.421875
1010		-99.609375
1011		-111.328125
1012		-101.562500
1013		-113.281250
1014		-103.515625
1015		-117.187500
1016		-107.421875
1017		-119.140625
1018		-109.375000
1019		-121.093750
1020		-113.281250
1021		-121.093750
1022		-117.187500
1023		-123.046875
1024		-121.093750
1025		-128.906250
1026		-123.046875
1027		-130.859375
1028		-123.046875
1029		-134.765625
1030		-125.000000
1031		-136.718750
1032		-126.953125
1033		-138.671875
1034		-128.906250
1035		-140.625000
1036		-130.859375
1037		-140.625000
1038		-134.765625
1039		-140.625000
1040		-138.671875
1041		-142.578125
1042		-138.671875
1043		-146.484375
1044		-138.671875
1045		-148.437500
1046		-140.625000
1047		-150.390625
1048		-142.578125
1049		-150.390625
1050		-142.578125
1051		-152.343750
1052		-144.531250
1053		-152.343750
1054		-146.484375
1055		-152.343750
1056		-148.437500
1057		-152.343750
1058		-150.390625
1059		-156.250000
1060		-148.437500
1061		-158.203125
1062		-148.437500
1063		-158.203125
1064		-150.390625
1065		-158.203125
1066		-150.390625
1067		-158.203125
1068		-150.390625
1069		-158.203125
1070		-150.390625
1071		-158.203125
1072		-152.343750
1073		-156.250000
1074		-154.296875
1075		-158.203125
1076		-150.390625
1077		-158.203125
1078		-150.390625
1079		-158.203125
1080		-150.390625
1081		-158.203125
1082		-150.390625
1083		-156.250000
1084		-150.390625
1085		-156.250000
1086		-148.437500
1087		-156.250000
1088		-148.437500
1089		-152.343750
1090		-148.437500
1091		-150.390625
1092		-148.437500
1093		-152.343750
1094		-144.531250
1095		-152.343750
1096		-144.531250
1097		-150.390625
1098		-142.578125
1099		-148.437500
1100		-140.625000
1101		-146.484375
1102		-138.671875
1103		-144.531250
1104		-136.718750
1105		-142.578125
1106		-136.718750
1107		-138.671875
1108		-134.765625
1109		-138.671875
1110		-132.812500
1111		-138.671875
1112		-128.906250
1113		-134.765625
1114		-126.953125
1115		-132.812500
1116		-125.000000
1117		-130.859375
1118		-121.093750
1119		-126.953125
1120		-119.140625
1121		-125.000000
1122		-117.187500
1123		-121.093750
1124		-117.187500
1125		-117.187500
1126		-113.281250
1127		-117.187500
1128		-107.421875
1129		-113.281250
1130		-105.468750
1131		-111.328125
1132		-101.562500
1133		-109.375000
1134		-99.609375
1135		-105.468750
1136		-95.703125
1137		-101.562500
1138		-93.750000
1139		-99.609375
1140		-91.796875
1141		-93.750000
1142		-87.890625
1143		-91.796875
1144		-83.984375
1145		-89.843750
1146		-80.078125
1147		-85.937500
1148		-76.171875
1149		-82.031250
1150		-72.265625
1151		-78.125000
1152		-70.312500
1153		-74.218750
1154		-64.453125
1155		-72.265625
1156		-64.453125
1157		-64.453125
1158		-60.546875
1159		-62.500000
1160		-54.687500
1161		-60.546875
1162		-50.781250
1163		-56.640625
1164		-46.875000
1165		-52.734375
1166		-42.968750
1167		-48.828125
1168		-39.062500
1169		-44.921875
1170		-37.109375
1171		-41.015625
1172		-33.203125
1173		-35.156250
1174		-29.296875
1175		-31.250000
1176		-25.390625
1177		-29.296875
1178		-19.531250
1179		-27.343750
1180		-17.578125
1181		-21.484375
1182		-13.671875
1183		-19.531250
1184		-9.765625
1185		-13.671875
1186		-5.859375
1187		-11.718750
1188		-1.953125
1189		-7.812500
1190		1.953125
1191		-1.953125
1192		3.906250
1193		1.953125
1194		9.765625
1195		3.906250
1196		13.671875
1197		7.812500
1198		17.578125
1199		11.718750
1200		19.531250
1201		15.625000
1202		23.437500
1203		19.531250
1204		27.343750
1205		21.484375
1206		29.296875
1207		27.343750
1208		33.203125
1209		31.250000
1210		37.109375
1211		33.203125
1212		42.968750
1213		35.156250
1214		44.921875
1215		39.062500
1216		46.875000
1217		42.968750
1218		52.734375
1219		46.875000
1220		54.687500
1221		48.828125
1222		56.640625
1223		52.734375
1224		58.593750
1225		56.640625
1226		60.546875
