metingen laweit/1000Hz, 66.4cm/data_81_m304.txt

Channel              :		CH1
Frequency            :		1.061kHz
Period               :		0.942ms
PK-PK                :		287.1mV
Probe attenuation    :		1X
Voltage per ADC value:		0.122070mV
Time interval        :		2.00000us

index		CH1_Voltage(mV)
1		62.500000
2		62.500000
3		70.312500
4		58.593750
5		68.359375
6		56.640625
7		62.500000
8		54.687500
9		58.593750
10		48.828125
11		56.640625
12		46.875000
13		54.687500
14		42.968750
15		50.781250
16		39.062500
17		48.828125
18		35.156250
19		44.921875
20		33.203125
21		42.968750
22		31.250000
23		37.109375
24		27.343750
25		33.203125
26		21.484375
27		29.296875
28		19.531250
29		27.343750
30		15.625000
31		23.437500
32		13.671875
33		21.484375
34		7.812500
35		17.578125
36		5.859375
37		13.671875
38		1.953125
39		9.765625
40		0.000000
41		5.859375
42		-3.906250
43		1.953125
44		-9.765625
45		-1.953125
46		-13.671875
47		-5.859375
48		-17.578125
49		-7.812500
50		-21.484375
51		-11.718750
52		-25.390625
53		-15.625000
54		-29.296875
55		-19.531250
56		-31.250000
57		-23.437500
58		-35.156250
59		-29.296875
60		-41.015625
61		-33.203125
62		-42.968750
63		-35.156250
64		-46.875000
65		-39.062500
66		-50.781250
67		-42.968750
68		-54.687500
69		-46.875000
70		-58.593750
71		-50.781250
72		-60.546875
73		-52.734375
74		-64.453125
75		-58.593750
76		-68.359375
77		-62.500000
78		-72.265625
79		-64.453125
80		-76.171875
81		-66.406250
82		-80.078125
83		-70.312500
84		-83.984375
85		-76.171875
86		-85.937500
87		-78.125000
88		-89.843750
89		-82.031250
90		-91.796875
91		-85.937500
92		-95.703125
93		-89.843750
94		-99.609375
95		-93.750000
96		-103.515625
97		-95.703125
98		-105.468750
99		-97.656250
100		-109.375000
101		-101.562500
102		-111.328125
103		-103.515625
104		-115.234375
105		-107.421875
106		-117.187500
107		-109.375000
108		-119.140625
109		-113.281250
110		-123.046875
111		-117.187500
112		-125.000000
113		-117.187500
114		-128.906250
115		-121.093750
116		-130.859375
117		-123.046875
118		-132.812500
119		-125.000000
120		-136.718750
121		-128.906250
122		-136.718750
123		-128.906250
124		-138.671875
125		-132.812500
126		-140.625000
127		-136.718750
128		-144.531250
129		-136.718750
130		-146.484375
131		-138.671875
132		-146.484375
133		-140.625000
134		-148.437500
135		-142.578125
136		-150.390625
137		-142.578125
138		-152.343750
139		-144.531250
140		-152.343750
141		-146.484375
142		-152.343750
143		-148.437500
144		-156.250000
145		-150.390625
146		-156.250000
147		-150.390625
148		-158.203125
149		-150.390625
150		-158.203125
151		-152.343750
152		-158.203125
153		-152.343750
154		-160.156250
155		-152.343750
156		-160.156250
157		-152.343750
158		-158.203125
159		-154.296875
160		-158.203125
161		-154.296875
162		-160.156250
163		-154.296875
164		-162.109375
165		-152.343750
166		-160.156250
167		-154.296875
168		-160.156250
169		-152.343750
170		-160.156250
171		-152.343750
172		-158.203125
173		-152.343750
174		-158.203125
175		-152.343750
176		-156.250000
177		-152.343750
178		-158.203125
179		-150.390625
180		-156.250000
181		-148.437500
182		-154.296875
183		-148.437500
184		-154.296875
185		-146.484375
186		-152.343750
187		-144.531250
188		-152.343750
189		-144.531250
190		-150.390625
191		-144.531250
192		-146.484375
193		-142.578125
194		-144.531250
195		-140.625000
196		-146.484375
197		-136.718750
198		-142.578125
199		-134.765625
200		-140.625000
201		-132.812500
202		-138.671875
203		-130.859375
204		-136.718750
205		-128.906250
206		-134.765625
207		-126.953125
208		-130.859375
209		-125.000000
210		-128.906250
211		-123.046875
212		-126.953125
213		-119.140625
214		-125.000000
215		-117.187500
216		-121.093750
217		-113.281250
218		-119.140625
219		-111.328125
220		-115.234375
221		-107.421875
222		-113.281250
223		-105.468750
224		-109.375000
225		-103.515625
226		-105.468750
227		-99.609375
228		-101.562500
229		-95.703125
230		-99.609375
231		-91.796875
232		-97.656250
233		-89.843750
234		-93.750000
235		-85.937500
236		-89.843750
237		-82.031250
238		-89.843750
239		-78.125000
240		-83.984375
241		-74.218750
242		-78.125000
243		-72.265625
244		-74.218750
245		-70.312500
246		-72.265625
247		-64.453125
248		-68.359375
249		-60.546875
250		-66.406250
251		-56.640625
252		-60.546875
253		-54.687500
254		-58.593750
255		-50.781250
256		-56.640625
257		-44.921875
258		-50.781250
259		-42.968750
260		-46.875000
261		-39.062500
262		-41.015625
263		-35.156250
264		-39.062500
265		-31.250000
266		-35.156250
267		-27.343750
268		-31.250000
269		-23.437500
270		-27.343750
271		-21.484375
272		-23.437500
273		-15.625000
274		-19.531250
275		-13.671875
276		-15.625000
277		-9.765625
278		-11.718750
279		-3.906250
280		-9.765625
281		0.000000
282		-5.859375
283		1.953125
284		-1.953125
285		5.859375
286		1.953125
287		9.765625
288		5.859375
289		13.671875
290		9.765625
291		19.531250
292		13.671875
293		19.531250
294		17.578125
295		23.437500
296		21.484375
297		27.343750
298		23.437500
299		31.250000
300		25.390625
301		35.156250
302		31.250000
303		37.109375
304		33.203125
305		41.015625
306		37.109375
307		44.921875
308		39.062500
309		46.875000
310		44.921875
311		50.781250
312		46.875000
313		54.687500
314		48.828125
315		58.593750
316		52.734375
317		60.546875
318		54.687500
319		62.500000
320		58.593750
321		66.406250
322		60.546875
323		70.312500
324		62.500000
325		70.312500
326		68.359375
327		72.265625
328		70.312500
329		76.171875
330		72.265625
331		80.078125
332		74.218750
333		82.031250
334		78.125000
335		83.984375
336		80.078125
337		85.937500
338		80.078125
339		89.843750
340		83.984375
341		91.796875
342		85.937500
343		91.796875
344		89.843750
345		93.750000
346		91.796875
347		97.656250
348		91.796875
349		99.609375
350		93.750000
351		101.562500
352		95.703125
353		101.562500
354		97.656250
355		103.515625
356		99.609375
357		105.468750
358		101.562500
359		107.421875
360		103.515625
361		107.421875
362		105.468750
363		109.375000
364		105.468750
365		111.328125
366		105.468750
367		113.281250
368		107.421875
369		113.281250
370		107.421875
371		115.234375
372		109.375000
373		117.187500
374		111.328125
375		117.187500
376		113.281250
377		117.187500
378		115.234375
379		117.187500
380		113.281250
381		119.140625
382		113.281250
383		121.093750
384		115.234375
385		121.093750
386		115.234375
387		121.093750
388		115.234375
389		121.093750
390		115.234375
391		121.093750
392		115.234375
393		123.046875
394		119.140625
395		121.093750
396		117.187500
397		123.046875
398		115.234375
399		123.046875
400		117.187500
401		123.046875
402		117.187500
403		123.046875
404		115.234375
405		123.046875
406		115.234375
407		123.046875
408		115.234375
409		121.093750
410		117.187500
411		119.140625
412		117.187500
413		119.140625
414		113.281250
415		121.093750
416		113.281250
417		119.140625
418		111.328125
419		119.140625
420		111.328125
421		117.187500
422		111.328125
423		117.187500
424		109.375000
425		117.187500
426		109.375000
427		115.234375
428		109.375000
429		113.281250
430		107.421875
431		111.328125
432		103.515625
433		111.328125
434		103.515625
435		109.375000
436		101.562500
437		109.375000
438		99.609375
439		109.375000
440		99.609375
441		105.468750
442		97.656250
443		105.468750
444		97.656250
445		101.562500
446		95.703125
447		99.609375
448		91.796875
449		99.609375
450		89.843750
451		95.703125
452		87.890625
453		95.703125
454		85.937500
455		93.750000
456		83.984375
457		89.843750
458		80.078125
459		87.890625
460		80.078125
461		85.937500
462		76.171875
463		82.031250
464		74.218750
465		80.078125
466		70.312500
467		80.078125
468		68.359375
469		76.171875
470		64.453125
471		72.265625
472		62.500000
473		70.312500
474		60.546875
475		66.406250
476		58.593750
477		66.406250
478		56.640625
479		60.546875
480		50.781250
481		58.593750
482		48.828125
483		56.640625
484		42.968750
485		52.734375
486		41.015625
487		48.828125
488		37.109375
489		46.875000
490		35.156250
491		42.968750
492		33.203125
493		39.062500
494		29.296875
495		35.156250
496		25.390625
497		31.250000
498		21.484375
499		29.296875
500		17.578125
501		27.343750
502		13.671875
503		21.484375
504		9.765625
505		19.531250
506		7.812500
507		15.625000
508		1.953125
509		11.718750
510		0.000000
511		7.812500
512		-1.953125
513		1.953125
514		-7.812500
515		0.000000
516		-11.718750
517		-3.906250
518		-15.625000
519		-7.812500
520		-19.531250
521		-11.718750
522		-23.437500
523		-13.671875
524		-27.343750
525		-19.531250
526		-29.296875
527		-21.484375
528		-33.203125
529		-27.343750
530		-37.109375
531		-31.250000
532		-41.015625
533		-33.203125
534		-46.875000
535		-37.109375
536		-48.828125
537		-41.015625
538		-54.687500
539		-44.921875
540		-56.640625
541		-48.828125
542		-60.546875
543		-52.734375
544		-62.500000
545		-56.640625
546		-66.406250
547		-60.546875
548		-72.265625
549		-64.453125
550		-74.218750
551		-66.406250
552		-78.125000
553		-68.359375
554		-83.984375
555		-74.218750
556		-85.937500
557		-78.125000
558		-89.843750
559		-82.031250
560		-91.796875
561		-83.984375
562		-93.750000
563		-87.890625
564		-99.609375
565		-91.796875
566		-101.562500
567		-93.750000
568		-105.468750
569		-95.703125
570		-107.421875
571		-99.609375
572		-111.328125
573		-103.515625
574		-115.234375
575		-105.468750
576		-117.187500
577		-109.375000
578		-119.140625
579		-113.281250
580		-121.093750
581		-115.234375
582		-125.000000
583		-117.187500
584		-128.906250
585		-121.093750
586		-128.906250
587		-123.046875
588		-132.812500
589		-125.000000
590		-134.765625
591		-126.953125
592		-136.718750
593		-130.859375
594		-138.671875
595		-130.859375
596		-140.625000
597		-136.718750
598		-144.531250
599		-136.718750
600		-144.531250
601		-138.671875
602		-148.437500
603		-140.625000
604		-148.437500
605		-142.578125
606		-150.390625
607		-142.578125
608		-152.343750
609		-144.531250
610		-152.343750
611		-146.484375
612		-152.343750
613		-148.437500
614		-154.296875
615		-150.390625
616		-156.250000
617		-150.390625
618		-158.203125
619		-150.390625
620		-158.203125
621		-152.343750
622		-158.203125
623		-152.343750
624		-160.156250
625		-152.343750
626		-160.156250
627		-152.343750
628		-160.156250
629		-154.296875
630		-160.156250
631		-156.250000
632		-160.156250
633		-154.296875
634		-162.109375
635		-154.296875
636		-162.109375
637		-154.296875
638		-160.156250
639		-154.296875
640		-160.156250
641		-154.296875
642		-160.156250
643		-154.296875
644		-160.156250
645		-152.343750
646		-156.250000
647		-154.296875
648		-158.203125
649		-152.343750
650		-156.250000
651		-150.390625
652		-156.250000
653		-150.390625
654		-156.250000
655		-148.437500
656		-154.296875
657		-148.437500
658		-152.343750
659		-146.484375
660		-150.390625
661		-144.531250
662		-150.390625
663		-144.531250
664		-146.484375
665		-142.578125
666		-146.484375
667		-138.671875
668		-144.531250
669		-136.718750
670		-142.578125
671		-136.718750
672		-140.625000
673		-134.765625
674		-140.625000
675		-130.859375
676		-136.718750
677		-128.906250
678		-134.765625
679		-128.906250
680		-130.859375
681		-125.000000
682		-128.906250
683		-121.093750
684		-126.953125
685		-119.140625
686		-123.046875
687		-117.187500
688		-121.093750
689		-113.281250
690		-119.140625
691		-111.328125
692		-115.234375
693		-107.421875
694		-113.281250
695		-103.515625
696		-107.421875
697		-103.515625
698		-105.468750
699		-99.609375
700		-103.515625
701		-95.703125
702		-101.562500
703		-91.796875
704		-95.703125
705		-87.890625
706		-93.750000
707		-85.937500
708		-89.843750
709		-82.031250
710		-87.890625
711		-78.125000
712		-83.984375
713		-76.171875
714		-78.125000
715		-72.265625
716		-74.218750
717		-66.406250
718		-72.265625
719		-64.453125
720		-68.359375
721		-60.546875
722		-64.453125
723		-56.640625
724		-62.500000
725		-52.734375
726		-58.593750
727		-50.781250
728		-54.687500
729		-46.875000
730		-48.828125
731		-42.968750
732		-44.921875
733		-37.109375
734		-42.968750
735		-33.203125
736		-39.062500
737		-29.296875
738		-33.203125
739		-27.343750
740		-31.250000
741		-21.484375
742		-27.343750
743		-19.531250
744		-23.437500
745		-15.625000
746		-17.578125
747		-11.718750
748		-13.671875
749		-7.812500
750		-11.718750
751		-1.953125
752		-9.765625
753		0.000000
754		-3.906250
755		3.906250
756		0.000000
757		7.812500
758		3.906250
759		11.718750
760		7.812500
761		13.671875
762		9.765625
763		17.578125
764		15.625000
765		19.531250
766		17.578125
767		25.390625
768		21.484375
769		29.296875
770		23.437500
771		33.203125
772		27.343750
773		35.156250
774		31.250000
775		39.062500
776		33.203125
777		42.968750
778		37.109375
779		44.921875
780		42.968750
781		48.828125
782		44.921875
783		50.781250
784		46.875000
785		54.687500
786		50.781250
787		58.593750
788		52.734375
789		60.546875
790		56.640625
791		62.500000
792		58.593750
793		66.406250
794		60.546875
795		70.312500
796		66.406250
797		70.312500
798		68.359375
799		74.218750
800		70.312500
801		78.125000
802		72.265625
803		80.078125
804		76.171875
805		82.031250
806		76.171875
807		83.984375
808		78.125000
809		85.937500
810		82.031250
811		89.843750
812		83.984375
813		89.843750
814		87.890625
815		91.796875
816		89.843750
817		95.703125
818		89.843750
819		97.656250
820		91.796875
821		99.609375
822		93.750000
823		101.562500
824		95.703125
825		103.515625
826		97.656250
827		103.515625
828		99.609375
829		105.468750
830		103.515625
831		105.468750
832		103.515625
833		107.421875
834		103.515625
835		109.375000
836		105.468750
837		111.328125
838		105.468750
839		113.281250
840		107.421875
841		115.234375
842		109.375000
843		115.234375
844		109.375000
845		117.187500
846		109.375000
847		117.187500
848		113.281250
849		117.187500
850		113.281250
851		119.140625
852		113.281250
853		121.093750
854		113.281250
855		119.140625
856		113.281250
857		121.093750
858		113.281250
859		121.093750
860		115.234375
861		123.046875
862		115.234375
863		121.093750
864		117.187500
865		121.093750
866		117.187500
867		121.093750
868		115.234375
869		123.046875
870		115.234375
871		123.046875
872		115.234375
873		123.046875
874		115.234375
875		123.046875
876		115.234375
877		123.046875
878		115.234375
879		121.093750
880		115.234375
881		121.093750
882		117.187500
883		119.140625
884		113.281250
885		121.093750
886		113.281250
887		121.093750
888		113.281250
889		119.140625
890		111.328125
891		119.140625
892		111.328125
893		117.187500
894		109.375000
895		117.187500
896		109.375000
897		115.234375
898		109.375000
899		113.281250
900		107.421875
901		111.328125
902		105.468750
903		113.281250
904		105.468750
905		111.328125
906		103.515625
907		109.375000
908		101.562500
909		109.375000
910		99.609375
911		107.421875
912		97.656250
913		105.468750
914		99.609375
915		101.562500
916		95.703125
917		99.609375
918		93.750000
919		99.609375
920		89.843750
921		97.656250
922		87.890625
923		97.656250
924		85.937500
925		95.703125
926		85.937500
927		91.796875
928		82.031250
929		89.843750
930		82.031250
931		87.890625
932		80.078125
933		83.984375
934		76.171875
935		82.031250
936		72.265625
937		80.078125
938		70.312500
939		78.125000
940		66.406250
941		76.171875
942		64.453125
943		72.265625
944		62.500000
945		70.312500
946		60.546875
947		66.406250
948		56.640625
949		62.500000
950		54.687500
951		60.546875
952		50.781250
953		58.593750
954		46.875000
955		54.687500
956		42.968750
957		52.734375
958		41.015625
959		48.828125
960		37.109375
961		46.875000
962		35.156250
963		41.015625
964		31.250000
965		37.109375
966		29.296875
967		33.203125
968		23.437500
969		31.250000
970		21.484375
971		27.343750
972		17.578125
973		25.390625
974		11.718750
975		21.484375
976		9.765625
977		17.578125
978		5.859375
979		15.625000
980		1.953125
981		9.765625
982		0.000000
983		5.859375
984		-3.906250
985		1.953125
986		-9.765625
987		0.000000
988		-13.671875
989		-5.859375
990		-15.625000
991		-7.812500
992		-19.531250
993		-11.718750
994		-25.390625
995		-15.625000
996		-27.343750
997		-19.531250
998		-29.296875
999		-23.437500
1000		-33.203125
1001		-27.343750
1002		-39.062500
1003		-31.250000
1004		-42.968750
1005		-33.203125
1006		-46.875000
1007		-39.062500
1008		-48.828125
1009		-42.968750
1010		-54.687500
1011		-44.921875
1012		-58.593750
1013		-48.828125
1014		-60.546875
1015		-52.734375
1016		-64.453125
1017		-58.593750
1018		-68.359375
1019		-62.500000
1020		-74.218750
1021		-64.453125
1022		-76.171875
1023		-68.359375
1024		-80.078125
1025		-70.312500
1026		-82.031250
1027		-76.171875
1028		-85.937500
1029		-78.125000
1030		-89.843750
1031		-80.078125
1032		-91.796875
1033		-85.937500
1034		-93.750000
1035		-89.843750
1036		-97.656250
1037		-91.796875
1038		-103.515625
1039		-93.750000
1040		-105.468750
1041		-97.656250
1042		-109.375000
1043		-99.609375
1044		-111.328125
1045		-105.468750
1046		-115.234375
1047		-107.421875
1048		-117.187500
1049		-109.375000
1050		-119.140625
1051		-113.281250
1052		-123.046875
1053		-117.187500
1054		-125.000000
1055		-117.187500
1056		-128.906250
1057		-121.093750
1058		-132.812500
1059		-123.046875
1060		-132.812500
1061		-125.000000
1062		-134.765625
1063		-128.906250
1064		-136.718750
1065		-130.859375
1066		-138.671875
1067		-132.812500
1068		-140.625000
1069		-134.765625
1070		-142.578125
1071		-136.718750
1072		-146.484375
1073		-138.671875
1074		-146.484375
1075		-140.625000
1076		-148.437500
1077		-142.578125
1078		-150.390625
1079		-142.578125
1080		-152.343750
1081		-144.531250
1082		-150.390625
1083		-146.484375
1084		-152.343750
1085		-148.437500
1086		-156.250000
1087		-148.437500
1088		-156.250000
1089		-150.390625
1090		-158.203125
1091		-150.390625
1092		-158.203125
1093		-152.343750
1094		-158.203125
1095		-150.390625
1096		-160.156250
1097		-152.343750
1098		-158.203125
1099		-154.296875
1100		-158.203125
1101		-156.250000
1102		-158.203125
1103		-156.250000
1104		-162.109375
1105		-154.296875
1106		-160.156250
1107		-154.296875
1108		-160.156250
1109		-154.296875
1110		-160.156250
1111		-154.296875
1112		-160.156250
1113		-154.296875
1114		-160.156250
1115		-154.296875
1116		-158.203125
1117		-154.296875
1118		-156.250000
1119		-154.296875
1120		-158.203125
1121		-152.343750
1122		-158.203125
1123		-150.390625
1124		-156.250000
1125		-148.437500
1126		-156.250000
1127		-148.437500
1128		-154.296875
1129		-146.484375
1130		-152.343750
1131		-146.484375
1132		-150.390625
1133		-144.531250
1134		-148.437500
1135		-144.531250
1136		-146.484375
1137		-140.625000
1138		-146.484375
1139		-138.671875
1140		-144.531250
1141		-136.718750
1142		-142.578125
1143		-134.765625
1144		-140.625000
1145		-132.812500
1146		-138.671875
1147		-130.859375
1148		-136.718750
1149		-130.859375
1150		-132.812500
1151		-126.953125
1152		-130.859375
1153		-125.000000
1154		-128.906250
1155		-121.093750
1156		-126.953125
1157		-119.140625
1158		-123.046875
1159		-115.234375
1160		-121.093750
1161		-111.328125
1162		-117.187500
1163		-109.375000
1164		-115.234375
1165		-107.421875
1166		-111.328125
1167		-105.468750
1168		-107.421875
1169		-101.562500
1170		-105.468750
1171		-97.656250
1172		-101.562500
1173		-93.750000
1174		-99.609375
1175		-91.796875
1176		-95.703125
1177		-87.890625
1178		-93.750000
1179		-83.984375
1180		-89.843750
1181		-80.078125
1182		-85.937500
1183		-78.125000
1184		-80.078125
1185		-74.218750
1186		-76.171875
1187		-70.312500
1188		-74.218750
1189		-66.406250
1190		-70.312500
1191		-62.500000
1192		-68.359375
1193		-60.546875
1194		-64.453125
1195		-54.687500
1196		-60.546875
1197		-50.781250
1198		-56.640625
1199		-46.875000
1200		-50.781250
1201		-44.921875
1202		-46.875000
1203		-41.015625
1204		-42.968750
1205		-37.109375
1206		-41.015625
1207		-31.250000
1208		-37.109375
1209		-29.296875
1210		-33.203125
1211		-25.390625
1212		-29.296875
1213		-21.484375
1214		-25.390625
1215		-17.578125
1216		-21.484375
1217		-13.671875
1218		-17.578125
1219		-11.718750
1220		-13.671875
1221		-5.859375
1222		-11.718750
1223		-1.953125
1224		-7.812500
1225		1.953125
1226		-3.906250
1227		3.906250
