metingen laweit/1000Hz, 66.4cm/data_81_m83.txt

Channel              :		CH1
Frequency            :		1.059kHz
Period               :		0.944ms
PK-PK                :		91.80mV
Probe attenuation    :		1X
Voltage per ADC value:		0.122070mV
Time interval        :		2.00000us

index		CH1_Voltage(mV)
1		23.437500
2		23.437500
3		17.578125
4		21.484375
5		17.578125
6		19.531250
7		15.625000
8		19.531250
9		15.625000
10		17.578125
11		13.671875
12		17.578125
13		13.671875
14		15.625000
15		11.718750
16		15.625000
17		9.765625
18		13.671875
19		9.765625
20		13.671875
21		7.812500
22		11.718750
23		5.859375
24		9.765625
25		5.859375
26		9.765625
27		5.859375
28		7.812500
29		1.953125
30		7.812500
31		1.953125
32		5.859375
33		1.953125
34		5.859375
35		0.000000
36		3.906250
37		0.000000
38		1.953125
39		-1.953125
40		1.953125
41		-1.953125
42		0.000000
43		-3.906250
44		0.000000
45		-5.859375
46		-1.953125
47		-5.859375
48		-1.953125
49		-7.812500
50		-3.906250
51		-7.812500
52		-5.859375
53		-9.765625
54		-5.859375
55		-9.765625
56		-7.812500
57		-11.718750
58		-7.812500
59		-13.671875
60		-9.765625
61		-13.671875
62		-9.765625
63		-15.625000
64		-11.718750
65		-15.625000
66		-13.671875
67		-17.578125
68		-13.671875
69		-19.531250
70		-15.625000
71		-19.531250
72		-15.625000
73		-19.531250
74		-17.578125
75		-21.484375
76		-17.578125
77		-21.484375
78		-19.531250
79		-23.437500
80		-19.531250
81		-23.437500
82		-19.531250
83		-25.390625
84		-21.484375
85		-27.343750
86		-23.437500
87		-27.343750
88		-23.437500
89		-27.343750
90		-25.390625
91		-29.296875
92		-25.390625
93		-29.296875
94		-25.390625
95		-29.296875
96		-27.343750
97		-31.250000
98		-27.343750
99		-31.250000
100		-27.343750
101		-31.250000
102		-29.296875
103		-33.203125
104		-29.296875
105		-33.203125
106		-29.296875
107		-33.203125
108		-31.250000
109		-35.156250
110		-31.250000
111		-35.156250
112		-31.250000
113		-37.109375
114		-33.203125
115		-37.109375
116		-33.203125
117		-37.109375
118		-33.203125
119		-37.109375
120		-33.203125
121		-37.109375
122		-33.203125
123		-37.109375
124		-35.156250
125		-37.109375
126		-35.156250
127		-37.109375
128		-35.156250
129		-39.062500
130		-35.156250
131		-39.062500
132		-35.156250
133		-39.062500
134		-35.156250
135		-39.062500
136		-35.156250
137		-39.062500
138		-35.156250
139		-39.062500
140		-37.109375
141		-41.015625
142		-35.156250
143		-39.062500
144		-37.109375
145		-39.062500
146		-35.156250
147		-39.062500
148		-37.109375
149		-39.062500
150		-35.156250
151		-39.062500
152		-37.109375
153		-39.062500
154		-35.156250
155		-39.062500
156		-35.156250
157		-39.062500
158		-35.156250
159		-39.062500
160		-35.156250
161		-39.062500
162		-35.156250
163		-37.109375
164		-35.156250
165		-37.109375
166		-35.156250
167		-37.109375
168		-35.156250
169		-37.109375
170		-33.203125
171		-37.109375
172		-33.203125
173		-35.156250
174		-33.203125
175		-35.156250
176		-31.250000
177		-37.109375
178		-29.296875
179		-35.156250
180		-31.250000
181		-35.156250
182		-31.250000
183		-35.156250
184		-29.296875
185		-33.203125
186		-29.296875
187		-33.203125
188		-29.296875
189		-31.250000
190		-29.296875
191		-31.250000
192		-27.343750
193		-31.250000
194		-25.390625
195		-29.296875
196		-25.390625
197		-29.296875
198		-25.390625
199		-27.343750
200		-23.437500
201		-27.343750
202		-23.437500
203		-25.390625
204		-23.437500
205		-25.390625
206		-23.437500
207		-25.390625
208		-21.484375
209		-25.390625
210		-19.531250
211		-25.390625
212		-17.578125
213		-23.437500
214		-17.578125
215		-23.437500
216		-15.625000
217		-21.484375
218		-15.625000
219		-19.531250
220		-15.625000
221		-17.578125
222		-15.625000
223		-17.578125
224		-13.671875
225		-17.578125
226		-11.718750
227		-17.578125
228		-9.765625
229		-15.625000
230		-9.765625
231		-15.625000
232		-7.812500
233		-13.671875
234		-7.812500
235		-11.718750
236		-7.812500
237		-9.765625
238		-5.859375
239		-7.812500
240		-5.859375
241		-7.812500
242		-3.906250
243		-7.812500
244		-1.953125
245		-7.812500
246		0.000000
247		-5.859375
248		0.000000
249		-5.859375
250		1.953125
251		-3.906250
252		1.953125
253		-3.906250
254		3.906250
255		-1.953125
256		3.906250
257		1.953125
258		3.906250
259		0.000000
260		7.812500
261		0.000000
262		7.812500
263		1.953125
264		9.765625
265		3.906250
266		9.765625
267		3.906250
268		11.718750
269		5.859375
270		11.718750
271		5.859375
272		13.671875
273		9.765625
274		13.671875
275		11.718750
276		13.671875
277		9.765625
278		17.578125
279		11.718750
280		17.578125
281		11.718750
282		19.531250
283		11.718750
284		19.531250
285		15.625000
286		21.484375
287		15.625000
288		21.484375
289		17.578125
290		21.484375
291		19.531250
292		21.484375
293		19.531250
294		25.390625
295		19.531250
296		25.390625
297		19.531250
298		27.343750
299		21.484375
300		27.343750
301		21.484375
302		29.296875
303		23.437500
304		29.296875
305		23.437500
306		29.296875
307		27.343750
308		29.296875
309		25.390625
310		33.203125
311		27.343750
312		33.203125
313		27.343750
314		35.156250
315		27.343750
316		35.156250
317		27.343750
318		35.156250
319		31.250000
320		37.109375
321		29.296875
322		37.109375
323		33.203125
324		37.109375
325		33.203125
326		37.109375
327		31.250000
328		39.062500
329		33.203125
330		41.015625
331		33.203125
332		41.015625
333		35.156250
334		41.015625
335		35.156250
336		41.015625
337		35.156250
338		42.968750
339		37.109375
340		41.015625
341		39.062500
342		41.015625
343		37.109375
344		44.921875
345		37.109375
346		44.921875
347		39.062500
348		44.921875
349		39.062500
350		44.921875
351		39.062500
352		46.875000
353		39.062500
354		46.875000
355		39.062500
356		46.875000
357		42.968750
358		44.921875
359		42.968750
360		44.921875
361		41.015625
362		46.875000
363		41.015625
364		46.875000
365		41.015625
366		48.828125
367		41.015625
368		48.828125
369		42.968750
370		48.828125
371		41.015625
372		48.828125
373		44.921875
374		46.875000
375		44.921875
376		46.875000
377		42.968750
378		48.828125
379		42.968750
380		48.828125
381		42.968750
382		48.828125
383		42.968750
384		48.828125
385		42.968750
386		48.828125
387		42.968750
388		48.828125
389		42.968750
390		48.828125
391		44.921875
392		46.875000
393		42.968750
394		48.828125
395		41.015625
396		48.828125
397		41.015625
398		48.828125
399		41.015625
400		48.828125
401		41.015625
402		48.828125
403		41.015625
404		48.828125
405		41.015625
406		46.875000
407		42.968750
408		44.921875
409		42.968750
410		44.921875
411		39.062500
412		46.875000
413		39.062500
414		46.875000
415		39.062500
416		46.875000
417		39.062500
418		44.921875
419		37.109375
420		44.921875
421		37.109375
422		42.968750
423		39.062500
424		42.968750
425		39.062500
426		41.015625
427		35.156250
428		41.015625
429		35.156250
430		41.015625
431		35.156250
432		41.015625
433		33.203125
434		41.015625
435		33.203125
436		41.015625
437		31.250000
438		39.062500
439		33.203125
440		39.062500
441		33.203125
442		35.156250
443		31.250000
444		35.156250
445		29.296875
446		37.109375
447		27.343750
448		35.156250
449		27.343750
450		35.156250
451		27.343750
452		35.156250
453		25.390625
454		33.203125
455		25.390625
456		33.203125
457		25.390625
458		29.296875
459		25.390625
460		29.296875
461		23.437500
462		29.296875
463		21.484375
464		29.296875
465		21.484375
466		27.343750
467		19.531250
468		25.390625
469		19.531250
470		25.390625
471		17.578125
472		23.437500
473		15.625000
474		23.437500
475		17.578125
476		19.531250
477		15.625000
478		19.531250
479		13.671875
480		19.531250
481		11.718750
482		19.531250
483		9.765625
484		17.578125
485		9.765625
486		17.578125
487		7.812500
488		15.625000
489		7.812500
490		15.625000
491		7.812500
492		11.718750
493		7.812500
494		9.765625
495		3.906250
496		11.718750
497		3.906250
498		9.765625
499		1.953125
500		9.765625
501		1.953125
502		7.812500
503		0.000000
504		5.859375
505		-1.953125
506		5.859375
507		-1.953125
508		3.906250
509		-1.953125
510		1.953125
511		-3.906250
512		1.953125
513		-5.859375
514		1.953125
515		-7.812500
516		0.000000
517		-9.765625
518		-1.953125
519		-9.765625
520		-1.953125
521		-9.765625
522		-3.906250
523		-11.718750
524		-3.906250
525		-11.718750
526		-7.812500
527		-11.718750
528		-7.812500
529		-15.625000
530		-7.812500
531		-15.625000
532		-9.765625
533		-17.578125
534		-9.765625
535		-17.578125
536		-11.718750
537		-19.531250
538		-11.718750
539		-19.531250
540		-13.671875
541		-19.531250
542		-15.625000
543		-19.531250
544		-17.578125
545		-23.437500
546		-17.578125
547		-25.390625
548		-17.578125
549		-25.390625
550		-17.578125
551		-25.390625
552		-19.531250
553		-27.343750
554		-19.531250
555		-27.343750
556		-21.484375
557		-27.343750
558		-21.484375
559		-27.343750
560		-23.437500
561		-29.296875
562		-23.437500
563		-31.250000
564		-25.390625
565		-31.250000
566		-25.390625
567		-33.203125
568		-25.390625
569		-33.203125
570		-25.390625
571		-33.203125
572		-27.343750
573		-35.156250
574		-27.343750
575		-35.156250
576		-29.296875
577		-33.203125
578		-31.250000
579		-37.109375
580		-29.296875
581		-37.109375
582		-29.296875
583		-39.062500
584		-31.250000
585		-39.062500
586		-31.250000
587		-39.062500
588		-31.250000
589		-39.062500
590		-31.250000
591		-39.062500
592		-33.203125
593		-37.109375
594		-35.156250
595		-39.062500
596		-33.203125
597		-41.015625
598		-33.203125
599		-41.015625
600		-33.203125
601		-41.015625
602		-35.156250
603		-41.015625
604		-35.156250
605		-41.015625
606		-35.156250
607		-41.015625
608		-35.156250
609		-39.062500
610		-37.109375
611		-39.062500
612		-37.109375
613		-41.015625
614		-35.156250
615		-41.015625
616		-35.156250
617		-41.015625
618		-35.156250
619		-41.015625
620		-35.156250
621		-41.015625
622		-35.156250
623		-42.968750
624		-33.203125
625		-41.015625
626		-35.156250
627		-39.062500
628		-37.109375
629		-41.015625
630		-33.203125
631		-41.015625
632		-33.203125
633		-41.015625
634		-33.203125
635		-39.062500
636		-33.203125
637		-39.062500
638		-33.203125
639		-39.062500
640		-33.203125
641		-39.062500
642		-33.203125
643		-37.109375
644		-33.203125
645		-37.109375
646		-33.203125
647		-37.109375
648		-31.250000
649		-37.109375
650		-31.250000
651		-37.109375
652		-29.296875
653		-37.109375
654		-29.296875
655		-35.156250
656		-29.296875
657		-35.156250
658		-29.296875
659		-33.203125
660		-29.296875
661		-31.250000
662		-29.296875
663		-33.203125
664		-27.343750
665		-31.250000
666		-25.390625
667		-31.250000
668		-23.437500
669		-31.250000
670		-23.437500
671		-29.296875
672		-23.437500
673		-29.296875
674		-21.484375
675		-27.343750
676		-21.484375
677		-25.390625
678		-21.484375
679		-25.390625
680		-19.531250
681		-25.390625
682		-17.578125
683		-25.390625
684		-17.578125
685		-23.437500
686		-15.625000
687		-23.437500
688		-15.625000
689		-21.484375
690		-15.625000
691		-21.484375
692		-13.671875
693		-17.578125
694		-15.625000
695		-17.578125
696		-13.671875
697		-17.578125
698		-11.718750
699		-17.578125
700		-9.765625
701		-15.625000
702		-9.765625
703		-15.625000
704		-7.812500
705		-13.671875
706		-5.859375
707		-11.718750
708		-5.859375
709		-11.718750
710		-5.859375
711		-7.812500
712		-5.859375
713		-7.812500
714		-1.953125
715		-7.812500
716		-1.953125
717		-7.812500
718		0.000000
719		-5.859375
720		0.000000
721		-5.859375
722		1.953125
723		-3.906250
724		3.906250
725		-3.906250
726		3.906250
727		0.000000
728		3.906250
729		0.000000
730		5.859375
731		0.000000
732		7.812500
733		1.953125
734		9.765625
735		1.953125
736		9.765625
737		3.906250
738		9.765625
739		3.906250
740		11.718750
741		5.859375
742		11.718750
743		9.765625
744		11.718750
745		9.765625
746		13.671875
747		9.765625
748		15.625000
749		9.765625
750		17.578125
751		11.718750
752		17.578125
753		11.718750
754		19.531250
755		13.671875
756		19.531250
757		15.625000
758		21.484375
759		15.625000
760		21.484375
761		17.578125
762		21.484375
763		17.578125
764		23.437500
765		17.578125
766		25.390625
767		19.531250
768		25.390625
769		19.531250
770		27.343750
771		21.484375
772		29.296875
773		21.484375
774		29.296875
775		23.437500
776		31.250000
777		25.390625
778		29.296875
779		27.343750
780		29.296875
781		25.390625
782		33.203125
783		27.343750
784		33.203125
785		27.343750
786		35.156250
787		27.343750
788		35.156250
789		29.296875
790		35.156250
791		29.296875
792		37.109375
793		31.250000
794		37.109375
795		33.203125
796		37.109375
797		33.203125
798		39.062500
799		33.203125
800		39.062500
801		33.203125
802		41.015625
803		33.203125
804		41.015625
805		33.203125
806		41.015625
807		35.156250
808		42.968750
809		35.156250
810		42.968750
811		39.062500
812		41.015625
813		39.062500
814		41.015625
815		37.109375
816		44.921875
817		37.109375
818		44.921875
819		37.109375
820		44.921875
821		39.062500
822		44.921875
823		39.062500
824		46.875000
825		39.062500
826		46.875000
827		42.968750
828		44.921875
829		42.968750
830		44.921875
831		41.015625
832		46.875000
833		41.015625
834		48.828125
835		41.015625
836		46.875000
837		41.015625
838		48.828125
839		41.015625
840		48.828125
841		41.015625
842		48.828125
843		42.968750
844		48.828125
845		44.921875
846		46.875000
847		42.968750
848		46.875000
849		42.968750
850		48.828125
851		42.968750
852		48.828125
853		42.968750
854		48.828125
855		42.968750
856		48.828125
857		42.968750
858		48.828125
859		41.015625
860		48.828125
861		44.921875
862		46.875000
863		44.921875
864		46.875000
865		41.015625
866		48.828125
867		42.968750
868		48.828125
869		42.968750
870		48.828125
871		41.015625
872		48.828125
873		41.015625
874		46.875000
875		41.015625
876		46.875000
877		41.015625
878		46.875000
879		42.968750
880		44.921875
881		39.062500
882		44.921875
883		39.062500
884		46.875000
885		39.062500
886		44.921875
887		37.109375
888		44.921875
889		39.062500
890		44.921875
891		37.109375
892		44.921875
893		37.109375
894		42.968750
895		39.062500
896		41.015625
897		37.109375
898		41.015625
899		35.156250
900		42.968750
901		35.156250
902		41.015625
903		33.203125
904		41.015625
905		33.203125
906		39.062500
907		33.203125
908		39.062500
909		31.250000
910		39.062500
911		33.203125
912		35.156250
913		31.250000
914		35.156250
915		29.296875
916		37.109375
917		29.296875
918		35.156250
919		27.343750
920		35.156250
921		27.343750
922		33.203125
923		25.390625
924		33.203125
925		25.390625
926		33.203125
927		25.390625
928		31.250000
929		25.390625
930		29.296875
931		23.437500
932		27.343750
933		21.484375
934		29.296875
935		21.484375
936		27.343750
937		19.531250
938		27.343750
939		17.578125
940		25.390625
941		17.578125
942		23.437500
943		15.625000
944		23.437500
945		17.578125
946		21.484375
947		15.625000
948		19.531250
949		13.671875
950		19.531250
951		11.718750
952		19.531250
953		11.718750
954		17.578125
955		9.765625
956		17.578125
957		9.765625
958		15.625000
959		7.812500
960		15.625000
961		7.812500
962		13.671875
963		7.812500
964		11.718750
965		5.859375
966		9.765625
967		3.906250
968		9.765625
969		1.953125
970		9.765625
971		1.953125
972		7.812500
973		0.000000
974		5.859375
975		-1.953125
976		5.859375
977		-1.953125
978		5.859375
979		-1.953125
980		1.953125
981		-1.953125
982		0.000000
983		-5.859375
984		0.000000
985		-5.859375
986		0.000000
987		-7.812500
988		0.000000
989		-9.765625
990		-1.953125
991		-9.765625
992		-3.906250
993		-11.718750
994		-3.906250
995		-9.765625
996		-5.859375
997		-11.718750
998		-7.812500
999		-13.671875
1000		-7.812500
1001		-15.625000
1002		-9.765625
1003		-15.625000
1004		-9.765625
1005		-17.578125
1006		-9.765625
1007		-19.531250
1008		-11.718750
1009		-19.531250
1010		-13.671875
1011		-19.531250
1012		-13.671875
1013		-19.531250
1014		-17.578125
1015		-21.484375
1016		-17.578125
1017		-23.437500
1018		-17.578125
1019		-25.390625
1020		-17.578125
1021		-25.390625
1022		-19.531250
1023		-27.343750
1024		-19.531250
1025		-27.343750
1026		-19.531250
1027		-27.343750
1028		-21.484375
1029		-27.343750
1030		-23.437500
1031		-27.343750
1032		-23.437500
1033		-31.250000
1034		-23.437500
1035		-31.250000
1036		-25.390625
1037		-33.203125
1038		-25.390625
1039		-33.203125
1040		-25.390625
1041		-33.203125
1042		-27.343750
1043		-35.156250
1044		-27.343750
1045		-33.203125
1046		-29.296875
1047		-33.203125
1048		-31.250000
1049		-35.156250
1050		-31.250000
1051		-37.109375
1052		-29.296875
1053		-37.109375
1054		-29.296875
1055		-37.109375
1056		-31.250000
1057		-39.062500
1058		-31.250000
1059		-39.062500
1060		-31.250000
1061		-39.062500
1062		-33.203125
1063		-37.109375
1064		-35.156250
1065		-37.109375
1066		-35.156250
1067		-41.015625
1068		-33.203125
1069		-41.015625
1070		-33.203125
1071		-41.015625
1072		-35.156250
1073		-42.968750
1074		-33.203125
1075		-41.015625
1076		-35.156250
1077		-41.015625
1078		-35.156250
1079		-41.015625
1080		-37.109375
1081		-39.062500
1082		-37.109375
1083		-42.968750
1084		-35.156250
1085		-42.968750
1086		-35.156250
1087		-41.015625
1088		-35.156250
1089		-41.015625
1090		-35.156250
1091		-41.015625
1092		-35.156250
1093		-42.968750
1094		-35.156250
1095		-41.015625
1096		-35.156250
1097		-39.062500
1098		-37.109375
1099		-39.062500
1100		-37.109375
1101		-41.015625
1102		-35.156250
1103		-41.015625
1104		-33.203125
1105		-41.015625
1106		-35.156250
1107		-41.015625
1108		-33.203125
1109		-39.062500
1110		-33.203125
1111		-39.062500
1112		-33.203125
1113		-37.109375
1114		-35.156250
1115		-37.109375
1116		-33.203125
1117		-39.062500
1118		-31.250000
1119		-37.109375
1120		-29.296875
1121		-37.109375
1122		-29.296875
1123		-37.109375
1124		-29.296875
1125		-35.156250
1126		-29.296875
1127		-35.156250
1128		-29.296875
1129		-35.156250
1130		-29.296875
1131		-31.250000
1132		-29.296875
1133		-33.203125
1134		-27.343750
1135		-33.203125
1136		-25.390625
1137		-31.250000
1138		-25.390625
1139		-31.250000
1140		-23.437500
1141		-31.250000
1142		-23.437500
1143		-29.296875
1144		-23.437500
1145		-29.296875
1146		-23.437500
1147		-25.390625
1148		-23.437500
1149		-25.390625
1150		-21.484375
1151		-25.390625
1152		-19.531250
1153		-25.390625
1154		-19.531250
1155		-23.437500
1156		-17.578125
1157		-23.437500
1158		-15.625000
1159		-23.437500
1160		-15.625000
1161		-21.484375
1162		-15.625000
1163		-19.531250
1164		-15.625000
1165		-17.578125
1166		-13.671875
1167		-19.531250
1168		-11.718750
1169		-17.578125
1170		-9.765625
1171		-17.578125
1172		-9.765625
1173		-15.625000
1174		-9.765625
1175		-13.671875
1176		-7.812500
1177		-13.671875
1178		-7.812500
1179		-11.718750
1180		-5.859375
1181		-9.765625
1182		-5.859375
1183		-7.812500
1184		-3.906250
1185		-9.765625
1186		-1.953125
1187		-7.812500
1188		-1.953125
1189		-7.812500
1190		0.000000
1191		-5.859375
1192		0.000000
1193		-5.859375
1194		1.953125
1195		-3.906250
1196		1.953125
1197		0.000000
1198		1.953125
1199		0.000000
1200		3.906250
1201		0.000000
1202		5.859375
1203		0.000000
1204		7.812500
1205		1.953125
1206		9.765625
1207		3.906250
1208		9.765625
1209		3.906250
1210		11.718750
1211		5.859375
1212		11.718750
1213		5.859375
1214		11.718750
1215		9.765625
1216		11.718750
1217		7.812500
1218		15.625000
1219		9.765625
1220		17.578125
1221		9.765625
1222		17.578125
1223		11.718750
1224		17.578125
1225		11.718750
1226		19.531250
1227		13.671875
1228		21.484375
1229		13.671875
1230		21.484375
1231		17.578125
1232		21.484375
1233		17.578125
1234		21.484375
1235		17.578125
1236		25.390625
1237		17.578125
1238		25.390625
1239		19.531250
1240		25.390625
1241		19.531250
1242		27.343750
1243		21.484375
1244		27.343750
1245		23.437500
1246		29.296875
1247		23.437500
1248		29.296875
1249		25.390625
1250		29.296875
1251		25.390625
1252		31.250000
1253		25.390625
1254		33.203125
1255		27.343750
1256		33.203125
1257		27.343750
1258		35.156250
1259		27.343750
1260		35.156250
1261		29.296875
1262		35.156250
1263		29.296875
1264		35.156250
1265		33.203125
1266		35.156250
1267		33.203125
1268		37.109375
1269		31.250000
1270		39.062500
1271		33.203125
1272		39.062500
1273		33.203125
1274		39.062500
1275		33.203125
1276		41.015625
1277		35.156250
1278		41.015625
1279		35.156250
