metingen laweit/1000Hz, 66.4cm/data_81_m287.txt

Channel              :		CH1
Frequency            :		1.061kHz
Period               :		0.942ms
PK-PK                :		199.2mV
Probe attenuation    :		1X
Voltage per ADC value:		0.122070mV
Time interval        :		2.00000us

index		CH1_Voltage(mV)
1		39.062500
2		39.062500
3		42.968750
4		37.109375
5		41.015625
6		35.156250
7		39.062500
8		33.203125
9		37.109375
10		29.296875
11		35.156250
12		27.343750
13		33.203125
14		25.390625
15		31.250000
16		23.437500
17		29.296875
18		21.484375
19		25.390625
20		19.531250
21		23.437500
22		15.625000
23		21.484375
24		13.671875
25		19.531250
26		11.718750
27		15.625000
28		7.812500
29		13.671875
30		7.812500
31		11.718750
32		3.906250
33		9.765625
34		1.953125
35		7.812500
36		0.000000
37		3.906250
38		-3.906250
39		1.953125
40		-5.859375
41		0.000000
42		-7.812500
43		-3.906250
44		-9.765625
45		-5.859375
46		-13.671875
47		-7.812500
48		-15.625000
49		-9.765625
50		-17.578125
51		-13.671875
52		-21.484375
53		-15.625000
54		-23.437500
55		-17.578125
56		-25.390625
57		-19.531250
58		-27.343750
59		-23.437500
60		-31.250000
61		-25.390625
62		-33.203125
63		-27.343750
64		-35.156250
65		-31.250000
66		-37.109375
67		-33.203125
68		-41.015625
69		-35.156250
70		-42.968750
71		-37.109375
72		-44.921875
73		-41.015625
74		-46.875000
75		-42.968750
76		-48.828125
77		-44.921875
78		-52.734375
79		-46.875000
80		-54.687500
81		-48.828125
82		-56.640625
83		-50.781250
84		-58.593750
85		-52.734375
86		-60.546875
87		-56.640625
88		-62.500000
89		-58.593750
90		-64.453125
91		-60.546875
92		-66.406250
93		-62.500000
94		-70.312500
95		-64.453125
96		-70.312500
97		-66.406250
98		-72.265625
99		-68.359375
100		-74.218750
101		-70.312500
102		-76.171875
103		-72.265625
104		-78.125000
105		-74.218750
106		-80.078125
107		-76.171875
108		-82.031250
109		-76.171875
110		-82.031250
111		-78.125000
112		-83.984375
113		-80.078125
114		-85.937500
115		-82.031250
116		-87.890625
117		-82.031250
118		-87.890625
119		-83.984375
120		-89.843750
121		-85.937500
122		-91.796875
123		-85.937500
124		-91.796875
125		-87.890625
126		-93.750000
127		-89.843750
128		-93.750000
129		-89.843750
130		-95.703125
131		-91.796875
132		-95.703125
133		-91.796875
134		-95.703125
135		-93.750000
136		-97.656250
137		-93.750000
138		-97.656250
139		-93.750000
140		-97.656250
141		-95.703125
142		-99.609375
143		-95.703125
144		-99.609375
145		-95.703125
146		-99.609375
147		-95.703125
148		-99.609375
149		-95.703125
150		-99.609375
151		-95.703125
152		-101.562500
153		-97.656250
154		-101.562500
155		-97.656250
156		-99.609375
157		-95.703125
158		-101.562500
159		-97.656250
160		-99.609375
161		-97.656250
162		-101.562500
163		-95.703125
164		-101.562500
165		-95.703125
166		-99.609375
167		-95.703125
168		-99.609375
169		-95.703125
170		-97.656250
171		-95.703125
172		-97.656250
173		-93.750000
174		-97.656250
175		-93.750000
176		-97.656250
177		-93.750000
178		-95.703125
179		-91.796875
180		-95.703125
181		-91.796875
182		-93.750000
183		-89.843750
184		-93.750000
185		-89.843750
186		-91.796875
187		-87.890625
188		-89.843750
189		-87.890625
190		-89.843750
191		-85.937500
192		-87.890625
193		-83.984375
194		-85.937500
195		-83.984375
196		-85.937500
197		-82.031250
198		-83.984375
199		-80.078125
200		-82.031250
201		-78.125000
202		-82.031250
203		-76.171875
204		-80.078125
205		-76.171875
206		-78.125000
207		-74.218750
208		-76.171875
209		-72.265625
210		-74.218750
211		-70.312500
212		-72.265625
213		-68.359375
214		-70.312500
215		-66.406250
216		-68.359375
217		-64.453125
218		-66.406250
219		-62.500000
220		-64.453125
221		-60.546875
222		-62.500000
223		-58.593750
224		-60.546875
225		-56.640625
226		-58.593750
227		-54.687500
228		-56.640625
229		-52.734375
230		-54.687500
231		-48.828125
232		-52.734375
233		-46.875000
234		-50.781250
235		-44.921875
236		-46.875000
237		-42.968750
238		-44.921875
239		-41.015625
240		-42.968750
241		-37.109375
242		-41.015625
243		-35.156250
244		-39.062500
245		-33.203125
246		-35.156250
247		-31.250000
248		-33.203125
249		-27.343750
250		-31.250000
251		-25.390625
252		-29.296875
253		-23.437500
254		-25.390625
255		-21.484375
256		-23.437500
257		-17.578125
258		-21.484375
259		-15.625000
260		-17.578125
261		-13.671875
262		-15.625000
263		-11.718750
264		-13.671875
265		-7.812500
266		-11.718750
267		-5.859375
268		-7.812500
269		-3.906250
270		-5.859375
271		0.000000
272		-3.906250
273		1.953125
274		0.000000
275		3.906250
276		1.953125
277		5.859375
278		3.906250
279		7.812500
280		5.859375
281		11.718750
282		7.812500
283		13.671875
284		11.718750
285		15.625000
286		13.671875
287		17.578125
288		15.625000
289		21.484375
290		17.578125
291		23.437500
292		19.531250
293		25.390625
294		23.437500
295		27.343750
296		25.390625
297		31.250000
298		27.343750
299		33.203125
300		29.296875
301		35.156250
302		31.250000
303		37.109375
304		33.203125
305		39.062500
306		35.156250
307		41.015625
308		39.062500
309		42.968750
310		41.015625
311		44.921875
312		42.968750
313		46.875000
314		44.921875
315		48.828125
316		44.921875
317		50.781250
318		48.828125
319		52.734375
320		50.781250
321		54.687500
322		50.781250
323		56.640625
324		52.734375
325		58.593750
326		54.687500
327		58.593750
328		56.640625
329		60.546875
330		58.593750
331		62.500000
332		60.546875
333		64.453125
334		60.546875
335		66.406250
336		62.500000
337		66.406250
338		64.453125
339		68.359375
340		66.406250
341		70.312500
342		66.406250
343		72.265625
344		68.359375
345		72.265625
346		70.312500
347		74.218750
348		70.312500
349		76.171875
350		72.265625
351		76.171875
352		74.218750
353		78.125000
354		74.218750
355		78.125000
356		76.171875
357		78.125000
358		76.171875
359		80.078125
360		76.171875
361		80.078125
362		78.125000
363		82.031250
364		78.125000
365		82.031250
366		80.078125
367		83.984375
368		80.078125
369		83.984375
370		80.078125
371		83.984375
372		82.031250
373		85.937500
374		82.031250
375		85.937500
376		82.031250
377		85.937500
378		82.031250
379		85.937500
380		82.031250
381		87.890625
382		83.984375
383		87.890625
384		83.984375
385		85.937500
386		83.984375
387		87.890625
388		83.984375
389		87.890625
390		83.984375
391		87.890625
392		83.984375
393		87.890625
394		83.984375
395		87.890625
396		83.984375
397		87.890625
398		83.984375
399		87.890625
400		83.984375
401		87.890625
402		83.984375
403		85.937500
404		82.031250
405		85.937500
406		82.031250
407		85.937500
408		82.031250
409		85.937500
410		82.031250
411		85.937500
412		80.078125
413		83.984375
414		80.078125
415		83.984375
416		80.078125
417		83.984375
418		80.078125
419		82.031250
420		78.125000
421		82.031250
422		78.125000
423		82.031250
424		76.171875
425		80.078125
426		74.218750
427		80.078125
428		74.218750
429		78.125000
430		74.218750
431		78.125000
432		72.265625
433		76.171875
434		70.312500
435		76.171875
436		70.312500
437		74.218750
438		68.359375
439		72.265625
440		68.359375
441		70.312500
442		66.406250
443		70.312500
444		64.453125
445		68.359375
446		62.500000
447		66.406250
448		62.500000
449		66.406250
450		60.546875
451		64.453125
452		58.593750
453		62.500000
454		56.640625
455		60.546875
456		54.687500
457		58.593750
458		52.734375
459		58.593750
460		50.781250
461		56.640625
462		48.828125
463		54.687500
464		48.828125
465		52.734375
466		46.875000
467		50.781250
468		44.921875
469		48.828125
470		42.968750
471		46.875000
472		39.062500
473		44.921875
474		37.109375
475		42.968750
476		35.156250
477		39.062500
478		33.203125
479		37.109375
480		31.250000
481		35.156250
482		29.296875
483		33.203125
484		27.343750
485		31.250000
486		25.390625
487		29.296875
488		21.484375
489		27.343750
490		19.531250
491		25.390625
492		17.578125
493		21.484375
494		15.625000
495		19.531250
496		11.718750
497		17.578125
498		9.765625
499		15.625000
500		7.812500
501		11.718750
502		5.859375
503		9.765625
504		3.906250
505		7.812500
506		0.000000
507		5.859375
508		-1.953125
509		3.906250
510		-3.906250
511		0.000000
512		-7.812500
513		-1.953125
514		-9.765625
515		-3.906250
516		-11.718750
517		-5.859375
518		-15.625000
519		-9.765625
520		-17.578125
521		-11.718750
522		-19.531250
523		-15.625000
524		-21.484375
525		-17.578125
526		-25.390625
527		-19.531250
528		-27.343750
529		-21.484375
530		-29.296875
531		-25.390625
532		-33.203125
533		-27.343750
534		-35.156250
535		-29.296875
536		-37.109375
537		-33.203125
538		-39.062500
539		-35.156250
540		-42.968750
541		-37.109375
542		-44.921875
543		-39.062500
544		-46.875000
545		-42.968750
546		-48.828125
547		-44.921875
548		-50.781250
549		-46.875000
550		-52.734375
551		-48.828125
552		-54.687500
553		-50.781250
554		-58.593750
555		-52.734375
556		-60.546875
557		-54.687500
558		-62.500000
559		-58.593750
560		-64.453125
561		-60.546875
562		-66.406250
563		-62.500000
564		-68.359375
565		-64.453125
566		-72.265625
567		-66.406250
568		-72.265625
569		-68.359375
570		-74.218750
571		-70.312500
572		-76.171875
573		-72.265625
574		-78.125000
575		-72.265625
576		-80.078125
577		-76.171875
578		-80.078125
579		-76.171875
580		-82.031250
581		-78.125000
582		-83.984375
583		-80.078125
584		-85.937500
585		-82.031250
586		-87.890625
587		-82.031250
588		-87.890625
589		-83.984375
590		-89.843750
591		-85.937500
592		-91.796875
593		-85.937500
594		-91.796875
595		-87.890625
596		-93.750000
597		-89.843750
598		-93.750000
599		-89.843750
600		-95.703125
601		-91.796875
602		-95.703125
603		-91.796875
604		-97.656250
605		-93.750000
606		-97.656250
607		-93.750000
608		-97.656250
609		-93.750000
610		-99.609375
611		-95.703125
612		-99.609375
613		-95.703125
614		-99.609375
615		-97.656250
616		-99.609375
617		-97.656250
618		-99.609375
619		-97.656250
620		-101.562500
621		-97.656250
622		-101.562500
623		-97.656250
624		-101.562500
625		-97.656250
626		-101.562500
627		-97.656250
628		-101.562500
629		-97.656250
630		-101.562500
631		-97.656250
632		-101.562500
633		-95.703125
634		-101.562500
635		-97.656250
636		-99.609375
637		-95.703125
638		-99.609375
639		-97.656250
640		-99.609375
641		-95.703125
642		-99.609375
643		-95.703125
644		-99.609375
645		-93.750000
646		-97.656250
647		-93.750000
648		-97.656250
649		-93.750000
650		-95.703125
651		-91.796875
652		-95.703125
653		-91.796875
654		-93.750000
655		-91.796875
656		-93.750000
657		-89.843750
658		-91.796875
659		-87.890625
660		-91.796875
661		-87.890625
662		-89.843750
663		-85.937500
664		-87.890625
665		-85.937500
666		-87.890625
667		-83.984375
668		-85.937500
669		-82.031250
670		-83.984375
671		-80.078125
672		-83.984375
673		-80.078125
674		-82.031250
675		-78.125000
676		-80.078125
677		-76.171875
678		-78.125000
679		-74.218750
680		-76.171875
681		-72.265625
682		-74.218750
683		-70.312500
684		-74.218750
685		-68.359375
686		-70.312500
687		-66.406250
688		-68.359375
689		-64.453125
690		-66.406250
691		-62.500000
692		-64.453125
693		-60.546875
694		-62.500000
695		-58.593750
696		-60.546875
697		-56.640625
698		-58.593750
699		-54.687500
700		-56.640625
701		-50.781250
702		-54.687500
703		-48.828125
704		-50.781250
705		-46.875000
706		-48.828125
707		-44.921875
708		-46.875000
709		-42.968750
710		-44.921875
711		-39.062500
712		-42.968750
713		-39.062500
714		-41.015625
715		-35.156250
716		-37.109375
717		-33.203125
718		-35.156250
719		-31.250000
720		-33.203125
721		-27.343750
722		-31.250000
723		-25.390625
724		-27.343750
725		-23.437500
726		-25.390625
727		-19.531250
728		-23.437500
729		-17.578125
730		-21.484375
731		-15.625000
732		-17.578125
733		-13.671875
734		-15.625000
735		-11.718750
736		-13.671875
737		-7.812500
738		-9.765625
739		-5.859375
740		-7.812500
741		-1.953125
742		-5.859375
743		0.000000
744		-3.906250
745		1.953125
746		0.000000
747		3.906250
748		1.953125
749		5.859375
750		3.906250
751		9.765625
752		5.859375
753		11.718750
754		7.812500
755		13.671875
756		9.765625
757		17.578125
758		11.718750
759		21.484375
760		15.625000
761		21.484375
762		17.578125
763		23.437500
764		21.484375
765		25.390625
766		23.437500
767		27.343750
768		25.390625
769		31.250000
770		27.343750
771		33.203125
772		29.296875
773		37.109375
774		31.250000
775		37.109375
776		31.250000
777		39.062500
778		35.156250
779		41.015625
780		37.109375
781		42.968750
782		41.015625
783		44.921875
784		42.968750
785		48.828125
786		41.015625
787		50.781250
788		44.921875
789		52.734375
790		46.875000
791		52.734375
792		48.828125
793		56.640625
794		50.781250
795		56.640625
796		52.734375
797		56.640625
798		54.687500
799		60.546875
800		56.640625
801		60.546875
802		56.640625
803		64.453125
804		58.593750
805		64.453125
806		60.546875
807		66.406250
808		62.500000
809		68.359375
810		62.500000
811		70.312500
812		62.500000
813		70.312500
814		66.406250
815		70.312500
816		68.359375
817		72.265625
818		68.359375
819		74.218750
820		68.359375
821		76.171875
822		70.312500
823		78.125000
824		72.265625
825		78.125000
826		72.265625
827		80.078125
828		74.218750
829		80.078125
830		76.171875
831		80.078125
832		76.171875
833		80.078125
834		76.171875
835		83.984375
836		78.125000
837		83.984375
838		78.125000
839		83.984375
840		78.125000
841		85.937500
842		78.125000
843		85.937500
844		80.078125
845		85.937500
846		80.078125
847		85.937500
848		82.031250
849		85.937500
850		82.031250
851		85.937500
852		82.031250
853		87.890625
854		80.078125
855		87.890625
856		82.031250
857		87.890625
858		80.078125
859		89.843750
860		82.031250
861		87.890625
862		82.031250
863		89.843750
864		83.984375
865		87.890625
866		83.984375
867		85.937500
868		82.031250
869		87.890625
870		80.078125
871		87.890625
872		80.078125
873		87.890625
874		80.078125
875		87.890625
876		80.078125
877		87.890625
878		80.078125
879		87.890625
880		80.078125
881		85.937500
882		80.078125
883		83.984375
884		80.078125
885		83.984375
886		78.125000
887		83.984375
888		78.125000
889		83.984375
890		76.171875
891		83.984375
892		76.171875
893		82.031250
894		74.218750
895		82.031250
896		74.218750
897		82.031250
898		74.218750
899		78.125000
900		74.218750
901		76.171875
902		72.265625
903		76.171875
904		70.312500
905		76.171875
906		68.359375
907		76.171875
908		66.406250
909		74.218750
910		66.406250
911		74.218750
912		64.453125
913		72.265625
914		64.453125
915		70.312500
916		64.453125
917		66.406250
918		60.546875
919		66.406250
920		58.593750
921		66.406250
922		56.640625
923		64.453125
924		56.640625
925		62.500000
926		52.734375
927		60.546875
928		52.734375
929		58.593750
930		50.781250
931		58.593750
932		50.781250
933		54.687500
934		48.828125
935		52.734375
936		44.921875
937		50.781250
938		42.968750
939		50.781250
940		41.015625
941		48.828125
942		39.062500
943		46.875000
944		37.109375
945		44.921875
946		35.156250
947		42.968750
948		33.203125
949		39.062500
950		33.203125
951		37.109375
952		27.343750
953		35.156250
954		25.390625
955		33.203125
956		23.437500
957		31.250000
958		21.484375
959		29.296875
960		19.531250
961		27.343750
962		15.625000
963		25.390625
964		15.625000
965		21.484375
966		13.671875
967		17.578125
968		11.718750
969		15.625000
970		5.859375
971		15.625000
972		3.906250
973		11.718750
974		1.953125
975		9.765625
976		0.000000
977		7.812500
978		-3.906250
979		5.859375
980		-5.859375
981		1.953125
982		-5.859375
983		0.000000
984		-7.812500
985		-3.906250
986		-13.671875
987		-5.859375
988		-15.625000
989		-7.812500
990		-17.578125
991		-7.812500
992		-19.531250
993		-11.718750
994		-23.437500
995		-15.625000
996		-25.390625
997		-17.578125
998		-27.343750
999		-19.531250
1000		-29.296875
1001		-23.437500
1002		-31.250000
1003		-25.390625
1004		-35.156250
1005		-27.343750
1006		-37.109375
1007		-29.296875
1008		-39.062500
1009		-33.203125
1010		-41.015625
1011		-35.156250
1012		-44.921875
1013		-37.109375
1014		-46.875000
1015		-39.062500
1016		-46.875000
1017		-42.968750
1018		-50.781250
1019		-44.921875
1020		-54.687500
1021		-46.875000
1022		-56.640625
1023		-48.828125
1024		-58.593750
1025		-50.781250
1026		-60.546875
1027		-52.734375
1028		-62.500000
1029		-54.687500
1030		-64.453125
1031		-56.640625
1032		-64.453125
1033		-60.546875
1034		-68.359375
1035		-62.500000
1036		-70.312500
1037		-64.453125
1038		-74.218750
1039		-66.406250
1040		-76.171875
1041		-68.359375
1042		-76.171875
1043		-68.359375
1044		-78.125000
1045		-72.265625
1046		-80.078125
1047		-72.265625
1048		-82.031250
1049		-74.218750
1050		-82.031250
1051		-78.125000
1052		-83.984375
1053		-78.125000
1054		-85.937500
1055		-78.125000
1056		-87.890625
1057		-82.031250
1058		-89.843750
1059		-82.031250
1060		-91.796875
1061		-83.984375
1062		-91.796875
1063		-83.984375
1064		-93.750000
1065		-85.937500
1066		-93.750000
1067		-87.890625
1068		-93.750000
1069		-89.843750
1070		-95.703125
1071		-89.843750
1072		-97.656250
1073		-89.843750
1074		-99.609375
1075		-91.796875
1076		-99.609375
1077		-91.796875
1078		-99.609375
1079		-93.750000
1080		-101.562500
1081		-93.750000
1082		-101.562500
1083		-95.703125
1084		-99.609375
1085		-95.703125
1086		-101.562500
1087		-95.703125
1088		-103.515625
1089		-95.703125
1090		-103.515625
1091		-95.703125
1092		-103.515625
1093		-97.656250
1094		-103.515625
1095		-97.656250
1096		-103.515625
1097		-95.703125
1098		-103.515625
1099		-95.703125
1100		-101.562500
1101		-97.656250
1102		-101.562500
1103		-97.656250
1104		-103.515625
1105		-95.703125
1106		-103.515625
1107		-95.703125
1108		-103.515625
1109		-93.750000
1110		-101.562500
1111		-95.703125
1112		-101.562500
1113		-93.750000
1114		-101.562500
1115		-93.750000
1116		-99.609375
1117		-95.703125
1118		-97.656250
1119		-93.750000
1120		-99.609375
1121		-91.796875
1122		-97.656250
1123		-89.843750
1124		-97.656250
1125		-89.843750
1126		-97.656250
1127		-87.890625
1128		-95.703125
1129		-87.890625
1130		-93.750000
1131		-85.937500
1132		-93.750000
1133		-85.937500
1134		-89.843750
1135		-85.937500
1136		-87.890625
1137		-83.984375
1138		-89.843750
1139		-82.031250
1140		-87.890625
1141		-80.078125
1142		-85.937500
1143		-78.125000
1144		-83.984375
1145		-78.125000
1146		-83.984375
1147		-76.171875
1148		-82.031250
1149		-74.218750
1150		-78.125000
1151		-74.218750
1152		-76.171875
1153		-72.265625
1154		-74.218750
1155		-68.359375
1156		-74.218750
1157		-66.406250
1158		-72.265625
1159		-64.453125
1160		-68.359375
1161		-62.500000
1162		-68.359375
1163		-60.546875
1164		-66.406250
1165		-58.593750
1166		-64.453125
1167		-58.593750
1168		-60.546875
1169		-56.640625
1170		-58.593750
1171		-52.734375
1172		-58.593750
1173		-50.781250
1174		-56.640625
1175		-48.828125
1176		-52.734375
1177		-44.921875
1178		-50.781250
1179		-42.968750
1180		-48.828125
1181		-41.015625
1182		-46.875000
1183		-39.062500
1184		-42.968750
1185		-37.109375
1186		-39.062500
1187		-35.156250
1188		-39.062500
1189		-31.250000
1190		-37.109375
1191		-27.343750
1192		-33.203125
1193		-25.390625
1194		-31.250000
1195		-23.437500
1196		-29.296875
1197		-21.484375
1198		-25.390625
1199		-19.531250
1200		-23.437500
1201		-17.578125
1202		-19.531250
1203		-15.625000
1204		-17.578125
1205		-11.718750
1206		-15.625000
1207		-7.812500
1208		-13.671875
1209		-5.859375
1210		-11.718750
1211		-3.906250
1212		-9.765625
1213		-1.953125
1214		-5.859375
1215		1.953125
1216		-5.859375
1217		1.953125
1218		0.000000
1219		3.906250
1220		1.953125
1221		5.859375
1222		3.906250
1223		11.718750
1224		5.859375
1225		13.671875
1226		7.812500
1227		15.625000
1228		9.765625
1229		17.578125
1230		11.718750
1231		19.531250
1232		13.671875
1233		23.437500
1234		17.578125
1235		23.437500
1236		21.484375
1237		25.390625
1238		23.437500
1239		29.296875
1240		23.437500
1241		31.250000
1242		27.343750
1243		35.156250
1244		29.296875
1245		37.109375
1246		31.250000
1247		37.109375
1248		33.203125
1249		39.062500
1250		35.156250
1251		41.015625
1252		39.062500
1253		42.968750
1254		41.015625
1255		44.921875
1256		41.015625
1257		48.828125
1258		42.968750
1259		50.781250
1260		44.921875
1261		52.734375
1262		46.875000
1263		52.734375
1264		48.828125
