metingen laweit/1000Hz, 66.4cm/data_81_m545.txt

Channel              :		CH1
Frequency            :		1.061kHz
Period               :		0.942ms
PK-PK                :		212.9mV
Probe attenuation    :		1X
Voltage per ADC value:		0.122070mV
Time interval        :		2.00000us

index		CH1_Voltage(mV)
1		60.546875
2		60.546875
3		64.453125
4		56.640625
5		64.453125
6		54.687500
7		62.500000
8		52.734375
9		60.546875
10		50.781250
11		58.593750
12		48.828125
13		56.640625
14		44.921875
15		52.734375
16		44.921875
17		50.781250
18		42.968750
19		46.875000
20		39.062500
21		44.921875
22		37.109375
23		44.921875
24		33.203125
25		42.968750
26		31.250000
27		41.015625
28		29.296875
29		37.109375
30		25.390625
31		35.156250
32		25.390625
33		31.250000
34		23.437500
35		27.343750
36		21.484375
37		25.390625
38		15.625000
39		23.437500
40		13.671875
41		21.484375
42		11.718750
43		19.531250
44		9.765625
45		15.625000
46		5.859375
47		13.671875
48		1.953125
49		11.718750
50		1.953125
51		7.812500
52		0.000000
53		3.906250
54		-3.906250
55		1.953125
56		-7.812500
57		1.953125
58		-9.765625
59		-1.953125
60		-13.671875
61		-3.906250
62		-15.625000
63		-7.812500
64		-17.578125
65		-9.765625
66		-21.484375
67		-11.718750
68		-21.484375
69		-17.578125
70		-25.390625
71		-19.531250
72		-29.296875
73		-21.484375
74		-31.250000
75		-23.437500
76		-35.156250
77		-25.390625
78		-37.109375
79		-29.296875
80		-39.062500
81		-31.250000
82		-41.015625
83		-35.156250
84		-42.968750
85		-37.109375
86		-44.921875
87		-41.015625
88		-50.781250
89		-42.968750
90		-50.781250
91		-44.921875
92		-54.687500
93		-46.875000
94		-56.640625
95		-48.828125
96		-58.593750
97		-50.781250
98		-60.546875
99		-52.734375
100		-60.546875
101		-54.687500
102		-64.453125
103		-58.593750
104		-66.406250
105		-60.546875
106		-70.312500
107		-62.500000
108		-72.265625
109		-62.500000
110		-74.218750
111		-66.406250
112		-76.171875
113		-68.359375
114		-78.125000
115		-70.312500
116		-80.078125
117		-72.265625
118		-80.078125
119		-76.171875
120		-80.078125
121		-76.171875
122		-83.984375
123		-78.125000
124		-85.937500
125		-78.125000
126		-87.890625
127		-80.078125
128		-89.843750
129		-82.031250
130		-89.843750
131		-83.984375
132		-91.796875
133		-83.984375
134		-91.796875
135		-85.937500
136		-91.796875
137		-87.890625
138		-95.703125
139		-89.843750
140		-95.703125
141		-89.843750
142		-97.656250
143		-89.843750
144		-97.656250
145		-91.796875
146		-99.609375
147		-91.796875
148		-99.609375
149		-91.796875
150		-99.609375
151		-93.750000
152		-99.609375
153		-95.703125
154		-99.609375
155		-95.703125
156		-101.562500
157		-95.703125
158		-103.515625
159		-93.750000
160		-101.562500
161		-95.703125
162		-103.515625
163		-95.703125
164		-101.562500
165		-95.703125
166		-103.515625
167		-95.703125
168		-101.562500
169		-97.656250
170		-101.562500
171		-97.656250
172		-103.515625
173		-95.703125
174		-101.562500
175		-95.703125
176		-101.562500
177		-95.703125
178		-101.562500
179		-95.703125
180		-101.562500
181		-93.750000
182		-99.609375
183		-93.750000
184		-99.609375
185		-91.796875
186		-97.656250
187		-93.750000
188		-97.656250
189		-91.796875
190		-97.656250
191		-89.843750
192		-95.703125
193		-89.843750
194		-93.750000
195		-87.890625
196		-93.750000
197		-85.937500
198		-93.750000
199		-85.937500
200		-91.796875
201		-85.937500
202		-87.890625
203		-83.984375
204		-85.937500
205		-83.984375
206		-87.890625
207		-80.078125
208		-85.937500
209		-78.125000
210		-83.984375
211		-76.171875
212		-82.031250
213		-74.218750
214		-80.078125
215		-74.218750
216		-80.078125
217		-72.265625
218		-76.171875
219		-70.312500
220		-72.265625
221		-68.359375
222		-72.265625
223		-66.406250
224		-72.265625
225		-64.453125
226		-68.359375
227		-60.546875
228		-68.359375
229		-60.546875
230		-64.453125
231		-56.640625
232		-62.500000
233		-54.687500
234		-60.546875
235		-54.687500
236		-56.640625
237		-50.781250
238		-54.687500
239		-48.828125
240		-54.687500
241		-46.875000
242		-50.781250
243		-42.968750
244		-48.828125
245		-41.015625
246		-46.875000
247		-37.109375
248		-42.968750
249		-35.156250
250		-41.015625
251		-33.203125
252		-37.109375
253		-31.250000
254		-33.203125
255		-29.296875
256		-33.203125
257		-25.390625
258		-31.250000
259		-23.437500
260		-27.343750
261		-19.531250
262		-25.390625
263		-17.578125
264		-21.484375
265		-15.625000
266		-19.531250
267		-11.718750
268		-15.625000
269		-9.765625
270		-13.671875
271		-7.812500
272		-9.765625
273		-3.906250
274		-9.765625
275		-1.953125
276		-5.859375
277		1.953125
278		-3.906250
279		3.906250
280		0.000000
281		7.812500
282		0.000000
283		9.765625
284		3.906250
285		11.718750
286		7.812500
287		13.671875
288		11.718750
289		15.625000
290		11.718750
291		19.531250
292		15.625000
293		23.437500
294		17.578125
295		25.390625
296		19.531250
297		27.343750
298		21.484375
299		29.296875
300		23.437500
301		33.203125
302		27.343750
303		33.203125
304		31.250000
305		37.109375
306		33.203125
307		39.062500
308		35.156250
309		42.968750
310		37.109375
311		44.921875
312		39.062500
313		46.875000
314		41.015625
315		48.828125
316		42.968750
317		50.781250
318		44.921875
319		52.734375
320		50.781250
321		54.687500
322		52.734375
323		56.640625
324		52.734375
325		60.546875
326		54.687500
327		62.500000
328		56.640625
329		64.453125
330		58.593750
331		66.406250
332		60.546875
333		68.359375
334		62.500000
335		70.312500
336		64.453125
337		70.312500
338		68.359375
339		72.265625
340		68.359375
341		76.171875
342		68.359375
343		76.171875
344		72.265625
345		78.125000
346		72.265625
347		82.031250
348		74.218750
349		82.031250
350		76.171875
351		83.984375
352		78.125000
353		83.984375
354		80.078125
355		83.984375
356		82.031250
357		87.890625
358		82.031250
359		89.843750
360		82.031250
361		89.843750
362		83.984375
363		91.796875
364		85.937500
365		93.750000
366		85.937500
367		93.750000
368		87.890625
369		95.703125
370		89.843750
371		93.750000
372		91.796875
373		93.750000
374		89.843750
375		97.656250
376		91.796875
377		99.609375
378		91.796875
379		99.609375
380		91.796875
381		99.609375
382		93.750000
383		99.609375
384		93.750000
385		101.562500
386		93.750000
387		99.609375
388		95.703125
389		99.609375
390		93.750000
391		103.515625
392		95.703125
393		101.562500
394		95.703125
395		103.515625
396		95.703125
397		103.515625
398		95.703125
399		103.515625
400		95.703125
401		103.515625
402		95.703125
403		101.562500
404		97.656250
405		101.562500
406		97.656250
407		101.562500
408		95.703125
409		103.515625
410		95.703125
411		103.515625
412		95.703125
413		103.515625
414		95.703125
415		101.562500
416		93.750000
417		101.562500
418		93.750000
419		101.562500
420		95.703125
421		99.609375
422		95.703125
423		97.656250
424		91.796875
425		99.609375
426		91.796875
427		99.609375
428		89.843750
429		97.656250
430		89.843750
431		95.703125
432		89.843750
433		97.656250
434		87.890625
435		95.703125
436		87.890625
437		93.750000
438		87.890625
439		91.796875
440		85.937500
441		91.796875
442		83.984375
443		91.796875
444		82.031250
445		89.843750
446		82.031250
447		89.843750
448		80.078125
449		87.890625
450		78.125000
451		85.937500
452		78.125000
453		83.984375
454		78.125000
455		82.031250
456		76.171875
457		80.078125
458		72.265625
459		80.078125
460		70.312500
461		78.125000
462		68.359375
463		76.171875
464		66.406250
465		74.218750
466		66.406250
467		74.218750
468		64.453125
469		70.312500
470		64.453125
471		68.359375
472		60.546875
473		66.406250
474		56.640625
475		64.453125
476		56.640625
477		62.500000
478		52.734375
479		62.500000
480		52.734375
481		58.593750
482		48.828125
483		56.640625
484		46.875000
485		54.687500
486		44.921875
487		52.734375
488		44.921875
489		48.828125
490		42.968750
491		46.875000
492		39.062500
493		46.875000
494		35.156250
495		44.921875
496		33.203125
497		41.015625
498		31.250000
499		39.062500
500		27.343750
501		37.109375
502		25.390625
503		33.203125
504		25.390625
505		31.250000
506		21.484375
507		27.343750
508		17.578125
509		25.390625
510		15.625000
511		23.437500
512		13.671875
513		21.484375
514		9.765625
515		17.578125
516		7.812500
517		15.625000
518		5.859375
519		13.671875
520		3.906250
521		9.765625
522		1.953125
523		5.859375
524		-1.953125
525		3.906250
526		-5.859375
527		1.953125
528		-7.812500
529		0.000000
530		-11.718750
531		-1.953125
532		-13.671875
533		-3.906250
534		-15.625000
535		-7.812500
536		-19.531250
537		-11.718750
538		-19.531250
539		-15.625000
540		-21.484375
541		-17.578125
542		-25.390625
543		-19.531250
544		-29.296875
545		-21.484375
546		-33.203125
547		-23.437500
548		-35.156250
549		-27.343750
550		-37.109375
551		-29.296875
552		-39.062500
553		-33.203125
554		-41.015625
555		-35.156250
556		-42.968750
557		-39.062500
558		-46.875000
559		-41.015625
560		-48.828125
561		-42.968750
562		-52.734375
563		-44.921875
564		-54.687500
565		-46.875000
566		-56.640625
567		-48.828125
568		-60.546875
569		-52.734375
570		-60.546875
571		-54.687500
572		-62.500000
573		-58.593750
574		-64.453125
575		-60.546875
576		-66.406250
577		-60.546875
578		-70.312500
579		-62.500000
580		-72.265625
581		-64.453125
582		-74.218750
583		-66.406250
584		-76.171875
585		-68.359375
586		-78.125000
587		-70.312500
588		-78.125000
589		-72.265625
590		-80.078125
591		-76.171875
592		-83.984375
593		-76.171875
594		-85.937500
595		-78.125000
596		-85.937500
597		-78.125000
598		-87.890625
599		-80.078125
600		-89.843750
601		-82.031250
602		-91.796875
603		-82.031250
604		-91.796875
605		-83.984375
606		-91.796875
607		-87.890625
608		-93.750000
609		-89.843750
610		-95.703125
611		-87.890625
612		-97.656250
613		-89.843750
614		-97.656250
615		-89.843750
616		-97.656250
617		-91.796875
618		-99.609375
619		-91.796875
620		-99.609375
621		-93.750000
622		-97.656250
623		-95.703125
624		-99.609375
625		-95.703125
626		-101.562500
627		-95.703125
628		-101.562500
629		-95.703125
630		-103.515625
631		-95.703125
632		-103.515625
633		-95.703125
634		-103.515625
635		-95.703125
636		-103.515625
637		-95.703125
638		-103.515625
639		-95.703125
640		-101.562500
641		-97.656250
642		-101.562500
643		-95.703125
644		-101.562500
645		-95.703125
646		-101.562500
647		-95.703125
648		-101.562500
649		-93.750000
650		-101.562500
651		-93.750000
652		-99.609375
653		-93.750000
654		-99.609375
655		-93.750000
656		-97.656250
657		-93.750000
658		-95.703125
659		-93.750000
660		-97.656250
661		-89.843750
662		-97.656250
663		-89.843750
664		-95.703125
665		-89.843750
666		-93.750000
667		-87.890625
668		-93.750000
669		-85.937500
670		-91.796875
671		-85.937500
672		-89.843750
673		-85.937500
674		-87.890625
675		-83.984375
676		-87.890625
677		-80.078125
678		-85.937500
679		-80.078125
680		-85.937500
681		-78.125000
682		-83.984375
683		-76.171875
684		-82.031250
685		-74.218750
686		-82.031250
687		-74.218750
688		-78.125000
689		-72.265625
690		-74.218750
691		-70.312500
692		-72.265625
693		-68.359375
694		-74.218750
695		-64.453125
696		-70.312500
697		-62.500000
698		-68.359375
699		-60.546875
700		-66.406250
701		-58.593750
702		-64.453125
703		-56.640625
704		-62.500000
705		-54.687500
706		-58.593750
707		-52.734375
708		-56.640625
709		-50.781250
710		-54.687500
711		-46.875000
712		-52.734375
713		-44.921875
714		-48.828125
715		-42.968750
716		-46.875000
717		-41.015625
718		-44.921875
719		-37.109375
720		-42.968750
721		-35.156250
722		-41.015625
723		-33.203125
724		-35.156250
725		-31.250000
726		-33.203125
727		-27.343750
728		-33.203125
729		-25.390625
730		-31.250000
731		-23.437500
732		-27.343750
733		-19.531250
734		-25.390625
735		-15.625000
736		-21.484375
737		-13.671875
738		-19.531250
739		-11.718750
740		-15.625000
741		-9.765625
742		-11.718750
743		-7.812500
744		-9.765625
745		-3.906250
746		-9.765625
747		0.000000
748		-5.859375
749		1.953125
750		-3.906250
751		3.906250
752		0.000000
753		7.812500
754		1.953125
755		9.765625
756		5.859375
757		11.718750
758		9.765625
759		13.671875
760		11.718750
761		17.578125
762		11.718750
763		21.484375
764		15.625000
765		23.437500
766		17.578125
767		25.390625
768		21.484375
769		29.296875
770		21.484375
771		31.250000
772		25.390625
773		33.203125
774		29.296875
775		35.156250
776		31.250000
777		37.109375
778		33.203125
779		41.015625
780		35.156250
781		42.968750
782		37.109375
783		44.921875
784		39.062500
785		46.875000
786		41.015625
787		50.781250
788		44.921875
789		52.734375
790		48.828125
791		52.734375
792		50.781250
793		54.687500
794		52.734375
795		58.593750
796		52.734375
797		60.546875
798		56.640625
799		62.500000
800		56.640625
801		66.406250
802		58.593750
803		66.406250
804		60.546875
805		70.312500
806		64.453125
807		70.312500
808		66.406250
809		70.312500
810		68.359375
811		74.218750
812		68.359375
813		76.171875
814		70.312500
815		78.125000
816		72.265625
817		80.078125
818		74.218750
819		80.078125
820		74.218750
821		82.031250
822		74.218750
823		83.984375
824		80.078125
825		83.984375
826		82.031250
827		85.937500
828		80.078125
829		87.890625
830		82.031250
831		87.890625
832		83.984375
833		89.843750
834		83.984375
835		91.796875
836		85.937500
837		93.750000
838		85.937500
839		93.750000
840		87.890625
841		93.750000
842		89.843750
843		93.750000
844		89.843750
845		95.703125
846		89.843750
847		97.656250
848		91.796875
849		97.656250
850		91.796875
851		97.656250
852		93.750000
853		99.609375
854		93.750000
855		99.609375
856		93.750000
857		101.562500
858		95.703125
859		99.609375
860		95.703125
861		99.609375
862		95.703125
863		101.562500
864		95.703125
865		101.562500
866		95.703125
867		103.515625
868		95.703125
869		103.515625
870		95.703125
871		103.515625
872		95.703125
873		103.515625
874		97.656250
875		101.562500
876		97.656250
877		101.562500
878		95.703125
879		103.515625
880		95.703125
881		103.515625
882		95.703125
883		103.515625
884		95.703125
885		101.562500
886		95.703125
887		101.562500
888		95.703125
889		101.562500
890		95.703125
891		101.562500
892		95.703125
893		99.609375
894		93.750000
895		99.609375
896		91.796875
897		99.609375
898		91.796875
899		97.656250
900		91.796875
901		97.656250
902		89.843750
903		97.656250
904		89.843750
905		95.703125
906		87.890625
907		95.703125
908		89.843750
909		93.750000
910		87.890625
911		91.796875
912		85.937500
913		91.796875
914		83.984375
915		91.796875
916		82.031250
917		89.843750
918		82.031250
919		87.890625
920		80.078125
921		87.890625
922		80.078125
923		85.937500
924		78.125000
925		83.984375
926		78.125000
927		82.031250
928		74.218750
929		80.078125
930		72.265625
931		80.078125
932		70.312500
933		78.125000
934		68.359375
935		76.171875
936		66.406250
937		74.218750
938		66.406250
939		72.265625
940		64.453125
941		72.265625
942		64.453125
943		68.359375
944		62.500000
945		66.406250
946		58.593750
947		66.406250
948		54.687500
949		62.500000
950		52.734375
951		60.546875
952		50.781250
953		58.593750
954		48.828125
955		56.640625
956		46.875000
957		54.687500
958		46.875000
959		52.734375
960		44.921875
961		48.828125
962		39.062500
963		46.875000
964		37.109375
965		44.921875
966		35.156250
967		42.968750
968		33.203125
969		41.015625
970		29.296875
971		39.062500
972		27.343750
973		35.156250
974		27.343750
975		33.203125
976		25.390625
977		29.296875
978		19.531250
979		27.343750
980		17.578125
981		25.390625
982		15.625000
983		23.437500
984		13.671875
985		19.531250
986		9.765625
987		17.578125
988		7.812500
989		15.625000
990		3.906250
991		11.718750
992		3.906250
993		7.812500
994		1.953125
995		5.859375
996		-3.906250
997		3.906250
998		-5.859375
999		1.953125
1000		-7.812500
1001		0.000000
1002		-11.718750
1003		-3.906250
1004		-13.671875
1005		-7.812500
1006		-17.578125
1007		-9.765625
1008		-17.578125
1009		-11.718750
1010		-19.531250
1011		-15.625000
1012		-25.390625
1013		-17.578125
1014		-27.343750
1015		-19.531250
1016		-29.296875
1017		-21.484375
1018		-33.203125
1019		-25.390625
1020		-35.156250
1021		-27.343750
1022		-37.109375
1023		-29.296875
1024		-39.062500
1025		-33.203125
1026		-41.015625
1027		-37.109375
1028		-42.968750
1029		-39.062500
1030		-48.828125
1031		-39.062500
1032		-50.781250
1033		-42.968750
1034		-52.734375
1035		-44.921875
1036		-54.687500
1037		-46.875000
1038		-56.640625
1039		-48.828125
1040		-60.546875
1041		-52.734375
1042		-60.546875
1043		-54.687500
1044		-62.500000
1045		-58.593750
1046		-64.453125
1047		-60.546875
1048		-68.359375
1049		-60.546875
1050		-70.312500
1051		-62.500000
1052		-72.265625
1053		-64.453125
1054		-74.218750
1055		-66.406250
1056		-76.171875
1057		-68.359375
1058		-78.125000
1059		-70.312500
1060		-78.125000
1061		-74.218750
1062		-80.078125
1063		-76.171875
1064		-83.984375
1065		-76.171875
1066		-83.984375
1067		-78.125000
1068		-85.937500
1069		-80.078125
1070		-87.890625
1071		-80.078125
1072		-89.843750
1073		-82.031250
1074		-89.843750
1075		-83.984375
1076		-89.843750
1077		-85.937500
1078		-91.796875
1079		-87.890625
1080		-93.750000
1081		-85.937500
1082		-95.703125
1083		-87.890625
1084		-95.703125
1085		-89.843750
1086		-97.656250
1087		-89.843750
1088		-99.609375
1089		-91.796875
1090		-99.609375
1091		-91.796875
1092		-99.609375
1093		-91.796875
1094		-99.609375
1095		-95.703125
1096		-99.609375
1097		-93.750000
1098		-101.562500
1099		-93.750000
1100		-101.562500
1101		-93.750000
1102		-101.562500
1103		-95.703125
1104		-101.562500
1105		-95.703125
1106		-103.515625
1107		-95.703125
1108		-103.515625
1109		-95.703125
1110		-101.562500
1111		-97.656250
1112		-99.609375
1113		-97.656250
1114		-103.515625
1115		-95.703125
1116		-103.515625
1117		-95.703125
1118		-101.562500
1119		-95.703125
1120		-101.562500
1121		-95.703125
1122		-101.562500
1123		-93.750000
1124		-101.562500
1125		-95.703125
1126		-101.562500
1127		-95.703125
1128		-97.656250
1129		-95.703125
1130		-99.609375
1131		-91.796875
1132		-97.656250
1133		-91.796875
1134		-97.656250
1135		-89.843750
1136		-97.656250
1137		-89.843750
1138		-95.703125
1139		-89.843750
1140		-95.703125
1141		-87.890625
1142		-93.750000
1143		-85.937500
1144		-89.843750
1145		-87.890625
1146		-89.843750
1147		-85.937500
1148		-89.843750
1149		-82.031250
1150		-87.890625
1151		-82.031250
1152		-87.890625
1153		-80.078125
1154		-83.984375
1155		-78.125000
1156		-83.984375
1157		-76.171875
1158		-82.031250
1159		-74.218750
1160		-78.125000
1161		-74.218750
1162		-76.171875
1163		-72.265625
1164		-74.218750
1165		-68.359375
1166		-74.218750
1167		-66.406250
1168		-72.265625
1169		-64.453125
1170		-70.312500
1171		-62.500000
1172		-68.359375
1173		-60.546875
1174		-66.406250
1175		-58.593750
1176		-64.453125
1177		-56.640625
1178		-58.593750
1179		-54.687500
1180		-56.640625
1181		-50.781250
1182		-56.640625
1183		-48.828125
1184		-54.687500
1185		-46.875000
1186		-52.734375
1187		-44.921875
1188		-50.781250
1189		-41.015625
1190		-46.875000
1191		-39.062500
1192		-44.921875
1193		-37.109375
1194		-39.062500
1195		-35.156250
1196		-37.109375
1197		-33.203125
1198		-35.156250
1199		-27.343750
1200		-35.156250
1201		-25.390625
1202		-31.250000
1203		-23.437500
1204		-27.343750
1205		-19.531250
1206		-25.390625
1207		-17.578125
1208		-23.437500
1209		-15.625000
1210		-21.484375
1211		-13.671875
1212		-15.625000
1213		-11.718750
1214		-13.671875
1215		-5.859375
1216		-11.718750
1217		-3.906250
1218		-9.765625
1219		-1.953125
1220		-7.812500
1221		1.953125
1222		-3.906250
1223		3.906250
1224		-1.953125
1225		7.812500
1226		1.953125
1227		7.812500
1228		5.859375
1229		9.765625
1230		7.812500
1231		13.671875
1232		9.765625
1233		17.578125
1234		11.718750
1235		19.531250
1236		15.625000
1237		21.484375
1238		17.578125
1239		23.437500
1240		19.531250
1241		27.343750
1242		21.484375
1243		29.296875
1244		25.390625
1245		31.250000
1246		27.343750
1247		33.203125
1248		31.250000
1249		37.109375
1250		31.250000
1251		39.062500
1252		33.203125
1253		42.968750
1254		37.109375
1255		42.968750
1256		39.062500
1257		46.875000
1258		41.015625
1259		48.828125
1260		42.968750
1261		48.828125
1262		46.875000
1263		52.734375
