metingen laweit/1000Hz, 66.4cm/data_81_m200.txt

Channel              :		CH1
Frequency            :		1.061kHz
Period               :		0.942ms
PK-PK                :		298.8mV
Probe attenuation    :		1X
Voltage per ADC value:		0.122070mV
Time interval        :		2.00000us

index		CH1_Voltage(mV)
1		93.750000
2		93.750000
3		99.609375
4		89.843750
5		97.656250
6		87.890625
7		93.750000
8		83.984375
9		91.796875
10		82.031250
11		89.843750
12		78.125000
13		85.937500
14		76.171875
15		83.984375
16		74.218750
17		78.125000
18		70.312500
19		76.171875
20		66.406250
21		74.218750
22		62.500000
23		70.312500
24		58.593750
25		68.359375
26		54.687500
27		62.500000
28		52.734375
29		60.546875
30		48.828125
31		58.593750
32		46.875000
33		52.734375
34		42.968750
35		48.828125
36		37.109375
37		46.875000
38		33.203125
39		42.968750
40		31.250000
41		39.062500
42		27.343750
43		35.156250
44		23.437500
45		31.250000
46		19.531250
47		27.343750
48		17.578125
49		23.437500
50		13.671875
51		19.531250
52		7.812500
53		15.625000
54		3.906250
55		11.718750
56		0.000000
57		9.765625
58		-3.906250
59		3.906250
60		-7.812500
61		0.000000
62		-11.718750
63		-1.953125
64		-13.671875
65		-7.812500
66		-17.578125
67		-11.718750
68		-23.437500
69		-15.625000
70		-27.343750
71		-17.578125
72		-31.250000
73		-21.484375
74		-35.156250
75		-27.343750
76		-39.062500
77		-31.250000
78		-42.968750
79		-33.203125
80		-46.875000
81		-37.109375
82		-48.828125
83		-42.968750
84		-52.734375
85		-46.875000
86		-58.593750
87		-50.781250
88		-60.546875
89		-54.687500
90		-64.453125
91		-56.640625
92		-68.359375
93		-60.546875
94		-72.265625
95		-62.500000
96		-76.171875
97		-68.359375
98		-78.125000
99		-72.265625
100		-82.031250
101		-76.171875
102		-85.937500
103		-80.078125
104		-89.843750
105		-80.078125
106		-91.796875
107		-83.984375
108		-95.703125
109		-87.890625
110		-99.609375
111		-91.796875
112		-101.562500
113		-93.750000
114		-105.468750
115		-97.656250
116		-107.421875
117		-101.562500
118		-109.375000
119		-103.515625
120		-113.281250
121		-105.468750
122		-115.234375
123		-107.421875
124		-119.140625
125		-111.328125
126		-121.093750
127		-113.281250
128		-123.046875
129		-117.187500
130		-125.000000
131		-119.140625
132		-126.953125
133		-121.093750
134		-128.906250
135		-125.000000
136		-132.812500
137		-125.000000
138		-134.765625
139		-126.953125
140		-136.718750
141		-128.906250
142		-136.718750
143		-130.859375
144		-138.671875
145		-132.812500
146		-140.625000
147		-132.812500
148		-142.578125
149		-134.765625
150		-142.578125
151		-138.671875
152		-144.531250
153		-138.671875
154		-146.484375
155		-138.671875
156		-146.484375
157		-138.671875
158		-148.437500
159		-140.625000
160		-148.437500
161		-142.578125
162		-148.437500
163		-142.578125
164		-148.437500
165		-142.578125
166		-148.437500
167		-144.531250
168		-148.437500
169		-144.531250
170		-150.390625
171		-142.578125
172		-150.390625
173		-144.531250
174		-150.390625
175		-142.578125
176		-150.390625
177		-142.578125
178		-150.390625
179		-142.578125
180		-148.437500
181		-142.578125
182		-148.437500
183		-142.578125
184		-146.484375
185		-142.578125
186		-146.484375
187		-140.625000
188		-144.531250
189		-138.671875
190		-144.531250
191		-138.671875
192		-144.531250
193		-136.718750
194		-142.578125
195		-136.718750
196		-140.625000
197		-134.765625
198		-140.625000
199		-132.812500
200		-136.718750
201		-132.812500
202		-134.765625
203		-130.859375
204		-132.812500
205		-128.906250
206		-132.812500
207		-126.953125
208		-128.906250
209		-123.046875
210		-126.953125
211		-121.093750
212		-125.000000
213		-119.140625
214		-123.046875
215		-117.187500
216		-121.093750
217		-115.234375
218		-117.187500
219		-111.328125
220		-115.234375
221		-107.421875
222		-113.281250
223		-105.468750
224		-111.328125
225		-103.515625
226		-107.421875
227		-99.609375
228		-103.515625
229		-97.656250
230		-103.515625
231		-93.750000
232		-97.656250
233		-91.796875
234		-93.750000
235		-87.890625
236		-89.843750
237		-83.984375
238		-87.890625
239		-80.078125
240		-85.937500
241		-76.171875
242		-80.078125
243		-72.265625
244		-78.125000
245		-70.312500
246		-74.218750
247		-66.406250
248		-72.265625
249		-62.500000
250		-66.406250
251		-60.546875
252		-62.500000
253		-56.640625
254		-58.593750
255		-50.781250
256		-56.640625
257		-46.875000
258		-52.734375
259		-42.968750
260		-48.828125
261		-41.015625
262		-44.921875
263		-35.156250
264		-39.062500
265		-31.250000
266		-37.109375
267		-29.296875
268		-31.250000
269		-25.390625
270		-27.343750
271		-19.531250
272		-23.437500
273		-15.625000
274		-21.484375
275		-11.718750
276		-17.578125
277		-7.812500
278		-11.718750
279		-3.906250
280		-9.765625
281		0.000000
282		-5.859375
283		3.906250
284		0.000000
285		5.859375
286		3.906250
287		9.765625
288		7.812500
289		15.625000
290		11.718750
291		17.578125
292		15.625000
293		23.437500
294		17.578125
295		25.390625
296		21.484375
297		31.250000
298		25.390625
299		33.203125
300		31.250000
301		37.109375
302		35.156250
303		41.015625
304		37.109375
305		44.921875
306		41.015625
307		48.828125
308		44.921875
309		52.734375
310		48.828125
311		56.640625
312		50.781250
313		58.593750
314		52.734375
315		62.500000
316		56.640625
317		64.453125
318		62.500000
319		68.359375
320		64.453125
321		72.265625
322		66.406250
323		76.171875
324		70.312500
325		78.125000
326		72.265625
327		82.031250
328		76.171875
329		83.984375
330		80.078125
331		87.890625
332		82.031250
333		89.843750
334		85.937500
335		91.796875
336		89.843750
337		93.750000
338		91.796875
339		97.656250
340		93.750000
341		99.609375
342		95.703125
343		103.515625
344		97.656250
345		105.468750
346		101.562500
347		107.421875
348		101.562500
349		109.375000
350		105.468750
351		111.328125
352		109.375000
353		113.281250
354		111.328125
355		117.187500
356		111.328125
357		119.140625
358		113.281250
359		121.093750
360		115.234375
361		123.046875
362		117.187500
363		125.000000
364		119.140625
365		126.953125
366		121.093750
367		128.906250
368		123.046875
369		126.953125
370		125.000000
371		128.906250
372		125.000000
373		132.812500
374		126.953125
375		132.812500
376		126.953125
377		134.765625
378		128.906250
379		134.765625
380		130.859375
381		136.718750
382		130.859375
383		136.718750
384		132.812500
385		136.718750
386		134.765625
387		138.671875
388		132.812500
389		138.671875
390		134.765625
391		140.625000
392		134.765625
393		142.578125
394		134.765625
395		142.578125
396		136.718750
397		142.578125
398		136.718750
399		142.578125
400		136.718750
401		142.578125
402		138.671875
403		142.578125
404		138.671875
405		142.578125
406		136.718750
407		144.531250
408		136.718750
409		144.531250
410		136.718750
411		144.531250
412		136.718750
413		144.531250
414		136.718750
415		142.578125
416		136.718750
417		142.578125
418		138.671875
419		140.625000
420		136.718750
421		140.625000
422		134.765625
423		142.578125
424		134.765625
425		140.625000
426		132.812500
427		140.625000
428		132.812500
429		140.625000
430		132.812500
431		138.671875
432		130.859375
433		136.718750
434		130.859375
435		136.718750
436		130.859375
437		134.765625
438		128.906250
439		132.812500
440		126.953125
441		132.812500
442		125.000000
443		130.859375
444		123.046875
445		130.859375
446		121.093750
447		128.906250
448		119.140625
449		126.953125
450		119.140625
451		125.000000
452		117.187500
453		121.093750
454		117.187500
455		121.093750
456		113.281250
457		119.140625
458		111.328125
459		117.187500
460		109.375000
461		115.234375
462		105.468750
463		115.234375
464		103.515625
465		111.328125
466		101.562500
467		109.375000
468		101.562500
469		107.421875
470		99.609375
471		103.515625
472		93.750000
473		101.562500
474		91.796875
475		99.609375
476		89.843750
477		95.703125
478		85.937500
479		93.750000
480		83.984375
481		91.796875
482		80.078125
483		89.843750
484		78.125000
485		85.937500
486		76.171875
487		82.031250
488		72.265625
489		78.125000
490		68.359375
491		76.171875
492		64.453125
493		72.265625
494		62.500000
495		70.312500
496		58.593750
497		68.359375
498		54.687500
499		64.453125
500		50.781250
501		60.546875
502		48.828125
503		54.687500
504		46.875000
505		50.781250
506		41.015625
507		48.828125
508		37.109375
509		44.921875
510		33.203125
511		42.968750
512		29.296875
513		39.062500
514		25.390625
515		35.156250
516		23.437500
517		31.250000
518		19.531250
519		27.343750
520		15.625000
521		21.484375
522		9.765625
523		17.578125
524		5.859375
525		15.625000
526		3.906250
527		11.718750
528		0.000000
529		7.812500
530		-3.906250
531		3.906250
532		-7.812500
533		0.000000
534		-11.718750
535		-3.906250
536		-15.625000
537		-9.765625
538		-19.531250
539		-13.671875
540		-23.437500
541		-15.625000
542		-29.296875
543		-19.531250
544		-31.250000
545		-21.484375
546		-35.156250
547		-27.343750
548		-39.062500
549		-31.250000
550		-42.968750
551		-35.156250
552		-44.921875
553		-39.062500
554		-48.828125
555		-42.968750
556		-54.687500
557		-46.875000
558		-58.593750
559		-48.828125
560		-60.546875
561		-52.734375
562		-66.406250
563		-56.640625
564		-70.312500
565		-60.546875
566		-72.265625
567		-64.453125
568		-76.171875
569		-68.359375
570		-78.125000
571		-72.265625
572		-82.031250
573		-76.171875
574		-85.937500
575		-78.125000
576		-89.843750
577		-82.031250
578		-91.796875
579		-83.984375
580		-95.703125
581		-87.890625
582		-99.609375
583		-91.796875
584		-101.562500
585		-93.750000
586		-103.515625
587		-97.656250
588		-105.468750
589		-101.562500
590		-111.328125
591		-103.515625
592		-113.281250
593		-105.468750
594		-115.234375
595		-109.375000
596		-119.140625
597		-111.328125
598		-121.093750
599		-113.281250
600		-123.046875
601		-115.234375
602		-125.000000
603		-119.140625
604		-126.953125
605		-121.093750
606		-130.859375
607		-125.000000
608		-132.812500
609		-125.000000
610		-134.765625
611		-126.953125
612		-134.765625
613		-128.906250
614		-136.718750
615		-128.906250
616		-138.671875
617		-132.812500
618		-140.625000
619		-132.812500
620		-140.625000
621		-136.718750
622		-140.625000
623		-136.718750
624		-144.531250
625		-136.718750
626		-144.531250
627		-138.671875
628		-146.484375
629		-138.671875
630		-146.484375
631		-140.625000
632		-146.484375
633		-140.625000
634		-148.437500
635		-142.578125
636		-148.437500
637		-142.578125
638		-146.484375
639		-144.531250
640		-148.437500
641		-142.578125
642		-148.437500
643		-142.578125
644		-148.437500
645		-142.578125
646		-148.437500
647		-142.578125
648		-148.437500
649		-142.578125
650		-148.437500
651		-140.625000
652		-146.484375
653		-140.625000
654		-144.531250
655		-142.578125
656		-144.531250
657		-140.625000
658		-144.531250
659		-138.671875
660		-144.531250
661		-138.671875
662		-142.578125
663		-136.718750
664		-142.578125
665		-134.765625
666		-140.625000
667		-132.812500
668		-138.671875
669		-132.812500
670		-136.718750
671		-132.812500
672		-134.765625
673		-130.859375
674		-134.765625
675		-126.953125
676		-132.812500
677		-125.000000
678		-130.859375
679		-123.046875
680		-128.906250
681		-121.093750
682		-126.953125
683		-117.187500
684		-125.000000
685		-115.234375
686		-121.093750
687		-115.234375
688		-117.187500
689		-113.281250
690		-115.234375
691		-109.375000
692		-113.281250
693		-105.468750
694		-111.328125
695		-103.515625
696		-107.421875
697		-101.562500
698		-105.468750
699		-97.656250
700		-103.515625
701		-95.703125
702		-99.609375
703		-91.796875
704		-93.750000
705		-89.843750
706		-91.796875
707		-85.937500
708		-87.890625
709		-82.031250
710		-85.937500
711		-78.125000
712		-82.031250
713		-74.218750
714		-80.078125
715		-72.265625
716		-76.171875
717		-68.359375
718		-72.265625
719		-64.453125
720		-68.359375
721		-60.546875
722		-62.500000
723		-58.593750
724		-58.593750
725		-52.734375
726		-56.640625
727		-48.828125
728		-54.687500
729		-44.921875
730		-50.781250
731		-41.015625
732		-44.921875
733		-37.109375
734		-41.015625
735		-33.203125
736		-39.062500
737		-31.250000
738		-33.203125
739		-27.343750
740		-29.296875
741		-23.437500
742		-27.343750
743		-17.578125
744		-23.437500
745		-13.671875
746		-17.578125
747		-9.765625
748		-13.671875
749		-5.859375
750		-9.765625
751		-1.953125
752		-5.859375
753		1.953125
754		-3.906250
755		3.906250
756		1.953125
757		7.812500
758		5.859375
759		13.671875
760		9.765625
761		17.578125
762		11.718750
763		21.484375
764		15.625000
765		25.390625
766		19.531250
767		29.296875
768		25.390625
769		33.203125
770		29.296875
771		35.156250
772		33.203125
773		39.062500
774		37.109375
775		42.968750
776		39.062500
777		46.875000
778		41.015625
779		50.781250
780		46.875000
781		54.687500
782		48.828125
783		56.640625
784		52.734375
785		60.546875
786		56.640625
787		64.453125
788		60.546875
789		66.406250
790		64.453125
791		70.312500
792		68.359375
793		74.218750
794		70.312500
795		76.171875
796		72.265625
797		80.078125
798		74.218750
799		82.031250
800		78.125000
801		85.937500
802		82.031250
803		87.890625
804		83.984375
805		89.843750
806		87.890625
807		93.750000
808		91.796875
809		97.656250
810		93.750000
811		99.609375
812		95.703125
813		101.562500
814		97.656250
815		105.468750
816		99.609375
817		107.421875
818		101.562500
819		109.375000
820		103.515625
821		111.328125
822		107.421875
823		113.281250
824		111.328125
825		115.234375
826		111.328125
827		117.187500
828		113.281250
829		119.140625
830		115.234375
831		123.046875
832		117.187500
833		125.000000
834		119.140625
835		125.000000
836		121.093750
837		126.953125
838		121.093750
839		126.953125
840		125.000000
841		128.906250
842		125.000000
843		132.812500
844		126.953125
845		132.812500
846		126.953125
847		134.765625
848		128.906250
849		134.765625
850		130.859375
851		136.718750
852		130.859375
853		138.671875
854		132.812500
855		138.671875
856		134.765625
857		138.671875
858		134.765625
859		140.625000
860		134.765625
861		140.625000
862		134.765625
863		140.625000
864		134.765625
865		142.578125
866		136.718750
867		142.578125
868		136.718750
869		144.531250
870		136.718750
871		142.578125
872		138.671875
873		142.578125
874		138.671875
875		142.578125
876		136.718750
877		144.531250
878		136.718750
879		144.531250
880		138.671875
881		144.531250
882		136.718750
883		144.531250
884		136.718750
885		144.531250
886		136.718750
887		144.531250
888		138.671875
889		144.531250
890		138.671875
891		140.625000
892		136.718750
893		142.578125
894		134.765625
895		142.578125
896		134.765625
897		140.625000
898		134.765625
899		140.625000
900		132.812500
901		140.625000
902		132.812500
903		138.671875
904		130.859375
905		138.671875
906		132.812500
907		134.765625
908		130.859375
909		134.765625
910		128.906250
911		134.765625
912		126.953125
913		132.812500
914		125.000000
915		132.812500
916		125.000000
917		130.859375
918		121.093750
919		128.906250
920		121.093750
921		128.906250
922		121.093750
923		126.953125
924		119.140625
925		123.046875
926		115.234375
927		121.093750
928		113.281250
929		119.140625
930		111.328125
931		119.140625
932		109.375000
933		115.234375
934		107.421875
935		113.281250
936		103.515625
937		111.328125
938		103.515625
939		109.375000
940		101.562500
941		105.468750
942		97.656250
943		103.515625
944		95.703125
945		101.562500
946		91.796875
947		99.609375
948		89.843750
949		97.656250
950		85.937500
951		95.703125
952		83.984375
953		91.796875
954		82.031250
955		87.890625
956		80.078125
957		83.984375
958		76.171875
959		82.031250
960		72.265625
961		78.125000
962		68.359375
963		76.171875
964		64.453125
965		74.218750
966		60.546875
967		70.312500
968		58.593750
969		66.406250
970		54.687500
971		62.500000
972		52.734375
973		58.593750
974		48.828125
975		54.687500
976		44.921875
977		50.781250
978		41.015625
979		50.781250
980		37.109375
981		44.921875
982		33.203125
983		41.015625
984		29.296875
985		39.062500
986		25.390625
987		35.156250
988		23.437500
989		29.296875
990		19.531250
991		25.390625
992		15.625000
993		21.484375
994		9.765625
995		17.578125
996		7.812500
997		15.625000
998		1.953125
999		11.718750
1000		-1.953125
1001		7.812500
1002		-3.906250
1003		3.906250
1004		-7.812500
1005		0.000000
1006		-11.718750
1007		-3.906250
1008		-13.671875
1009		-9.765625
1010		-21.484375
1011		-13.671875
1012		-25.390625
1013		-15.625000
1014		-27.343750
1015		-17.578125
1016		-31.250000
1017		-23.437500
1018		-35.156250
1019		-27.343750
1020		-39.062500
1021		-31.250000
1022		-41.015625
1023		-35.156250
1024		-44.921875
1025		-39.062500
1026		-48.828125
1027		-42.968750
1028		-54.687500
1029		-46.875000
1030		-58.593750
1031		-48.828125
1032		-62.500000
1033		-54.687500
1034		-66.406250
1035		-56.640625
1036		-68.359375
1037		-60.546875
1038		-72.265625
1039		-64.453125
1040		-74.218750
1041		-70.312500
1042		-78.125000
1043		-72.265625
1044		-82.031250
1045		-76.171875
1046		-87.890625
1047		-78.125000
1048		-89.843750
1049		-82.031250
1050		-93.750000
1051		-83.984375
1052		-95.703125
1053		-87.890625
1054		-97.656250
1055		-89.843750
1056		-99.609375
1057		-93.750000
1058		-103.515625
1059		-97.656250
1060		-107.421875
1061		-101.562500
1062		-111.328125
1063		-103.515625
1064		-113.281250
1065		-105.468750
1066		-117.187500
1067		-107.421875
1068		-117.187500
1069		-111.328125
1070		-121.093750
1071		-113.281250
1072		-123.046875
1073		-115.234375
1074		-123.046875
1075		-119.140625
1076		-125.000000
1077		-121.093750
1078		-128.906250
1079		-123.046875
1080		-130.859375
1081		-123.046875
1082		-132.812500
1083		-125.000000
1084		-134.765625
1085		-126.953125
1086		-136.718750
1087		-128.906250
1088		-138.671875
1089		-130.859375
1090		-136.718750
1091		-132.812500
1092		-138.671875
1093		-134.765625
1094		-142.578125
1095		-136.718750
1096		-142.578125
1097		-136.718750
1098		-144.531250
1099		-136.718750
1100		-144.531250
1101		-138.671875
1102		-146.484375
1103		-138.671875
1104		-146.484375
1105		-138.671875
1106		-146.484375
1107		-140.625000
1108		-144.531250
1109		-140.625000
1110		-144.531250
1111		-142.578125
1112		-148.437500
1113		-140.625000
1114		-146.484375
1115		-140.625000
1116		-146.484375
1117		-140.625000
1118		-148.437500
1119		-140.625000
1120		-146.484375
1121		-140.625000
1122		-146.484375
1123		-140.625000
1124		-144.531250
1125		-140.625000
1126		-142.578125
1127		-140.625000
1128		-144.531250
1129		-138.671875
1130		-144.531250
1131		-136.718750
1132		-142.578125
1133		-136.718750
1134		-140.625000
1135		-134.765625
1136		-138.671875
1137		-132.812500
1138		-138.671875
1139		-132.812500
1140		-136.718750
1141		-130.859375
1142		-134.765625
1143		-130.859375
1144		-132.812500
1145		-125.000000
1146		-132.812500
1147		-125.000000
1148		-130.859375
1149		-123.046875
1150		-128.906250
1151		-121.093750
1152		-126.953125
1153		-119.140625
1154		-123.046875
1155		-115.234375
1156		-121.093750
1157		-113.281250
1158		-117.187500
1159		-113.281250
1160		-115.234375
1161		-109.375000
1162		-113.281250
1163		-107.421875
1164		-111.328125
1165		-103.515625
1166		-107.421875
1167		-99.609375
1168		-105.468750
1169		-95.703125
1170		-101.562500
1171		-95.703125
1172		-99.609375
1173		-91.796875
1174		-95.703125
1175		-89.843750
1176		-91.796875
1177		-85.937500
1178		-87.890625
1179		-82.031250
1180		-85.937500
1181		-78.125000
1182		-83.984375
1183		-76.171875
1184		-80.078125
1185		-70.312500
1186		-78.125000
1187		-66.406250
1188		-72.265625
1189		-64.453125
1190		-68.359375
1191		-60.546875
1192		-64.453125
1193		-58.593750
1194		-60.546875
1195		-54.687500
1196		-56.640625
1197		-50.781250
1198		-52.734375
1199		-44.921875
1200		-50.781250
1201		-42.968750
1202		-46.875000
1203		-37.109375
1204		-42.968750
1205		-33.203125
1206		-37.109375
1207		-31.250000
1208		-35.156250
1209		-27.343750
1210		-29.296875
1211		-23.437500
1212		-25.390625
1213		-17.578125
1214		-23.437500
1215		-13.671875
1216		-17.578125
1217		-11.718750
1218		-15.625000
1219		-5.859375
1220		-13.671875
1221		-3.906250
1222		-7.812500
1223		0.000000
1224		-3.906250
1225		3.906250
1226		1.953125
1227		7.812500
1228		5.859375
1229		11.718750
