metingen laweit/1000Hz, 66.4cm/data_81_m456.txt

Channel              :		CH1
Frequency            :		1.061kHz
Period               :		0.942ms
PK-PK                :		244.1mV
Probe attenuation    :		1X
Voltage per ADC value:		0.122070mV
Time interval        :		2.00000us

index		CH1_Voltage(mV)
1		50.781250
2		50.781250
3		42.968750
4		48.828125
5		41.015625
6		44.921875
7		37.109375
8		42.968750
9		33.203125
10		41.015625
11		31.250000
12		39.062500
13		27.343750
14		35.156250
15		25.390625
16		33.203125
17		21.484375
18		29.296875
19		19.531250
20		27.343750
21		17.578125
22		25.390625
23		15.625000
24		19.531250
25		9.765625
26		17.578125
27		7.812500
28		15.625000
29		3.906250
30		11.718750
31		0.000000
32		9.765625
33		-1.953125
34		5.859375
35		-5.859375
36		3.906250
37		-7.812500
38		1.953125
39		-9.765625
40		-3.906250
41		-13.671875
42		-7.812500
43		-17.578125
44		-9.765625
45		-21.484375
46		-11.718750
47		-23.437500
48		-15.625000
49		-27.343750
50		-19.531250
51		-31.250000
52		-21.484375
53		-33.203125
54		-23.437500
55		-35.156250
56		-29.296875
57		-39.062500
58		-33.203125
59		-42.968750
60		-35.156250
61		-46.875000
62		-39.062500
63		-48.828125
64		-41.015625
65		-50.781250
66		-44.921875
67		-54.687500
68		-46.875000
69		-56.640625
70		-48.828125
71		-60.546875
72		-52.734375
73		-62.500000
74		-56.640625
75		-66.406250
76		-60.546875
77		-68.359375
78		-62.500000
79		-74.218750
80		-64.453125
81		-74.218750
82		-66.406250
83		-80.078125
84		-70.312500
85		-80.078125
86		-74.218750
87		-83.984375
88		-74.218750
89		-83.984375
90		-80.078125
91		-87.890625
92		-82.031250
93		-91.796875
94		-83.984375
95		-93.750000
96		-85.937500
97		-95.703125
98		-87.890625
99		-97.656250
100		-91.796875
101		-101.562500
102		-91.796875
103		-103.515625
104		-95.703125
105		-103.515625
106		-97.656250
107		-105.468750
108		-101.562500
109		-107.421875
110		-103.515625
111		-109.375000
112		-103.515625
113		-111.328125
114		-105.468750
115		-113.281250
116		-107.421875
117		-115.234375
118		-109.375000
119		-117.187500
120		-111.328125
121		-119.140625
122		-113.281250
123		-119.140625
124		-115.234375
125		-121.093750
126		-117.187500
127		-123.046875
128		-117.187500
129		-125.000000
130		-117.187500
131		-126.953125
132		-119.140625
133		-126.953125
134		-119.140625
135		-128.906250
136		-121.093750
137		-128.906250
138		-121.093750
139		-128.906250
140		-123.046875
141		-128.906250
142		-125.000000
143		-130.859375
144		-125.000000
145		-130.859375
146		-125.000000
147		-132.812500
148		-125.000000
149		-132.812500
150		-125.000000
151		-132.812500
152		-125.000000
153		-132.812500
154		-126.953125
155		-132.812500
156		-125.000000
157		-130.859375
158		-126.953125
159		-130.859375
160		-126.953125
161		-132.812500
162		-125.000000
163		-132.812500
164		-125.000000
165		-130.859375
166		-125.000000
167		-130.859375
168		-123.046875
169		-130.859375
170		-123.046875
171		-130.859375
172		-123.046875
173		-128.906250
174		-123.046875
175		-126.953125
176		-123.046875
177		-126.953125
178		-119.140625
179		-126.953125
180		-119.140625
181		-125.000000
182		-117.187500
183		-125.000000
184		-115.234375
185		-121.093750
186		-115.234375
187		-121.093750
188		-113.281250
189		-119.140625
190		-113.281250
191		-115.234375
192		-111.328125
193		-115.234375
194		-109.375000
195		-115.234375
196		-107.421875
197		-111.328125
198		-105.468750
199		-111.328125
200		-103.515625
201		-109.375000
202		-101.562500
203		-107.421875
204		-99.609375
205		-105.468750
206		-95.703125
207		-99.609375
208		-95.703125
209		-97.656250
210		-93.750000
211		-97.656250
212		-89.843750
213		-95.703125
214		-87.890625
215		-91.796875
216		-85.937500
217		-91.796875
218		-82.031250
219		-87.890625
220		-80.078125
221		-85.937500
222		-78.125000
223		-82.031250
224		-76.171875
225		-78.125000
226		-72.265625
227		-76.171875
228		-70.312500
229		-74.218750
230		-66.406250
231		-72.265625
232		-62.500000
233		-70.312500
234		-60.546875
235		-66.406250
236		-56.640625
237		-62.500000
238		-54.687500
239		-58.593750
240		-50.781250
241		-54.687500
242		-50.781250
243		-52.734375
244		-46.875000
245		-50.781250
246		-42.968750
247		-46.875000
248		-39.062500
249		-44.921875
250		-35.156250
251		-41.015625
252		-33.203125
253		-39.062500
254		-29.296875
255		-35.156250
256		-27.343750
257		-33.203125
258		-25.390625
259		-27.343750
260		-21.484375
261		-23.437500
262		-17.578125
263		-21.484375
264		-13.671875
265		-19.531250
266		-11.718750
267		-17.578125
268		-7.812500
269		-13.671875
270		-5.859375
271		-9.765625
272		-1.953125
273		-5.859375
274		0.000000
275		-1.953125
276		3.906250
277		1.953125
278		7.812500
279		1.953125
280		11.718750
281		5.859375
282		13.671875
283		7.812500
284		17.578125
285		11.718750
286		19.531250
287		13.671875
288		23.437500
289		17.578125
290		25.390625
291		21.484375
292		27.343750
293		25.390625
294		29.296875
295		27.343750
296		33.203125
297		29.296875
298		37.109375
299		31.250000
300		39.062500
301		35.156250
302		42.968750
303		37.109375
304		44.921875
305		39.062500
306		46.875000
307		41.015625
308		48.828125
309		46.875000
310		50.781250
311		48.828125
312		54.687500
313		50.781250
314		58.593750
315		52.734375
316		58.593750
317		54.687500
318		62.500000
319		56.640625
320		64.453125
321		58.593750
322		66.406250
323		60.546875
324		68.359375
325		64.453125
326		68.359375
327		66.406250
328		72.265625
329		66.406250
330		74.218750
331		70.312500
332		76.171875
333		70.312500
334		78.125000
335		72.265625
336		80.078125
337		74.218750
338		82.031250
339		76.171875
340		83.984375
341		76.171875
342		83.984375
343		82.031250
344		85.937500
345		82.031250
346		87.890625
347		82.031250
348		89.843750
349		83.984375
350		91.796875
351		85.937500
352		91.796875
353		85.937500
354		93.750000
355		87.890625
356		95.703125
357		89.843750
358		95.703125
359		91.796875
360		95.703125
361		93.750000
362		97.656250
363		91.796875
364		99.609375
365		93.750000
366		99.609375
367		93.750000
368		101.562500
369		95.703125
370		101.562500
371		95.703125
372		103.515625
373		95.703125
374		101.562500
375		97.656250
376		101.562500
377		99.609375
378		101.562500
379		97.656250
380		103.515625
381		97.656250
382		105.468750
383		97.656250
384		105.468750
385		99.609375
386		105.468750
387		97.656250
388		105.468750
389		97.656250
390		105.468750
391		97.656250
392		105.468750
393		101.562500
394		103.515625
395		97.656250
396		105.468750
397		97.656250
398		105.468750
399		97.656250
400		105.468750
401		97.656250
402		103.515625
403		97.656250
404		103.515625
405		95.703125
406		103.515625
407		97.656250
408		103.515625
409		97.656250
410		101.562500
411		97.656250
412		99.609375
413		93.750000
414		101.562500
415		93.750000
416		99.609375
417		93.750000
418		101.562500
419		91.796875
420		99.609375
421		89.843750
422		97.656250
423		89.843750
424		95.703125
425		89.843750
426		95.703125
427		89.843750
428		93.750000
429		87.890625
430		93.750000
431		85.937500
432		93.750000
433		83.984375
434		89.843750
435		82.031250
436		89.843750
437		80.078125
438		87.890625
439		78.125000
440		87.890625
441		78.125000
442		83.984375
443		78.125000
444		82.031250
445		72.265625
446		80.078125
447		72.265625
448		80.078125
449		70.312500
450		78.125000
451		68.359375
452		76.171875
453		66.406250
454		72.265625
455		62.500000
456		72.265625
457		62.500000
458		70.312500
459		60.546875
460		66.406250
461		58.593750
462		64.453125
463		54.687500
464		62.500000
465		52.734375
466		60.546875
467		50.781250
468		58.593750
469		46.875000
470		56.640625
471		44.921875
472		52.734375
473		42.968750
474		50.781250
475		41.015625
476		48.828125
477		39.062500
478		42.968750
479		35.156250
480		41.015625
481		31.250000
482		39.062500
483		29.296875
484		37.109375
485		25.390625
486		35.156250
487		23.437500
488		31.250000
489		21.484375
490		29.296875
491		17.578125
492		25.390625
493		15.625000
494		21.484375
495		13.671875
496		19.531250
497		7.812500
498		15.625000
499		5.859375
500		13.671875
501		1.953125
502		9.765625
503		-1.953125
504		7.812500
505		-3.906250
506		3.906250
507		-7.812500
508		1.953125
509		-7.812500
510		-1.953125
511		-11.718750
512		-5.859375
513		-15.625000
514		-9.765625
515		-21.484375
516		-9.765625
517		-21.484375
518		-13.671875
519		-27.343750
520		-17.578125
521		-29.296875
522		-21.484375
523		-31.250000
524		-23.437500
525		-33.203125
526		-27.343750
527		-37.109375
528		-31.250000
529		-39.062500
530		-35.156250
531		-44.921875
532		-35.156250
533		-48.828125
534		-39.062500
535		-50.781250
536		-42.968750
537		-54.687500
538		-44.921875
539		-58.593750
540		-48.828125
541		-60.546875
542		-50.781250
543		-62.500000
544		-54.687500
545		-64.453125
546		-58.593750
547		-68.359375
548		-60.546875
549		-72.265625
550		-62.500000
551		-74.218750
552		-66.406250
553		-78.125000
554		-68.359375
555		-80.078125
556		-72.265625
557		-82.031250
558		-74.218750
559		-83.984375
560		-78.125000
561		-85.937500
562		-82.031250
563		-89.843750
564		-83.984375
565		-93.750000
566		-85.937500
567		-95.703125
568		-87.890625
569		-99.609375
570		-89.843750
571		-101.562500
572		-91.796875
573		-103.515625
574		-95.703125
575		-105.468750
576		-97.656250
577		-105.468750
578		-101.562500
579		-107.421875
580		-103.515625
581		-111.328125
582		-101.562500
583		-113.281250
584		-105.468750
585		-115.234375
586		-107.421875
587		-117.187500
588		-109.375000
589		-117.187500
590		-111.328125
591		-121.093750
592		-111.328125
593		-119.140625
594		-113.281250
595		-121.093750
596		-117.187500
597		-125.000000
598		-117.187500
599		-125.000000
600		-117.187500
601		-126.953125
602		-119.140625
603		-126.953125
604		-121.093750
605		-128.906250
606		-121.093750
607		-130.859375
608		-123.046875
609		-130.859375
610		-123.046875
611		-128.906250
612		-126.953125
613		-130.859375
614		-126.953125
615		-132.812500
616		-125.000000
617		-132.812500
618		-126.953125
619		-134.765625
620		-126.953125
621		-132.812500
622		-126.953125
623		-134.765625
624		-126.953125
625		-134.765625
626		-126.953125
627		-132.812500
628		-128.906250
629		-132.812500
630		-128.906250
631		-132.812500
632		-126.953125
633		-134.765625
634		-126.953125
635		-132.812500
636		-126.953125
637		-132.812500
638		-126.953125
639		-132.812500
640		-125.000000
641		-130.859375
642		-125.000000
643		-130.859375
644		-125.000000
645		-128.906250
646		-125.000000
647		-128.906250
648		-123.046875
649		-126.953125
650		-121.093750
651		-126.953125
652		-121.093750
653		-126.953125
654		-119.140625
655		-125.000000
656		-117.187500
657		-123.046875
658		-115.234375
659		-123.046875
660		-115.234375
661		-119.140625
662		-115.234375
663		-117.187500
664		-113.281250
665		-117.187500
666		-109.375000
667		-115.234375
668		-107.421875
669		-113.281250
670		-105.468750
671		-111.328125
672		-103.515625
673		-111.328125
674		-101.562500
675		-107.421875
676		-99.609375
677		-105.468750
678		-99.609375
679		-101.562500
680		-97.656250
681		-99.609375
682		-93.750000
683		-97.656250
684		-89.843750
685		-95.703125
686		-87.890625
687		-93.750000
688		-85.937500
689		-91.796875
690		-82.031250
691		-87.890625
692		-80.078125
693		-87.890625
694		-78.125000
695		-82.031250
696		-76.171875
697		-78.125000
698		-74.218750
699		-78.125000
700		-68.359375
701		-76.171875
702		-66.406250
703		-72.265625
704		-64.453125
705		-70.312500
706		-60.546875
707		-66.406250
708		-58.593750
709		-64.453125
710		-54.687500
711		-60.546875
712		-52.734375
713		-54.687500
714		-50.781250
715		-52.734375
716		-44.921875
717		-50.781250
718		-42.968750
719		-46.875000
720		-39.062500
721		-44.921875
722		-37.109375
723		-41.015625
724		-33.203125
725		-39.062500
726		-29.296875
727		-35.156250
728		-29.296875
729		-31.250000
730		-25.390625
731		-27.343750
732		-19.531250
733		-25.390625
734		-17.578125
735		-23.437500
736		-13.671875
737		-19.531250
738		-11.718750
739		-15.625000
740		-7.812500
741		-13.671875
742		-3.906250
743		-9.765625
744		-1.953125
745		-5.859375
746		0.000000
747		-1.953125
748		1.953125
749		0.000000
750		7.812500
751		1.953125
752		11.718750
753		3.906250
754		13.671875
755		7.812500
756		15.625000
757		11.718750
758		19.531250
759		15.625000
760		23.437500
761		17.578125
762		23.437500
763		21.484375
764		27.343750
765		23.437500
766		31.250000
767		25.390625
768		35.156250
769		27.343750
770		37.109375
771		31.250000
772		39.062500
773		33.203125
774		42.968750
775		37.109375
776		44.921875
777		39.062500
778		46.875000
779		42.968750
780		48.828125
781		46.875000
782		50.781250
783		46.875000
784		54.687500
785		48.828125
786		56.640625
787		50.781250
788		58.593750
789		52.734375
790		62.500000
791		56.640625
792		64.453125
793		58.593750
794		66.406250
795		60.546875
796		66.406250
797		64.453125
798		70.312500
799		66.406250
800		72.265625
801		66.406250
802		74.218750
803		68.359375
804		76.171875
805		70.312500
806		80.078125
807		72.265625
808		80.078125
809		74.218750
810		82.031250
811		76.171875
812		83.984375
813		80.078125
814		83.984375
815		80.078125
816		85.937500
817		82.031250
818		87.890625
819		82.031250
820		89.843750
821		83.984375
822		91.796875
823		83.984375
824		91.796875
825		85.937500
826		93.750000
827		87.890625
828		95.703125
829		89.843750
830		93.750000
831		91.796875
832		95.703125
833		91.796875
834		97.656250
835		91.796875
836		97.656250
837		91.796875
838		99.609375
839		93.750000
840		99.609375
841		93.750000
842		101.562500
843		95.703125
844		101.562500
845		95.703125
846		101.562500
847		97.656250
848		101.562500
849		97.656250
850		103.515625
851		97.656250
852		103.515625
853		97.656250
854		105.468750
855		97.656250
856		105.468750
857		97.656250
858		103.515625
859		97.656250
860		105.468750
861		97.656250
862		105.468750
863		99.609375
864		103.515625
865		99.609375
866		103.515625
867		97.656250
868		105.468750
869		97.656250
870		105.468750
871		97.656250
872		103.515625
873		97.656250
874		103.515625
875		95.703125
876		103.515625
877		95.703125
878		101.562500
879		97.656250
880		101.562500
881		97.656250
882		99.609375
883		93.750000
884		101.562500
885		93.750000
886		101.562500
887		91.796875
888		99.609375
889		91.796875
890		99.609375
891		91.796875
892		97.656250
893		89.843750
894		97.656250
895		89.843750
896		95.703125
897		89.843750
898		93.750000
899		85.937500
900		91.796875
901		85.937500
902		91.796875
903		83.984375
904		91.796875
905		82.031250
906		89.843750
907		82.031250
908		87.890625
909		78.125000
910		85.937500
911		78.125000
912		85.937500
913		78.125000
914		82.031250
915		76.171875
916		80.078125
917		72.265625
918		80.078125
919		68.359375
920		78.125000
921		68.359375
922		76.171875
923		66.406250
924		74.218750
925		64.453125
926		72.265625
927		62.500000
928		70.312500
929		62.500000
930		68.359375
931		60.546875
932		64.453125
933		54.687500
934		62.500000
935		52.734375
936		62.500000
937		50.781250
938		60.546875
939		48.828125
940		56.640625
941		46.875000
942		52.734375
943		42.968750
944		52.734375
945		41.015625
946		48.828125
947		41.015625
948		44.921875
949		37.109375
950		42.968750
951		33.203125
952		41.015625
953		31.250000
954		39.062500
955		25.390625
956		35.156250
957		23.437500
958		33.203125
959		21.484375
960		31.250000
961		19.531250
962		27.343750
963		17.578125
964		23.437500
965		13.671875
966		19.531250
967		9.765625
968		15.625000
969		7.812500
970		13.671875
971		3.906250
972		11.718750
973		0.000000
974		7.812500
975		-1.953125
976		5.859375
977		-5.859375
978		1.953125
979		-7.812500
980		0.000000
981		-9.765625
982		-5.859375
983		-13.671875
984		-7.812500
985		-17.578125
986		-9.765625
987		-21.484375
988		-11.718750
989		-25.390625
990		-15.625000
991		-27.343750
992		-17.578125
993		-31.250000
994		-23.437500
995		-33.203125
996		-25.390625
997		-35.156250
998		-29.296875
999		-39.062500
1000		-33.203125
1001		-42.968750
1002		-37.109375
1003		-44.921875
1004		-39.062500
1005		-50.781250
1006		-41.015625
1007		-52.734375
1008		-44.921875
1009		-54.687500
1010		-46.875000
1011		-60.546875
1012		-48.828125
1013		-60.546875
1014		-54.687500
1015		-62.500000
1016		-58.593750
1017		-68.359375
1018		-60.546875
1019		-70.312500
1020		-62.500000
1021		-72.265625
1022		-64.453125
1023		-76.171875
1024		-68.359375
1025		-78.125000
1026		-70.312500
1027		-83.984375
1028		-74.218750
1029		-83.984375
1030		-76.171875
1031		-85.937500
1032		-80.078125
1033		-87.890625
1034		-83.984375
1035		-93.750000
1036		-85.937500
1037		-95.703125
1038		-85.937500
1039		-97.656250
1040		-89.843750
1041		-99.609375
1042		-91.796875
1043		-101.562500
1044		-95.703125
1045		-103.515625
1046		-95.703125
1047		-105.468750
1048		-97.656250
1049		-107.421875
1050		-101.562500
1051		-109.375000
1052		-103.515625
1053		-113.281250
1054		-105.468750
1055		-115.234375
1056		-107.421875
1057		-117.187500
1058		-109.375000
1059		-117.187500
1060		-111.328125
1061		-119.140625
1062		-111.328125
1063		-121.093750
1064		-113.281250
1065		-121.093750
1066		-117.187500
1067		-123.046875
1068		-119.140625
1069		-125.000000
1070		-117.187500
1071		-126.953125
1072		-119.140625
1073		-126.953125
1074		-121.093750
1075		-128.906250
1076		-123.046875
1077		-130.859375
1078		-123.046875
1079		-130.859375
1080		-123.046875
1081		-128.906250
1082		-126.953125
1083		-130.859375
1084		-126.953125
1085		-134.765625
1086		-125.000000
1087		-132.812500
1088		-126.953125
1089		-134.765625
1090		-126.953125
1091		-134.765625
1092		-126.953125
1093		-134.765625
1094		-126.953125
1095		-134.765625
1096		-128.906250
1097		-134.765625
1098		-128.906250
1099		-132.812500
1100		-128.906250
1101		-134.765625
1102		-128.906250
1103		-134.765625
1104		-126.953125
1105		-134.765625
1106		-126.953125
1107		-134.765625
1108		-126.953125
1109		-132.812500
1110		-126.953125
1111		-132.812500
1112		-125.000000
1113		-132.812500
1114		-125.000000
1115		-128.906250
1116		-126.953125
1117		-128.906250
1118		-125.000000
1119		-130.859375
1120		-121.093750
1121		-128.906250
1122		-121.093750
1123		-126.953125
1124		-121.093750
1125		-125.000000
1126		-119.140625
1127		-126.953125
1128		-117.187500
1129		-123.046875
1130		-117.187500
1131		-123.046875
1132		-115.234375
1133		-119.140625
1134		-115.234375
1135		-117.187500
1136		-113.281250
1137		-117.187500
1138		-109.375000
1139		-115.234375
1140		-109.375000
1141		-113.281250
1142		-105.468750
1143		-111.328125
1144		-103.515625
1145		-109.375000
1146		-103.515625
1147		-107.421875
1148		-99.609375
1149		-103.515625
1150		-99.609375
1151		-101.562500
1152		-97.656250
1153		-101.562500
1154		-91.796875
1155		-97.656250
1156		-89.843750
1157		-95.703125
1158		-87.890625
1159		-93.750000
1160		-85.937500
1161		-89.843750
1162		-82.031250
1163		-89.843750
1164		-80.078125
1165		-83.984375
1166		-78.125000
1167		-82.031250
1168		-76.171875
1169		-80.078125
1170		-72.265625
1171		-76.171875
1172		-70.312500
1173		-76.171875
1174		-66.406250
1175		-72.265625
1176		-62.500000
1177		-68.359375
1178		-60.546875
1179		-64.453125
1180		-58.593750
1181		-62.500000
1182		-56.640625
1183		-58.593750
1184		-52.734375
1185		-54.687500
1186		-48.828125
1187		-52.734375
1188		-44.921875
1189		-50.781250
1190		-42.968750
1191		-48.828125
1192		-41.015625
1193		-44.921875
1194		-37.109375
1195		-41.015625
1196		-33.203125
1197		-37.109375
1198		-31.250000
1199		-33.203125
1200		-27.343750
1201		-29.296875
1202		-23.437500
1203		-27.343750
1204		-19.531250
1205		-25.390625
1206		-17.578125
1207		-23.437500
1208		-13.671875
1209		-19.531250
1210		-11.718750
1211		-15.625000
1212		-7.812500
1213		-11.718750
1214		-3.906250
1215		-9.765625
1216		-1.953125
1217		-5.859375
1218		0.000000
1219		-1.953125
1220		5.859375
1221		0.000000
1222		7.812500
1223		1.953125
1224		11.718750
1225		5.859375
1226		13.671875
1227		7.812500
1228		17.578125
1229		11.718750
1230		21.484375
1231		13.671875
1232		21.484375
1233		19.531250
1234		23.437500
1235		21.484375
1236		27.343750
1237		23.437500
1238		31.250000
1239		25.390625
1240		35.156250
1241		29.296875
