metingen laweit/1000Hz, 66.4cm/data_81_m611.txt

Channel              :		CH1
Frequency            :		1.061kHz
Period               :		0.942ms
PK-PK                :		214.8mV
Probe attenuation    :		1X
Voltage per ADC value:		0.122070mV
Time interval        :		2.00000us

index		CH1_Voltage(mV)
1		52.734375
2		52.734375
3		46.875000
4		50.781250
5		42.968750
6		50.781250
7		41.015625
8		46.875000
9		39.062500
10		46.875000
11		35.156250
12		42.968750
13		33.203125
14		41.015625
15		31.250000
16		37.109375
17		29.296875
18		35.156250
19		27.343750
20		33.203125
21		23.437500
22		29.296875
23		21.484375
24		29.296875
25		17.578125
26		25.390625
27		15.625000
28		23.437500
29		13.671875
30		21.484375
31		9.765625
32		17.578125
33		9.765625
34		15.625000
35		7.812500
36		11.718750
37		1.953125
38		9.765625
39		0.000000
40		9.765625
41		-1.953125
42		5.859375
43		-5.859375
44		1.953125
45		-7.812500
46		0.000000
47		-11.718750
48		-1.953125
49		-13.671875
50		-5.859375
51		-15.625000
52		-9.765625
53		-17.578125
54		-11.718750
55		-21.484375
56		-13.671875
57		-25.390625
58		-15.625000
59		-27.343750
60		-19.531250
61		-29.296875
62		-21.484375
63		-33.203125
64		-25.390625
65		-37.109375
66		-27.343750
67		-37.109375
68		-31.250000
69		-39.062500
70		-35.156250
71		-44.921875
72		-37.109375
73		-46.875000
74		-37.109375
75		-48.828125
76		-41.015625
77		-52.734375
78		-42.968750
79		-54.687500
80		-46.875000
81		-56.640625
82		-48.828125
83		-58.593750
84		-50.781250
85		-60.546875
86		-54.687500
87		-62.500000
88		-58.593750
89		-66.406250
90		-60.546875
91		-70.312500
92		-60.546875
93		-72.265625
94		-62.500000
95		-74.218750
96		-66.406250
97		-76.171875
98		-68.359375
99		-78.125000
100		-70.312500
101		-78.125000
102		-72.265625
103		-82.031250
104		-76.171875
105		-83.984375
106		-78.125000
107		-85.937500
108		-80.078125
109		-87.890625
110		-82.031250
111		-89.843750
112		-83.984375
113		-91.796875
114		-85.937500
115		-93.750000
116		-87.890625
117		-95.703125
118		-89.843750
119		-95.703125
120		-91.796875
121		-99.609375
122		-93.750000
123		-101.562500
124		-93.750000
125		-103.515625
126		-95.703125
127		-103.515625
128		-95.703125
129		-105.468750
130		-97.656250
131		-107.421875
132		-99.609375
133		-107.421875
134		-99.609375
135		-107.421875
136		-103.515625
137		-107.421875
138		-105.468750
139		-111.328125
140		-105.468750
141		-111.328125
142		-105.468750
143		-113.281250
144		-105.468750
145		-113.281250
146		-105.468750
147		-115.234375
148		-105.468750
149		-115.234375
150		-107.421875
151		-113.281250
152		-107.421875
153		-113.281250
154		-111.328125
155		-117.187500
156		-109.375000
157		-117.187500
158		-109.375000
159		-117.187500
160		-109.375000
161		-117.187500
162		-109.375000
163		-117.187500
164		-109.375000
165		-117.187500
166		-109.375000
167		-117.187500
168		-109.375000
169		-113.281250
170		-111.328125
171		-113.281250
172		-111.328125
173		-115.234375
174		-107.421875
175		-115.234375
176		-109.375000
177		-115.234375
178		-107.421875
179		-113.281250
180		-107.421875
181		-113.281250
182		-105.468750
183		-113.281250
184		-105.468750
185		-111.328125
186		-105.468750
187		-109.375000
188		-105.468750
189		-109.375000
190		-103.515625
191		-109.375000
192		-101.562500
193		-107.421875
194		-99.609375
195		-107.421875
196		-97.656250
197		-105.468750
198		-97.656250
199		-103.515625
200		-95.703125
201		-101.562500
202		-95.703125
203		-99.609375
204		-93.750000
205		-97.656250
206		-91.796875
207		-97.656250
208		-89.843750
209		-95.703125
210		-87.890625
211		-93.750000
212		-85.937500
213		-91.796875
214		-83.984375
215		-89.843750
216		-82.031250
217		-87.890625
218		-80.078125
219		-83.984375
220		-80.078125
221		-82.031250
222		-78.125000
223		-80.078125
224		-74.218750
225		-80.078125
226		-72.265625
227		-78.125000
228		-68.359375
229		-76.171875
230		-66.406250
231		-72.265625
232		-64.453125
233		-70.312500
234		-62.500000
235		-68.359375
236		-60.546875
237		-64.453125
238		-58.593750
239		-60.546875
240		-54.687500
241		-60.546875
242		-52.734375
243		-58.593750
244		-50.781250
245		-54.687500
246		-46.875000
247		-52.734375
248		-42.968750
249		-48.828125
250		-41.015625
251		-46.875000
252		-39.062500
253		-42.968750
254		-39.062500
255		-39.062500
256		-35.156250
257		-39.062500
258		-31.250000
259		-35.156250
260		-29.296875
261		-35.156250
262		-25.390625
263		-29.296875
264		-23.437500
265		-29.296875
266		-19.531250
267		-25.390625
268		-17.578125
269		-23.437500
270		-15.625000
271		-17.578125
272		-13.671875
273		-15.625000
274		-7.812500
275		-13.671875
276		-3.906250
277		-11.718750
278		-3.906250
279		-9.765625
280		0.000000
281		-7.812500
282		1.953125
283		-3.906250
284		3.906250
285		-1.953125
286		5.859375
287		3.906250
288		7.812500
289		5.859375
290		11.718750
291		7.812500
292		15.625000
293		9.765625
294		17.578125
295		13.671875
296		19.531250
297		13.671875
298		21.484375
299		17.578125
300		25.390625
301		19.531250
302		27.343750
303		23.437500
304		29.296875
305		25.390625
306		31.250000
307		27.343750
308		35.156250
309		29.296875
310		37.109375
311		31.250000
312		39.062500
313		33.203125
314		42.968750
315		35.156250
316		44.921875
317		39.062500
318		46.875000
319		41.015625
320		46.875000
321		44.921875
322		48.828125
323		46.875000
324		52.734375
325		46.875000
326		54.687500
327		48.828125
328		56.640625
329		50.781250
330		58.593750
331		52.734375
332		60.546875
333		54.687500
334		62.500000
335		56.640625
336		64.453125
337		60.546875
338		64.453125
339		62.500000
340		66.406250
341		62.500000
342		70.312500
343		64.453125
344		72.265625
345		64.453125
346		74.218750
347		66.406250
348		74.218750
349		68.359375
350		76.171875
351		68.359375
352		78.125000
353		70.312500
354		76.171875
355		74.218750
356		78.125000
357		74.218750
358		80.078125
359		74.218750
360		82.031250
361		76.171875
362		83.984375
363		76.171875
364		83.984375
365		78.125000
366		85.937500
367		78.125000
368		85.937500
369		80.078125
370		87.890625
371		83.984375
372		85.937500
373		83.984375
374		87.890625
375		82.031250
376		89.843750
377		82.031250
378		91.796875
379		83.984375
380		91.796875
381		83.984375
382		91.796875
383		83.984375
384		91.796875
385		85.937500
386		91.796875
387		87.890625
388		91.796875
389		87.890625
390		91.796875
391		85.937500
392		93.750000
393		85.937500
394		93.750000
395		85.937500
396		93.750000
397		85.937500
398		93.750000
399		85.937500
400		93.750000
401		85.937500
402		93.750000
403		87.890625
404		93.750000
405		87.890625
406		91.796875
407		85.937500
408		91.796875
409		85.937500
410		93.750000
411		85.937500
412		93.750000
413		85.937500
414		91.796875
415		85.937500
416		91.796875
417		83.984375
418		91.796875
419		83.984375
420		89.843750
421		85.937500
422		87.890625
423		83.984375
424		87.890625
425		82.031250
426		89.843750
427		82.031250
428		87.890625
429		80.078125
430		87.890625
431		78.125000
432		85.937500
433		78.125000
434		85.937500
435		76.171875
436		83.984375
437		78.125000
438		83.984375
439		76.171875
440		80.078125
441		74.218750
442		80.078125
443		72.265625
444		80.078125
445		70.312500
446		78.125000
447		70.312500
448		76.171875
449		68.359375
450		76.171875
451		66.406250
452		74.218750
453		66.406250
454		72.265625
455		66.406250
456		70.312500
457		62.500000
458		68.359375
459		60.546875
460		66.406250
461		58.593750
462		66.406250
463		56.640625
464		64.453125
465		54.687500
466		62.500000
467		52.734375
468		60.546875
469		50.781250
470		58.593750
471		50.781250
472		54.687500
473		48.828125
474		52.734375
475		42.968750
476		52.734375
477		41.015625
478		50.781250
479		41.015625
480		46.875000
481		37.109375
482		44.921875
483		35.156250
484		42.968750
485		33.203125
486		41.015625
487		31.250000
488		39.062500
489		29.296875
490		35.156250
491		25.390625
492		31.250000
493		23.437500
494		31.250000
495		21.484375
496		29.296875
497		17.578125
498		25.390625
499		15.625000
500		23.437500
501		13.671875
502		21.484375
503		9.765625
504		17.578125
505		9.765625
506		13.671875
507		5.859375
508		11.718750
509		1.953125
510		9.765625
511		0.000000
512		7.812500
513		-1.953125
514		5.859375
515		-7.812500
516		1.953125
517		-9.765625
518		0.000000
519		-11.718750
520		-3.906250
521		-11.718750
522		-7.812500
523		-15.625000
524		-9.765625
525		-19.531250
526		-13.671875
527		-23.437500
528		-13.671875
529		-25.390625
530		-15.625000
531		-27.343750
532		-19.531250
533		-29.296875
534		-23.437500
535		-33.203125
536		-25.390625
537		-35.156250
538		-27.343750
539		-37.109375
540		-33.203125
541		-39.062500
542		-35.156250
543		-42.968750
544		-37.109375
545		-48.828125
546		-39.062500
547		-48.828125
548		-41.015625
549		-52.734375
550		-44.921875
551		-54.687500
552		-46.875000
553		-56.640625
554		-48.828125
555		-58.593750
556		-50.781250
557		-60.546875
558		-54.687500
559		-64.453125
560		-58.593750
561		-68.359375
562		-58.593750
563		-70.312500
564		-62.500000
565		-72.265625
566		-64.453125
567		-74.218750
568		-66.406250
569		-76.171875
570		-68.359375
571		-78.125000
572		-70.312500
573		-80.078125
574		-74.218750
575		-82.031250
576		-76.171875
577		-85.937500
578		-78.125000
579		-85.937500
580		-80.078125
581		-89.843750
582		-82.031250
583		-91.796875
584		-82.031250
585		-93.750000
586		-83.984375
587		-93.750000
588		-85.937500
589		-93.750000
590		-89.843750
591		-95.703125
592		-91.796875
593		-99.609375
594		-91.796875
595		-101.562500
596		-93.750000
597		-101.562500
598		-95.703125
599		-105.468750
600		-95.703125
601		-105.468750
602		-97.656250
603		-105.468750
604		-99.609375
605		-105.468750
606		-99.609375
607		-107.421875
608		-103.515625
609		-109.375000
610		-101.562500
611		-111.328125
612		-101.562500
613		-113.281250
614		-103.515625
615		-111.328125
616		-105.468750
617		-113.281250
618		-105.468750
619		-115.234375
620		-105.468750
621		-113.281250
622		-107.421875
623		-113.281250
624		-109.375000
625		-115.234375
626		-109.375000
627		-115.234375
628		-109.375000
629		-117.187500
630		-107.421875
631		-115.234375
632		-109.375000
633		-115.234375
634		-109.375000
635		-115.234375
636		-107.421875
637		-115.234375
638		-109.375000
639		-115.234375
640		-109.375000
641		-115.234375
642		-109.375000
643		-115.234375
644		-107.421875
645		-115.234375
646		-107.421875
647		-115.234375
648		-107.421875
649		-115.234375
650		-107.421875
651		-113.281250
652		-107.421875
653		-111.328125
654		-105.468750
655		-111.328125
656		-105.468750
657		-109.375000
658		-105.468750
659		-109.375000
660		-101.562500
661		-109.375000
662		-101.562500
663		-107.421875
664		-101.562500
665		-105.468750
666		-99.609375
667		-105.468750
668		-97.656250
669		-105.468750
670		-95.703125
671		-103.515625
672		-95.703125
673		-99.609375
674		-95.703125
675		-97.656250
676		-93.750000
677		-97.656250
678		-91.796875
679		-95.703125
680		-89.843750
681		-93.750000
682		-87.890625
683		-93.750000
684		-85.937500
685		-89.843750
686		-82.031250
687		-87.890625
688		-80.078125
689		-87.890625
690		-80.078125
691		-83.984375
692		-78.125000
693		-82.031250
694		-74.218750
695		-80.078125
696		-72.265625
697		-80.078125
698		-70.312500
699		-76.171875
700		-68.359375
701		-74.218750
702		-66.406250
703		-70.312500
704		-64.453125
705		-70.312500
706		-62.500000
707		-64.453125
708		-60.546875
709		-62.500000
710		-58.593750
711		-62.500000
712		-52.734375
713		-58.593750
714		-50.781250
715		-56.640625
716		-48.828125
717		-54.687500
718		-44.921875
719		-52.734375
720		-42.968750
721		-50.781250
722		-41.015625
723		-46.875000
724		-39.062500
725		-41.015625
726		-37.109375
727		-39.062500
728		-33.203125
729		-39.062500
730		-29.296875
731		-35.156250
732		-27.343750
733		-31.250000
734		-23.437500
735		-31.250000
736		-21.484375
737		-27.343750
738		-19.531250
739		-25.390625
740		-17.578125
741		-19.531250
742		-15.625000
743		-17.578125
744		-9.765625
745		-15.625000
746		-9.765625
747		-13.671875
748		-5.859375
749		-9.765625
750		-1.953125
751		-7.812500
752		0.000000
753		-5.859375
754		1.953125
755		-3.906250
756		3.906250
757		1.953125
758		5.859375
759		3.906250
760		9.765625
761		5.859375
762		13.671875
763		7.812500
764		15.625000
765		9.765625
766		19.531250
767		11.718750
768		21.484375
769		15.625000
770		23.437500
771		17.578125
772		25.390625
773		19.531250
774		27.343750
775		25.390625
776		29.296875
777		27.343750
778		33.203125
779		27.343750
780		35.156250
781		29.296875
782		39.062500
783		31.250000
784		41.015625
785		35.156250
786		42.968750
787		37.109375
788		44.921875
789		39.062500
790		46.875000
791		42.968750
792		46.875000
793		44.921875
794		48.828125
795		46.875000
796		52.734375
797		46.875000
798		56.640625
799		48.828125
800		56.640625
801		50.781250
802		58.593750
803		54.687500
804		60.546875
805		56.640625
806		62.500000
807		58.593750
808		64.453125
809		60.546875
810		66.406250
811		62.500000
812		68.359375
813		62.500000
814		70.312500
815		64.453125
816		72.265625
817		64.453125
818		74.218750
819		66.406250
820		76.171875
821		68.359375
822		76.171875
823		70.312500
824		76.171875
825		74.218750
826		78.125000
827		72.265625
828		80.078125
829		74.218750
830		82.031250
831		74.218750
832		82.031250
833		76.171875
834		83.984375
835		78.125000
836		83.984375
837		78.125000
838		85.937500
839		80.078125
840		85.937500
841		82.031250
842		85.937500
843		83.984375
844		87.890625
845		82.031250
846		89.843750
847		82.031250
848		89.843750
849		82.031250
850		89.843750
851		83.984375
852		91.796875
853		85.937500
854		91.796875
855		83.984375
856		91.796875
857		85.937500
858		91.796875
859		87.890625
860		91.796875
861		87.890625
862		93.750000
863		85.937500
864		93.750000
865		85.937500
866		93.750000
867		85.937500
868		93.750000
869		87.890625
870		93.750000
871		87.890625
872		93.750000
873		85.937500
874		93.750000
875		87.890625
876		91.796875
877		87.890625
878		91.796875
879		85.937500
880		93.750000
881		85.937500
882		93.750000
883		85.937500
884		91.796875
885		85.937500
886		91.796875
887		85.937500
888		91.796875
889		83.984375
890		91.796875
891		83.984375
892		89.843750
893		83.984375
894		87.890625
895		82.031250
896		87.890625
897		82.031250
898		89.843750
899		82.031250
900		87.890625
901		80.078125
902		87.890625
903		78.125000
904		85.937500
905		76.171875
906		85.937500
907		76.171875
908		83.984375
909		76.171875
910		82.031250
911		74.218750
912		80.078125
913		72.265625
914		80.078125
915		72.265625
916		78.125000
917		70.312500
918		78.125000
919		70.312500
920		76.171875
921		66.406250
922		74.218750
923		64.453125
924		74.218750
925		66.406250
926		70.312500
927		64.453125
928		68.359375
929		60.546875
930		68.359375
931		58.593750
932		66.406250
933		56.640625
934		66.406250
935		54.687500
936		64.453125
937		52.734375
938		60.546875
939		50.781250
940		60.546875
941		50.781250
942		58.593750
943		48.828125
944		52.734375
945		44.921875
946		50.781250
947		42.968750
948		50.781250
949		41.015625
950		48.828125
951		37.109375
952		46.875000
953		37.109375
954		42.968750
955		35.156250
956		41.015625
957		31.250000
958		39.062500
959		31.250000
960		35.156250
961		27.343750
962		33.203125
963		25.390625
964		31.250000
965		23.437500
966		29.296875
967		17.578125
968		27.343750
969		15.625000
970		25.390625
971		15.625000
972		21.484375
973		11.718750
974		19.531250
975		9.765625
976		17.578125
977		7.812500
978		13.671875
979		3.906250
980		9.765625
981		0.000000
982		9.765625
983		-1.953125
984		5.859375
985		-5.859375
986		3.906250
987		-7.812500
988		0.000000
989		-9.765625
990		-1.953125
991		-11.718750
992		-3.906250
993		-13.671875
994		-9.765625
995		-17.578125
996		-11.718750
997		-21.484375
998		-13.671875
999		-23.437500
1000		-15.625000
1001		-27.343750
1002		-19.531250
1003		-29.296875
1004		-21.484375
1005		-33.203125
1006		-25.390625
1007		-35.156250
1008		-25.390625
1009		-35.156250
1010		-31.250000
1011		-39.062500
1012		-33.203125
1013		-42.968750
1014		-35.156250
1015		-44.921875
1016		-39.062500
1017		-46.875000
1018		-41.015625
1019		-50.781250
1020		-41.015625
1021		-52.734375
1022		-44.921875
1023		-56.640625
1024		-48.828125
1025		-56.640625
1026		-50.781250
1027		-58.593750
1028		-54.687500
1029		-62.500000
1030		-56.640625
1031		-66.406250
1032		-58.593750
1033		-68.359375
1034		-60.546875
1035		-70.312500
1036		-62.500000
1037		-72.265625
1038		-66.406250
1039		-74.218750
1040		-66.406250
1041		-78.125000
1042		-70.312500
1043		-78.125000
1044		-74.218750
1045		-80.078125
1046		-76.171875
1047		-83.984375
1048		-78.125000
1049		-85.937500
1050		-78.125000
1051		-87.890625
1052		-80.078125
1053		-89.843750
1054		-82.031250
1055		-91.796875
1056		-85.937500
1057		-93.750000
1058		-85.937500
1059		-93.750000
1060		-87.890625
1061		-95.703125
1062		-91.796875
1063		-99.609375
1064		-91.796875
1065		-101.562500
1066		-91.796875
1067		-101.562500
1068		-95.703125
1069		-103.515625
1070		-95.703125
1071		-105.468750
1072		-97.656250
1073		-105.468750
1074		-97.656250
1075		-107.421875
1076		-99.609375
1077		-107.421875
1078		-103.515625
1079		-107.421875
1080		-103.515625
1081		-111.328125
1082		-101.562500
1083		-111.328125
1084		-105.468750
1085		-111.328125
1086		-105.468750
1087		-113.281250
1088		-105.468750
1089		-115.234375
1090		-105.468750
1091		-115.234375
1092		-107.421875
1093		-113.281250
1094		-109.375000
1095		-113.281250
1096		-111.328125
1097		-117.187500
1098		-109.375000
1099		-115.234375
1100		-109.375000
1101		-117.187500
1102		-109.375000
1103		-117.187500
1104		-109.375000
1105		-117.187500
1106		-109.375000
1107		-117.187500
1108		-109.375000
1109		-117.187500
1110		-109.375000
1111		-115.234375
1112		-111.328125
1113		-115.234375
1114		-111.328125
1115		-115.234375
1116		-109.375000
1117		-115.234375
1118		-107.421875
1119		-115.234375
1120		-109.375000
1121		-115.234375
1122		-107.421875
1123		-113.281250
1124		-107.421875
1125		-113.281250
1126		-105.468750
1127		-109.375000
1128		-107.421875
1129		-109.375000
1130		-105.468750
1131		-109.375000
1132		-103.515625
1133		-109.375000
1134		-101.562500
1135		-107.421875
1136		-99.609375
1137		-107.421875
1138		-99.609375
1139		-105.468750
1140		-97.656250
1141		-105.468750
1142		-97.656250
1143		-103.515625
1144		-97.656250
1145		-99.609375
1146		-95.703125
1147		-99.609375
1148		-91.796875
1149		-99.609375
1150		-89.843750
1151		-97.656250
1152		-87.890625
1153		-95.703125
1154		-85.937500
1155		-93.750000
1156		-85.937500
1157		-89.843750
1158		-83.984375
1159		-89.843750
1160		-82.031250
1161		-85.937500
1162		-80.078125
1163		-83.984375
1164		-78.125000
1165		-82.031250
1166		-76.171875
1167		-82.031250
1168		-72.265625
1169		-78.125000
1170		-70.312500
1171		-76.171875
1172		-68.359375
1173		-72.265625
1174		-66.406250
1175		-72.265625
1176		-62.500000
1177		-68.359375
1178		-62.500000
1179		-64.453125
1180		-60.546875
1181		-62.500000
1182		-56.640625
1183		-62.500000
1184		-52.734375
1185		-58.593750
1186		-50.781250
1187		-58.593750
1188		-46.875000
1189		-54.687500
1190		-44.921875
1191		-50.781250
1192		-42.968750
1193		-48.828125
1194		-41.015625
1195		-44.921875
1196		-39.062500
1197		-42.968750
1198		-37.109375
1199		-41.015625
1200		-33.203125
1201		-39.062500
1202		-29.296875
1203		-35.156250
1204		-27.343750
1205		-33.203125
1206		-23.437500
1207		-29.296875
1208		-21.484375
1209		-27.343750
1210		-19.531250
1211		-23.437500
1212		-17.578125
1213		-19.531250
1214		-13.671875
1215		-17.578125
1216		-11.718750
1217		-17.578125
1218		-7.812500
1219		-13.671875
1220		-5.859375
1221		-9.765625
1222		-1.953125
1223		-7.812500
1224		0.000000
1225		-5.859375
1226		1.953125
1227		-1.953125
1228		3.906250
1229		1.953125
1230		7.812500
1231		3.906250
1232		11.718750
1233		5.859375
1234		13.671875
1235		7.812500
1236		15.625000
1237		9.765625
1238		17.578125
1239		13.671875
1240		21.484375
1241		15.625000
1242		23.437500
1243		17.578125
1244		25.390625
1245		21.484375
1246		27.343750
1247		25.390625
1248		29.296875
1249		25.390625
1250		33.203125
1251		29.296875
1252		35.156250
