metingen laweit/1000Hz, 66.4cm/data_81_m139.txt

Channel              :		CH1
Frequency            :		1.061kHz
Period               :		0.942ms
PK-PK                :		273.4mV
Probe attenuation    :		1X
Voltage per ADC value:		0.122070mV
Time interval        :		2.00000us

index		CH1_Voltage(mV)
1		72.265625
2		72.265625
3		60.546875
4		70.312500
5		58.593750
6		66.406250
7		56.640625
8		64.453125
9		54.687500
10		60.546875
11		52.734375
12		56.640625
13		46.875000
14		54.687500
15		44.921875
16		52.734375
17		41.015625
18		50.781250
19		39.062500
20		46.875000
21		35.156250
22		42.968750
23		33.203125
24		39.062500
25		29.296875
26		37.109375
27		27.343750
28		33.203125
29		21.484375
30		29.296875
31		19.531250
32		27.343750
33		15.625000
34		23.437500
35		11.718750
36		21.484375
37		9.765625
38		17.578125
39		5.859375
40		13.671875
41		3.906250
42		11.718750
43		0.000000
44		5.859375
45		-5.859375
46		1.953125
47		-7.812500
48		0.000000
49		-11.718750
50		-1.953125
51		-15.625000
52		-7.812500
53		-19.531250
54		-11.718750
55		-21.484375
56		-15.625000
57		-25.390625
58		-15.625000
59		-27.343750
60		-23.437500
61		-31.250000
62		-25.390625
63		-37.109375
64		-29.296875
65		-39.062500
66		-31.250000
67		-42.968750
68		-35.156250
69		-46.875000
70		-39.062500
71		-50.781250
72		-41.015625
73		-54.687500
74		-44.921875
75		-54.687500
76		-48.828125
77		-58.593750
78		-52.734375
79		-64.453125
80		-56.640625
81		-68.359375
82		-58.593750
83		-70.312500
84		-62.500000
85		-72.265625
86		-66.406250
87		-76.171875
88		-68.359375
89		-80.078125
90		-72.265625
91		-82.031250
92		-76.171875
93		-83.984375
94		-78.125000
95		-87.890625
96		-82.031250
97		-93.750000
98		-83.984375
99		-95.703125
100		-87.890625
101		-97.656250
102		-89.843750
103		-101.562500
104		-91.796875
105		-103.515625
106		-95.703125
107		-105.468750
108		-97.656250
109		-107.421875
110		-101.562500
111		-109.375000
112		-105.468750
113		-113.281250
114		-107.421875
115		-115.234375
116		-107.421875
117		-119.140625
118		-109.375000
119		-121.093750
120		-113.281250
121		-123.046875
122		-115.234375
123		-125.000000
124		-117.187500
125		-125.000000
126		-119.140625
127		-126.953125
128		-121.093750
129		-128.906250
130		-125.000000
131		-130.859375
132		-125.000000
133		-132.812500
134		-126.953125
135		-134.765625
136		-126.953125
137		-136.718750
138		-128.906250
139		-136.718750
140		-130.859375
141		-138.671875
142		-132.812500
143		-138.671875
144		-134.765625
145		-138.671875
146		-134.765625
147		-142.578125
148		-134.765625
149		-142.578125
150		-136.718750
151		-142.578125
152		-136.718750
153		-144.531250
154		-136.718750
155		-144.531250
156		-138.671875
157		-144.531250
158		-136.718750
159		-144.531250
160		-138.671875
161		-142.578125
162		-140.625000
163		-144.531250
164		-138.671875
165		-144.531250
166		-138.671875
167		-144.531250
168		-138.671875
169		-144.531250
170		-138.671875
171		-144.531250
172		-136.718750
173		-142.578125
174		-136.718750
175		-142.578125
176		-136.718750
177		-140.625000
178		-136.718750
179		-140.625000
180		-136.718750
181		-140.625000
182		-134.765625
183		-140.625000
184		-132.812500
185		-138.671875
186		-132.812500
187		-138.671875
188		-130.859375
189		-136.718750
190		-130.859375
191		-136.718750
192		-128.906250
193		-134.765625
194		-128.906250
195		-130.859375
196		-126.953125
197		-130.859375
198		-123.046875
199		-128.906250
200		-121.093750
201		-126.953125
202		-121.093750
203		-125.000000
204		-117.187500
205		-123.046875
206		-115.234375
207		-121.093750
208		-113.281250
209		-119.140625
210		-113.281250
211		-115.234375
212		-109.375000
213		-113.281250
214		-105.468750
215		-113.281250
216		-103.515625
217		-109.375000
218		-101.562500
219		-107.421875
220		-99.609375
221		-103.515625
222		-95.703125
223		-101.562500
224		-93.750000
225		-97.656250
226		-89.843750
227		-93.750000
228		-87.890625
229		-91.796875
230		-85.937500
231		-87.890625
232		-82.031250
233		-85.937500
234		-78.125000
235		-83.984375
236		-76.171875
237		-80.078125
238		-72.265625
239		-78.125000
240		-68.359375
241		-74.218750
242		-66.406250
243		-72.265625
244		-64.453125
245		-66.406250
246		-60.546875
247		-62.500000
248		-56.640625
249		-58.593750
250		-52.734375
251		-56.640625
252		-48.828125
253		-52.734375
254		-46.875000
255		-48.828125
256		-41.015625
257		-44.921875
258		-39.062500
259		-42.968750
260		-35.156250
261		-37.109375
262		-31.250000
263		-35.156250
264		-29.296875
265		-31.250000
266		-23.437500
267		-27.343750
268		-19.531250
269		-25.390625
270		-15.625000
271		-21.484375
272		-13.671875
273		-17.578125
274		-9.765625
275		-15.625000
276		-5.859375
277		-11.718750
278		-3.906250
279		-5.859375
280		0.000000
281		-1.953125
282		3.906250
283		0.000000
284		7.812500
285		1.953125
286		11.718750
287		5.859375
288		15.625000
289		9.765625
290		17.578125
291		13.671875
292		21.484375
293		15.625000
294		23.437500
295		21.484375
296		27.343750
297		23.437500
298		31.250000
299		25.390625
300		35.156250
301		29.296875
302		39.062500
303		33.203125
304		41.015625
305		35.156250
306		42.968750
307		39.062500
308		46.875000
309		41.015625
310		48.828125
311		46.875000
312		50.781250
313		48.828125
314		54.687500
315		50.781250
316		58.593750
317		52.734375
318		62.500000
319		56.640625
320		64.453125
321		60.546875
322		66.406250
323		62.500000
324		70.312500
325		64.453125
326		72.265625
327		66.406250
328		74.218750
329		70.312500
330		76.171875
331		74.218750
332		80.078125
333		74.218750
334		82.031250
335		76.171875
336		83.984375
337		78.125000
338		85.937500
339		82.031250
340		87.890625
341		83.984375
342		89.843750
343		85.937500
344		91.796875
345		87.890625
346		93.750000
347		89.843750
348		95.703125
349		91.796875
350		97.656250
351		91.796875
352		99.609375
353		93.750000
354		103.515625
355		95.703125
356		103.515625
357		97.656250
358		105.468750
359		99.609375
360		105.468750
361		101.562500
362		107.421875
363		103.515625
364		107.421875
365		103.515625
366		111.328125
367		105.468750
368		111.328125
369		105.468750
370		111.328125
371		107.421875
372		113.281250
373		107.421875
374		115.234375
375		109.375000
376		117.187500
377		109.375000
378		115.234375
379		111.328125
380		115.234375
381		113.281250
382		117.187500
383		111.328125
384		119.140625
385		111.328125
386		119.140625
387		113.281250
388		119.140625
389		113.281250
390		119.140625
391		113.281250
392		119.140625
393		113.281250
394		121.093750
395		117.187500
396		119.140625
397		117.187500
398		119.140625
399		113.281250
400		121.093750
401		113.281250
402		121.093750
403		115.234375
404		121.093750
405		113.281250
406		121.093750
407		113.281250
408		119.140625
409		113.281250
410		121.093750
411		113.281250
412		119.140625
413		115.234375
414		117.187500
415		111.328125
416		119.140625
417		111.328125
418		117.187500
419		111.328125
420		117.187500
421		111.328125
422		117.187500
423		109.375000
424		115.234375
425		107.421875
426		115.234375
427		107.421875
428		113.281250
429		107.421875
430		111.328125
431		107.421875
432		111.328125
433		103.515625
434		111.328125
435		103.515625
436		109.375000
437		101.562500
438		107.421875
439		99.609375
440		107.421875
441		97.656250
442		105.468750
443		97.656250
444		103.515625
445		95.703125
446		101.562500
447		95.703125
448		99.609375
449		91.796875
450		99.609375
451		89.843750
452		97.656250
453		87.890625
454		95.703125
455		85.937500
456		93.750000
457		83.984375
458		89.843750
459		82.031250
460		89.843750
461		80.078125
462		87.890625
463		78.125000
464		83.984375
465		76.171875
466		82.031250
467		72.265625
468		80.078125
469		70.312500
470		78.125000
471		66.406250
472		74.218750
473		64.453125
474		72.265625
475		62.500000
476		70.312500
477		58.593750
478		68.359375
479		58.593750
480		62.500000
481		54.687500
482		60.546875
483		50.781250
484		58.593750
485		46.875000
486		56.640625
487		44.921875
488		52.734375
489		41.015625
490		50.781250
491		39.062500
492		46.875000
493		35.156250
494		44.921875
495		33.203125
496		41.015625
497		31.250000
498		35.156250
499		25.390625
500		33.203125
501		23.437500
502		31.250000
503		19.531250
504		27.343750
505		15.625000
506		23.437500
507		13.671875
508		21.484375
509		7.812500
510		17.578125
511		5.859375
512		13.671875
513		3.906250
514		9.765625
515		0.000000
516		5.859375
517		-3.906250
518		1.953125
519		-7.812500
520		1.953125
521		-11.718750
522		-3.906250
523		-15.625000
524		-5.859375
525		-17.578125
526		-9.765625
527		-21.484375
528		-13.671875
529		-23.437500
530		-17.578125
531		-27.343750
532		-21.484375
533		-33.203125
534		-25.390625
535		-37.109375
536		-27.343750
537		-39.062500
538		-33.203125
539		-42.968750
540		-33.203125
541		-46.875000
542		-39.062500
543		-50.781250
544		-41.015625
545		-52.734375
546		-44.921875
547		-54.687500
548		-50.781250
549		-58.593750
550		-52.734375
551		-64.453125
552		-54.687500
553		-66.406250
554		-58.593750
555		-70.312500
556		-60.546875
557		-72.265625
558		-64.453125
559		-76.171875
560		-68.359375
561		-80.078125
562		-72.265625
563		-82.031250
564		-76.171875
565		-83.984375
566		-78.125000
567		-89.843750
568		-82.031250
569		-91.796875
570		-83.984375
571		-93.750000
572		-85.937500
573		-97.656250
574		-87.890625
575		-99.609375
576		-91.796875
577		-103.515625
578		-95.703125
579		-103.515625
580		-97.656250
581		-105.468750
582		-101.562500
583		-109.375000
584		-103.515625
585		-113.281250
586		-105.468750
587		-115.234375
588		-107.421875
589		-117.187500
590		-109.375000
591		-119.140625
592		-113.281250
593		-121.093750
594		-113.281250
595		-123.046875
596		-117.187500
597		-123.046875
598		-119.140625
599		-125.000000
600		-121.093750
601		-128.906250
602		-121.093750
603		-130.859375
604		-123.046875
605		-132.812500
606		-125.000000
607		-134.765625
608		-126.953125
609		-134.765625
610		-128.906250
611		-136.718750
612		-128.906250
613		-136.718750
614		-130.859375
615		-136.718750
616		-132.812500
617		-138.671875
618		-132.812500
619		-140.625000
620		-132.812500
621		-140.625000
622		-134.765625
623		-142.578125
624		-134.765625
625		-142.578125
626		-136.718750
627		-144.531250
628		-134.765625
629		-142.578125
630		-136.718750
631		-142.578125
632		-138.671875
633		-142.578125
634		-138.671875
635		-142.578125
636		-136.718750
637		-144.531250
638		-138.671875
639		-144.531250
640		-136.718750
641		-142.578125
642		-136.718750
643		-142.578125
644		-136.718750
645		-142.578125
646		-134.765625
647		-140.625000
648		-136.718750
649		-138.671875
650		-136.718750
651		-140.625000
652		-132.812500
653		-140.625000
654		-132.812500
655		-138.671875
656		-130.859375
657		-136.718750
658		-130.859375
659		-136.718750
660		-128.906250
661		-134.765625
662		-126.953125
663		-134.765625
664		-126.953125
665		-130.859375
666		-126.953125
667		-128.906250
668		-125.000000
669		-128.906250
670		-121.093750
671		-126.953125
672		-121.093750
673		-125.000000
674		-117.187500
675		-123.046875
676		-115.234375
677		-121.093750
678		-113.281250
679		-119.140625
680		-111.328125
681		-115.234375
682		-111.328125
683		-113.281250
684		-107.421875
685		-111.328125
686		-105.468750
687		-109.375000
688		-101.562500
689		-107.421875
690		-99.609375
691		-105.468750
692		-95.703125
693		-101.562500
694		-93.750000
695		-99.609375
696		-89.843750
697		-95.703125
698		-89.843750
699		-91.796875
700		-85.937500
701		-89.843750
702		-82.031250
703		-87.890625
704		-78.125000
705		-83.984375
706		-74.218750
707		-82.031250
708		-74.218750
709		-78.125000
710		-68.359375
711		-74.218750
712		-66.406250
713		-72.265625
714		-64.453125
715		-66.406250
716		-60.546875
717		-62.500000
718		-56.640625
719		-60.546875
720		-54.687500
721		-58.593750
722		-48.828125
723		-54.687500
724		-46.875000
725		-50.781250
726		-42.968750
727		-46.875000
728		-39.062500
729		-44.921875
730		-35.156250
731		-39.062500
732		-33.203125
733		-35.156250
734		-29.296875
735		-33.203125
736		-25.390625
737		-31.250000
738		-21.484375
739		-25.390625
740		-17.578125
741		-23.437500
742		-13.671875
743		-19.531250
744		-11.718750
745		-15.625000
746		-7.812500
747		-13.671875
748		-5.859375
749		-7.812500
750		-1.953125
751		-3.906250
752		3.906250
753		-1.953125
754		5.859375
755		1.953125
756		9.765625
757		5.859375
758		13.671875
759		7.812500
760		15.625000
761		9.765625
762		19.531250
763		15.625000
764		23.437500
765		19.531250
766		25.390625
767		23.437500
768		29.296875
769		25.390625
770		33.203125
771		29.296875
772		37.109375
773		33.203125
774		39.062500
775		35.156250
776		42.968750
777		37.109375
778		44.921875
779		41.015625
780		48.828125
781		42.968750
782		50.781250
783		48.828125
784		52.734375
785		50.781250
786		56.640625
787		52.734375
788		60.546875
789		54.687500
790		64.453125
791		58.593750
792		64.453125
793		60.546875
794		68.359375
795		64.453125
796		70.312500
797		66.406250
798		72.265625
799		70.312500
800		74.218750
801		72.265625
802		78.125000
803		74.218750
804		82.031250
805		76.171875
806		83.984375
807		78.125000
808		85.937500
809		80.078125
810		87.890625
811		82.031250
812		89.843750
813		83.984375
814		91.796875
815		87.890625
816		93.750000
817		89.843750
818		93.750000
819		89.843750
820		97.656250
821		91.796875
822		99.609375
823		93.750000
824		101.562500
825		95.703125
826		103.515625
827		97.656250
828		105.468750
829		97.656250
830		105.468750
831		101.562500
832		105.468750
833		103.515625
834		107.421875
835		103.515625
836		109.375000
837		103.515625
838		111.328125
839		105.468750
840		113.281250
841		105.468750
842		113.281250
843		107.421875
844		115.234375
845		109.375000
846		115.234375
847		109.375000
848		115.234375
849		111.328125
850		115.234375
851		113.281250
852		115.234375
853		111.328125
854		119.140625
855		111.328125
856		119.140625
857		113.281250
858		121.093750
859		113.281250
860		119.140625
861		113.281250
862		121.093750
863		115.234375
864		121.093750
865		115.234375
866		121.093750
867		117.187500
868		119.140625
869		113.281250
870		121.093750
871		115.234375
872		121.093750
873		115.234375
874		121.093750
875		113.281250
876		121.093750
877		115.234375
878		121.093750
879		113.281250
880		121.093750
881		113.281250
882		119.140625
883		115.234375
884		119.140625
885		113.281250
886		117.187500
887		111.328125
888		119.140625
889		111.328125
890		119.140625
891		111.328125
892		117.187500
893		109.375000
894		117.187500
895		109.375000
896		115.234375
897		109.375000
898		115.234375
899		107.421875
900		113.281250
901		107.421875
902		111.328125
903		103.515625
904		111.328125
905		103.515625
906		111.328125
907		101.562500
908		109.375000
909		101.562500
910		109.375000
911		99.609375
912		107.421875
913		97.656250
914		105.468750
915		95.703125
916		101.562500
917		95.703125
918		99.609375
919		93.750000
920		97.656250
921		91.796875
922		97.656250
923		89.843750
924		95.703125
925		85.937500
926		95.703125
927		83.984375
928		91.796875
929		82.031250
930		89.843750
931		80.078125
932		87.890625
933		80.078125
934		83.984375
935		78.125000
936		82.031250
937		74.218750
938		80.078125
939		72.265625
940		78.125000
941		68.359375
942		76.171875
943		66.406250
944		74.218750
945		62.500000
946		72.265625
947		60.546875
948		68.359375
949		58.593750
950		66.406250
951		56.640625
952		62.500000
953		50.781250
954		58.593750
955		48.828125
956		56.640625
957		46.875000
958		54.687500
959		42.968750
960		50.781250
961		41.015625
962		48.828125
963		37.109375
964		44.921875
965		35.156250
966		41.015625
967		31.250000
968		37.109375
969		29.296875
970		35.156250
971		23.437500
972		31.250000
973		21.484375
974		29.296875
975		17.578125
976		27.343750
977		13.671875
978		21.484375
979		11.718750
980		19.531250
981		7.812500
982		15.625000
983		5.859375
984		13.671875
985		1.953125
986		7.812500
987		-3.906250
988		3.906250
989		-5.859375
990		1.953125
991		-9.765625
992		-1.953125
993		-13.671875
994		-5.859375
995		-17.578125
996		-9.765625
997		-19.531250
998		-11.718750
999		-23.437500
1000		-17.578125
1001		-25.390625
1002		-21.484375
1003		-31.250000
1004		-23.437500
1005		-35.156250
1006		-25.390625
1007		-39.062500
1008		-31.250000
1009		-41.015625
1010		-33.203125
1011		-44.921875
1012		-37.109375
1013		-48.828125
1014		-39.062500
1015		-52.734375
1016		-44.921875
1017		-54.687500
1018		-48.828125
1019		-56.640625
1020		-52.734375
1021		-62.500000
1022		-54.687500
1023		-64.453125
1024		-58.593750
1025		-68.359375
1026		-60.546875
1027		-72.265625
1028		-64.453125
1029		-74.218750
1030		-66.406250
1031		-80.078125
1032		-70.312500
1033		-80.078125
1034		-74.218750
1035		-82.031250
1036		-78.125000
1037		-87.890625
1038		-80.078125
1039		-89.843750
1040		-82.031250
1041		-93.750000
1042		-85.937500
1043		-95.703125
1044		-87.890625
1045		-99.609375
1046		-91.796875
1047		-101.562500
1048		-93.750000
1049		-103.515625
1050		-97.656250
1051		-105.468750
1052		-101.562500
1053		-107.421875
1054		-103.515625
1055		-113.281250
1056		-103.515625
1057		-115.234375
1058		-107.421875
1059		-117.187500
1060		-109.375000
1061		-119.140625
1062		-111.328125
1063		-121.093750
1064		-113.281250
1065		-123.046875
1066		-115.234375
1067		-125.000000
1068		-117.187500
1069		-125.000000
1070		-121.093750
1071		-128.906250
1072		-123.046875
1073		-130.859375
1074		-123.046875
1075		-132.812500
1076		-125.000000
1077		-132.812500
1078		-126.953125
1079		-134.765625
1080		-128.906250
1081		-136.718750
1082		-128.906250
1083		-138.671875
1084		-130.859375
1085		-136.718750
1086		-132.812500
1087		-138.671875
1088		-134.765625
1089		-140.625000
1090		-132.812500
1091		-140.625000
1092		-134.765625
1093		-142.578125
1094		-134.765625
1095		-142.578125
1096		-136.718750
1097		-142.578125
1098		-136.718750
1099		-144.531250
1100		-136.718750
1101		-142.578125
1102		-138.671875
1103		-142.578125
1104		-138.671875
1105		-144.531250
1106		-138.671875
1107		-144.531250
1108		-136.718750
1109		-144.531250
1110		-136.718750
1111		-144.531250
1112		-136.718750
1113		-142.578125
1114		-136.718750
1115		-142.578125
1116		-136.718750
1117		-142.578125
1118		-136.718750
1119		-140.625000
1120		-136.718750
1121		-140.625000
1122		-134.765625
1123		-140.625000
1124		-132.812500
1125		-140.625000
1126		-132.812500
1127		-138.671875
1128		-130.859375
1129		-136.718750
1130		-128.906250
1131		-134.765625
1132		-128.906250
1133		-132.812500
1134		-126.953125
1135		-130.859375
1136		-126.953125
1137		-130.859375
1138		-125.000000
1139		-128.906250
1140		-123.046875
1141		-126.953125
1142		-121.093750
1143		-126.953125
1144		-119.140625
1145		-125.000000
1146		-117.187500
1147		-121.093750
1148		-115.234375
1149		-121.093750
1150		-111.328125
1151		-117.187500
1152		-111.328125
1153		-113.281250
1154		-109.375000
1155		-111.328125
1156		-105.468750
1157		-111.328125
1158		-103.515625
1159		-107.421875
1160		-99.609375
1161		-105.468750
1162		-97.656250
1163		-103.515625
1164		-93.750000
1165		-101.562500
1166		-91.796875
1167		-97.656250
1168		-91.796875
1169		-93.750000
1170		-87.890625
1171		-89.843750
1172		-83.984375
1173		-89.843750
1174		-80.078125
1175		-85.937500
1176		-78.125000
1177		-82.031250
1178		-74.218750
1179		-78.125000
1180		-70.312500
1181		-76.171875
1182		-68.359375
1183		-74.218750
1184		-64.453125
1185		-68.359375
1186		-62.500000
1187		-64.453125
1188		-58.593750
1189		-62.500000
1190		-54.687500
1191		-60.546875
1192		-50.781250
1193		-56.640625
1194		-48.828125
1195		-52.734375
1196		-42.968750
1197		-48.828125
1198		-41.015625
1199		-44.921875
1200		-37.109375
1201		-42.968750
1202		-35.156250
1203		-37.109375
1204		-31.250000
1205		-33.203125
1206		-27.343750
1207		-31.250000
1208		-23.437500
1209		-27.343750
1210		-19.531250
1211		-25.390625
1212		-15.625000
1213		-21.484375
1214		-13.671875
1215		-17.578125
1216		-9.765625
1217		-13.671875
1218		-5.859375
1219		-9.765625
1220		-3.906250
1221		-5.859375
1222		0.000000
1223		-3.906250
1224		3.906250
1225		0.000000
1226		7.812500
1227		1.953125
1228		11.718750
1229		5.859375
1230		13.671875
1231		9.765625
1232		17.578125
