metingen laweit/1000Hz, 66.4cm/data_81_m474.txt

Channel              :		CH1
Frequency            :		1.061kHz
Period               :		0.942ms
PK-PK                :		320.3mV
Probe attenuation    :		1X
Voltage per ADC value:		0.122070mV
Time interval        :		2.00000us

index		CH1_Voltage(mV)
1		76.171875
2		76.171875
3		80.078125
4		72.265625
5		78.125000
6		68.359375
7		74.218750
8		66.406250
9		72.265625
10		62.500000
11		68.359375
12		58.593750
13		64.453125
14		56.640625
15		60.546875
16		52.734375
17		56.640625
18		48.828125
19		54.687500
20		44.921875
21		50.781250
22		41.015625
23		46.875000
24		37.109375
25		42.968750
26		33.203125
27		39.062500
28		29.296875
29		35.156250
30		25.390625
31		31.250000
32		21.484375
33		27.343750
34		17.578125
35		23.437500
36		13.671875
37		19.531250
38		9.765625
39		15.625000
40		5.859375
41		11.718750
42		1.953125
43		7.812500
44		-3.906250
45		3.906250
46		-5.859375
47		0.000000
48		-11.718750
49		-5.859375
50		-15.625000
51		-7.812500
52		-19.531250
53		-13.671875
54		-23.437500
55		-17.578125
56		-27.343750
57		-21.484375
58		-33.203125
59		-25.390625
60		-37.109375
61		-29.296875
62		-41.015625
63		-33.203125
64		-44.921875
65		-39.062500
66		-48.828125
67		-42.968750
68		-52.734375
69		-46.875000
70		-56.640625
71		-50.781250
72		-62.500000
73		-54.687500
74		-66.406250
75		-58.593750
76		-70.312500
77		-62.500000
78		-72.265625
79		-66.406250
80		-76.171875
81		-70.312500
82		-80.078125
83		-74.218750
84		-83.984375
85		-78.125000
86		-89.843750
87		-82.031250
88		-91.796875
89		-85.937500
90		-95.703125
91		-87.890625
92		-99.609375
93		-93.750000
94		-103.515625
95		-95.703125
96		-107.421875
97		-99.609375
98		-111.328125
99		-105.468750
100		-115.234375
101		-107.421875
102		-119.140625
103		-109.375000
104		-123.046875
105		-113.281250
106		-125.000000
107		-117.187500
108		-126.953125
109		-121.093750
110		-130.859375
111		-123.046875
112		-132.812500
113		-125.000000
114		-136.718750
115		-130.859375
116		-138.671875
117		-132.812500
118		-142.578125
119		-134.765625
120		-146.484375
121		-138.671875
122		-148.437500
123		-140.625000
124		-150.390625
125		-142.578125
126		-152.343750
127		-144.531250
128		-154.296875
129		-146.484375
130		-156.250000
131		-150.390625
132		-156.250000
133		-154.296875
134		-160.156250
135		-154.296875
136		-162.109375
137		-154.296875
138		-164.062500
139		-158.203125
140		-166.015625
141		-158.203125
142		-166.015625
143		-160.156250
144		-167.968750
145		-162.109375
146		-167.968750
147		-160.156250
148		-169.921875
149		-166.015625
150		-171.875000
151		-166.015625
152		-171.875000
153		-166.015625
154		-173.828125
155		-166.015625
156		-173.828125
157		-167.968750
158		-173.828125
159		-166.015625
160		-173.828125
161		-167.968750
162		-173.828125
163		-167.968750
164		-173.828125
165		-169.921875
166		-171.875000
167		-169.921875
168		-173.828125
169		-167.968750
170		-173.828125
171		-167.968750
172		-173.828125
173		-166.015625
174		-173.828125
175		-166.015625
176		-171.875000
177		-166.015625
178		-171.875000
179		-166.015625
180		-169.921875
181		-166.015625
182		-167.968750
183		-164.062500
184		-167.968750
185		-162.109375
186		-167.968750
187		-160.156250
188		-166.015625
189		-158.203125
190		-164.062500
191		-156.250000
192		-164.062500
193		-156.250000
194		-160.156250
195		-152.343750
196		-158.203125
197		-152.343750
198		-154.296875
199		-150.390625
200		-152.343750
201		-148.437500
202		-152.343750
203		-144.531250
204		-150.390625
205		-142.578125
206		-146.484375
207		-140.625000
208		-144.531250
209		-136.718750
210		-142.578125
211		-134.765625
212		-138.671875
213		-132.812500
214		-134.765625
215		-130.859375
216		-132.812500
217		-126.953125
218		-130.859375
219		-123.046875
220		-128.906250
221		-119.140625
222		-123.046875
223		-115.234375
224		-121.093750
225		-113.281250
226		-117.187500
227		-109.375000
228		-113.281250
229		-107.421875
230		-111.328125
231		-103.515625
232		-105.468750
233		-99.609375
234		-101.562500
235		-93.750000
236		-99.609375
237		-91.796875
238		-95.703125
239		-85.937500
240		-91.796875
241		-83.984375
242		-87.890625
243		-78.125000
244		-82.031250
245		-76.171875
246		-80.078125
247		-72.265625
248		-74.218750
249		-68.359375
250		-70.312500
251		-64.453125
252		-66.406250
253		-58.593750
254		-64.453125
255		-54.687500
256		-60.546875
257		-48.828125
258		-54.687500
259		-44.921875
260		-50.781250
261		-42.968750
262		-46.875000
263		-37.109375
264		-41.015625
265		-35.156250
266		-37.109375
267		-31.250000
268		-31.250000
269		-25.390625
270		-29.296875
271		-19.531250
272		-25.390625
273		-15.625000
274		-21.484375
275		-13.671875
276		-17.578125
277		-7.812500
278		-11.718750
279		-3.906250
280		-9.765625
281		-1.953125
282		-1.953125
283		3.906250
284		1.953125
285		7.812500
286		3.906250
287		13.671875
288		9.765625
289		17.578125
290		11.718750
291		19.531250
292		15.625000
293		23.437500
294		19.531250
295		29.296875
296		23.437500
297		31.250000
298		29.296875
299		35.156250
300		33.203125
301		39.062500
302		35.156250
303		44.921875
304		39.062500
305		48.828125
306		42.968750
307		50.781250
308		44.921875
309		54.687500
310		50.781250
311		58.593750
312		52.734375
313		60.546875
314		56.640625
315		64.453125
316		62.500000
317		66.406250
318		64.453125
319		72.265625
320		66.406250
321		74.218750
322		68.359375
323		78.125000
324		72.265625
325		82.031250
326		76.171875
327		83.984375
328		78.125000
329		85.937500
330		82.031250
331		87.890625
332		85.937500
333		91.796875
334		89.843750
335		93.750000
336		89.843750
337		97.656250
338		91.796875
339		99.609375
340		95.703125
341		101.562500
342		97.656250
343		105.468750
344		99.609375
345		107.421875
346		101.562500
347		109.375000
348		105.468750
349		109.375000
350		107.421875
351		111.328125
352		109.375000
353		115.234375
354		109.375000
355		117.187500
356		111.328125
357		119.140625
358		113.281250
359		121.093750
360		115.234375
361		123.046875
362		117.187500
363		125.000000
364		119.140625
365		125.000000
366		121.093750
367		125.000000
368		123.046875
369		126.953125
370		123.046875
371		130.859375
372		123.046875
373		130.859375
374		125.000000
375		130.859375
376		126.953125
377		132.812500
378		126.953125
379		134.765625
380		126.953125
381		134.765625
382		130.859375
383		132.812500
384		130.859375
385		134.765625
386		128.906250
387		136.718750
388		130.859375
389		136.718750
390		130.859375
391		138.671875
392		130.859375
393		138.671875
394		130.859375
395		138.671875
396		130.859375
397		138.671875
398		130.859375
399		136.718750
400		132.812500
401		136.718750
402		132.812500
403		138.671875
404		130.859375
405		138.671875
406		130.859375
407		138.671875
408		130.859375
409		138.671875
410		130.859375
411		138.671875
412		130.859375
413		136.718750
414		128.906250
415		136.718750
416		130.859375
417		134.765625
418		128.906250
419		132.812500
420		126.953125
421		132.812500
422		126.953125
423		132.812500
424		125.000000
425		132.812500
426		125.000000
427		132.812500
428		123.046875
429		128.906250
430		121.093750
431		128.906250
432		121.093750
433		126.953125
434		121.093750
435		125.000000
436		117.187500
437		123.046875
438		115.234375
439		123.046875
440		113.281250
441		121.093750
442		113.281250
443		119.140625
444		109.375000
445		117.187500
446		109.375000
447		117.187500
448		107.421875
449		113.281250
450		105.468750
451		111.328125
452		103.515625
453		109.375000
454		99.609375
455		107.421875
456		97.656250
457		105.468750
458		95.703125
459		103.515625
460		93.750000
461		101.562500
462		89.843750
463		97.656250
464		87.890625
465		95.703125
466		85.937500
467		91.796875
468		83.984375
469		87.890625
470		78.125000
471		85.937500
472		76.171875
473		83.984375
474		72.265625
475		82.031250
476		70.312500
477		78.125000
478		66.406250
479		74.218750
480		64.453125
481		70.312500
482		60.546875
483		68.359375
484		56.640625
485		62.500000
486		52.734375
487		60.546875
488		50.781250
489		56.640625
490		44.921875
491		52.734375
492		41.015625
493		50.781250
494		39.062500
495		44.921875
496		35.156250
497		42.968750
498		31.250000
499		39.062500
500		27.343750
501		33.203125
502		23.437500
503		29.296875
504		19.531250
505		27.343750
506		15.625000
507		23.437500
508		9.765625
509		19.531250
510		7.812500
511		15.625000
512		1.953125
513		11.718750
514		-1.953125
515		5.859375
516		-3.906250
517		1.953125
518		-7.812500
519		-1.953125
520		-13.671875
521		-5.859375
522		-17.578125
523		-9.765625
524		-23.437500
525		-13.671875
526		-27.343750
527		-17.578125
528		-33.203125
529		-21.484375
530		-35.156250
531		-25.390625
532		-37.109375
533		-31.250000
534		-41.015625
535		-35.156250
536		-46.875000
537		-39.062500
538		-52.734375
539		-42.968750
540		-54.687500
541		-48.828125
542		-58.593750
543		-50.781250
544		-64.453125
545		-54.687500
546		-68.359375
547		-60.546875
548		-72.265625
549		-64.453125
550		-74.218750
551		-68.359375
552		-78.125000
553		-72.265625
554		-83.984375
555		-76.171875
556		-87.890625
557		-78.125000
558		-93.750000
559		-82.031250
560		-95.703125
561		-85.937500
562		-99.609375
563		-91.796875
564		-103.515625
565		-95.703125
566		-105.468750
567		-97.656250
568		-109.375000
569		-103.515625
570		-115.234375
571		-107.421875
572		-117.187500
573		-109.375000
574		-121.093750
575		-111.328125
576		-123.046875
577		-115.234375
578		-126.953125
579		-119.140625
580		-128.906250
581		-121.093750
582		-130.859375
583		-125.000000
584		-134.765625
585		-128.906250
586		-136.718750
587		-132.812500
588		-140.625000
589		-134.765625
590		-144.531250
591		-136.718750
592		-146.484375
593		-138.671875
594		-148.437500
595		-140.625000
596		-150.390625
597		-144.531250
598		-154.296875
599		-146.484375
600		-154.296875
601		-148.437500
602		-156.250000
603		-152.343750
604		-160.156250
605		-154.296875
606		-162.109375
607		-154.296875
608		-164.062500
609		-154.296875
610		-166.015625
611		-156.250000
612		-167.968750
613		-160.156250
614		-169.921875
615		-160.156250
616		-169.921875
617		-162.109375
618		-167.968750
619		-164.062500
620		-169.921875
621		-166.015625
622		-171.875000
623		-166.015625
624		-173.828125
625		-166.015625
626		-173.828125
627		-166.015625
628		-175.781250
629		-166.015625
630		-175.781250
631		-167.968750
632		-175.781250
633		-167.968750
634		-173.828125
635		-169.921875
636		-173.828125
637		-169.921875
638		-175.781250
639		-167.968750
640		-175.781250
641		-167.968750
642		-175.781250
643		-167.968750
644		-173.828125
645		-167.968750
646		-173.828125
647		-166.015625
648		-173.828125
649		-166.015625
650		-169.921875
651		-166.015625
652		-169.921875
653		-166.015625
654		-169.921875
655		-162.109375
656		-169.921875
657		-160.156250
658		-167.968750
659		-160.156250
660		-166.015625
661		-158.203125
662		-164.062500
663		-156.250000
664		-162.109375
665		-154.296875
666		-162.109375
667		-154.296875
668		-156.250000
669		-152.343750
670		-154.296875
671		-150.390625
672		-154.296875
673		-146.484375
674		-152.343750
675		-142.578125
676		-148.437500
677		-142.578125
678		-146.484375
679		-138.671875
680		-144.531250
681		-136.718750
682		-142.578125
683		-134.765625
684		-138.671875
685		-132.812500
686		-134.765625
687		-128.906250
688		-130.859375
689		-125.000000
690		-130.859375
691		-121.093750
692		-126.953125
693		-119.140625
694		-123.046875
695		-115.234375
696		-119.140625
697		-111.328125
698		-117.187500
699		-109.375000
700		-113.281250
701		-105.468750
702		-107.421875
703		-101.562500
704		-103.515625
705		-97.656250
706		-103.515625
707		-93.750000
708		-97.656250
709		-89.843750
710		-93.750000
711		-85.937500
712		-89.843750
713		-80.078125
714		-85.937500
715		-78.125000
716		-82.031250
717		-72.265625
718		-78.125000
719		-70.312500
720		-72.265625
721		-66.406250
722		-68.359375
723		-60.546875
724		-66.406250
725		-56.640625
726		-62.500000
727		-52.734375
728		-56.640625
729		-48.828125
730		-54.687500
731		-44.921875
732		-50.781250
733		-41.015625
734		-42.968750
735		-37.109375
736		-39.062500
737		-33.203125
738		-35.156250
739		-27.343750
740		-33.203125
741		-23.437500
742		-27.343750
743		-17.578125
744		-23.437500
745		-15.625000
746		-19.531250
747		-11.718750
748		-15.625000
749		-5.859375
750		-9.765625
751		-3.906250
752		-5.859375
753		0.000000
754		-1.953125
755		3.906250
756		1.953125
757		9.765625
758		5.859375
759		13.671875
760		9.765625
761		17.578125
762		13.671875
763		21.484375
764		17.578125
765		25.390625
766		23.437500
767		29.296875
768		25.390625
769		33.203125
770		29.296875
771		37.109375
772		35.156250
773		41.015625
774		37.109375
775		44.921875
776		41.015625
777		48.828125
778		44.921875
779		52.734375
780		46.875000
781		56.640625
782		50.781250
783		58.593750
784		54.687500
785		62.500000
786		60.546875
787		64.453125
788		62.500000
789		68.359375
790		64.453125
791		72.265625
792		66.406250
793		76.171875
794		70.312500
795		80.078125
796		74.218750
797		82.031250
798		78.125000
799		83.984375
800		80.078125
801		87.890625
802		83.984375
803		89.843750
804		87.890625
805		91.796875
806		87.890625
807		95.703125
808		89.843750
809		97.656250
810		93.750000
811		99.609375
812		95.703125
813		103.515625
814		97.656250
815		105.468750
816		101.562500
817		109.375000
818		101.562500
819		109.375000
820		107.421875
821		111.328125
822		109.375000
823		113.281250
824		109.375000
825		115.234375
826		111.328125
827		117.187500
828		113.281250
829		121.093750
830		115.234375
831		121.093750
832		115.234375
833		123.046875
834		117.187500
835		125.000000
836		121.093750
837		125.000000
838		123.046875
839		126.953125
840		121.093750
841		128.906250
842		123.046875
843		130.859375
844		123.046875
845		130.859375
846		125.000000
847		130.859375
848		125.000000
849		132.812500
850		126.953125
851		132.812500
852		128.906250
853		132.812500
854		130.859375
855		132.812500
856		128.906250
857		136.718750
858		128.906250
859		136.718750
860		130.859375
861		136.718750
862		130.859375
863		136.718750
864		130.859375
865		138.671875
866		130.859375
867		138.671875
868		132.812500
869		138.671875
870		132.812500
871		136.718750
872		132.812500
873		136.718750
874		132.812500
875		138.671875
876		130.859375
877		138.671875
878		130.859375
879		138.671875
880		130.859375
881		136.718750
882		130.859375
883		136.718750
884		128.906250
885		136.718750
886		130.859375
887		134.765625
888		130.859375
889		134.765625
890		128.906250
891		134.765625
892		126.953125
893		134.765625
894		125.000000
895		132.812500
896		125.000000
897		130.859375
898		123.046875
899		130.859375
900		123.046875
901		128.906250
902		121.093750
903		126.953125
904		121.093750
905		125.000000
906		119.140625
907		123.046875
908		117.187500
909		125.000000
910		115.234375
911		123.046875
912		113.281250
913		121.093750
914		111.328125
915		119.140625
916		109.375000
917		117.187500
918		107.421875
919		115.234375
920		107.421875
921		111.328125
922		105.468750
923		109.375000
924		101.562500
925		107.421875
926		99.609375
927		107.421875
928		97.656250
929		103.515625
930		93.750000
931		101.562500
932		91.796875
933		99.609375
934		89.843750
935		95.703125
936		87.890625
937		93.750000
938		83.984375
939		89.843750
940		80.078125
941		85.937500
942		78.125000
943		83.984375
944		74.218750
945		82.031250
946		70.312500
947		80.078125
948		68.359375
949		76.171875
950		64.453125
951		74.218750
952		62.500000
953		70.312500
954		60.546875
955		64.453125
956		56.640625
957		62.500000
958		50.781250
959		58.593750
960		46.875000
961		56.640625
962		44.921875
963		52.734375
964		39.062500
965		48.828125
966		37.109375
967		44.921875
968		31.250000
969		41.015625
970		29.296875
971		37.109375
972		25.390625
973		33.203125
974		21.484375
975		29.296875
976		15.625000
977		25.390625
978		11.718750
979		21.484375
980		9.765625
981		17.578125
982		5.859375
983		13.671875
984		0.000000
985		9.765625
986		-1.953125
987		3.906250
988		-5.859375
989		0.000000
990		-9.765625
991		-3.906250
992		-15.625000
993		-7.812500
994		-19.531250
995		-11.718750
996		-23.437500
997		-15.625000
998		-27.343750
999		-19.531250
1000		-33.203125
1001		-23.437500
1002		-35.156250
1003		-29.296875
1004		-39.062500
1005		-33.203125
1006		-42.968750
1007		-37.109375
1008		-48.828125
1009		-41.015625
1010		-52.734375
1011		-44.921875
1012		-58.593750
1013		-48.828125
1014		-62.500000
1015		-52.734375
1016		-66.406250
1017		-56.640625
1018		-68.359375
1019		-60.546875
1020		-72.265625
1021		-66.406250
1022		-76.171875
1023		-70.312500
1024		-82.031250
1025		-74.218750
1026		-83.984375
1027		-76.171875
1028		-89.843750
1029		-80.078125
1030		-93.750000
1031		-85.937500
1032		-97.656250
1033		-89.843750
1034		-101.562500
1035		-91.796875
1036		-103.515625
1037		-95.703125
1038		-105.468750
1039		-101.562500
1040		-109.375000
1041		-105.468750
1042		-115.234375
1043		-107.421875
1044		-119.140625
1045		-109.375000
1046		-121.093750
1047		-113.281250
1048		-125.000000
1049		-117.187500
1050		-128.906250
1051		-119.140625
1052		-130.859375
1053		-123.046875
1054		-132.812500
1055		-126.953125
1056		-134.765625
1057		-130.859375
1058		-140.625000
1059		-132.812500
1060		-142.578125
1061		-134.765625
1062		-144.531250
1063		-136.718750
1064		-148.437500
1065		-140.625000
1066		-150.390625
1067		-142.578125
1068		-152.343750
1069		-144.531250
1070		-154.296875
1071		-148.437500
1072		-156.250000
1073		-150.390625
1074		-156.250000
1075		-152.343750
1076		-162.109375
1077		-152.343750
1078		-164.062500
1079		-156.250000
1080		-164.062500
1081		-158.203125
1082		-166.015625
1083		-158.203125
1084		-167.968750
1085		-160.156250
1086		-169.921875
1087		-162.109375
1088		-167.968750
1089		-164.062500
1090		-169.921875
1091		-166.015625
1092		-171.875000
1093		-166.015625
1094		-173.828125
1095		-166.015625
1096		-173.828125
1097		-167.968750
1098		-173.828125
1099		-167.968750
1100		-173.828125
1101		-167.968750
1102		-175.781250
1103		-167.968750
1104		-175.781250
1105		-169.921875
1106		-173.828125
1107		-171.875000
1108		-173.828125
1109		-169.921875
1110		-175.781250
1111		-167.968750
1112		-175.781250
1113		-167.968750
1114		-175.781250
1115		-167.968750
1116		-173.828125
1117		-167.968750
1118		-173.828125
1119		-167.968750
1120		-171.875000
1121		-166.015625
1122		-169.921875
1123		-167.968750
1124		-169.921875
1125		-166.015625
1126		-169.921875
1127		-162.109375
1128		-169.921875
1129		-162.109375
1130		-167.968750
1131		-160.156250
1132		-166.015625
1133		-158.203125
1134		-164.062500
1135		-156.250000
1136		-162.109375
1137		-154.296875
1138		-158.203125
1139		-154.296875
1140		-156.250000
1141		-152.343750
1142		-156.250000
1143		-148.437500
1144		-154.296875
1145		-146.484375
1146		-152.343750
1147		-144.531250
1148		-150.390625
1149		-142.578125
1150		-148.437500
1151		-138.671875
1152		-144.531250
1153		-136.718750
1154		-140.625000
1155		-134.765625
1156		-136.718750
1157		-132.812500
1158		-134.765625
1159		-128.906250
1160		-132.812500
1161		-125.000000
1162		-128.906250
1163		-121.093750
1164		-125.000000
1165		-119.140625
1166		-123.046875
1167		-115.234375
1168		-121.093750
1169		-111.328125
1170		-117.187500
1171		-109.375000
1172		-113.281250
1173		-105.468750
1174		-107.421875
1175		-101.562500
1176		-103.515625
1177		-97.656250
1178		-103.515625
1179		-93.750000
1180		-97.656250
1181		-89.843750
1182		-93.750000
1183		-83.984375
1184		-89.843750
1185		-82.031250
1186		-85.937500
1187		-76.171875
1188		-82.031250
1189		-74.218750
1190		-76.171875
1191		-70.312500
1192		-72.265625
1193		-66.406250
1194		-70.312500
1195		-60.546875
1196		-66.406250
1197		-56.640625
1198		-62.500000
1199		-52.734375
1200		-56.640625
1201		-48.828125
1202		-54.687500
1203		-44.921875
1204		-48.828125
1205		-41.015625
1206		-42.968750
1207		-37.109375
1208		-39.062500
1209		-33.203125
1210		-35.156250
1211		-27.343750
1212		-33.203125
1213		-23.437500
1214		-27.343750
1215		-19.531250
1216		-23.437500
1217		-15.625000
1218		-19.531250
1219		-9.765625
1220		-15.625000
1221		-5.859375
1222		-9.765625
