metingen laweit/1000Hz, 66.4cm/data_81_m39.txt

Channel              :		CH1
Frequency            :		1.061kHz
Period               :		0.942ms
PK-PK                :		287.1mV
Probe attenuation    :		1X
Voltage per ADC value:		0.122070mV
Time interval        :		2.00000us

index		CH1_Voltage(mV)
1		95.703125
2		95.703125
3		87.890625
4		93.750000
5		85.937500
6		91.796875
7		82.031250
8		87.890625
9		80.078125
10		87.890625
11		76.171875
12		83.984375
13		76.171875
14		82.031250
15		72.265625
16		78.125000
17		70.312500
18		74.218750
19		66.406250
20		72.265625
21		62.500000
22		68.359375
23		58.593750
24		66.406250
25		56.640625
26		62.500000
27		50.781250
28		60.546875
29		48.828125
30		56.640625
31		46.875000
32		52.734375
33		42.968750
34		50.781250
35		39.062500
36		46.875000
37		37.109375
38		42.968750
39		33.203125
40		39.062500
41		27.343750
42		35.156250
43		23.437500
44		33.203125
45		19.531250
46		29.296875
47		17.578125
48		23.437500
49		13.671875
50		21.484375
51		9.765625
52		17.578125
53		7.812500
54		13.671875
55		3.906250
56		7.812500
57		-1.953125
58		5.859375
59		-5.859375
60		1.953125
61		-9.765625
62		-1.953125
63		-11.718750
64		-3.906250
65		-17.578125
66		-7.812500
67		-21.484375
68		-13.671875
69		-23.437500
70		-17.578125
71		-27.343750
72		-21.484375
73		-31.250000
74		-25.390625
75		-37.109375
76		-27.343750
77		-41.015625
78		-33.203125
79		-42.968750
80		-35.156250
81		-48.828125
82		-39.062500
83		-50.781250
84		-42.968750
85		-54.687500
86		-46.875000
87		-56.640625
88		-50.781250
89		-60.546875
90		-54.687500
91		-64.453125
92		-58.593750
93		-68.359375
94		-60.546875
95		-72.265625
96		-64.453125
97		-76.171875
98		-68.359375
99		-78.125000
100		-72.265625
101		-83.984375
102		-74.218750
103		-85.937500
104		-78.125000
105		-87.890625
106		-83.984375
107		-93.750000
108		-85.937500
109		-95.703125
110		-87.890625
111		-99.609375
112		-89.843750
113		-101.562500
114		-93.750000
115		-105.468750
116		-97.656250
117		-107.421875
118		-99.609375
119		-109.375000
120		-103.515625
121		-111.328125
122		-107.421875
123		-115.234375
124		-109.375000
125		-119.140625
126		-111.328125
127		-121.093750
128		-113.281250
129		-123.046875
130		-117.187500
131		-125.000000
132		-119.140625
133		-128.906250
134		-121.093750
135		-130.859375
136		-123.046875
137		-130.859375
138		-125.000000
139		-132.812500
140		-128.906250
141		-136.718750
142		-130.859375
143		-138.671875
144		-130.859375
145		-138.671875
146		-130.859375
147		-140.625000
148		-132.812500
149		-142.578125
150		-134.765625
151		-142.578125
152		-136.718750
153		-142.578125
154		-136.718750
155		-144.531250
156		-140.625000
157		-144.531250
158		-140.625000
159		-148.437500
160		-140.625000
161		-148.437500
162		-140.625000
163		-148.437500
164		-142.578125
165		-150.390625
166		-142.578125
167		-150.390625
168		-144.531250
169		-150.390625
170		-144.531250
171		-148.437500
172		-144.531250
173		-148.437500
174		-146.484375
175		-150.390625
176		-144.531250
177		-150.390625
178		-144.531250
179		-150.390625
180		-142.578125
181		-150.390625
182		-144.531250
183		-150.390625
184		-142.578125
185		-148.437500
186		-142.578125
187		-148.437500
188		-142.578125
189		-146.484375
190		-142.578125
191		-144.531250
192		-140.625000
193		-144.531250
194		-138.671875
195		-144.531250
196		-136.718750
197		-142.578125
198		-136.718750
199		-142.578125
200		-134.765625
201		-140.625000
202		-132.812500
203		-138.671875
204		-132.812500
205		-134.765625
206		-130.859375
207		-132.812500
208		-128.906250
209		-132.812500
210		-126.953125
211		-130.859375
212		-123.046875
213		-128.906250
214		-121.093750
215		-126.953125
216		-119.140625
217		-125.000000
218		-117.187500
219		-123.046875
220		-113.281250
221		-119.140625
222		-113.281250
223		-115.234375
224		-111.328125
225		-113.281250
226		-105.468750
227		-111.328125
228		-103.515625
229		-109.375000
230		-101.562500
231		-105.468750
232		-97.656250
233		-103.515625
234		-93.750000
235		-99.609375
236		-91.796875
237		-97.656250
238		-89.843750
239		-91.796875
240		-85.937500
241		-87.890625
242		-83.984375
243		-85.937500
244		-78.125000
245		-83.984375
246		-76.171875
247		-80.078125
248		-72.265625
249		-76.171875
250		-66.406250
251		-72.265625
252		-64.453125
253		-70.312500
254		-62.500000
255		-66.406250
256		-58.593750
257		-60.546875
258		-54.687500
259		-56.640625
260		-48.828125
261		-54.687500
262		-46.875000
263		-50.781250
264		-42.968750
265		-46.875000
266		-39.062500
267		-42.968750
268		-35.156250
269		-39.062500
270		-31.250000
271		-35.156250
272		-29.296875
273		-31.250000
274		-25.390625
275		-27.343750
276		-19.531250
277		-25.390625
278		-15.625000
279		-19.531250
280		-11.718750
281		-15.625000
282		-7.812500
283		-13.671875
284		-5.859375
285		-7.812500
286		0.000000
287		-5.859375
288		1.953125
289		0.000000
290		5.859375
291		3.906250
292		9.765625
293		7.812500
294		15.625000
295		9.765625
296		19.531250
297		13.671875
298		21.484375
299		17.578125
300		25.390625
301		21.484375
302		31.250000
303		25.390625
304		33.203125
305		27.343750
306		35.156250
307		33.203125
308		39.062500
309		37.109375
310		42.968750
311		39.062500
312		46.875000
313		42.968750
314		50.781250
315		44.921875
316		52.734375
317		48.828125
318		56.640625
319		52.734375
320		58.593750
321		54.687500
322		62.500000
323		60.546875
324		64.453125
325		62.500000
326		68.359375
327		64.453125
328		72.265625
329		68.359375
330		74.218750
331		70.312500
332		78.125000
333		72.265625
334		80.078125
335		76.171875
336		82.031250
337		78.125000
338		85.937500
339		82.031250
340		87.890625
341		85.937500
342		89.843750
343		87.890625
344		93.750000
345		87.890625
346		95.703125
347		91.796875
348		99.609375
349		93.750000
350		101.562500
351		95.703125
352		103.515625
353		97.656250
354		105.468750
355		99.609375
356		105.468750
357		103.515625
358		107.421875
359		105.468750
360		111.328125
361		105.468750
362		113.281250
363		107.421875
364		115.234375
365		109.375000
366		117.187500
367		111.328125
368		117.187500
369		113.281250
370		121.093750
371		115.234375
372		121.093750
373		117.187500
374		121.093750
375		119.140625
376		123.046875
377		119.140625
378		126.953125
379		119.140625
380		126.953125
381		121.093750
382		126.953125
383		121.093750
384		128.906250
385		123.046875
386		128.906250
387		125.000000
388		130.859375
389		125.000000
390		130.859375
391		126.953125
392		130.859375
393		126.953125
394		132.812500
395		126.953125
396		132.812500
397		126.953125
398		132.812500
399		126.953125
400		134.765625
401		128.906250
402		134.765625
403		128.906250
404		134.765625
405		128.906250
406		134.765625
407		130.859375
408		134.765625
409		130.859375
410		134.765625
411		128.906250
412		134.765625
413		128.906250
414		134.765625
415		128.906250
416		134.765625
417		128.906250
418		134.765625
419		126.953125
420		134.765625
421		126.953125
422		132.812500
423		128.906250
424		132.812500
425		128.906250
426		130.859375
427		125.000000
428		132.812500
429		125.000000
430		132.812500
431		125.000000
432		130.859375
433		123.046875
434		128.906250
435		121.093750
436		128.906250
437		121.093750
438		128.906250
439		121.093750
440		126.953125
441		121.093750
442		125.000000
443		119.140625
444		123.046875
445		117.187500
446		123.046875
447		115.234375
448		121.093750
449		113.281250
450		121.093750
451		113.281250
452		119.140625
453		109.375000
454		117.187500
455		109.375000
456		115.234375
457		107.421875
458		111.328125
459		105.468750
460		109.375000
461		101.562500
462		109.375000
463		99.609375
464		107.421875
465		97.656250
466		105.468750
467		95.703125
468		103.515625
469		93.750000
470		101.562500
471		91.796875
472		97.656250
473		89.843750
474		97.656250
475		87.890625
476		91.796875
477		83.984375
478		89.843750
479		80.078125
480		87.890625
481		78.125000
482		85.937500
483		74.218750
484		83.984375
485		72.265625
486		80.078125
487		70.312500
488		78.125000
489		68.359375
490		74.218750
491		64.453125
492		70.312500
493		62.500000
494		66.406250
495		56.640625
496		64.453125
497		54.687500
498		62.500000
499		48.828125
500		58.593750
501		46.875000
502		54.687500
503		44.921875
504		52.734375
505		41.015625
506		48.828125
507		39.062500
508		42.968750
509		35.156250
510		41.015625
511		29.296875
512		37.109375
513		25.390625
514		35.156250
515		23.437500
516		29.296875
517		19.531250
518		27.343750
519		15.625000
520		23.437500
521		11.718750
522		19.531250
523		9.765625
524		15.625000
525		5.859375
526		11.718750
527		1.953125
528		7.812500
529		-3.906250
530		3.906250
531		-7.812500
532		0.000000
533		-11.718750
534		-3.906250
535		-15.625000
536		-7.812500
537		-19.531250
538		-9.765625
539		-21.484375
540		-15.625000
541		-25.390625
542		-19.531250
543		-29.296875
544		-23.437500
545		-35.156250
546		-27.343750
547		-37.109375
548		-29.296875
549		-41.015625
550		-33.203125
551		-44.921875
552		-37.109375
553		-50.781250
554		-41.015625
555		-52.734375
556		-44.921875
557		-54.687500
558		-46.875000
559		-58.593750
560		-52.734375
561		-64.453125
562		-56.640625
563		-66.406250
564		-58.593750
565		-70.312500
566		-62.500000
567		-74.218750
568		-66.406250
569		-78.125000
570		-68.359375
571		-80.078125
572		-74.218750
573		-82.031250
574		-76.171875
575		-85.937500
576		-80.078125
577		-89.843750
578		-83.984375
579		-93.750000
580		-87.890625
581		-97.656250
582		-89.843750
583		-101.562500
584		-93.750000
585		-103.515625
586		-95.703125
587		-107.421875
588		-99.609375
589		-109.375000
590		-101.562500
591		-109.375000
592		-105.468750
593		-113.281250
594		-107.421875
595		-117.187500
596		-111.328125
597		-119.140625
598		-111.328125
599		-121.093750
600		-113.281250
601		-123.046875
602		-115.234375
603		-126.953125
604		-119.140625
605		-128.906250
606		-121.093750
607		-130.859375
608		-125.000000
609		-130.859375
610		-126.953125
611		-132.812500
612		-128.906250
613		-134.765625
614		-128.906250
615		-136.718750
616		-130.859375
617		-138.671875
618		-132.812500
619		-140.625000
620		-134.765625
621		-140.625000
622		-136.718750
623		-142.578125
624		-138.671875
625		-142.578125
626		-138.671875
627		-144.531250
628		-140.625000
629		-146.484375
630		-140.625000
631		-148.437500
632		-140.625000
633		-148.437500
634		-142.578125
635		-150.390625
636		-142.578125
637		-150.390625
638		-142.578125
639		-150.390625
640		-144.531250
641		-150.390625
642		-144.531250
643		-148.437500
644		-146.484375
645		-150.390625
646		-144.531250
647		-150.390625
648		-142.578125
649		-150.390625
650		-142.578125
651		-150.390625
652		-144.531250
653		-150.390625
654		-142.578125
655		-148.437500
656		-142.578125
657		-148.437500
658		-142.578125
659		-146.484375
660		-142.578125
661		-144.531250
662		-142.578125
663		-146.484375
664		-138.671875
665		-144.531250
666		-138.671875
667		-144.531250
668		-136.718750
669		-142.578125
670		-134.765625
671		-140.625000
672		-134.765625
673		-140.625000
674		-132.812500
675		-136.718750
676		-132.812500
677		-134.765625
678		-130.859375
679		-132.812500
680		-126.953125
681		-132.812500
682		-125.000000
683		-130.859375
684		-123.046875
685		-128.906250
686		-121.093750
687		-125.000000
688		-117.187500
689		-123.046875
690		-115.234375
691		-121.093750
692		-113.281250
693		-117.187500
694		-111.328125
695		-115.234375
696		-109.375000
697		-113.281250
698		-105.468750
699		-109.375000
700		-103.515625
701		-107.421875
702		-99.609375
703		-105.468750
704		-95.703125
705		-101.562500
706		-93.750000
707		-97.656250
708		-91.796875
709		-93.750000
710		-89.843750
711		-91.796875
712		-85.937500
713		-87.890625
714		-80.078125
715		-85.937500
716		-78.125000
717		-82.031250
718		-74.218750
719		-78.125000
720		-70.312500
721		-74.218750
722		-66.406250
723		-70.312500
724		-62.500000
725		-68.359375
726		-60.546875
727		-62.500000
728		-56.640625
729		-58.593750
730		-52.734375
731		-56.640625
732		-48.828125
733		-52.734375
734		-44.921875
735		-48.828125
736		-41.015625
737		-46.875000
738		-39.062500
739		-42.968750
740		-33.203125
741		-39.062500
742		-31.250000
743		-33.203125
744		-27.343750
745		-29.296875
746		-23.437500
747		-25.390625
748		-19.531250
749		-23.437500
750		-13.671875
751		-17.578125
752		-11.718750
753		-15.625000
754		-7.812500
755		-11.718750
756		-3.906250
757		-7.812500
758		1.953125
759		-3.906250
760		3.906250
761		1.953125
762		7.812500
763		5.859375
764		13.671875
765		7.812500
766		15.625000
767		11.718750
768		19.531250
769		15.625000
770		23.437500
771		19.531250
772		27.343750
773		21.484375
774		29.296875
775		25.390625
776		33.203125
777		31.250000
778		37.109375
779		35.156250
780		41.015625
781		35.156250
782		44.921875
783		39.062500
784		46.875000
785		42.968750
786		52.734375
787		46.875000
788		54.687500
789		50.781250
790		58.593750
791		52.734375
792		60.546875
793		56.640625
794		62.500000
795		60.546875
796		66.406250
797		64.453125
798		70.312500
799		64.453125
800		74.218750
801		68.359375
802		76.171875
803		70.312500
804		80.078125
805		74.218750
806		82.031250
807		76.171875
808		85.937500
809		80.078125
810		85.937500
811		83.984375
812		87.890625
813		85.937500
814		93.750000
815		87.890625
816		93.750000
817		89.843750
818		97.656250
819		91.796875
820		99.609375
821		93.750000
822		101.562500
823		95.703125
824		105.468750
825		99.609375
826		105.468750
827		103.515625
828		107.421875
829		105.468750
830		109.375000
831		105.468750
832		113.281250
833		107.421875
834		115.234375
835		109.375000
836		115.234375
837		109.375000
838		117.187500
839		111.328125
840		119.140625
841		113.281250
842		121.093750
843		115.234375
844		121.093750
845		117.187500
846		123.046875
847		119.140625
848		125.000000
849		119.140625
850		125.000000
851		121.093750
852		126.953125
853		121.093750
854		128.906250
855		121.093750
856		128.906250
857		123.046875
858		130.859375
859		125.000000
860		130.859375
861		126.953125
862		130.859375
863		126.953125
864		130.859375
865		126.953125
866		132.812500
867		126.953125
868		134.765625
869		126.953125
870		134.765625
871		128.906250
872		134.765625
873		128.906250
874		134.765625
875		128.906250
876		134.765625
877		130.859375
878		134.765625
879		130.859375
880		132.812500
881		128.906250
882		136.718750
883		128.906250
884		134.765625
885		128.906250
886		136.718750
887		128.906250
888		134.765625
889		128.906250
890		134.765625
891		128.906250
892		134.765625
893		128.906250
894		132.812500
895		128.906250
896		132.812500
897		126.953125
898		130.859375
899		125.000000
900		132.812500
901		125.000000
902		130.859375
903		125.000000
904		130.859375
905		123.046875
906		128.906250
907		123.046875
908		128.906250
909		121.093750
910		126.953125
911		121.093750
912		125.000000
913		121.093750
914		123.046875
915		117.187500
916		123.046875
917		115.234375
918		123.046875
919		115.234375
920		121.093750
921		113.281250
922		119.140625
923		111.328125
924		119.140625
925		109.375000
926		115.234375
927		109.375000
928		115.234375
929		107.421875
930		111.328125
931		103.515625
932		109.375000
933		101.562500
934		109.375000
935		99.609375
936		107.421875
937		97.656250
938		105.468750
939		95.703125
940		101.562500
941		91.796875
942		99.609375
943		91.796875
944		97.656250
945		89.843750
946		93.750000
947		87.890625
948		91.796875
949		82.031250
950		89.843750
951		80.078125
952		87.890625
953		78.125000
954		85.937500
955		74.218750
956		82.031250
957		70.312500
958		80.078125
959		68.359375
960		76.171875
961		66.406250
962		72.265625
963		64.453125
964		70.312500
965		58.593750
966		66.406250
967		56.640625
968		64.453125
969		52.734375
970		60.546875
971		50.781250
972		56.640625
973		46.875000
974		54.687500
975		42.968750
976		50.781250
977		41.015625
978		46.875000
979		37.109375
980		42.968750
981		31.250000
982		39.062500
983		29.296875
984		37.109375
985		25.390625
986		33.203125
987		19.531250
988		29.296875
989		17.578125
990		25.390625
991		13.671875
992		21.484375
993		11.718750
994		17.578125
995		7.812500
996		13.671875
997		3.906250
998		9.765625
999		-1.953125
1000		5.859375
1001		-3.906250
1002		3.906250
1003		-7.812500
1004		0.000000
1005		-11.718750
1006		-3.906250
1007		-15.625000
1008		-7.812500
1009		-19.531250
1010		-11.718750
1011		-21.484375
1012		-15.625000
1013		-25.390625
1014		-19.531250
1015		-31.250000
1016		-23.437500
1017		-35.156250
1018		-27.343750
1019		-39.062500
1020		-31.250000
1021		-42.968750
1022		-33.203125
1023		-46.875000
1024		-39.062500
1025		-50.781250
1026		-41.015625
1027		-52.734375
1028		-44.921875
1029		-54.687500
1030		-50.781250
1031		-58.593750
1032		-54.687500
1033		-66.406250
1034		-56.640625
1035		-68.359375
1036		-60.546875
1037		-72.265625
1038		-62.500000
1039		-74.218750
1040		-66.406250
1041		-78.125000
1042		-70.312500
1043		-82.031250
1044		-72.265625
1045		-83.984375
1046		-78.125000
1047		-87.890625
1048		-82.031250
1049		-91.796875
1050		-83.984375
1051		-93.750000
1052		-85.937500
1053		-97.656250
1054		-89.843750
1055		-99.609375
1056		-93.750000
1057		-103.515625
1058		-95.703125
1059		-107.421875
1060		-99.609375
1061		-107.421875
1062		-101.562500
1063		-111.328125
1064		-105.468750
1065		-113.281250
1066		-109.375000
1067		-117.187500
1068		-109.375000
1069		-121.093750
1070		-113.281250
1071		-123.046875
1072		-115.234375
1073		-125.000000
1074		-117.187500
1075		-126.953125
1076		-119.140625
1077		-128.906250
1078		-123.046875
1079		-128.906250
1080		-125.000000
1081		-130.859375
1082		-126.953125
1083		-134.765625
1084		-128.906250
1085		-136.718750
1086		-130.859375
1087		-138.671875
1088		-130.859375
1089		-140.625000
1090		-132.812500
1091		-140.625000
1092		-134.765625
1093		-142.578125
1094		-134.765625
1095		-142.578125
1096		-136.718750
1097		-142.578125
1098		-140.625000
1099		-144.531250
1100		-140.625000
1101		-146.484375
1102		-140.625000
1103		-146.484375
1104		-140.625000
1105		-148.437500
1106		-142.578125
1107		-148.437500
1108		-142.578125
1109		-148.437500
1110		-142.578125
1111		-148.437500
1112		-144.531250
1113		-148.437500
1114		-144.531250
1115		-148.437500
1116		-144.531250
1117		-150.390625
1118		-144.531250
1119		-150.390625
1120		-142.578125
1121		-150.390625
1122		-144.531250
1123		-148.437500
1124		-142.578125
1125		-148.437500
1126		-142.578125
1127		-148.437500
1128		-142.578125
1129		-146.484375
1130		-142.578125
1131		-144.531250
1132		-142.578125
1133		-146.484375
1134		-138.671875
1135		-144.531250
1136		-138.671875
1137		-144.531250
1138		-136.718750
1139		-142.578125
1140		-136.718750
1141		-142.578125
1142		-134.765625
1143		-140.625000
1144		-132.812500
1145		-136.718750
1146		-132.812500
1147		-134.765625
1148		-130.859375
1149		-132.812500
1150		-128.906250
1151		-132.812500
1152		-126.953125
1153		-130.859375
1154		-123.046875
1155		-128.906250
1156		-121.093750
1157		-126.953125
1158		-119.140625
1159		-125.000000
1160		-117.187500
1161		-121.093750
1162		-115.234375
1163		-117.187500
1164		-113.281250
1165		-115.234375
1166		-111.328125
1167		-113.281250
1168		-107.421875
1169		-111.328125
1170		-103.515625
1171		-107.421875
1172		-101.562500
1173		-105.468750
1174		-97.656250
1175		-103.515625
1176		-95.703125
1177		-101.562500
1178		-91.796875
1179		-97.656250
1180		-89.843750
1181		-91.796875
1182		-85.937500
1183		-87.890625
1184		-82.031250
1185		-87.890625
1186		-78.125000
1187		-83.984375
1188		-76.171875
1189		-80.078125
1190		-72.265625
1191		-76.171875
1192		-68.359375
1193		-72.265625
1194		-64.453125
1195		-70.312500
1196		-60.546875
1197		-64.453125
1198		-58.593750
1199		-60.546875
1200		-54.687500
1201		-58.593750
1202		-50.781250
1203		-54.687500
1204		-46.875000
1205		-50.781250
1206		-42.968750
1207		-46.875000
1208		-39.062500
1209		-42.968750
1210		-35.156250
1211		-39.062500
1212		-31.250000
1213		-35.156250
1214		-29.296875
1215		-31.250000
1216		-25.390625
1217		-27.343750
1218		-19.531250
1219		-23.437500
1220		-15.625000
1221		-19.531250
1222		-11.718750
1223		-17.578125
1224		-7.812500
1225		-13.671875
1226		-3.906250
1227		-7.812500
1228		0.000000
