metingen laweit/1000Hz, 66.4cm/data_81_m580.txt

Channel              :		CH1
Frequency            :		  1.062kHz
Period               :		  ?
PK-PK                :		23.44mV
Probe attenuation    :		1X
Voltage per ADC value:		0.122070mV
Time interval        :		2.00000us

index		CH1_Voltage(mV)
1		5.859375
2		5.859375
3		9.765625
4		5.859375
5		9.765625
6		5.859375
7		9.765625
8		5.859375
9		9.765625
10		5.859375
11		9.765625
12		5.859375
13		9.765625
14		5.859375
15		9.765625
16		7.812500
17		9.765625
18		5.859375
19		9.765625
20		5.859375
21		11.718750
22		7.812500
23		11.718750
24		7.812500
25		11.718750
26		7.812500
27		11.718750
28		7.812500
29		11.718750
30		7.812500
31		11.718750
32		7.812500
33		11.718750
34		7.812500
35		11.718750
36		7.812500
37		11.718750
38		7.812500
39		11.718750
40		7.812500
41		11.718750
42		7.812500
43		11.718750
44		9.765625
45		11.718750
46		9.765625
47		11.718750
48		9.765625
49		11.718750
50		9.765625
51		13.671875
52		9.765625
53		13.671875
54		9.765625
55		13.671875
56		9.765625
57		13.671875
58		9.765625
59		13.671875
60		9.765625
61		13.671875
62		11.718750
63		13.671875
64		9.765625
65		15.625000
66		9.765625
67		13.671875
68		9.765625
69		13.671875
70		11.718750
71		13.671875
72		9.765625
73		15.625000
74		11.718750
75		13.671875
76		11.718750
77		15.625000
78		11.718750
79		15.625000
80		11.718750
81		15.625000
82		11.718750
83		15.625000
84		11.718750
85		15.625000
86		11.718750
87		15.625000
88		11.718750
89		15.625000
90		11.718750
91		15.625000
92		11.718750
93		15.625000
94		11.718750
95		15.625000
96		11.718750
97		15.625000
98		11.718750
99		15.625000
100		11.718750
101		15.625000
102		11.718750
103		15.625000
104		11.718750
105		15.625000
106		11.718750
107		15.625000
108		13.671875
109		15.625000
110		11.718750
111		15.625000
112		11.718750
113		15.625000
114		13.671875
115		15.625000
116		13.671875
117		15.625000
118		11.718750
119		17.578125
120		11.718750
121		15.625000
122		13.671875
123		15.625000
124		13.671875
125		15.625000
126		13.671875
127		17.578125
128		11.718750
129		15.625000
130		13.671875
131		17.578125
132		13.671875
133		15.625000
134		13.671875
135		15.625000
136		11.718750
137		17.578125
138		11.718750
139		15.625000
140		13.671875
141		15.625000
142		13.671875
143		15.625000
144		13.671875
145		15.625000
146		11.718750
147		15.625000
148		11.718750
149		15.625000
150		11.718750
151		15.625000
152		11.718750
153		15.625000
154		11.718750
155		15.625000
156		11.718750
157		15.625000
158		11.718750
159		15.625000
160		11.718750
161		15.625000
162		11.718750
163		15.625000
164		11.718750
165		15.625000
166		11.718750
167		15.625000
168		11.718750
169		15.625000
170		11.718750
171		15.625000
172		11.718750
173		15.625000
174		11.718750
175		13.671875
176		11.718750
177		13.671875
178		9.765625
179		15.625000
180		11.718750
181		13.671875
182		11.718750
183		13.671875
184		11.718750
185		13.671875
186		9.765625
187		13.671875
188		9.765625
189		13.671875
190		9.765625
191		13.671875
192		9.765625
193		13.671875
194		9.765625
195		13.671875
196		9.765625
197		13.671875
198		9.765625
199		13.671875
200		9.765625
201		13.671875
202		9.765625
203		13.671875
204		9.765625
205		13.671875
206		7.812500
207		13.671875
208		9.765625
209		11.718750
210		9.765625
211		11.718750
212		7.812500
213		11.718750
214		7.812500
215		11.718750
216		7.812500
217		11.718750
218		7.812500
219		11.718750
220		7.812500
221		11.718750
222		7.812500
223		11.718750
224		7.812500
225		11.718750
226		7.812500
227		9.765625
228		5.859375
229		11.718750
230		7.812500
231		9.765625
232		5.859375
233		9.765625
234		5.859375
235		11.718750
236		5.859375
237		9.765625
238		5.859375
239		9.765625
240		5.859375
241		9.765625
242		5.859375
243		9.765625
244		3.906250
245		9.765625
246		5.859375
247		9.765625
248		5.859375
249		9.765625
250		5.859375
251		9.765625
252		5.859375
253		9.765625
254		5.859375
255		9.765625
256		5.859375
257		9.765625
258		5.859375
259		7.812500
260		5.859375
261		7.812500
262		3.906250
263		7.812500
264		3.906250
265		7.812500
266		3.906250
267		7.812500
268		3.906250
269		7.812500
270		3.906250
271		7.812500
272		3.906250
273		7.812500
274		3.906250
275		7.812500
276		3.906250
277		7.812500
278		3.906250
279		7.812500
280		3.906250
281		7.812500
282		3.906250
283		7.812500
284		3.906250
285		7.812500
286		3.906250
287		5.859375
288		3.906250
289		5.859375
290		3.906250
291		5.859375
292		3.906250
293		5.859375
294		1.953125
295		5.859375
296		3.906250
297		5.859375
298		1.953125
299		5.859375
300		1.953125
301		5.859375
302		1.953125
303		5.859375
304		1.953125
305		5.859375
306		1.953125
307		5.859375
308		1.953125
309		5.859375
310		1.953125
311		5.859375
312		1.953125
313		5.859375
314		1.953125
315		5.859375
316		1.953125
317		5.859375
318		1.953125
319		5.859375
320		1.953125
321		5.859375
322		1.953125
323		5.859375
324		1.953125
325		5.859375
326		1.953125
327		5.859375
328		1.953125
329		5.859375
330		1.953125
331		5.859375
332		1.953125
333		5.859375
334		1.953125
335		5.859375
336		1.953125
337		3.906250
338		1.953125
339		3.906250
340		0.000000
341		5.859375
342		1.953125
343		3.906250
344		1.953125
345		3.906250
346		1.953125
347		5.859375
348		1.953125
349		3.906250
350		1.953125
351		3.906250
352		1.953125
353		5.859375
354		1.953125
355		3.906250
356		1.953125
357		5.859375
358		0.000000
359		5.859375
360		1.953125
361		3.906250
362		1.953125
363		3.906250
364		1.953125
365		3.906250
366		1.953125
367		5.859375
368		1.953125
369		3.906250
370		1.953125
371		3.906250
372		0.000000
373		3.906250
374		0.000000
375		5.859375
376		1.953125
377		3.906250
378		1.953125
379		3.906250
380		0.000000
381		5.859375
382		0.000000
383		3.906250
384		1.953125
385		5.859375
386		1.953125
387		3.906250
388		0.000000
389		5.859375
390		0.000000
391		3.906250
392		1.953125
393		3.906250
394		1.953125
395		3.906250
396		0.000000
397		5.859375
398		1.953125
399		3.906250
400		1.953125
401		5.859375
402		1.953125
403		5.859375
404		1.953125
405		5.859375
406		1.953125
407		3.906250
408		0.000000
409		5.859375
410		1.953125
411		3.906250
412		1.953125
413		5.859375
414		1.953125
415		5.859375
416		1.953125
417		5.859375
418		1.953125
419		5.859375
420		1.953125
421		5.859375
422		1.953125
423		5.859375
424		1.953125
425		5.859375
426		1.953125
427		5.859375
428		1.953125
429		5.859375
430		1.953125
431		5.859375
432		1.953125
433		5.859375
434		1.953125
435		5.859375
436		1.953125
437		5.859375
438		1.953125
439		5.859375
440		1.953125
441		5.859375
442		1.953125
443		5.859375
444		3.906250
445		5.859375
446		1.953125
447		5.859375
448		3.906250
449		7.812500
450		3.906250
451		7.812500
452		3.906250
453		7.812500
454		3.906250
455		7.812500
456		3.906250
457		7.812500
458		3.906250
459		7.812500
460		3.906250
461		7.812500
462		3.906250
463		7.812500
464		3.906250
465		7.812500
466		3.906250
467		7.812500
468		3.906250
469		7.812500
470		3.906250
471		7.812500
472		3.906250
473		7.812500
474		3.906250
475		9.765625
476		5.859375
477		7.812500
478		5.859375
479		7.812500
480		5.859375
481		9.765625
482		5.859375
483		9.765625
484		5.859375
485		9.765625
486		5.859375
487		9.765625
488		5.859375
489		9.765625
490		5.859375
491		9.765625
492		5.859375
493		9.765625
494		7.812500
495		9.765625
496		5.859375
497		9.765625
498		7.812500
499		9.765625
500		5.859375
501		9.765625
502		7.812500
503		9.765625
504		7.812500
505		11.718750
506		7.812500
507		11.718750
508		7.812500
509		11.718750
510		7.812500
511		11.718750
512		7.812500
513		11.718750
514		7.812500
515		11.718750
516		7.812500
517		11.718750
518		7.812500
519		11.718750
520		9.765625
521		11.718750
522		7.812500
523		11.718750
524		7.812500
525		11.718750
526		9.765625
527		11.718750
528		9.765625
529		13.671875
530		9.765625
531		13.671875
532		9.765625
533		13.671875
534		9.765625
535		13.671875
536		9.765625
537		13.671875
538		9.765625
539		13.671875
540		9.765625
541		13.671875
542		9.765625
543		13.671875
544		9.765625
545		13.671875
546		9.765625
547		13.671875
548		11.718750
549		13.671875
550		9.765625
551		13.671875
552		9.765625
553		13.671875
554		11.718750
555		13.671875
556		9.765625
557		15.625000
558		11.718750
559		15.625000
560		9.765625
561		15.625000
562		11.718750
563		15.625000
564		11.718750
565		15.625000
566		11.718750
567		15.625000
568		11.718750
569		15.625000
570		11.718750
571		15.625000
572		11.718750
573		15.625000
574		11.718750
575		15.625000
576		11.718750
577		15.625000
578		11.718750
579		15.625000
580		11.718750
581		15.625000
582		11.718750
583		15.625000
584		11.718750
585		15.625000
586		11.718750
587		15.625000
588		11.718750
589		15.625000
590		11.718750
591		15.625000
592		11.718750
593		15.625000
594		11.718750
595		15.625000
596		11.718750
597		15.625000
598		11.718750
599		15.625000
600		11.718750
601		15.625000
602		11.718750
603		15.625000
604		11.718750
605		15.625000
606		11.718750
607		15.625000
608		13.671875
609		15.625000
610		11.718750
611		15.625000
612		11.718750
613		15.625000
614		11.718750
615		15.625000
616		11.718750
617		15.625000
618		11.718750
619		15.625000
620		11.718750
621		15.625000
622		11.718750
623		15.625000
624		11.718750
625		15.625000
626		11.718750
627		15.625000
628		11.718750
629		15.625000
630		11.718750
631		15.625000
632		11.718750
633		15.625000
634		11.718750
635		15.625000
636		11.718750
637		15.625000
638		11.718750
639		15.625000
640		11.718750
641		13.671875
642		11.718750
643		13.671875
644		11.718750
645		15.625000
646		11.718750
647		13.671875
648		9.765625
649		13.671875
650		11.718750
651		13.671875
652		9.765625
653		15.625000
654		9.765625
655		13.671875
656		9.765625
657		13.671875
658		9.765625
659		13.671875
660		9.765625
661		13.671875
662		9.765625
663		13.671875
664		9.765625
665		13.671875
666		9.765625
667		13.671875
668		9.765625
669		13.671875
670		9.765625
671		13.671875
672		9.765625
673		13.671875
674		9.765625
675		11.718750
676		7.812500
677		13.671875
678		9.765625
679		11.718750
680		9.765625
681		11.718750
682		7.812500
683		11.718750
684		7.812500
685		11.718750
686		7.812500
687		11.718750
688		7.812500
689		11.718750
690		7.812500
691		11.718750
692		7.812500
693		11.718750
694		7.812500
695		11.718750
696		7.812500
697		9.765625
698		7.812500
699		11.718750
700		7.812500
701		11.718750
702		7.812500
703		9.765625
704		7.812500
705		9.765625
706		5.859375
707		9.765625
708		5.859375
709		9.765625
710		5.859375
711		11.718750
712		5.859375
713		9.765625
714		5.859375
715		9.765625
716		5.859375
717		9.765625
718		5.859375
719		9.765625
720		5.859375
721		9.765625
722		5.859375
723		9.765625
724		5.859375
725		9.765625
726		5.859375
727		7.812500
728		3.906250
729		7.812500
730		5.859375
731		7.812500
732		3.906250
733		9.765625
734		5.859375
735		7.812500
736		3.906250
737		7.812500
738		3.906250
739		7.812500
740		3.906250
741		7.812500
742		3.906250
743		7.812500
744		3.906250
745		7.812500
746		3.906250
747		7.812500
748		3.906250
749		7.812500
750		3.906250
751		7.812500
752		3.906250
753		7.812500
754		3.906250
755		5.859375
756		3.906250
757		5.859375
758		3.906250
759		5.859375
760		3.906250
761		7.812500
762		3.906250
763		5.859375
764		3.906250
765		5.859375
766		1.953125
767		5.859375
768		1.953125
769		5.859375
770		1.953125
771		5.859375
772		1.953125
773		5.859375
774		1.953125
775		5.859375
776		1.953125
777		5.859375
778		1.953125
779		5.859375
780		1.953125
781		5.859375
782		1.953125
783		5.859375
784		1.953125
785		5.859375
786		1.953125
787		5.859375
788		1.953125
789		5.859375
790		1.953125
791		5.859375
792		1.953125
793		5.859375
794		1.953125
795		5.859375
796		1.953125
797		5.859375
798		1.953125
799		3.906250
800		1.953125
801		5.859375
802		1.953125
803		5.859375
804		1.953125
805		3.906250
806		1.953125
807		5.859375
808		1.953125
809		3.906250
810		0.000000
811		5.859375
812		0.000000
813		3.906250
814		1.953125
815		3.906250
816		1.953125
817		5.859375
818		0.000000
819		3.906250
820		0.000000
821		3.906250
822		1.953125
823		3.906250
824		1.953125
825		3.906250
826		1.953125
827		3.906250
828		0.000000
829		3.906250
830		1.953125
831		3.906250
832		1.953125
833		3.906250
834		0.000000
835		3.906250
836		1.953125
837		3.906250
838		0.000000
839		3.906250
840		1.953125
841		3.906250
842		1.953125
843		3.906250
844		0.000000
845		3.906250
846		1.953125
847		3.906250
848		1.953125
849		3.906250
850		1.953125
851		3.906250
852		0.000000
853		3.906250
854		0.000000
855		5.859375
856		1.953125
857		3.906250
858		1.953125
859		5.859375
860		1.953125
861		5.859375
862		1.953125
863		3.906250
864		1.953125
865		3.906250
866		0.000000
867		5.859375
868		1.953125
869		5.859375
870		1.953125
871		3.906250
872		1.953125
873		3.906250
874		1.953125
875		5.859375
876		1.953125
877		3.906250
878		0.000000
879		5.859375
880		1.953125
881		5.859375
882		1.953125
883		5.859375
884		1.953125
885		5.859375
886		1.953125
887		5.859375
888		1.953125
889		5.859375
890		1.953125
891		5.859375
892		1.953125
893		5.859375
894		1.953125
895		5.859375
896		1.953125
897		5.859375
898		1.953125
899		5.859375
900		1.953125
901		5.859375
902		1.953125
903		5.859375
904		1.953125
905		5.859375
906		1.953125
907		7.812500
908		3.906250
909		5.859375
910		3.906250
911		5.859375
912		1.953125
913		7.812500
914		3.906250
915		5.859375
916		3.906250
917		5.859375
918		3.906250
919		5.859375
920		3.906250
921		5.859375
922		3.906250
923		7.812500
924		3.906250
925		7.812500
926		3.906250
927		7.812500
928		3.906250
929		7.812500
930		3.906250
931		7.812500
932		3.906250
933		7.812500
934		3.906250
935		7.812500
936		3.906250
937		7.812500
938		3.906250
939		7.812500
940		5.859375
941		7.812500
942		5.859375
943		7.812500
944		5.859375
945		7.812500
946		5.859375
947		9.765625
948		5.859375
949		9.765625
950		5.859375
951		9.765625
952		5.859375
953		9.765625
954		5.859375
955		9.765625
956		5.859375
957		9.765625
958		5.859375
959		9.765625
960		5.859375
961		9.765625
962		5.859375
963		11.718750
964		7.812500
965		9.765625
966		7.812500
967		9.765625
968		5.859375
969		11.718750
970		7.812500
971		9.765625
972		7.812500
973		11.718750
974		7.812500
975		11.718750
976		7.812500
977		11.718750
978		7.812500
979		11.718750
980		7.812500
981		11.718750
982		7.812500
983		11.718750
984		7.812500
985		11.718750
986		7.812500
987		11.718750
988		9.765625
989		11.718750
990		9.765625
991		11.718750
992		9.765625
993		11.718750
994		9.765625
995		11.718750
996		9.765625
997		13.671875
998		9.765625
999		13.671875
1000		9.765625
1001		13.671875
1002		9.765625
1003		13.671875
1004		9.765625
1005		13.671875
1006		9.765625
1007		13.671875
1008		9.765625
1009		13.671875
1010		9.765625
1011		13.671875
1012		9.765625
1013		13.671875
1014		9.765625
1015		13.671875
1016		11.718750
1017		13.671875
1018		11.718750
1019		13.671875
1020		11.718750
1021		13.671875
1022		11.718750
1023		13.671875
1024		11.718750
1025		15.625000
1026		11.718750
1027		15.625000
1028		11.718750
1029		15.625000
1030		11.718750
1031		15.625000
1032		11.718750
1033		15.625000
1034		11.718750
1035		15.625000
1036		11.718750
1037		15.625000
1038		11.718750
1039		15.625000
1040		11.718750
1041		15.625000
1042		11.718750
1043		15.625000
1044		11.718750
1045		15.625000
1046		11.718750
1047		15.625000
1048		13.671875
1049		15.625000
1050		13.671875
1051		15.625000
1052		11.718750
1053		15.625000
1054		11.718750
1055		15.625000
1056		11.718750
1057		15.625000
1058		11.718750
1059		17.578125
1060		11.718750
1061		15.625000
1062		11.718750
1063		15.625000
1064		13.671875
1065		17.578125
1066		13.671875
1067		15.625000
1068		11.718750
1069		17.578125
1070		13.671875
1071		15.625000
1072		11.718750
1073		15.625000
1074		11.718750
1075		17.578125
1076		11.718750
1077		15.625000
1078		13.671875
1079		15.625000
1080		13.671875
1081		15.625000
1082		13.671875
1083		15.625000
1084		11.718750
1085		15.625000
1086		11.718750
1087		17.578125
1088		11.718750
1089		15.625000
1090		13.671875
1091		15.625000
1092		13.671875
1093		15.625000
1094		11.718750
1095		15.625000
1096		11.718750
1097		15.625000
1098		11.718750
1099		15.625000
1100		11.718750
1101		15.625000
1102		11.718750
1103		15.625000
1104		11.718750
1105		15.625000
1106		11.718750
1107		15.625000
1108		11.718750
1109		15.625000
1110		11.718750
1111		15.625000
1112		11.718750
1113		13.671875
1114		9.765625
1115		15.625000
1116		11.718750
1117		13.671875
1118		11.718750
1119		13.671875
1120		11.718750
1121		13.671875
1122		11.718750
1123		13.671875
1124		9.765625
1125		13.671875
1126		9.765625
1127		13.671875
1128		9.765625
1129		13.671875
1130		9.765625
1131		13.671875
1132		9.765625
1133		13.671875
1134		9.765625
1135		13.671875
1136		9.765625
1137		13.671875
1138		9.765625
1139		13.671875
1140		9.765625
1141		13.671875
1142		9.765625
1143		13.671875
1144		9.765625
1145		13.671875
1146		9.765625
1147		13.671875
1148		9.765625
1149		13.671875
1150		9.765625
1151		11.718750
1152		7.812500
1153		11.718750
1154		9.765625
1155		11.718750
1156		7.812500
1157		11.718750
1158		7.812500
1159		11.718750
1160		7.812500
1161		11.718750
1162		7.812500
1163		11.718750
1164		7.812500
1165		11.718750
1166		7.812500
1167		11.718750
1168		7.812500
1169		11.718750
1170		7.812500
1171		11.718750
1172		7.812500
1173		9.765625
1174		7.812500
1175		9.765625
1176		7.812500
1177		9.765625
1178		5.859375
1179		9.765625
1180		5.859375
1181		9.765625
1182		5.859375
1183		9.765625
1184		5.859375
1185		9.765625
1186		5.859375
1187		9.765625
1188		5.859375
1189		9.765625
1190		5.859375
1191		9.765625
1192		5.859375
1193		9.765625
1194		5.859375
1195		9.765625
1196		5.859375
1197		9.765625
1198		5.859375
1199		9.765625
1200		5.859375
1201		7.812500
1202		3.906250
1203		7.812500
1204		3.906250
1205		9.765625
1206		5.859375
1207		7.812500
1208		3.906250
1209		7.812500
1210		3.906250
1211		7.812500
1212		3.906250
1213		7.812500
1214		3.906250
1215		7.812500
1216		3.906250
1217		7.812500
1218		3.906250
1219		7.812500
1220		3.906250
1221		7.812500
1222		3.906250
1223		7.812500
1224		3.906250
1225		7.812500
1226		3.906250
1227		7.812500
1228		3.906250
1229		7.812500
1230		3.906250
1231		7.812500
1232		3.906250
1233		7.812500
1234		3.906250
1235		5.859375
1236		3.906250
1237		7.812500
1238		3.906250
1239		5.859375
1240		1.953125
1241		5.859375
1242		1.953125
1243		5.859375
1244		1.953125
1245		5.859375
1246		3.906250
1247		5.859375
1248		1.953125
1249		5.859375
1250		1.953125
1251		5.859375
1252		1.953125
1253		5.859375
1254		1.953125
1255		5.859375
1256		1.953125
1257		5.859375
1258		1.953125
1259		5.859375
1260		1.953125
1261		5.859375
1262		1.953125
1263		5.859375
1264		1.953125
1265		5.859375
1266		1.953125
1267		5.859375
1268		1.953125
1269		5.859375
1270		0.000000
1271		5.859375
1272		1.953125
1273		5.859375
1274		1.953125
1275		5.859375
1276		1.953125
1277		5.859375
1278		1.953125
1279		5.859375
1280		1.953125
1281		5.859375
1282		0.000000
1283		5.859375
1284		1.953125
1285		3.906250
1286		0.000000
1287		5.859375
1288		1.953125
1289		5.859375
1290		1.953125
1291		3.906250
1292		1.953125
1293		3.906250
1294		1.953125
1295		3.906250
1296		1.953125
1297		5.859375
1298		0.000000
1299		5.859375
1300		1.953125
1301		3.906250
1302		1.953125
1303		3.906250
1304		0.000000
1305		5.859375
1306		1.953125
1307		5.859375
1308		0.000000
1309		3.906250
1310		1.953125
1311		3.906250
1312		1.953125
1313		3.906250
1314		1.953125
1315		3.906250
1316		0.000000
1317		3.906250
1318		1.953125
1319		3.906250
1320		0.000000
1321		3.906250
1322		1.953125
1323		3.906250
1324		0.000000
1325		3.906250
1326		0.000000
1327		3.906250
1328		1.953125
1329		3.906250
1330		1.953125
1331		5.859375
1332		1.953125
1333		5.859375
1334		1.953125
1335		5.859375
1336		1.953125
1337		3.906250
1338		0.000000
1339		5.859375
1340		1.953125
1341		5.859375
1342		1.953125
1343		5.859375
1344		0.000000
1345		5.859375
1346		0.000000
1347		3.906250
1348		1.953125
1349		5.859375
1350		1.953125
1351		5.859375
1352		1.953125
1353		5.859375
1354		1.953125
1355		5.859375
1356		1.953125
1357		5.859375
1358		1.953125
1359		5.859375
1360		1.953125
