metingen laweit/1000Hz, 66.4cm/data_81_m630.txt

Channel              :		CH1
Frequency            :		1.061kHz
Period               :		0.942ms
PK-PK                :		312.5mV
Probe attenuation    :		1X
Voltage per ADC value:		0.122070mV
Time interval        :		2.00000us

index		CH1_Voltage(mV)
1		80.078125
2		80.078125
3		70.312500
4		76.171875
5		66.406250
6		72.265625
7		62.500000
8		68.359375
9		58.593750
10		68.359375
11		54.687500
12		64.453125
13		50.781250
14		60.546875
15		48.828125
16		56.640625
17		44.921875
18		54.687500
19		42.968750
20		50.781250
21		39.062500
22		44.921875
23		35.156250
24		41.015625
25		31.250000
26		39.062500
27		25.390625
28		35.156250
29		23.437500
30		31.250000
31		19.531250
32		27.343750
33		15.625000
34		23.437500
35		11.718750
36		19.531250
37		9.765625
38		15.625000
39		3.906250
40		11.718750
41		0.000000
42		7.812500
43		-3.906250
44		3.906250
45		-7.812500
46		0.000000
47		-11.718750
48		-3.906250
49		-17.578125
50		-7.812500
51		-21.484375
52		-11.718750
53		-23.437500
54		-15.625000
55		-27.343750
56		-19.531250
57		-33.203125
58		-25.390625
59		-39.062500
60		-29.296875
61		-41.015625
62		-33.203125
63		-44.921875
64		-35.156250
65		-48.828125
66		-39.062500
67		-52.734375
68		-44.921875
69		-56.640625
70		-46.875000
71		-58.593750
72		-52.734375
73		-62.500000
74		-56.640625
75		-68.359375
76		-60.546875
77		-72.265625
78		-64.453125
79		-76.171875
80		-68.359375
81		-80.078125
82		-72.265625
83		-82.031250
84		-76.171875
85		-87.890625
86		-78.125000
87		-89.843750
88		-83.984375
89		-93.750000
90		-87.890625
91		-97.656250
92		-89.843750
93		-101.562500
94		-91.796875
95		-105.468750
96		-95.703125
97		-107.421875
98		-99.609375
99		-111.328125
100		-103.515625
101		-115.234375
102		-107.421875
103		-117.187500
104		-109.375000
105		-119.140625
106		-113.281250
107		-123.046875
108		-117.187500
109		-126.953125
110		-117.187500
111		-130.859375
112		-123.046875
113		-132.812500
114		-125.000000
115		-136.718750
116		-126.953125
117		-138.671875
118		-128.906250
119		-138.671875
120		-130.859375
121		-140.625000
122		-136.718750
123		-142.578125
124		-138.671875
125		-146.484375
126		-140.625000
127		-148.437500
128		-140.625000
129		-150.390625
130		-144.531250
131		-152.343750
132		-144.531250
133		-154.296875
134		-148.437500
135		-156.250000
136		-148.437500
137		-158.203125
138		-150.390625
139		-158.203125
140		-154.296875
141		-160.156250
142		-154.296875
143		-162.109375
144		-154.296875
145		-164.062500
146		-156.250000
147		-166.015625
148		-156.250000
149		-166.015625
150		-158.203125
151		-166.015625
152		-160.156250
153		-166.015625
154		-158.203125
155		-166.015625
156		-162.109375
157		-166.015625
158		-162.109375
159		-167.968750
160		-160.156250
161		-167.968750
162		-160.156250
163		-167.968750
164		-160.156250
165		-167.968750
166		-160.156250
167		-166.015625
168		-162.109375
169		-167.968750
170		-160.156250
171		-166.015625
172		-162.109375
173		-164.062500
174		-160.156250
175		-164.062500
176		-158.203125
177		-164.062500
178		-158.203125
179		-162.109375
180		-156.250000
181		-162.109375
182		-156.250000
183		-162.109375
184		-154.296875
185		-160.156250
186		-152.343750
187		-158.203125
188		-152.343750
189		-156.250000
190		-150.390625
191		-154.296875
192		-148.437500
193		-152.343750
194		-146.484375
195		-152.343750
196		-144.531250
197		-148.437500
198		-142.578125
199		-146.484375
200		-140.625000
201		-146.484375
202		-136.718750
203		-142.578125
204		-134.765625
205		-138.671875
206		-132.812500
207		-136.718750
208		-130.859375
209		-134.765625
210		-126.953125
211		-132.812500
212		-123.046875
213		-128.906250
214		-121.093750
215		-126.953125
216		-119.140625
217		-123.046875
218		-115.234375
219		-119.140625
220		-113.281250
221		-117.187500
222		-111.328125
223		-113.281250
224		-107.421875
225		-109.375000
226		-101.562500
227		-107.421875
228		-97.656250
229		-103.515625
230		-95.703125
231		-101.562500
232		-91.796875
233		-97.656250
234		-87.890625
235		-93.750000
236		-85.937500
237		-89.843750
238		-82.031250
239		-83.984375
240		-78.125000
241		-80.078125
242		-74.218750
243		-78.125000
244		-70.312500
245		-76.171875
246		-64.453125
247		-70.312500
248		-60.546875
249		-66.406250
250		-58.593750
251		-60.546875
252		-52.734375
253		-58.593750
254		-48.828125
255		-52.734375
256		-46.875000
257		-48.828125
258		-42.968750
259		-44.921875
260		-37.109375
261		-42.968750
262		-33.203125
263		-37.109375
264		-29.296875
265		-33.203125
266		-25.390625
267		-29.296875
268		-21.484375
269		-25.390625
270		-17.578125
271		-21.484375
272		-13.671875
273		-15.625000
274		-9.765625
275		-11.718750
276		-5.859375
277		-9.765625
278		0.000000
279		-5.859375
280		3.906250
281		-1.953125
282		7.812500
283		1.953125
284		11.718750
285		5.859375
286		15.625000
287		11.718750
288		19.531250
289		15.625000
290		21.484375
291		19.531250
292		25.390625
293		23.437500
294		31.250000
295		25.390625
296		33.203125
297		29.296875
298		39.062500
299		33.203125
300		42.968750
301		37.109375
302		44.921875
303		41.015625
304		48.828125
305		44.921875
306		50.781250
307		48.828125
308		54.687500
309		52.734375
310		60.546875
311		52.734375
312		62.500000
313		56.640625
314		64.453125
315		60.546875
316		68.359375
317		64.453125
318		72.265625
319		66.406250
320		74.218750
321		70.312500
322		76.171875
323		74.218750
324		80.078125
325		78.125000
326		82.031250
327		80.078125
328		85.937500
329		82.031250
330		89.843750
331		83.984375
332		91.796875
333		85.937500
334		93.750000
335		89.843750
336		95.703125
337		89.843750
338		99.609375
339		95.703125
340		99.609375
341		97.656250
342		101.562500
343		99.609375
344		105.468750
345		99.609375
346		107.421875
347		103.515625
348		111.328125
349		103.515625
350		113.281250
351		107.421875
352		113.281250
353		107.421875
354		117.187500
355		111.328125
356		117.187500
357		113.281250
358		117.187500
359		115.234375
360		119.140625
361		115.234375
362		123.046875
363		117.187500
364		123.046875
365		117.187500
366		125.000000
367		119.140625
368		126.953125
369		121.093750
370		126.953125
371		121.093750
372		128.906250
373		123.046875
374		128.906250
375		125.000000
376		128.906250
377		125.000000
378		132.812500
379		125.000000
380		132.812500
381		125.000000
382		132.812500
383		126.953125
384		132.812500
385		126.953125
386		134.765625
387		126.953125
388		134.765625
389		128.906250
390		134.765625
391		128.906250
392		134.765625
393		130.859375
394		136.718750
395		128.906250
396		134.765625
397		128.906250
398		134.765625
399		128.906250
400		136.718750
401		128.906250
402		136.718750
403		128.906250
404		134.765625
405		128.906250
406		134.765625
407		130.859375
408		134.765625
409		130.859375
410		132.812500
411		126.953125
412		134.765625
413		126.953125
414		134.765625
415		126.953125
416		134.765625
417		125.000000
418		132.812500
419		123.046875
420		130.859375
421		123.046875
422		130.859375
423		125.000000
424		128.906250
425		123.046875
426		126.953125
427		121.093750
428		126.953125
429		119.140625
430		126.953125
431		117.187500
432		125.000000
433		117.187500
434		125.000000
435		115.234375
436		123.046875
437		113.281250
438		121.093750
439		113.281250
440		119.140625
441		111.328125
442		117.187500
443		111.328125
444		115.234375
445		107.421875
446		113.281250
447		105.468750
448		113.281250
449		103.515625
450		111.328125
451		101.562500
452		109.375000
453		97.656250
454		105.468750
455		95.703125
456		105.468750
457		95.703125
458		99.609375
459		91.796875
460		97.656250
461		87.890625
462		95.703125
463		85.937500
464		93.750000
465		83.984375
466		91.796875
467		80.078125
468		89.843750
469		78.125000
470		85.937500
471		76.171875
472		82.031250
473		74.218750
474		80.078125
475		70.312500
476		76.171875
477		66.406250
478		72.265625
479		62.500000
480		70.312500
481		58.593750
482		68.359375
483		54.687500
484		64.453125
485		52.734375
486		60.546875
487		48.828125
488		58.593750
489		44.921875
490		52.734375
491		42.968750
492		48.828125
493		39.062500
494		44.921875
495		35.156250
496		42.968750
497		31.250000
498		39.062500
499		25.390625
500		35.156250
501		23.437500
502		31.250000
503		19.531250
504		29.296875
505		15.625000
506		23.437500
507		13.671875
508		19.531250
509		9.765625
510		15.625000
511		3.906250
512		11.718750
513		0.000000
514		7.812500
515		-3.906250
516		3.906250
517		-5.859375
518		0.000000
519		-13.671875
520		-3.906250
521		-15.625000
522		-7.812500
523		-19.531250
524		-11.718750
525		-23.437500
526		-17.578125
527		-27.343750
528		-21.484375
529		-33.203125
530		-25.390625
531		-35.156250
532		-29.296875
533		-39.062500
534		-31.250000
535		-42.968750
536		-37.109375
537		-48.828125
538		-41.015625
539		-52.734375
540		-44.921875
541		-54.687500
542		-48.828125
543		-58.593750
544		-52.734375
545		-64.453125
546		-56.640625
547		-68.359375
548		-58.593750
549		-72.265625
550		-62.500000
551		-76.171875
552		-68.359375
553		-78.125000
554		-70.312500
555		-82.031250
556		-74.218750
557		-85.937500
558		-78.125000
559		-89.843750
560		-83.984375
561		-93.750000
562		-87.890625
563		-97.656250
564		-87.890625
565		-101.562500
566		-93.750000
567		-105.468750
568		-97.656250
569		-107.421875
570		-99.609375
571		-109.375000
572		-101.562500
573		-113.281250
574		-105.468750
575		-115.234375
576		-111.328125
577		-119.140625
578		-113.281250
579		-123.046875
580		-115.234375
581		-126.953125
582		-119.140625
583		-130.859375
584		-121.093750
585		-132.812500
586		-125.000000
587		-134.765625
588		-126.953125
589		-136.718750
590		-130.859375
591		-138.671875
592		-132.812500
593		-140.625000
594		-136.718750
595		-144.531250
596		-138.671875
597		-146.484375
598		-138.671875
599		-148.437500
600		-140.625000
601		-150.390625
602		-142.578125
603		-152.343750
604		-144.531250
605		-154.296875
606		-148.437500
607		-154.296875
608		-148.437500
609		-156.250000
610		-152.343750
611		-156.250000
612		-152.343750
613		-160.156250
614		-152.343750
615		-160.156250
616		-154.296875
617		-162.109375
618		-156.250000
619		-164.062500
620		-156.250000
621		-164.062500
622		-158.203125
623		-164.062500
624		-158.203125
625		-164.062500
626		-160.156250
627		-164.062500
628		-160.156250
629		-166.015625
630		-160.156250
631		-166.015625
632		-158.203125
633		-166.015625
634		-160.156250
635		-166.015625
636		-160.156250
637		-166.015625
638		-160.156250
639		-166.015625
640		-160.156250
641		-166.015625
642		-160.156250
643		-164.062500
644		-160.156250
645		-164.062500
646		-158.203125
647		-164.062500
648		-156.250000
649		-162.109375
650		-156.250000
651		-162.109375
652		-156.250000
653		-160.156250
654		-154.296875
655		-160.156250
656		-152.343750
657		-158.203125
658		-152.343750
659		-156.250000
660		-150.390625
661		-154.296875
662		-150.390625
663		-154.296875
664		-146.484375
665		-152.343750
666		-144.531250
667		-150.390625
668		-142.578125
669		-148.437500
670		-140.625000
671		-144.531250
672		-138.671875
673		-142.578125
674		-136.718750
675		-140.625000
676		-134.765625
677		-136.718750
678		-132.812500
679		-134.765625
680		-128.906250
681		-132.812500
682		-125.000000
683		-130.859375
684		-123.046875
685		-128.906250
686		-119.140625
687		-125.000000
688		-117.187500
689		-121.093750
690		-113.281250
691		-119.140625
692		-111.328125
693		-113.281250
694		-109.375000
695		-111.328125
696		-105.468750
697		-107.421875
698		-99.609375
699		-105.468750
700		-97.656250
701		-103.515625
702		-93.750000
703		-99.609375
704		-89.843750
705		-95.703125
706		-87.890625
707		-91.796875
708		-82.031250
709		-87.890625
710		-80.078125
711		-82.031250
712		-76.171875
713		-78.125000
714		-72.265625
715		-76.171875
716		-66.406250
717		-72.265625
718		-62.500000
719		-68.359375
720		-58.593750
721		-64.453125
722		-56.640625
723		-60.546875
724		-50.781250
725		-54.687500
726		-48.828125
727		-50.781250
728		-44.921875
729		-46.875000
730		-39.062500
731		-44.921875
732		-35.156250
733		-39.062500
734		-31.250000
735		-35.156250
736		-27.343750
737		-33.203125
738		-23.437500
739		-29.296875
740		-19.531250
741		-23.437500
742		-15.625000
743		-17.578125
744		-11.718750
745		-13.671875
746		-7.812500
747		-9.765625
748		-1.953125
749		-7.812500
750		1.953125
751		-1.953125
752		5.859375
753		0.000000
754		9.765625
755		5.859375
756		13.671875
757		7.812500
758		17.578125
759		13.671875
760		19.531250
761		17.578125
762		23.437500
763		21.484375
764		29.296875
765		23.437500
766		33.203125
767		27.343750
768		37.109375
769		31.250000
770		41.015625
771		35.156250
772		42.968750
773		39.062500
774		48.828125
775		41.015625
776		48.828125
777		46.875000
778		52.734375
779		50.781250
780		56.640625
781		52.734375
782		60.546875
783		56.640625
784		64.453125
785		58.593750
786		66.406250
787		62.500000
788		72.265625
789		66.406250
790		72.265625
791		68.359375
792		76.171875
793		72.265625
794		78.125000
795		76.171875
796		80.078125
797		78.125000
798		85.937500
799		80.078125
800		87.890625
801		82.031250
802		91.796875
803		85.937500
804		93.750000
805		87.890625
806		95.703125
807		91.796875
808		97.656250
809		93.750000
810		99.609375
811		95.703125
812		101.562500
813		99.609375
814		103.515625
815		99.609375
816		107.421875
817		101.562500
818		109.375000
819		103.515625
820		111.328125
821		105.468750
822		113.281250
823		107.421875
824		115.234375
825		109.375000
826		117.187500
827		113.281250
828		117.187500
829		115.234375
830		119.140625
831		115.234375
832		123.046875
833		117.187500
834		123.046875
835		117.187500
836		125.000000
837		119.140625
838		126.953125
839		119.140625
840		126.953125
841		121.093750
842		128.906250
843		123.046875
844		128.906250
845		125.000000
846		128.906250
847		125.000000
848		130.859375
849		126.953125
850		132.812500
851		126.953125
852		132.812500
853		126.953125
854		134.765625
855		128.906250
856		134.765625
857		128.906250
858		134.765625
859		128.906250
860		134.765625
861		130.859375
862		134.765625
863		130.859375
864		134.765625
865		128.906250
866		136.718750
867		128.906250
868		136.718750
869		130.859375
870		136.718750
871		128.906250
872		136.718750
873		128.906250
874		136.718750
875		128.906250
876		136.718750
877		130.859375
878		134.765625
879		130.859375
880		134.765625
881		128.906250
882		134.765625
883		126.953125
884		134.765625
885		126.953125
886		134.765625
887		126.953125
888		132.812500
889		125.000000
890		132.812500
891		125.000000
892		132.812500
893		125.000000
894		130.859375
895		125.000000
896		128.906250
897		123.046875
898		126.953125
899		121.093750
900		128.906250
901		119.140625
902		126.953125
903		117.187500
904		125.000000
905		115.234375
906		125.000000
907		115.234375
908		123.046875
909		113.281250
910		121.093750
911		113.281250
912		117.187500
913		111.328125
914		115.234375
915		107.421875
916		115.234375
917		107.421875
918		113.281250
919		103.515625
920		111.328125
921		101.562500
922		109.375000
923		99.609375
924		107.421875
925		97.656250
926		105.468750
927		95.703125
928		103.515625
929		93.750000
930		99.609375
931		89.843750
932		95.703125
933		87.890625
934		95.703125
935		85.937500
936		91.796875
937		82.031250
938		89.843750
939		78.125000
940		87.890625
941		76.171875
942		83.984375
943		74.218750
944		82.031250
945		72.265625
946		78.125000
947		68.359375
948		74.218750
949		64.453125
950		72.265625
951		60.546875
952		70.312500
953		56.640625
954		66.406250
955		54.687500
956		62.500000
957		50.781250
958		58.593750
959		46.875000
960		56.640625
961		44.921875
962		50.781250
963		41.015625
964		46.875000
965		37.109375
966		42.968750
967		33.203125
968		42.968750
969		29.296875
970		37.109375
971		25.390625
972		35.156250
973		21.484375
974		31.250000
975		17.578125
976		27.343750
977		15.625000
978		23.437500
979		11.718750
980		17.578125
981		7.812500
982		13.671875
983		1.953125
984		11.718750
985		-1.953125
986		5.859375
987		-5.859375
988		3.906250
989		-9.765625
990		0.000000
991		-13.671875
992		-3.906250
993		-17.578125
994		-7.812500
995		-19.531250
996		-13.671875
997		-23.437500
998		-17.578125
999		-29.296875
1000		-21.484375
1001		-35.156250
1002		-25.390625
1003		-39.062500
1004		-29.296875
1005		-42.968750
1006		-33.203125
1007		-46.875000
1008		-37.109375
1009		-50.781250
1010		-41.015625
1011		-52.734375
1012		-44.921875
1013		-56.640625
1014		-50.781250
1015		-62.500000
1016		-54.687500
1017		-66.406250
1018		-56.640625
1019		-70.312500
1020		-60.546875
1021		-74.218750
1022		-66.406250
1023		-78.125000
1024		-70.312500
1025		-82.031250
1026		-72.265625
1027		-83.984375
1028		-76.171875
1029		-87.890625
1030		-82.031250
1031		-89.843750
1032		-85.937500
1033		-95.703125
1034		-87.890625
1035		-99.609375
1036		-89.843750
1037		-101.562500
1038		-95.703125
1039		-105.468750
1040		-97.656250
1041		-109.375000
1042		-101.562500
1043		-113.281250
1044		-103.515625
1045		-115.234375
1046		-107.421875
1047		-117.187500
1048		-113.281250
1049		-123.046875
1050		-115.234375
1051		-125.000000
1052		-117.187500
1053		-126.953125
1054		-119.140625
1055		-130.859375
1056		-123.046875
1057		-132.812500
1058		-125.000000
1059		-136.718750
1060		-128.906250
1061		-138.671875
1062		-130.859375
1063		-138.671875
1064		-134.765625
1065		-142.578125
1066		-136.718750
1067		-146.484375
1068		-136.718750
1069		-148.437500
1070		-140.625000
1071		-150.390625
1072		-142.578125
1073		-152.343750
1074		-144.531250
1075		-152.343750
1076		-146.484375
1077		-154.296875
1078		-146.484375
1079		-156.250000
1080		-150.390625
1081		-156.250000
1082		-152.343750
1083		-160.156250
1084		-152.343750
1085		-160.156250
1086		-154.296875
1087		-162.109375
1088		-154.296875
1089		-164.062500
1090		-156.250000
1091		-164.062500
1092		-156.250000
1093		-166.015625
1094		-158.203125
1095		-166.015625
1096		-158.203125
1097		-164.062500
1098		-160.156250
1099		-166.015625
1100		-160.156250
1101		-167.968750
1102		-160.156250
1103		-167.968750
1104		-160.156250
1105		-167.968750
1106		-160.156250
1107		-167.968750
1108		-160.156250
1109		-167.968750
1110		-160.156250
1111		-166.015625
1112		-160.156250
1113		-164.062500
1114		-160.156250
1115		-164.062500
1116		-160.156250
1117		-166.015625
1118		-158.203125
1119		-164.062500
1120		-158.203125
1121		-164.062500
1122		-156.250000
1123		-162.109375
1124		-154.296875
1125		-162.109375
1126		-154.296875
1127		-160.156250
1128		-152.343750
1129		-158.203125
1130		-152.343750
1131		-156.250000
1132		-152.343750
1133		-154.296875
1134		-148.437500
1135		-154.296875
1136		-146.484375
1137		-152.343750
1138		-144.531250
1139		-150.390625
1140		-142.578125
1141		-148.437500
1142		-140.625000
1143		-144.531250
1144		-138.671875
1145		-144.531250
1146		-136.718750
1147		-138.671875
1148		-134.765625
1149		-136.718750
1150		-132.812500
1151		-136.718750
1152		-126.953125
1153		-132.812500
1154		-125.000000
1155		-130.859375
1156		-123.046875
1157		-126.953125
1158		-119.140625
1159		-123.046875
1160		-117.187500
1161		-121.093750
1162		-113.281250
1163		-119.140625
1164		-111.328125
1165		-113.281250
1166		-107.421875
1167		-111.328125
1168		-103.515625
1169		-109.375000
1170		-99.609375
1171		-105.468750
1172		-95.703125
1173		-101.562500
1174		-91.796875
1175		-97.656250
1176		-89.843750
1177		-95.703125
1178		-85.937500
1179		-91.796875
1180		-83.984375
1181		-85.937500
1182		-80.078125
1183		-82.031250
1184		-74.218750
1185		-80.078125
1186		-70.312500
1187		-76.171875
1188		-66.406250
1189		-70.312500
1190		-62.500000
1191		-66.406250
1192		-58.593750
1193		-64.453125
1194		-54.687500
1195		-58.593750
1196		-50.781250
1197		-54.687500
1198		-46.875000
1199		-50.781250
1200		-42.968750
1201		-46.875000
1202		-39.062500
1203		-42.968750
1204		-33.203125
1205		-39.062500
1206		-31.250000
1207		-35.156250
1208		-27.343750
1209		-33.203125
1210		-21.484375
1211		-25.390625
1212		-17.578125
1213		-23.437500
1214		-15.625000
1215		-17.578125
1216		-11.718750
1217		-13.671875
1218		-5.859375
1219		-9.765625
1220		-1.953125
1221		-7.812500
1222		1.953125
1223		-1.953125
1224		5.859375
