metingen laweit/1000Hz, 66.4cm/data_81_m183.txt

Channel              :		CH1
Frequency            :		1.061kHz
Period               :		0.942ms
PK-PK                :		339.8mV
Probe attenuation    :		1X
Voltage per ADC value:		0.122070mV
Time interval        :		2.00000us

index		CH1_Voltage(mV)
1		97.656250
2		97.656250
3		105.468750
4		93.750000
5		101.562500
6		91.796875
7		99.609375
8		87.890625
9		95.703125
10		83.984375
11		91.796875
12		82.031250
13		89.843750
14		80.078125
15		85.937500
16		76.171875
17		82.031250
18		70.312500
19		80.078125
20		66.406250
21		76.171875
22		62.500000
23		70.312500
24		60.546875
25		68.359375
26		54.687500
27		62.500000
28		52.734375
29		60.546875
30		48.828125
31		54.687500
32		44.921875
33		50.781250
34		39.062500
35		46.875000
36		35.156250
37		44.921875
38		31.250000
39		39.062500
40		25.390625
41		35.156250
42		21.484375
43		31.250000
44		19.531250
45		27.343750
46		15.625000
47		23.437500
48		9.765625
49		17.578125
50		3.906250
51		11.718750
52		0.000000
53		9.765625
54		-3.906250
55		5.859375
56		-9.765625
57		0.000000
58		-11.718750
59		-3.906250
60		-17.578125
61		-5.859375
62		-21.484375
63		-11.718750
64		-25.390625
65		-17.578125
66		-29.296875
67		-23.437500
68		-35.156250
69		-27.343750
70		-39.062500
71		-29.296875
72		-44.921875
73		-35.156250
74		-48.828125
75		-41.015625
76		-52.734375
77		-42.968750
78		-58.593750
79		-46.875000
80		-60.546875
81		-54.687500
82		-64.453125
83		-58.593750
84		-70.312500
85		-62.500000
86		-76.171875
87		-64.453125
88		-80.078125
89		-70.312500
90		-82.031250
91		-74.218750
92		-87.890625
93		-78.125000
94		-91.796875
95		-82.031250
96		-93.750000
97		-85.937500
98		-99.609375
99		-91.796875
100		-101.562500
101		-95.703125
102		-107.421875
103		-97.656250
104		-111.328125
105		-101.562500
106		-113.281250
107		-105.468750
108		-117.187500
109		-109.375000
110		-123.046875
111		-113.281250
112		-125.000000
113		-117.187500
114		-126.953125
115		-121.093750
116		-130.859375
117		-125.000000
118		-136.718750
119		-128.906250
120		-138.671875
121		-130.859375
122		-140.625000
123		-132.812500
124		-144.531250
125		-134.765625
126		-148.437500
127		-140.625000
128		-148.437500
129		-140.625000
130		-150.390625
131		-144.531250
132		-154.296875
133		-148.437500
134		-158.203125
135		-152.343750
136		-160.156250
137		-152.343750
138		-162.109375
139		-154.296875
140		-164.062500
141		-156.250000
142		-166.015625
143		-158.203125
144		-167.968750
145		-160.156250
146		-169.921875
147		-162.109375
148		-169.921875
149		-166.015625
150		-171.875000
151		-167.968750
152		-173.828125
153		-167.968750
154		-175.781250
155		-167.968750
156		-177.734375
157		-169.921875
158		-177.734375
159		-169.921875
160		-177.734375
161		-171.875000
162		-179.687500
163		-171.875000
164		-177.734375
165		-173.828125
166		-177.734375
167		-175.781250
168		-179.687500
169		-173.828125
170		-181.640625
171		-173.828125
172		-181.640625
173		-173.828125
174		-179.687500
175		-173.828125
176		-179.687500
177		-173.828125
178		-179.687500
179		-173.828125
180		-179.687500
181		-173.828125
182		-175.781250
183		-173.828125
184		-175.781250
185		-171.875000
186		-177.734375
187		-169.921875
188		-175.781250
189		-167.968750
190		-173.828125
191		-167.968750
192		-173.828125
193		-166.015625
194		-171.875000
195		-164.062500
196		-169.921875
197		-164.062500
198		-167.968750
199		-162.109375
200		-164.062500
201		-160.156250
202		-164.062500
203		-156.250000
204		-164.062500
205		-154.296875
206		-160.156250
207		-152.343750
208		-156.250000
209		-150.390625
210		-154.296875
211		-146.484375
212		-152.343750
213		-144.531250
214		-150.390625
215		-142.578125
216		-144.531250
217		-140.625000
218		-142.578125
219		-134.765625
220		-140.625000
221		-132.812500
222		-136.718750
223		-128.906250
224		-134.765625
225		-125.000000
226		-130.859375
227		-123.046875
228		-126.953125
229		-119.140625
230		-123.046875
231		-115.234375
232		-119.140625
233		-113.281250
234		-115.234375
235		-109.375000
236		-111.328125
237		-103.515625
238		-109.375000
239		-99.609375
240		-103.515625
241		-95.703125
242		-101.562500
243		-91.796875
244		-95.703125
245		-87.890625
246		-91.796875
247		-83.984375
248		-85.937500
249		-80.078125
250		-82.031250
251		-76.171875
252		-78.125000
253		-70.312500
254		-74.218750
255		-64.453125
256		-70.312500
257		-60.546875
258		-66.406250
259		-56.640625
260		-60.546875
261		-52.734375
262		-56.640625
263		-46.875000
264		-52.734375
265		-44.921875
266		-46.875000
267		-39.062500
268		-41.015625
269		-35.156250
270		-37.109375
271		-29.296875
272		-33.203125
273		-25.390625
274		-29.296875
275		-19.531250
276		-25.390625
277		-15.625000
278		-19.531250
279		-11.718750
280		-15.625000
281		-7.812500
282		-9.765625
283		-3.906250
284		-5.859375
285		1.953125
286		0.000000
287		7.812500
288		1.953125
289		11.718750
290		7.812500
291		15.625000
292		11.718750
293		19.531250
294		15.625000
295		23.437500
296		17.578125
297		29.296875
298		25.390625
299		31.250000
300		29.296875
301		35.156250
302		35.156250
303		42.968750
304		37.109375
305		44.921875
306		41.015625
307		50.781250
308		44.921875
309		52.734375
310		48.828125
311		56.640625
312		52.734375
313		60.546875
314		56.640625
315		64.453125
316		62.500000
317		68.359375
318		66.406250
319		72.265625
320		68.359375
321		76.171875
322		72.265625
323		80.078125
324		76.171875
325		83.984375
326		78.125000
327		85.937500
328		82.031250
329		89.843750
330		85.937500
331		93.750000
332		89.843750
333		95.703125
334		93.750000
335		97.656250
336		95.703125
337		103.515625
338		97.656250
339		105.468750
340		101.562500
341		107.421875
342		103.515625
343		111.328125
344		105.468750
345		115.234375
346		109.375000
347		115.234375
348		111.328125
349		117.187500
350		115.234375
351		119.140625
352		117.187500
353		123.046875
354		117.187500
355		126.953125
356		121.093750
357		128.906250
358		121.093750
359		130.859375
360		125.000000
361		132.812500
362		126.953125
363		134.765625
364		128.906250
365		136.718750
366		132.812500
367		136.718750
368		132.812500
369		138.671875
370		134.765625
371		140.625000
372		136.718750
373		142.578125
374		136.718750
375		142.578125
376		136.718750
377		144.531250
378		138.671875
379		146.484375
380		140.625000
381		146.484375
382		142.578125
383		146.484375
384		144.531250
385		148.437500
386		144.531250
387		148.437500
388		144.531250
389		152.343750
390		144.531250
391		152.343750
392		144.531250
393		152.343750
394		146.484375
395		152.343750
396		146.484375
397		152.343750
398		148.437500
399		154.296875
400		148.437500
401		152.343750
402		150.390625
403		152.343750
404		148.437500
405		154.296875
406		148.437500
407		154.296875
408		148.437500
409		154.296875
410		146.484375
411		154.296875
412		146.484375
413		154.296875
414		146.484375
415		154.296875
416		146.484375
417		152.343750
418		148.437500
419		150.390625
420		144.531250
421		150.390625
422		144.531250
423		152.343750
424		142.578125
425		150.390625
426		142.578125
427		150.390625
428		142.578125
429		148.437500
430		140.625000
431		148.437500
432		140.625000
433		146.484375
434		140.625000
435		144.531250
436		138.671875
437		142.578125
438		134.765625
439		142.578125
440		132.812500
441		142.578125
442		132.812500
443		140.625000
444		130.859375
445		138.671875
446		128.906250
447		136.718750
448		128.906250
449		134.765625
450		126.953125
451		130.859375
452		125.000000
453		128.906250
454		123.046875
455		128.906250
456		121.093750
457		126.953125
458		117.187500
459		125.000000
460		115.234375
461		123.046875
462		113.281250
463		119.140625
464		109.375000
465		119.140625
466		107.421875
467		115.234375
468		105.468750
469		109.375000
470		103.515625
471		107.421875
472		99.609375
473		105.468750
474		95.703125
475		103.515625
476		91.796875
477		99.609375
478		87.890625
479		97.656250
480		85.937500
481		93.750000
482		82.031250
483		89.843750
484		80.078125
485		85.937500
486		76.171875
487		82.031250
488		70.312500
489		78.125000
490		68.359375
491		76.171875
492		64.453125
493		74.218750
494		60.546875
495		68.359375
496		56.640625
497		66.406250
498		50.781250
499		62.500000
500		50.781250
501		56.640625
502		46.875000
503		52.734375
504		41.015625
505		48.828125
506		37.109375
507		44.921875
508		33.203125
509		41.015625
510		29.296875
511		37.109375
512		21.484375
513		31.250000
514		19.531250
515		29.296875
516		15.625000
517		25.390625
518		11.718750
519		17.578125
520		7.812500
521		13.671875
522		1.953125
523		9.765625
524		-3.906250
525		5.859375
526		-5.859375
527		1.953125
528		-11.718750
529		-3.906250
530		-15.625000
531		-7.812500
532		-21.484375
533		-11.718750
534		-23.437500
535		-15.625000
536		-29.296875
537		-21.484375
538		-33.203125
539		-25.390625
540		-39.062500
541		-29.296875
542		-42.968750
543		-33.203125
544		-46.875000
545		-39.062500
546		-50.781250
547		-42.968750
548		-56.640625
549		-46.875000
550		-58.593750
551		-50.781250
552		-64.453125
553		-56.640625
554		-68.359375
555		-60.546875
556		-72.265625
557		-64.453125
558		-78.125000
559		-68.359375
560		-82.031250
561		-72.265625
562		-87.890625
563		-76.171875
564		-89.843750
565		-82.031250
566		-93.750000
567		-85.937500
568		-97.656250
569		-89.843750
570		-99.609375
571		-93.750000
572		-105.468750
573		-97.656250
574		-109.375000
575		-99.609375
576		-113.281250
577		-105.468750
578		-117.187500
579		-107.421875
580		-123.046875
581		-113.281250
582		-125.000000
583		-117.187500
584		-126.953125
585		-121.093750
586		-128.906250
587		-125.000000
588		-134.765625
589		-126.953125
590		-138.671875
591		-130.859375
592		-140.625000
593		-132.812500
594		-144.531250
595		-136.718750
596		-146.484375
597		-138.671875
598		-150.390625
599		-140.625000
600		-152.343750
601		-144.531250
602		-154.296875
603		-148.437500
604		-156.250000
605		-150.390625
606		-160.156250
607		-152.343750
608		-162.109375
609		-154.296875
610		-164.062500
611		-156.250000
612		-166.015625
613		-158.203125
614		-169.921875
615		-160.156250
616		-171.875000
617		-162.109375
618		-169.921875
619		-166.015625
620		-171.875000
621		-167.968750
622		-175.781250
623		-167.968750
624		-175.781250
625		-169.921875
626		-177.734375
627		-169.921875
628		-177.734375
629		-171.875000
630		-179.687500
631		-171.875000
632		-179.687500
633		-173.828125
634		-179.687500
635		-173.828125
636		-179.687500
637		-175.781250
638		-179.687500
639		-175.781250
640		-181.640625
641		-175.781250
642		-181.640625
643		-175.781250
644		-181.640625
645		-173.828125
646		-179.687500
647		-175.781250
648		-181.640625
649		-173.828125
650		-179.687500
651		-173.828125
652		-177.734375
653		-173.828125
654		-177.734375
655		-173.828125
656		-177.734375
657		-171.875000
658		-177.734375
659		-169.921875
660		-177.734375
661		-169.921875
662		-175.781250
663		-167.968750
664		-173.828125
665		-166.015625
666		-171.875000
667		-164.062500
668		-169.921875
669		-164.062500
670		-166.015625
671		-162.109375
672		-166.015625
673		-160.156250
674		-164.062500
675		-158.203125
676		-162.109375
677		-154.296875
678		-160.156250
679		-152.343750
680		-158.203125
681		-148.437500
682		-154.296875
683		-146.484375
684		-152.343750
685		-144.531250
686		-148.437500
687		-142.578125
688		-144.531250
689		-140.625000
690		-142.578125
691		-136.718750
692		-140.625000
693		-130.859375
694		-136.718750
695		-128.906250
696		-132.812500
697		-125.000000
698		-130.859375
699		-123.046875
700		-126.953125
701		-119.140625
702		-121.093750
703		-115.234375
704		-117.187500
705		-111.328125
706		-113.281250
707		-107.421875
708		-111.328125
709		-103.515625
710		-107.421875
711		-99.609375
712		-103.515625
713		-95.703125
714		-99.609375
715		-91.796875
716		-95.703125
717		-85.937500
718		-89.843750
719		-83.984375
720		-85.937500
721		-80.078125
722		-82.031250
723		-76.171875
724		-78.125000
725		-68.359375
726		-72.265625
727		-64.453125
728		-68.359375
729		-60.546875
730		-64.453125
731		-56.640625
732		-60.546875
733		-50.781250
734		-56.640625
735		-46.875000
736		-52.734375
737		-42.968750
738		-46.875000
739		-39.062500
740		-41.015625
741		-33.203125
742		-37.109375
743		-27.343750
744		-33.203125
745		-23.437500
746		-29.296875
747		-19.531250
748		-23.437500
749		-15.625000
750		-19.531250
751		-9.765625
752		-15.625000
753		-5.859375
754		-7.812500
755		-1.953125
756		-3.906250
757		3.906250
758		0.000000
759		7.812500
760		1.953125
761		11.718750
762		7.812500
763		17.578125
764		13.671875
765		21.484375
766		17.578125
767		25.390625
768		21.484375
769		29.296875
770		27.343750
771		33.203125
772		31.250000
773		37.109375
774		33.203125
775		42.968750
776		37.109375
777		46.875000
778		41.015625
779		50.781250
780		44.921875
781		52.734375
782		48.828125
783		58.593750
784		52.734375
785		62.500000
786		58.593750
787		64.453125
788		62.500000
789		68.359375
790		66.406250
791		72.265625
792		70.312500
793		76.171875
794		74.218750
795		80.078125
796		76.171875
797		82.031250
798		80.078125
799		85.937500
800		82.031250
801		91.796875
802		87.890625
803		91.796875
804		89.843750
805		95.703125
806		93.750000
807		97.656250
808		95.703125
809		103.515625
810		97.656250
811		107.421875
812		101.562500
813		107.421875
814		103.515625
815		111.328125
816		105.468750
817		113.281250
818		109.375000
819		115.234375
820		111.328125
821		117.187500
822		115.234375
823		121.093750
824		117.187500
825		123.046875
826		119.140625
827		125.000000
828		121.093750
829		128.906250
830		123.046875
831		130.859375
832		125.000000
833		132.812500
834		126.953125
835		134.765625
836		128.906250
837		134.765625
838		132.812500
839		136.718750
840		132.812500
841		140.625000
842		132.812500
843		140.625000
844		134.765625
845		142.578125
846		136.718750
847		142.578125
848		138.671875
849		144.531250
850		138.671875
851		146.484375
852		140.625000
853		146.484375
854		142.578125
855		146.484375
856		144.531250
857		148.437500
858		142.578125
859		150.390625
860		144.531250
861		152.343750
862		144.531250
863		150.390625
864		146.484375
865		152.343750
866		146.484375
867		152.343750
868		146.484375
869		154.296875
870		148.437500
871		152.343750
872		148.437500
873		152.343750
874		148.437500
875		152.343750
876		146.484375
877		154.296875
878		148.437500
879		154.296875
880		146.484375
881		154.296875
882		146.484375
883		154.296875
884		146.484375
885		154.296875
886		146.484375
887		152.343750
888		148.437500
889		150.390625
890		146.484375
891		150.390625
892		144.531250
893		152.343750
894		144.531250
895		150.390625
896		144.531250
897		150.390625
898		142.578125
899		150.390625
900		142.578125
901		148.437500
902		140.625000
903		148.437500
904		140.625000
905		146.484375
906		140.625000
907		144.531250
908		136.718750
909		144.531250
910		134.765625
911		142.578125
912		134.765625
913		140.625000
914		132.812500
915		138.671875
916		130.859375
917		138.671875
918		128.906250
919		136.718750
920		128.906250
921		134.765625
922		126.953125
923		130.859375
924		123.046875
925		128.906250
926		121.093750
927		128.906250
928		119.140625
929		126.953125
930		117.187500
931		125.000000
932		115.234375
933		121.093750
934		111.328125
935		119.140625
936		109.375000
937		117.187500
938		107.421875
939		111.328125
940		105.468750
941		109.375000
942		99.609375
943		107.421875
944		97.656250
945		105.468750
946		93.750000
947		101.562500
948		91.796875
949		97.656250
950		87.890625
951		97.656250
952		85.937500
953		91.796875
954		82.031250
955		89.843750
956		80.078125
957		83.984375
958		74.218750
959		82.031250
960		72.265625
961		78.125000
962		66.406250
963		76.171875
964		64.453125
965		72.265625
966		58.593750
967		68.359375
968		54.687500
969		64.453125
970		52.734375
971		60.546875
972		48.828125
973		54.687500
974		44.921875
975		50.781250
976		39.062500
977		46.875000
978		35.156250
979		44.921875
980		29.296875
981		41.015625
982		27.343750
983		35.156250
984		21.484375
985		31.250000
986		17.578125
987		27.343750
988		15.625000
989		21.484375
990		9.765625
991		17.578125
992		3.906250
993		13.671875
994		1.953125
995		7.812500
996		-3.906250
997		5.859375
998		-7.812500
999		0.000000
1000		-13.671875
1001		-3.906250
1002		-17.578125
1003		-7.812500
1004		-19.531250
1005		-13.671875
1006		-25.390625
1007		-17.578125
1008		-29.296875
1009		-23.437500
1010		-35.156250
1011		-25.390625
1012		-41.015625
1013		-31.250000
1014		-44.921875
1015		-35.156250
1016		-48.828125
1017		-39.062500
1018		-54.687500
1019		-44.921875
1020		-56.640625
1021		-48.828125
1022		-60.546875
1023		-54.687500
1024		-64.453125
1025		-58.593750
1026		-70.312500
1027		-62.500000
1028		-76.171875
1029		-66.406250
1030		-80.078125
1031		-70.312500
1032		-82.031250
1033		-76.171875
1034		-87.890625
1035		-78.125000
1036		-91.796875
1037		-83.984375
1038		-93.750000
1039		-85.937500
1040		-97.656250
1041		-91.796875
1042		-103.515625
1043		-95.703125
1044		-107.421875
1045		-99.609375
1046		-111.328125
1047		-101.562500
1048		-115.234375
1049		-105.468750
1050		-119.140625
1051		-111.328125
1052		-123.046875
1053		-113.281250
1054		-125.000000
1055		-117.187500
1056		-128.906250
1057		-123.046875
1058		-130.859375
1059		-125.000000
1060		-134.765625
1061		-126.953125
1062		-138.671875
1063		-130.859375
1064		-142.578125
1065		-134.765625
1066		-146.484375
1067		-136.718750
1068		-148.437500
1069		-140.625000
1070		-150.390625
1071		-142.578125
1072		-152.343750
1073		-146.484375
1074		-154.296875
1075		-150.390625
1076		-158.203125
1077		-150.390625
1078		-162.109375
1079		-152.343750
1080		-164.062500
1081		-156.250000
1082		-166.015625
1083		-156.250000
1084		-167.968750
1085		-160.156250
1086		-169.921875
1087		-162.109375
1088		-169.921875
1089		-164.062500
1090		-171.875000
1091		-166.015625
1092		-171.875000
1093		-167.968750
1094		-175.781250
1095		-167.968750
1096		-175.781250
1097		-167.968750
1098		-177.734375
1099		-169.921875
1100		-177.734375
1101		-171.875000
1102		-179.687500
1103		-171.875000
1104		-179.687500
1105		-173.828125
1106		-179.687500
1107		-175.781250
1108		-179.687500
1109		-175.781250
1110		-181.640625
1111		-175.781250
1112		-181.640625
1113		-175.781250
1114		-181.640625
1115		-175.781250
1116		-181.640625
1117		-175.781250
1118		-181.640625
1119		-173.828125
1120		-181.640625
1121		-173.828125
1122		-179.687500
1123		-175.781250
1124		-177.734375
1125		-175.781250
1126		-179.687500
1127		-171.875000
1128		-177.734375
1129		-171.875000
1130		-177.734375
1131		-169.921875
1132		-177.734375
1133		-169.921875
1134		-173.828125
1135		-167.968750
1136		-173.828125
1137		-166.015625
1138		-171.875000
1139		-166.015625
1140		-167.968750
1141		-164.062500
1142		-166.015625
1143		-162.109375
1144		-166.015625
1145		-158.203125
1146		-164.062500
1147		-156.250000
1148		-162.109375
1149		-154.296875
1150		-160.156250
1151		-152.343750
1152		-156.250000
1153		-150.390625
1154		-154.296875
1155		-146.484375
1156		-150.390625
1157		-144.531250
1158		-148.437500
1159		-142.578125
1160		-144.531250
1161		-138.671875
1162		-142.578125
1163		-134.765625
1164		-138.671875
1165		-130.859375
1166		-136.718750
1167		-126.953125
1168		-132.812500
1169		-125.000000
1170		-128.906250
1171		-121.093750
1172		-125.000000
1173		-119.140625
1174		-121.093750
1175		-115.234375
1176		-117.187500
1177		-111.328125
1178		-115.234375
1179		-105.468750
1180		-111.328125
1181		-101.562500
1182		-107.421875
1183		-97.656250
1184		-103.515625
1185		-93.750000
1186		-99.609375
1187		-89.843750
1188		-93.750000
1189		-85.937500
1190		-87.890625
1191		-82.031250
1192		-83.984375
1193		-78.125000
1194		-80.078125
1195		-72.265625
1196		-76.171875
1197		-68.359375
1198		-74.218750
1199		-64.453125
1200		-68.359375
1201		-58.593750
1202		-64.453125
1203		-54.687500
1204		-58.593750
1205		-50.781250
1206		-54.687500
1207		-46.875000
1208		-48.828125
1209		-42.968750
1210		-44.921875
1211		-35.156250
1212		-41.015625
1213		-31.250000
1214		-35.156250
1215		-27.343750
1216		-31.250000
1217		-23.437500
1218		-27.343750
1219		-17.578125
1220		-23.437500
1221		-13.671875
