metingen laweit/2000Hz, 44.1cm/data_81_191.txt

Channel              :		CH1
Frequency            :		1.975kHz
Period               :		0.506ms
PK-PK                :		189.5mV
Probe attenuation    :		1X
Voltage per ADC value:		0.122070mV
Time interval        :		2.00000us

index		CH1_Voltage(mV)
1		91.796875
2		91.796875
3		97.656250
4		89.843750
5		97.656250
6		89.843750
7		95.703125
8		89.843750
9		95.703125
10		87.890625
11		95.703125
12		85.937500
13		93.750000
14		85.937500
15		91.796875
16		85.937500
17		89.843750
18		83.984375
19		85.937500
20		78.125000
21		87.890625
22		76.171875
23		83.984375
24		74.218750
25		82.031250
26		70.312500
27		80.078125
28		68.359375
29		78.125000
30		66.406250
31		76.171875
32		64.453125
33		70.312500
34		62.500000
35		66.406250
36		56.640625
37		62.500000
38		52.734375
39		60.546875
40		48.828125
41		58.593750
42		44.921875
43		54.687500
44		41.015625
45		50.781250
46		37.109375
47		46.875000
48		35.156250
49		42.968750
50		31.250000
51		37.109375
52		23.437500
53		33.203125
54		19.531250
55		29.296875
56		15.625000
57		25.390625
58		11.718750
59		21.484375
60		7.812500
61		17.578125
62		1.953125
63		11.718750
64		-1.953125
65		7.812500
66		-3.906250
67		1.953125
68		-9.765625
69		-3.906250
70		-15.625000
71		-7.812500
72		-19.531250
73		-9.765625
74		-23.437500
75		-13.671875
76		-29.296875
77		-17.578125
78		-33.203125
79		-23.437500
80		-37.109375
81		-27.343750
82		-39.062500
83		-31.250000
84		-42.968750
85		-37.109375
86		-48.828125
87		-41.015625
88		-52.734375
89		-42.968750
90		-56.640625
91		-46.875000
92		-58.593750
93		-50.781250
94		-62.500000
95		-52.734375
96		-66.406250
97		-58.593750
98		-66.406250
99		-60.546875
100		-70.312500
101		-64.453125
102		-72.265625
103		-68.359375
104		-76.171875
105		-68.359375
106		-78.125000
107		-70.312500
108		-80.078125
109		-72.265625
110		-82.031250
111		-74.218750
112		-83.984375
113		-76.171875
114		-83.984375
115		-76.171875
116		-83.984375
117		-78.125000
118		-83.984375
119		-80.078125
120		-85.937500
121		-80.078125
122		-85.937500
123		-80.078125
124		-87.890625
125		-80.078125
126		-85.937500
127		-80.078125
128		-85.937500
129		-80.078125
130		-85.937500
131		-78.125000
132		-85.937500
133		-78.125000
134		-82.031250
135		-78.125000
136		-82.031250
137		-74.218750
138		-82.031250
139		-74.218750
140		-80.078125
141		-72.265625
142		-78.125000
143		-70.312500
144		-76.171875
145		-66.406250
146		-74.218750
147		-64.453125
148		-70.312500
149		-62.500000
150		-66.406250
151		-60.546875
152		-62.500000
153		-58.593750
154		-60.546875
155		-52.734375
156		-58.593750
157		-48.828125
158		-54.687500
159		-46.875000
160		-52.734375
161		-42.968750
162		-48.828125
163		-39.062500
164		-44.921875
165		-33.203125
166		-39.062500
167		-31.250000
168		-33.203125
169		-27.343750
170		-29.296875
171		-21.484375
172		-27.343750
173		-17.578125
174		-21.484375
175		-13.671875
176		-17.578125
177		-9.765625
178		-13.671875
179		-3.906250
180		-7.812500
181		0.000000
182		-3.906250
183		1.953125
184		1.953125
185		7.812500
186		5.859375
187		11.718750
188		7.812500
189		17.578125
190		13.671875
191		23.437500
192		17.578125
193		27.343750
194		21.484375
195		31.250000
196		25.390625
197		35.156250
198		29.296875
199		39.062500
200		33.203125
201		41.015625
202		41.015625
203		44.921875
204		44.921875
205		50.781250
206		44.921875
207		54.687500
208		50.781250
209		58.593750
210		54.687500
211		62.500000
212		56.640625
213		66.406250
214		60.546875
215		70.312500
216		62.500000
217		70.312500
218		68.359375
219		72.265625
220		72.265625
221		76.171875
222		72.265625
223		80.078125
224		74.218750
225		82.031250
226		76.171875
227		83.984375
228		78.125000
229		87.890625
230		82.031250
231		89.843750
232		83.984375
233		91.796875
234		87.890625
235		89.843750
236		89.843750
237		91.796875
238		87.890625
239		95.703125
240		89.843750
241		95.703125
242		89.843750
243		97.656250
244		91.796875
245		97.656250
246		91.796875
247		97.656250
248		91.796875
249		99.609375
250		91.796875
251		99.609375
252		93.750000
253		95.703125
254		91.796875
255		97.656250
256		91.796875
257		99.609375
258		91.796875
259		97.656250
260		89.843750
261		97.656250
262		87.890625
263		95.703125
264		87.890625
265		95.703125
266		85.937500
267		93.750000
268		85.937500
269		89.843750
270		85.937500
271		87.890625
272		82.031250
273		87.890625
274		78.125000
275		87.890625
276		76.171875
277		83.984375
278		74.218750
279		83.984375
280		72.265625
281		80.078125
282		68.359375
283		78.125000
284		68.359375
285		74.218750
286		64.453125
287		70.312500
288		60.546875
289		66.406250
290		56.640625
291		64.453125
292		52.734375
293		60.546875
294		48.828125
295		58.593750
296		44.921875
297		54.687500
298		41.015625
299		50.781250
300		39.062500
301		46.875000
302		35.156250
303		41.015625
304		29.296875
305		37.109375
306		23.437500
307		33.203125
308		19.531250
309		29.296875
310		15.625000
311		25.390625
312		9.765625
313		21.484375
314		5.859375
315		15.625000
316		1.953125
317		11.718750
318		0.000000
319		5.859375
320		-5.859375
321		0.000000
322		-11.718750
323		-3.906250
324		-15.625000
325		-5.859375
326		-19.531250
327		-11.718750
328		-25.390625
329		-15.625000
330		-29.296875
331		-19.531250
332		-33.203125
333		-23.437500
334		-35.156250
335		-27.343750
336		-39.062500
337		-33.203125
338		-44.921875
339		-37.109375
340		-48.828125
341		-39.062500
342		-52.734375
343		-42.968750
344		-56.640625
345		-46.875000
346		-58.593750
347		-50.781250
348		-62.500000
349		-52.734375
350		-66.406250
351		-56.640625
352		-66.406250
353		-62.500000
354		-68.359375
355		-64.453125
356		-74.218750
357		-66.406250
358		-76.171875
359		-68.359375
360		-78.125000
361		-70.312500
362		-80.078125
363		-70.312500
364		-82.031250
365		-74.218750
366		-83.984375
367		-76.171875
368		-82.031250
369		-78.125000
370		-82.031250
371		-80.078125
372		-85.937500
373		-78.125000
374		-85.937500
375		-78.125000
376		-85.937500
377		-80.078125
378		-85.937500
379		-80.078125
380		-85.937500
381		-80.078125
382		-85.937500
383		-78.125000
384		-85.937500
385		-78.125000
386		-82.031250
387		-80.078125
388		-80.078125
389		-78.125000
390		-82.031250
391		-74.218750
392		-80.078125
393		-72.265625
394		-78.125000
395		-70.312500
396		-76.171875
397		-68.359375
398		-74.218750
399		-66.406250
400		-72.265625
401		-62.500000
402		-66.406250
403		-62.500000
404		-64.453125
405		-60.546875
406		-62.500000
407		-54.687500
408		-60.546875
409		-50.781250
410		-56.640625
411		-48.828125
412		-52.734375
413		-42.968750
414		-50.781250
415		-41.015625
416		-44.921875
417		-37.109375
418		-41.015625
419		-35.156250
420		-35.156250
421		-29.296875
422		-31.250000
423		-23.437500
424		-29.296875
425		-19.531250
426		-25.390625
427		-15.625000
428		-21.484375
429		-11.718750
430		-15.625000
431		-5.859375
432		-11.718750
433		-1.953125
434		-7.812500
435		1.953125
436		-1.953125
437		3.906250
438		3.906250
439		9.765625
440		5.859375
441		15.625000
442		9.765625
443		19.531250
444		15.625000
445		25.390625
446		19.531250
447		29.296875
448		23.437500
449		33.203125
450		29.296875
451		37.109375
452		33.203125
453		41.015625
454		39.062500
455		42.968750
456		42.968750
457		48.828125
458		44.921875
459		54.687500
460		48.828125
461		56.640625
462		50.781250
463		60.546875
464		56.640625
465		64.453125
466		58.593750
467		68.359375
468		62.500000
469		68.359375
470		66.406250
471		72.265625
472		70.312500
473		74.218750
474		70.312500
475		78.125000
476		74.218750
477		82.031250
478		76.171875
479		83.984375
480		78.125000
481		85.937500
482		80.078125
483		89.843750
484		82.031250
485		91.796875
486		85.937500
487		89.843750
488		87.890625
489		91.796875
490		87.890625
491		95.703125
492		87.890625
493		95.703125
494		89.843750
495		97.656250
496		91.796875
497		97.656250
498		91.796875
499		99.609375
500		91.796875
501		99.609375
502		91.796875
503		99.609375
504		95.703125
505		97.656250
506		93.750000
507		99.609375
508		93.750000
509		99.609375
510		91.796875
511		99.609375
512		91.796875
513		97.656250
514		89.843750
515		97.656250
516		89.843750
517		95.703125
518		87.890625
519		95.703125
520		87.890625
521		91.796875
522		85.937500
523		91.796875
524		83.984375
525		89.843750
526		82.031250
527		89.843750
528		80.078125
529		87.890625
530		76.171875
531		83.984375
532		74.218750
533		82.031250
534		72.265625
535		80.078125
536		70.312500
537		76.171875
538		68.359375
539		72.265625
540		62.500000
541		68.359375
542		58.593750
543		66.406250
544		54.687500
545		64.453125
546		50.781250
547		60.546875
548		46.875000
549		56.640625
550		44.921875
551		52.734375
552		41.015625
553		48.828125
554		39.062500
555		44.921875
556		33.203125
557		39.062500
558		29.296875
559		37.109375
560		23.437500
561		33.203125
562		19.531250
563		29.296875
564		15.625000
565		25.390625
566		11.718750
567		19.531250
568		5.859375
569		15.625000
570		3.906250
571		9.765625
572		-1.953125
573		5.859375
574		-7.812500
575		0.000000
576		-11.718750
577		-1.953125
578		-17.578125
579		-5.859375
580		-21.484375
581		-11.718750
582		-25.390625
583		-15.625000
584		-29.296875
585		-19.531250
586		-31.250000
587		-23.437500
588		-35.156250
589		-29.296875
590		-41.015625
591		-33.203125
592		-44.921875
593		-37.109375
594		-48.828125
595		-41.015625
596		-52.734375
597		-42.968750
598		-56.640625
599		-46.875000
600		-58.593750
601		-50.781250
602		-62.500000
603		-54.687500
604		-64.453125
605		-58.593750
606		-66.406250
607		-62.500000
608		-72.265625
609		-62.500000
610		-74.218750
611		-66.406250
612		-76.171875
613		-68.359375
614		-80.078125
615		-70.312500
616		-80.078125
617		-72.265625
618		-80.078125
619		-74.218750
620		-82.031250
621		-76.171875
622		-82.031250
623		-78.125000
624		-83.984375
625		-78.125000
626		-85.937500
627		-78.125000
628		-85.937500
629		-78.125000
630		-85.937500
631		-78.125000
632		-85.937500
633		-78.125000
634		-85.937500
635		-78.125000
636		-83.984375
637		-78.125000
638		-82.031250
639		-80.078125
640		-80.078125
641		-78.125000
642		-82.031250
643		-74.218750
644		-80.078125
645		-74.218750
646		-80.078125
647		-72.265625
648		-78.125000
649		-70.312500
650		-76.171875
651		-66.406250
652		-72.265625
653		-64.453125
654		-68.359375
655		-64.453125
656		-66.406250
657		-60.546875
658		-62.500000
659		-56.640625
660		-62.500000
661		-52.734375
662		-58.593750
663		-48.828125
664		-56.640625
665		-46.875000
666		-52.734375
667		-42.968750
668		-48.828125
669		-39.062500
670		-44.921875
671		-37.109375
672		-39.062500
673		-33.203125
674		-33.203125
675		-27.343750
676		-33.203125
677		-23.437500
678		-27.343750
679		-17.578125
680		-23.437500
681		-13.671875
682		-19.531250
683		-9.765625
684		-15.625000
685		-3.906250
686		-9.765625
687		-1.953125
688		-3.906250
689		1.953125
690		0.000000
691		5.859375
692		3.906250
693		13.671875
694		7.812500
695		17.578125
696		11.718750
697		21.484375
698		15.625000
699		25.390625
700		21.484375
701		31.250000
702		25.390625
703		35.156250
704		29.296875
705		37.109375
706		35.156250
707		41.015625
708		39.062500
709		46.875000
710		41.015625
711		50.781250
712		44.921875
713		54.687500
714		48.828125
715		58.593750
716		52.734375
717		62.500000
718		56.640625
719		66.406250
720		60.546875
721		68.359375
722		64.453125
723		70.312500
724		68.359375
725		72.265625
726		70.312500
727		78.125000
728		72.265625
729		80.078125
730		74.218750
731		82.031250
732		76.171875
733		85.937500
734		80.078125
735		87.890625
736		82.031250
737		89.843750
738		83.984375
739		89.843750
740		87.890625
741		89.843750
742		87.890625
743		93.750000
744		87.890625
745		95.703125
746		89.843750
747		97.656250
748		89.843750
749		97.656250
750		91.796875
751		99.609375
752		91.796875
753		99.609375
754		91.796875
755		99.609375
756		95.703125
757		97.656250
758		93.750000
759		97.656250
760		93.750000
761		99.609375
762		91.796875
763		99.609375
764		91.796875
765		99.609375
766		91.796875
767		97.656250
768		89.843750
769		97.656250
770		89.843750
771		97.656250
772		89.843750
773		93.750000
774		87.890625
775		91.796875
776		83.984375
777		91.796875
778		82.031250
779		89.843750
780		80.078125
781		87.890625
782		78.125000
783		87.890625
784		76.171875
785		83.984375
786		72.265625
787		82.031250
788		72.265625
789		80.078125
790		70.312500
791		74.218750
792		64.453125
793		72.265625
794		60.546875
795		70.312500
796		58.593750
797		66.406250
798		54.687500
799		64.453125
800		50.781250
801		60.546875
802		46.875000
803		56.640625
804		44.921875
805		52.734375
806		41.015625
807		46.875000
808		37.109375
809		42.968750
810		31.250000
811		39.062500
812		27.343750
813		35.156250
814		21.484375
815		33.203125
816		17.578125
817		27.343750
818		13.671875
819		23.437500
820		7.812500
821		19.531250
822		5.859375
823		13.671875
824		1.953125
825		7.812500
826		-3.906250
827		3.906250
828		-7.812500
829		1.953125
830		-11.718750
831		-1.953125
832		-17.578125
833		-7.812500
834		-21.484375
835		-11.718750
836		-27.343750
837		-17.578125
838		-29.296875
839		-21.484375
840		-33.203125
841		-27.343750
842		-37.109375
843		-31.250000
844		-42.968750
845		-33.203125
846		-46.875000
847		-37.109375
848		-50.781250
849		-41.015625
850		-54.687500
851		-44.921875
852		-58.593750
853		-48.828125
854		-60.546875
855		-50.781250
856		-62.500000
857		-56.640625
858		-64.453125
859		-60.546875
860		-70.312500
861		-62.500000
862		-72.265625
863		-64.453125
864		-74.218750
865		-66.406250
866		-76.171875
867		-68.359375
868		-80.078125
869		-70.312500
870		-80.078125
871		-72.265625
872		-80.078125
873		-74.218750
874		-80.078125
875		-78.125000
876		-83.984375
877		-78.125000
878		-83.984375
879		-78.125000
880		-85.937500
881		-78.125000
882		-85.937500
883		-78.125000
884		-85.937500
885		-80.078125
886		-85.937500
887		-80.078125
888		-85.937500
889		-78.125000
890		-82.031250
891		-80.078125
892		-82.031250
893		-80.078125
894		-83.984375
895		-76.171875
896		-82.031250
897		-74.218750
898		-80.078125
899		-72.265625
900		-80.078125
901		-70.312500
902		-76.171875
903		-68.359375
904		-74.218750
905		-66.406250
906		-72.265625
907		-66.406250
908		-68.359375
909		-64.453125
910		-64.453125
911		-58.593750
912		-64.453125
913		-56.640625
914		-60.546875
915		-52.734375
916		-58.593750
917		-48.828125
918		-54.687500
919		-44.921875
920		-50.781250
921		-42.968750
922		-46.875000
923		-39.062500
924		-41.015625
925		-35.156250
926		-37.109375
927		-31.250000
928		-35.156250
929		-25.390625
930		-31.250000
931		-21.484375
932		-27.343750
933		-17.578125
934		-23.437500
935		-13.671875
936		-19.531250
937		-7.812500
938		-13.671875
939		-3.906250
940		-7.812500
941		-1.953125
942		-1.953125
943		1.953125
944		1.953125
945		9.765625
946		3.906250
947		13.671875
948		9.765625
949		17.578125
950		11.718750
951		23.437500
952		17.578125
953		27.343750
954		21.484375
955		31.250000
956		27.343750
957		33.203125
958		33.203125
959		37.109375
960		37.109375
961		42.968750
962		39.062500
963		48.828125
964		42.968750
965		50.781250
966		46.875000
967		54.687500
968		48.828125
969		58.593750
970		52.734375
971		62.500000
972		56.640625
973		64.453125
974		62.500000
975		66.406250
976		66.406250
977		70.312500
978		68.359375
979		76.171875
980		68.359375
981		78.125000
982		72.265625
983		80.078125
984		74.218750
985		83.984375
986		78.125000
987		85.937500
988		80.078125
989		87.890625
990		82.031250
991		87.890625
992		85.937500
993		89.843750
994		85.937500
995		93.750000
996		87.890625
997		93.750000
998		87.890625
999		95.703125
1000		89.843750
1001		97.656250
1002		89.843750
1003		97.656250
1004		91.796875
1005		97.656250
1006		91.796875
1007		99.609375
1008		95.703125
1009		97.656250
1010		95.703125
1011		97.656250
1012		91.796875
1013		99.609375
1014		91.796875
1015		99.609375
1016		91.796875
1017		99.609375
1018		91.796875
1019		99.609375
1020		89.843750
1021		97.656250
1022		89.843750
1023		97.656250
1024		91.796875
1025		95.703125
1026		89.843750
1027		91.796875
1028		85.937500
1029		91.796875
1030		83.984375
1031		91.796875
1032		82.031250
1033		89.843750
1034		80.078125
1035		87.890625
1036		78.125000
1037		85.937500
1038		76.171875
1039		83.984375
1040		74.218750
1041		82.031250
1042		72.265625
1043		76.171875
1044		66.406250
1045		74.218750
1046		62.500000
1047		72.265625
1048		60.546875
1049		68.359375
1050		56.640625
1051		66.406250
1052		52.734375
1053		62.500000
1054		50.781250
1055		58.593750
1056		46.875000
1057		56.640625
1058		44.921875
1059		50.781250
1060		41.015625
1061		44.921875
1062		35.156250
1063		42.968750
1064		31.250000
1065		39.062500
1066		25.390625
1067		35.156250
1068		21.484375
1069		31.250000
1070		17.578125
1071		27.343750
1072		13.671875
1073		21.484375
1074		9.765625
1075		19.531250
1076		5.859375
1077		11.718750
1078		-1.953125
1079		5.859375
1080		-5.859375
1081		3.906250
1082		-9.765625
1083		0.000000
1084		-13.671875
1085		-3.906250
1086		-19.531250
1087		-9.765625
1088		-23.437500
1089		-13.671875
1090		-25.390625
1091		-17.578125
1092		-29.296875
1093		-23.437500
1094		-33.203125
1095		-27.343750
1096		-41.015625
1097		-31.250000
1098		-42.968750
1099		-35.156250
1100		-48.828125
1101		-39.062500
1102		-50.781250
1103		-42.968750
1104		-54.687500
1105		-44.921875
1106		-58.593750
1107		-48.828125
1108		-58.593750
1109		-52.734375
1110		-62.500000
1111		-58.593750
1112		-68.359375
1113		-60.546875
1114		-70.312500
1115		-62.500000
1116		-72.265625
1117		-64.453125
1118		-76.171875
1119		-66.406250
1120		-76.171875
1121		-68.359375
1122		-78.125000
1123		-72.265625
1124		-80.078125
1125		-72.265625
1126		-80.078125
1127		-76.171875
1128		-82.031250
1129		-78.125000
1130		-83.984375
1131		-78.125000
1132		-85.937500
1133		-78.125000
1134		-85.937500
1135		-78.125000
1136		-85.937500
1137		-78.125000
1138		-85.937500
1139		-80.078125
1140		-85.937500
1141		-78.125000
1142		-83.984375
1143		-80.078125
1144		-82.031250
1145		-80.078125
1146		-83.984375
1147		-76.171875
1148		-83.984375
1149		-76.171875
1150		-82.031250
1151		-74.218750
1152		-80.078125
1153		-72.265625
1154		-78.125000
1155		-70.312500
1156		-76.171875
1157		-68.359375
1158		-74.218750
1159		-68.359375
1160		-70.312500
1161		-66.406250
1162		-68.359375
1163		-60.546875
1164		-66.406250
1165		-58.593750
1166		-62.500000
1167		-54.687500
1168		-60.546875
1169		-50.781250
1170		-58.593750
1171		-46.875000
1172		-52.734375
1173		-44.921875
1174		-50.781250
1175		-42.968750
1176		-44.921875
1177		-39.062500
1178		-41.015625
1179		-35.156250
1180		-37.109375
1181		-29.296875
1182		-35.156250
1183		-25.390625
1184		-29.296875
1185		-21.484375
1186		-25.390625
1187		-15.625000
1188		-21.484375
1189		-11.718750
1190		-17.578125
1191		-7.812500
1192		-11.718750
1193		-3.906250
1194		-5.859375
1195		0.000000
1196		-1.953125
1197		5.859375
1198		0.000000
1199		9.765625
1200		5.859375
1201		15.625000
1202		9.765625
1203		19.531250
1204		13.671875
1205		23.437500
1206		19.531250
1207		27.343750
1208		23.437500
1209		31.250000
1210		29.296875
1211		35.156250
1212		33.203125
1213		39.062500
1214		35.156250
1215		44.921875
1216		39.062500
1217		48.828125
1218		42.968750
1219		52.734375
1220		46.875000
1221		56.640625
1222		50.781250
1223		60.546875
1224		54.687500
1225		62.500000
1226		60.546875
1227		64.453125
1228		64.453125
1229		68.359375
1230		66.406250
1231		74.218750
1232		66.406250
1233		76.171875
1234		70.312500
1235		78.125000
1236		72.265625
1237		82.031250
1238		76.171875
1239		83.984375
1240		78.125000
1241		85.937500
1242		80.078125
1243		85.937500
1244		83.984375
1245		87.890625
1246		85.937500
1247		91.796875
1248		85.937500
1249		93.750000
1250		87.890625
1251		95.703125
1252		89.843750
1253		95.703125
1254		89.843750
1255		97.656250
1256		91.796875
1257		97.656250
1258		91.796875
1259		97.656250
1260		93.750000
1261		97.656250
1262		95.703125
1263		97.656250
1264		93.750000
1265		99.609375
1266		91.796875
1267		99.609375
1268		91.796875
1269		99.609375
1270		91.796875
1271		99.609375
1272		91.796875
1273		97.656250
1274		89.843750
