metingen laweit/2000Hz, 44.1cm/data_81_186.txt

Channel              :		CH1
Frequency            :		1.975kHz
Period               :		0.506ms
PK-PK                :		125.0mV
Probe attenuation    :		1X
Voltage per ADC value:		0.122070mV
Time interval        :		2.00000us

index		CH1_Voltage(mV)
1		64.453125
2		64.453125
3		68.359375
4		64.453125
5		66.406250
6		64.453125
7		66.406250
8		62.500000
9		66.406250
10		62.500000
11		66.406250
12		62.500000
13		66.406250
14		60.546875
15		64.453125
16		58.593750
17		62.500000
18		58.593750
19		62.500000
20		56.640625
21		60.546875
22		54.687500
23		60.546875
24		54.687500
25		58.593750
26		52.734375
27		56.640625
28		50.781250
29		54.687500
30		48.828125
31		52.734375
32		46.875000
33		50.781250
34		44.921875
35		48.828125
36		42.968750
37		46.875000
38		41.015625
39		44.921875
40		39.062500
41		42.968750
42		35.156250
43		41.015625
44		33.203125
45		37.109375
46		31.250000
47		35.156250
48		29.296875
49		33.203125
50		25.390625
51		29.296875
52		23.437500
53		27.343750
54		19.531250
55		23.437500
56		17.578125
57		21.484375
58		13.671875
59		19.531250
60		11.718750
61		15.625000
62		9.765625
63		13.671875
64		5.859375
65		9.765625
66		1.953125
67		7.812500
68		0.000000
69		5.859375
70		-1.953125
71		1.953125
72		-5.859375
73		-1.953125
74		-9.765625
75		-3.906250
76		-11.718750
77		-7.812500
78		-13.671875
79		-7.812500
80		-15.625000
81		-11.718750
82		-19.531250
83		-15.625000
84		-21.484375
85		-15.625000
86		-25.390625
87		-19.531250
88		-27.343750
89		-23.437500
90		-29.296875
91		-25.390625
92		-31.250000
93		-27.343750
94		-33.203125
95		-29.296875
96		-35.156250
97		-31.250000
98		-37.109375
99		-33.203125
100		-39.062500
101		-35.156250
102		-41.015625
103		-37.109375
104		-41.015625
105		-39.062500
106		-42.968750
107		-41.015625
108		-44.921875
109		-41.015625
110		-44.921875
111		-42.968750
112		-46.875000
113		-44.921875
114		-46.875000
115		-44.921875
116		-48.828125
117		-44.921875
118		-48.828125
119		-46.875000
120		-48.828125
121		-46.875000
122		-50.781250
123		-46.875000
124		-48.828125
125		-46.875000
126		-48.828125
127		-46.875000
128		-48.828125
129		-46.875000
130		-48.828125
131		-46.875000
132		-48.828125
133		-46.875000
134		-48.828125
135		-44.921875
136		-46.875000
137		-44.921875
138		-46.875000
139		-42.968750
140		-44.921875
141		-42.968750
142		-44.921875
143		-41.015625
144		-42.968750
145		-39.062500
146		-42.968750
147		-39.062500
148		-41.015625
149		-37.109375
150		-39.062500
151		-35.156250
152		-37.109375
153		-33.203125
154		-35.156250
155		-31.250000
156		-33.203125
157		-29.296875
158		-31.250000
159		-27.343750
160		-29.296875
161		-25.390625
162		-27.343750
163		-21.484375
164		-23.437500
165		-19.531250
166		-21.484375
167		-17.578125
168		-19.531250
169		-15.625000
170		-17.578125
171		-11.718750
172		-13.671875
173		-9.765625
174		-11.718750
175		-5.859375
176		-7.812500
177		-3.906250
178		-5.859375
179		0.000000
180		-3.906250
181		1.953125
182		0.000000
183		3.906250
184		3.906250
185		7.812500
186		5.859375
187		9.765625
188		7.812500
189		13.671875
190		11.718750
191		15.625000
192		13.671875
193		19.531250
194		17.578125
195		21.484375
196		19.531250
197		23.437500
198		23.437500
199		27.343750
200		25.390625
201		31.250000
202		27.343750
203		31.250000
204		29.296875
205		35.156250
206		33.203125
207		37.109375
208		35.156250
209		39.062500
210		37.109375
211		42.968750
212		41.015625
213		44.921875
214		42.968750
215		46.875000
216		44.921875
217		48.828125
218		46.875000
219		50.781250
220		48.828125
221		52.734375
222		50.781250
223		54.687500
224		52.734375
225		56.640625
226		54.687500
227		58.593750
228		56.640625
229		58.593750
230		56.640625
231		60.546875
232		58.593750
233		60.546875
234		60.546875
235		64.453125
236		60.546875
237		64.453125
238		62.500000
239		64.453125
240		62.500000
241		64.453125
242		62.500000
243		66.406250
244		62.500000
245		66.406250
246		64.453125
247		68.359375
248		64.453125
249		68.359375
250		64.453125
251		66.406250
252		64.453125
253		68.359375
254		64.453125
255		68.359375
256		64.453125
257		68.359375
258		64.453125
259		66.406250
260		64.453125
261		66.406250
262		62.500000
263		66.406250
264		62.500000
265		66.406250
266		62.500000
267		64.453125
268		60.546875
269		64.453125
270		58.593750
271		62.500000
272		58.593750
273		62.500000
274		56.640625
275		60.546875
276		54.687500
277		58.593750
278		52.734375
279		56.640625
280		50.781250
281		56.640625
282		50.781250
283		52.734375
284		48.828125
285		50.781250
286		46.875000
287		50.781250
288		44.921875
289		48.828125
290		42.968750
291		46.875000
292		41.015625
293		42.968750
294		37.109375
295		41.015625
296		33.203125
297		39.062500
298		33.203125
299		37.109375
300		29.296875
301		33.203125
302		27.343750
303		31.250000
304		25.390625
305		29.296875
306		21.484375
307		27.343750
308		19.531250
309		23.437500
310		15.625000
311		21.484375
312		13.671875
313		17.578125
314		9.765625
315		15.625000
316		7.812500
317		11.718750
318		3.906250
319		9.765625
320		1.953125
321		7.812500
322		0.000000
323		3.906250
324		-3.906250
325		1.953125
326		-5.859375
327		-1.953125
328		-9.765625
329		-5.859375
330		-11.718750
331		-7.812500
332		-13.671875
333		-9.765625
334		-17.578125
335		-13.671875
336		-19.531250
337		-15.625000
338		-23.437500
339		-17.578125
340		-25.390625
341		-21.484375
342		-27.343750
343		-23.437500
344		-29.296875
345		-25.390625
346		-31.250000
347		-27.343750
348		-33.203125
349		-29.296875
350		-35.156250
351		-33.203125
352		-39.062500
353		-33.203125
354		-39.062500
355		-35.156250
356		-41.015625
357		-37.109375
358		-42.968750
359		-39.062500
360		-42.968750
361		-41.015625
362		-44.921875
363		-41.015625
364		-46.875000
365		-42.968750
366		-46.875000
367		-44.921875
368		-46.875000
369		-44.921875
370		-48.828125
371		-44.921875
372		-48.828125
373		-46.875000
374		-50.781250
375		-46.875000
376		-50.781250
377		-46.875000
378		-50.781250
379		-46.875000
380		-50.781250
381		-46.875000
382		-50.781250
383		-46.875000
384		-48.828125
385		-46.875000
386		-48.828125
387		-46.875000
388		-48.828125
389		-44.921875
390		-46.875000
391		-44.921875
392		-46.875000
393		-42.968750
394		-44.921875
395		-42.968750
396		-44.921875
397		-41.015625
398		-42.968750
399		-39.062500
400		-41.015625
401		-39.062500
402		-41.015625
403		-35.156250
404		-39.062500
405		-35.156250
406		-37.109375
407		-33.203125
408		-35.156250
409		-31.250000
410		-33.203125
411		-27.343750
412		-31.250000
413		-25.390625
414		-27.343750
415		-23.437500
416		-25.390625
417		-21.484375
418		-23.437500
419		-19.531250
420		-21.484375
421		-15.625000
422		-17.578125
423		-13.671875
424		-15.625000
425		-11.718750
426		-11.718750
427		-7.812500
428		-9.765625
429		-5.859375
430		-7.812500
431		-1.953125
432		-5.859375
433		0.000000
434		-1.953125
435		1.953125
436		1.953125
437		5.859375
438		3.906250
439		9.765625
440		5.859375
441		11.718750
442		9.765625
443		13.671875
444		11.718750
445		17.578125
446		15.625000
447		19.531250
448		17.578125
449		23.437500
450		21.484375
451		25.390625
452		23.437500
453		27.343750
454		25.390625
455		31.250000
456		29.296875
457		33.203125
458		31.250000
459		35.156250
460		33.203125
461		39.062500
462		37.109375
463		41.015625
464		37.109375
465		42.968750
466		41.015625
467		44.921875
468		42.968750
469		46.875000
470		44.921875
471		48.828125
472		46.875000
473		52.734375
474		48.828125
475		52.734375
476		50.781250
477		54.687500
478		52.734375
479		56.640625
480		54.687500
481		58.593750
482		54.687500
483		58.593750
484		58.593750
485		60.546875
486		58.593750
487		62.500000
488		58.593750
489		62.500000
490		60.546875
491		64.453125
492		62.500000
493		64.453125
494		62.500000
495		66.406250
496		62.500000
497		66.406250
498		64.453125
499		68.359375
500		64.453125
501		66.406250
502		64.453125
503		66.406250
504		64.453125
505		68.359375
506		64.453125
507		68.359375
508		64.453125
509		68.359375
510		64.453125
511		68.359375
512		64.453125
513		66.406250
514		64.453125
515		66.406250
516		62.500000
517		66.406250
518		62.500000
519		64.453125
520		60.546875
521		64.453125
522		60.546875
523		64.453125
524		58.593750
525		62.500000
526		58.593750
527		60.546875
528		56.640625
529		60.546875
530		54.687500
531		58.593750
532		52.734375
533		56.640625
534		50.781250
535		54.687500
536		48.828125
537		52.734375
538		48.828125
539		52.734375
540		44.921875
541		48.828125
542		42.968750
543		46.875000
544		41.015625
545		44.921875
546		39.062500
547		42.968750
548		37.109375
549		41.015625
550		35.156250
551		39.062500
552		31.250000
553		35.156250
554		29.296875
555		33.203125
556		25.390625
557		31.250000
558		23.437500
559		27.343750
560		21.484375
561		25.390625
562		17.578125
563		23.437500
564		15.625000
565		21.484375
566		11.718750
567		17.578125
568		9.765625
569		13.671875
570		5.859375
571		11.718750
572		3.906250
573		7.812500
574		0.000000
575		5.859375
576		-1.953125
577		1.953125
578		-3.906250
579		0.000000
580		-7.812500
581		-1.953125
582		-11.718750
583		-5.859375
584		-13.671875
585		-9.765625
586		-15.625000
587		-11.718750
588		-19.531250
589		-13.671875
590		-21.484375
591		-15.625000
592		-23.437500
593		-19.531250
594		-25.390625
595		-21.484375
596		-29.296875
597		-23.437500
598		-29.296875
599		-25.390625
600		-33.203125
601		-27.343750
602		-35.156250
603		-31.250000
604		-37.109375
605		-33.203125
606		-39.062500
607		-35.156250
608		-41.015625
609		-37.109375
610		-42.968750
611		-37.109375
612		-42.968750
613		-39.062500
614		-44.921875
615		-41.015625
616		-46.875000
617		-41.015625
618		-46.875000
619		-42.968750
620		-46.875000
621		-44.921875
622		-48.828125
623		-42.968750
624		-48.828125
625		-44.921875
626		-48.828125
627		-46.875000
628		-50.781250
629		-46.875000
630		-50.781250
631		-46.875000
632		-50.781250
633		-46.875000
634		-50.781250
635		-46.875000
636		-48.828125
637		-46.875000
638		-48.828125
639		-46.875000
640		-48.828125
641		-44.921875
642		-48.828125
643		-44.921875
644		-46.875000
645		-42.968750
646		-46.875000
647		-42.968750
648		-44.921875
649		-41.015625
650		-44.921875
651		-41.015625
652		-42.968750
653		-39.062500
654		-41.015625
655		-37.109375
656		-39.062500
657		-35.156250
658		-37.109375
659		-33.203125
660		-37.109375
661		-31.250000
662		-33.203125
663		-29.296875
664		-31.250000
665		-27.343750
666		-29.296875
667		-23.437500
668		-27.343750
669		-23.437500
670		-25.390625
671		-21.484375
672		-23.437500
673		-17.578125
674		-19.531250
675		-15.625000
676		-17.578125
677		-11.718750
678		-13.671875
679		-9.765625
680		-11.718750
681		-7.812500
682		-9.765625
683		-3.906250
684		-5.859375
685		-1.953125
686		-3.906250
687		0.000000
688		0.000000
689		3.906250
690		1.953125
691		5.859375
692		5.859375
693		9.765625
694		7.812500
695		11.718750
696		9.765625
697		15.625000
698		13.671875
699		17.578125
700		15.625000
701		21.484375
702		19.531250
703		23.437500
704		21.484375
705		27.343750
706		23.437500
707		29.296875
708		27.343750
709		33.203125
710		29.296875
711		33.203125
712		33.203125
713		37.109375
714		35.156250
715		39.062500
716		37.109375
717		41.015625
718		39.062500
719		42.968750
720		41.015625
721		44.921875
722		44.921875
723		48.828125
724		46.875000
725		50.781250
726		48.828125
727		52.734375
728		50.781250
729		54.687500
730		50.781250
731		54.687500
732		52.734375
733		56.640625
734		54.687500
735		58.593750
736		56.640625
737		60.546875
738		56.640625
739		62.500000
740		58.593750
741		62.500000
742		60.546875
743		64.453125
744		60.546875
745		64.453125
746		62.500000
747		66.406250
748		62.500000
749		66.406250
750		64.453125
751		66.406250
752		64.453125
753		66.406250
754		64.453125
755		66.406250
756		64.453125
757		68.359375
758		64.453125
759		68.359375
760		64.453125
761		68.359375
762		64.453125
763		68.359375
764		64.453125
765		66.406250
766		64.453125
767		66.406250
768		64.453125
769		66.406250
770		62.500000
771		64.453125
772		60.546875
773		64.453125
774		60.546875
775		64.453125
776		60.546875
777		62.500000
778		58.593750
779		62.500000
780		56.640625
781		60.546875
782		56.640625
783		58.593750
784		54.687500
785		58.593750
786		52.734375
787		56.640625
788		50.781250
789		54.687500
790		48.828125
791		52.734375
792		46.875000
793		50.781250
794		44.921875
795		48.828125
796		42.968750
797		46.875000
798		41.015625
799		44.921875
800		39.062500
801		42.968750
802		35.156250
803		41.015625
804		33.203125
805		37.109375
806		31.250000
807		35.156250
808		27.343750
809		33.203125
810		25.390625
811		31.250000
812		23.437500
813		27.343750
814		19.531250
815		23.437500
816		15.625000
817		21.484375
818		13.671875
819		19.531250
820		11.718750
821		15.625000
822		7.812500
823		13.671875
824		5.859375
825		11.718750
826		1.953125
827		7.812500
828		0.000000
829		3.906250
830		-3.906250
831		1.953125
832		-5.859375
833		-1.953125
834		-9.765625
835		-3.906250
836		-11.718750
837		-5.859375
838		-13.671875
839		-9.765625
840		-15.625000
841		-11.718750
842		-19.531250
843		-13.671875
844		-21.484375
845		-17.578125
846		-25.390625
847		-19.531250
848		-27.343750
849		-21.484375
850		-29.296875
851		-25.390625
852		-31.250000
853		-27.343750
854		-33.203125
855		-29.296875
856		-35.156250
857		-31.250000
858		-37.109375
859		-33.203125
860		-39.062500
861		-35.156250
862		-41.015625
863		-37.109375
864		-41.015625
865		-37.109375
866		-42.968750
867		-39.062500
868		-44.921875
869		-41.015625
870		-44.921875
871		-42.968750
872		-46.875000
873		-44.921875
874		-48.828125
875		-42.968750
876		-48.828125
877		-44.921875
878		-48.828125
879		-44.921875
880		-48.828125
881		-46.875000
882		-48.828125
883		-46.875000
884		-50.781250
885		-46.875000
886		-48.828125
887		-46.875000
888		-48.828125
889		-46.875000
890		-48.828125
891		-44.921875
892		-48.828125
893		-46.875000
894		-48.828125
895		-44.921875
896		-48.828125
897		-42.968750
898		-46.875000
899		-42.968750
900		-44.921875
901		-42.968750
902		-44.921875
903		-41.015625
904		-42.968750
905		-41.015625
906		-41.015625
907		-39.062500
908		-41.015625
909		-37.109375
910		-39.062500
911		-35.156250
912		-37.109375
913		-33.203125
914		-35.156250
915		-31.250000
916		-33.203125
917		-27.343750
918		-31.250000
919		-25.390625
920		-27.343750
921		-25.390625
922		-25.390625
923		-21.484375
924		-23.437500
925		-19.531250
926		-21.484375
927		-17.578125
928		-19.531250
929		-13.671875
930		-15.625000
931		-11.718750
932		-13.671875
933		-7.812500
934		-11.718750
935		-5.859375
936		-7.812500
937		-3.906250
938		-5.859375
939		-1.953125
940		-1.953125
941		1.953125
942		0.000000
943		3.906250
944		3.906250
945		7.812500
946		5.859375
947		9.765625
948		7.812500
949		13.671875
950		11.718750
951		15.625000
952		15.625000
953		19.531250
954		17.578125
955		21.484375
956		19.531250
957		23.437500
958		21.484375
959		27.343750
960		25.390625
961		29.296875
962		27.343750
963		33.203125
964		31.250000
965		35.156250
966		33.203125
967		37.109375
968		35.156250
969		41.015625
970		37.109375
971		42.968750
972		41.015625
973		44.921875
974		42.968750
975		46.875000
976		44.921875
977		48.828125
978		46.875000
979		50.781250
980		48.828125
981		52.734375
982		50.781250
983		54.687500
984		52.734375
985		56.640625
986		54.687500
987		56.640625
988		54.687500
989		58.593750
990		56.640625
991		60.546875
992		58.593750
993		62.500000
994		58.593750
995		62.500000
996		60.546875
997		64.453125
998		62.500000
999		64.453125
1000		62.500000
1001		66.406250
1002		64.453125
1003		66.406250
1004		62.500000
1005		66.406250
1006		64.453125
1007		66.406250
1008		64.453125
1009		68.359375
1010		64.453125
1011		68.359375
1012		64.453125
1013		68.359375
1014		64.453125
1015		68.359375
1016		64.453125
1017		68.359375
1018		64.453125
1019		68.359375
1020		64.453125
1021		66.406250
1022		62.500000
1023		66.406250
1024		62.500000
1025		66.406250
1026		60.546875
1027		64.453125
1028		60.546875
1029		64.453125
1030		60.546875
1031		62.500000
1032		58.593750
1033		60.546875
1034		56.640625
1035		60.546875
1036		54.687500
1037		58.593750
1038		54.687500
1039		56.640625
1040		52.734375
1041		54.687500
1042		50.781250
1043		54.687500
1044		48.828125
1045		52.734375
1046		46.875000
1047		50.781250
1048		44.921875
1049		46.875000
1050		42.968750
1051		46.875000
1052		39.062500
1053		44.921875
1054		37.109375
1055		42.968750
1056		35.156250
1057		39.062500
1058		33.203125
1059		37.109375
1060		29.296875
1061		33.203125
1062		27.343750
1063		31.250000
1064		25.390625
1065		29.296875
1066		21.484375
1067		27.343750
1068		19.531250
1069		23.437500
1070		15.625000
1071		21.484375
1072		13.671875
1073		17.578125
1074		9.765625
1075		15.625000
1076		7.812500
1077		13.671875
1078		5.859375
1079		9.765625
1080		1.953125
1081		5.859375
1082		-1.953125
1083		3.906250
1084		-3.906250
1085		0.000000
1086		-5.859375
1087		-1.953125
1088		-9.765625
1089		-3.906250
1090		-11.718750
1091		-7.812500
1092		-15.625000
1093		-9.765625
1094		-17.578125
1095		-13.671875
1096		-19.531250
1097		-15.625000
1098		-23.437500
1099		-17.578125
1100		-25.390625
1101		-19.531250
1102		-27.343750
1103		-23.437500
1104		-29.296875
1105		-25.390625
1106		-31.250000
1107		-27.343750
1108		-35.156250
1109		-29.296875
1110		-35.156250
1111		-31.250000
1112		-37.109375
1113		-33.203125
1114		-41.015625
1115		-35.156250
1116		-41.015625
1117		-37.109375
1118		-42.968750
1119		-39.062500
1120		-44.921875
1121		-41.015625
1122		-44.921875
1123		-41.015625
1124		-44.921875
1125		-42.968750
1126		-46.875000
1127		-42.968750
1128		-46.875000
1129		-44.921875
1130		-48.828125
1131		-44.921875
1132		-48.828125
1133		-44.921875
1134		-48.828125
1135		-46.875000
1136		-48.828125
1137		-46.875000
1138		-50.781250
1139		-46.875000
1140		-48.828125
1141		-46.875000
1142		-48.828125
1143		-46.875000
1144		-48.828125
1145		-44.921875
1146		-48.828125
1147		-44.921875
1148		-48.828125
1149		-44.921875
1150		-46.875000
1151		-42.968750
1152		-46.875000
1153		-42.968750
1154		-44.921875
1155		-41.015625
1156		-42.968750
1157		-41.015625
1158		-42.968750
1159		-39.062500
1160		-41.015625
1161		-37.109375
1162		-41.015625
1163		-35.156250
1164		-37.109375
1165		-35.156250
1166		-35.156250
1167		-31.250000
1168		-33.203125
1169		-29.296875
1170		-31.250000
1171		-27.343750
1172		-29.296875
1173		-25.390625
1174		-27.343750
1175		-23.437500
1176		-25.390625
1177		-21.484375
1178		-23.437500
1179		-17.578125
1180		-19.531250
1181		-15.625000
1182		-17.578125
1183		-13.671875
1184		-15.625000
1185		-9.765625
1186		-13.671875
1187		-7.812500
1188		-9.765625
1189		-5.859375
1190		-5.859375
1191		-1.953125
1192		-3.906250
1193		1.953125
1194		-1.953125
1195		3.906250
1196		1.953125
1197		5.859375
1198		3.906250
1199		7.812500
1200		7.812500
1201		11.718750
1202		9.765625
1203		15.625000
1204		13.671875
1205		17.578125
1206		15.625000
1207		19.531250
1208		17.578125
1209		23.437500
1210		21.484375
1211		25.390625
1212		23.437500
1213		27.343750
1214		27.343750
1215		31.250000
1216		29.296875
1217		33.203125
1218		31.250000
1219		37.109375
1220		35.156250
1221		39.062500
1222		37.109375
1223		41.015625
1224		39.062500
1225		42.968750
1226		41.015625
1227		46.875000
1228		42.968750
1229		46.875000
1230		44.921875
1231		48.828125
1232		48.828125
1233		50.781250
1234		50.781250
1235		54.687500
1236		50.781250
1237		54.687500
1238		52.734375
1239		56.640625
1240		54.687500
1241		58.593750
1242		56.640625
1243		58.593750
1244		56.640625
1245		60.546875
1246		58.593750
1247		62.500000
1248		60.546875
1249		64.453125
1250		60.546875
1251		64.453125
1252		60.546875
1253		66.406250
1254		62.500000
1255		66.406250
1256		62.500000
1257		66.406250
1258		64.453125
1259		66.406250
1260		64.453125
1261		68.359375
1262		64.453125
1263		68.359375
1264		64.453125
1265		68.359375
1266		64.453125
1267		68.359375
1268		64.453125
1269		68.359375
1270		64.453125
1271		68.359375
1272		64.453125
1273		68.359375
1274		64.453125
1275		66.406250
1276		62.500000
1277		66.406250
1278		62.500000
1279		64.453125
