metingen laweit/2000Hz, 44.1cm/data_81_206.txt

Channel              :		CH1
Frequency            :		1.978kHz
Period               :		0.506ms
PK-PK                :		89.84mV
Probe attenuation    :		1X
Voltage per ADC value:		0.122070mV
Time interval        :		2.00000us

index		CH1_Voltage(mV)
1		48.828125
2		48.828125
3		52.734375
4		48.828125
5		52.734375
6		48.828125
7		52.734375
8		48.828125
9		52.734375
10		48.828125
11		52.734375
12		48.828125
13		50.781250
14		48.828125
15		52.734375
16		46.875000
17		50.781250
18		46.875000
19		50.781250
20		46.875000
21		48.828125
22		44.921875
23		48.828125
24		44.921875
25		46.875000
26		42.968750
27		46.875000
28		42.968750
29		46.875000
30		41.015625
31		44.921875
32		41.015625
33		42.968750
34		37.109375
35		42.968750
36		37.109375
37		41.015625
38		35.156250
39		39.062500
40		35.156250
41		39.062500
42		33.203125
43		37.109375
44		31.250000
45		35.156250
46		29.296875
47		33.203125
48		27.343750
49		31.250000
50		25.390625
51		29.296875
52		23.437500
53		29.296875
54		23.437500
55		27.343750
56		19.531250
57		25.390625
58		17.578125
59		21.484375
60		15.625000
61		21.484375
62		13.671875
63		17.578125
64		13.671875
65		17.578125
66		11.718750
67		13.671875
68		7.812500
69		11.718750
70		7.812500
71		9.765625
72		3.906250
73		7.812500
74		1.953125
75		7.812500
76		0.000000
77		3.906250
78		0.000000
79		1.953125
80		-3.906250
81		1.953125
82		-5.859375
83		-1.953125
84		-5.859375
85		-3.906250
86		-7.812500
87		-3.906250
88		-9.765625
89		-5.859375
90		-11.718750
91		-7.812500
92		-13.671875
93		-9.765625
94		-15.625000
95		-11.718750
96		-17.578125
97		-13.671875
98		-19.531250
99		-13.671875
100		-19.531250
101		-17.578125
102		-21.484375
103		-17.578125
104		-23.437500
105		-19.531250
106		-23.437500
107		-19.531250
108		-25.390625
109		-21.484375
110		-25.390625
111		-21.484375
112		-27.343750
113		-23.437500
114		-27.343750
115		-23.437500
116		-27.343750
117		-25.390625
118		-29.296875
119		-25.390625
120		-29.296875
121		-25.390625
122		-29.296875
123		-27.343750
124		-29.296875
125		-25.390625
126		-31.250000
127		-27.343750
128		-31.250000
129		-27.343750
130		-31.250000
131		-27.343750
132		-29.296875
133		-27.343750
134		-29.296875
135		-27.343750
136		-31.250000
137		-25.390625
138		-29.296875
139		-25.390625
140		-29.296875
141		-25.390625
142		-27.343750
143		-25.390625
144		-27.343750
145		-23.437500
146		-27.343750
147		-23.437500
148		-27.343750
149		-21.484375
150		-25.390625
151		-21.484375
152		-23.437500
153		-19.531250
154		-23.437500
155		-19.531250
156		-21.484375
157		-17.578125
158		-19.531250
159		-17.578125
160		-19.531250
161		-15.625000
162		-17.578125
163		-13.671875
164		-15.625000
165		-11.718750
166		-13.671875
167		-11.718750
168		-13.671875
169		-9.765625
170		-11.718750
171		-7.812500
172		-9.765625
173		-5.859375
174		-7.812500
175		-3.906250
176		-5.859375
177		-1.953125
178		-3.906250
179		0.000000
180		-1.953125
181		1.953125
182		0.000000
183		3.906250
184		1.953125
185		5.859375
186		3.906250
187		7.812500
188		5.859375
189		9.765625
190		7.812500
191		11.718750
192		9.765625
193		13.671875
194		11.718750
195		15.625000
196		13.671875
197		17.578125
198		15.625000
199		19.531250
200		17.578125
201		21.484375
202		19.531250
203		23.437500
204		21.484375
205		25.390625
206		23.437500
207		27.343750
208		25.390625
209		29.296875
210		27.343750
211		31.250000
212		29.296875
213		33.203125
214		31.250000
215		35.156250
216		33.203125
217		35.156250
218		33.203125
219		37.109375
220		35.156250
221		39.062500
222		35.156250
223		41.015625
224		37.109375
225		41.015625
226		39.062500
227		42.968750
228		41.015625
229		44.921875
230		41.015625
231		44.921875
232		41.015625
233		46.875000
234		44.921875
235		46.875000
236		44.921875
237		48.828125
238		46.875000
239		48.828125
240		46.875000
241		50.781250
242		46.875000
243		50.781250
244		46.875000
245		50.781250
246		48.828125
247		52.734375
248		48.828125
249		52.734375
250		48.828125
251		52.734375
252		50.781250
253		52.734375
254		48.828125
255		52.734375
256		48.828125
257		52.734375
258		48.828125
259		52.734375
260		48.828125
261		52.734375
262		48.828125
263		52.734375
264		48.828125
265		52.734375
266		48.828125
267		52.734375
268		48.828125
269		50.781250
270		46.875000
271		50.781250
272		46.875000
273		50.781250
274		44.921875
275		48.828125
276		44.921875
277		48.828125
278		44.921875
279		46.875000
280		42.968750
281		46.875000
282		41.015625
283		44.921875
284		41.015625
285		42.968750
286		39.062500
287		42.968750
288		39.062500
289		42.968750
290		37.109375
291		41.015625
292		35.156250
293		39.062500
294		33.203125
295		37.109375
296		31.250000
297		35.156250
298		29.296875
299		33.203125
300		29.296875
301		31.250000
302		27.343750
303		31.250000
304		25.390625
305		29.296875
306		23.437500
307		27.343750
308		21.484375
309		25.390625
310		19.531250
311		25.390625
312		17.578125
313		21.484375
314		15.625000
315		19.531250
316		13.671875
317		17.578125
318		11.718750
319		15.625000
320		7.812500
321		13.671875
322		7.812500
323		11.718750
324		5.859375
325		9.765625
326		3.906250
327		7.812500
328		0.000000
329		5.859375
330		0.000000
331		3.906250
332		-1.953125
333		1.953125
334		-3.906250
335		0.000000
336		-5.859375
337		-1.953125
338		-7.812500
339		-3.906250
340		-9.765625
341		-5.859375
342		-11.718750
343		-7.812500
344		-13.671875
345		-9.765625
346		-13.671875
347		-11.718750
348		-17.578125
349		-11.718750
350		-17.578125
351		-13.671875
352		-19.531250
353		-15.625000
354		-21.484375
355		-15.625000
356		-21.484375
357		-17.578125
358		-23.437500
359		-19.531250
360		-23.437500
361		-19.531250
362		-25.390625
363		-21.484375
364		-25.390625
365		-21.484375
366		-27.343750
367		-23.437500
368		-27.343750
369		-25.390625
370		-27.343750
371		-25.390625
372		-29.296875
373		-25.390625
374		-29.296875
375		-25.390625
376		-29.296875
377		-27.343750
378		-29.296875
379		-27.343750
380		-29.296875
381		-27.343750
382		-31.250000
383		-25.390625
384		-29.296875
385		-27.343750
386		-29.296875
387		-27.343750
388		-31.250000
389		-27.343750
390		-29.296875
391		-25.390625
392		-29.296875
393		-25.390625
394		-29.296875
395		-25.390625
396		-27.343750
397		-23.437500
398		-27.343750
399		-23.437500
400		-25.390625
401		-23.437500
402		-25.390625
403		-21.484375
404		-25.390625
405		-21.484375
406		-23.437500
407		-19.531250
408		-21.484375
409		-17.578125
410		-21.484375
411		-17.578125
412		-19.531250
413		-15.625000
414		-17.578125
415		-13.671875
416		-17.578125
417		-11.718750
418		-15.625000
419		-11.718750
420		-13.671875
421		-9.765625
422		-11.718750
423		-7.812500
424		-9.765625
425		-5.859375
426		-9.765625
427		-3.906250
428		-7.812500
429		-3.906250
430		-3.906250
431		0.000000
432		-1.953125
433		1.953125
434		-1.953125
435		1.953125
436		1.953125
437		3.906250
438		3.906250
439		7.812500
440		3.906250
441		7.812500
442		5.859375
443		11.718750
444		7.812500
445		13.671875
446		9.765625
447		15.625000
448		13.671875
449		17.578125
450		13.671875
451		19.531250
452		17.578125
453		21.484375
454		19.531250
455		21.484375
456		19.531250
457		25.390625
458		21.484375
459		27.343750
460		23.437500
461		27.343750
462		25.390625
463		31.250000
464		27.343750
465		31.250000
466		29.296875
467		33.203125
468		31.250000
469		35.156250
470		33.203125
471		37.109375
472		35.156250
473		39.062500
474		35.156250
475		41.015625
476		37.109375
477		41.015625
478		39.062500
479		42.968750
480		41.015625
481		42.968750
482		41.015625
483		44.921875
484		42.968750
485		46.875000
486		44.921875
487		46.875000
488		44.921875
489		48.828125
490		44.921875
491		48.828125
492		46.875000
493		50.781250
494		46.875000
495		50.781250
496		48.828125
497		50.781250
498		46.875000
499		52.734375
500		48.828125
501		52.734375
502		48.828125
503		52.734375
504		48.828125
505		52.734375
506		48.828125
507		52.734375
508		50.781250
509		52.734375
510		48.828125
511		52.734375
512		48.828125
513		52.734375
514		48.828125
515		52.734375
516		48.828125
517		52.734375
518		48.828125
519		52.734375
520		48.828125
521		50.781250
522		46.875000
523		50.781250
524		46.875000
525		50.781250
526		46.875000
527		50.781250
528		44.921875
529		48.828125
530		44.921875
531		48.828125
532		42.968750
533		46.875000
534		42.968750
535		46.875000
536		41.015625
537		44.921875
538		41.015625
539		42.968750
540		39.062500
541		42.968750
542		37.109375
543		41.015625
544		37.109375
545		39.062500
546		35.156250
547		37.109375
548		33.203125
549		37.109375
550		31.250000
551		35.156250
552		29.296875
553		35.156250
554		27.343750
555		31.250000
556		25.390625
557		29.296875
558		23.437500
559		27.343750
560		23.437500
561		27.343750
562		21.484375
563		25.390625
564		19.531250
565		23.437500
566		15.625000
567		21.484375
568		13.671875
569		19.531250
570		13.671875
571		15.625000
572		9.765625
573		13.671875
574		7.812500
575		13.671875
576		5.859375
577		9.765625
578		3.906250
579		7.812500
580		1.953125
581		7.812500
582		0.000000
583		5.859375
584		-1.953125
585		1.953125
586		-1.953125
587		0.000000
588		-3.906250
589		-1.953125
590		-7.812500
591		-3.906250
592		-7.812500
593		-3.906250
594		-9.765625
595		-5.859375
596		-11.718750
597		-7.812500
598		-13.671875
599		-9.765625
600		-15.625000
601		-11.718750
602		-17.578125
603		-11.718750
604		-17.578125
605		-15.625000
606		-21.484375
607		-15.625000
608		-21.484375
609		-17.578125
610		-21.484375
611		-17.578125
612		-23.437500
613		-19.531250
614		-25.390625
615		-21.484375
616		-25.390625
617		-21.484375
618		-27.343750
619		-23.437500
620		-27.343750
621		-23.437500
622		-27.343750
623		-25.390625
624		-29.296875
625		-25.390625
626		-29.296875
627		-25.390625
628		-29.296875
629		-25.390625
630		-29.296875
631		-27.343750
632		-29.296875
633		-25.390625
634		-31.250000
635		-27.343750
636		-31.250000
637		-27.343750
638		-29.296875
639		-27.343750
640		-29.296875
641		-25.390625
642		-29.296875
643		-25.390625
644		-29.296875
645		-25.390625
646		-27.343750
647		-25.390625
648		-27.343750
649		-25.390625
650		-27.343750
651		-23.437500
652		-27.343750
653		-23.437500
654		-25.390625
655		-21.484375
656		-25.390625
657		-21.484375
658		-23.437500
659		-19.531250
660		-23.437500
661		-19.531250
662		-21.484375
663		-17.578125
664		-19.531250
665		-15.625000
666		-17.578125
667		-15.625000
668		-17.578125
669		-13.671875
670		-15.625000
671		-11.718750
672		-13.671875
673		-9.765625
674		-13.671875
675		-9.765625
676		-11.718750
677		-7.812500
678		-9.765625
679		-3.906250
680		-7.812500
681		-3.906250
682		-5.859375
683		-1.953125
684		-3.906250
685		0.000000
686		-1.953125
687		1.953125
688		0.000000
689		3.906250
690		1.953125
691		7.812500
692		3.906250
693		7.812500
694		5.859375
695		9.765625
696		7.812500
697		11.718750
698		9.765625
699		13.671875
700		11.718750
701		15.625000
702		13.671875
703		17.578125
704		15.625000
705		19.531250
706		17.578125
707		21.484375
708		19.531250
709		23.437500
710		21.484375
711		25.390625
712		23.437500
713		27.343750
714		25.390625
715		29.296875
716		27.343750
717		31.250000
718		29.296875
719		33.203125
720		29.296875
721		35.156250
722		33.203125
723		35.156250
724		33.203125
725		37.109375
726		35.156250
727		39.062500
728		37.109375
729		41.015625
730		37.109375
731		41.015625
732		39.062500
733		42.968750
734		41.015625
735		44.921875
736		42.968750
737		44.921875
738		42.968750
739		46.875000
740		44.921875
741		48.828125
742		44.921875
743		48.828125
744		46.875000
745		48.828125
746		46.875000
747		50.781250
748		48.828125
749		50.781250
750		48.828125
751		50.781250
752		48.828125
753		52.734375
754		48.828125
755		52.734375
756		48.828125
757		52.734375
758		48.828125
759		52.734375
760		50.781250
761		52.734375
762		48.828125
763		52.734375
764		48.828125
765		54.687500
766		48.828125
767		52.734375
768		48.828125
769		52.734375
770		48.828125
771		52.734375
772		48.828125
773		50.781250
774		48.828125
775		52.734375
776		46.875000
777		50.781250
778		46.875000
779		50.781250
780		46.875000
781		48.828125
782		44.921875
783		48.828125
784		42.968750
785		46.875000
786		42.968750
787		46.875000
788		42.968750
789		44.921875
790		41.015625
791		44.921875
792		39.062500
793		42.968750
794		37.109375
795		41.015625
796		37.109375
797		41.015625
798		35.156250
799		39.062500
800		33.203125
801		37.109375
802		33.203125
803		37.109375
804		31.250000
805		35.156250
806		29.296875
807		31.250000
808		27.343750
809		31.250000
810		25.390625
811		29.296875
812		23.437500
813		27.343750
814		21.484375
815		25.390625
816		19.531250
817		23.437500
818		17.578125
819		21.484375
820		15.625000
821		19.531250
822		13.671875
823		17.578125
824		9.765625
825		15.625000
826		9.765625
827		13.671875
828		7.812500
829		11.718750
830		5.859375
831		9.765625
832		3.906250
833		7.812500
834		1.953125
835		5.859375
836		-1.953125
837		3.906250
838		-1.953125
839		1.953125
840		-3.906250
841		0.000000
842		-5.859375
843		-1.953125
844		-7.812500
845		-3.906250
846		-9.765625
847		-3.906250
848		-11.718750
849		-7.812500
850		-13.671875
851		-9.765625
852		-13.671875
853		-11.718750
854		-17.578125
855		-11.718750
856		-17.578125
857		-13.671875
858		-19.531250
859		-15.625000
860		-21.484375
861		-17.578125
862		-21.484375
863		-17.578125
864		-23.437500
865		-19.531250
866		-23.437500
867		-19.531250
868		-25.390625
869		-21.484375
870		-25.390625
871		-21.484375
872		-27.343750
873		-23.437500
874		-27.343750
875		-23.437500
876		-27.343750
877		-25.390625
878		-29.296875
879		-25.390625
880		-29.296875
881		-25.390625
882		-29.296875
883		-27.343750
884		-29.296875
885		-27.343750
886		-31.250000
887		-25.390625
888		-31.250000
889		-25.390625
890		-29.296875
891		-27.343750
892		-29.296875
893		-25.390625
894		-29.296875
895		-27.343750
896		-29.296875
897		-25.390625
898		-27.343750
899		-25.390625
900		-27.343750
901		-25.390625
902		-27.343750
903		-23.437500
904		-27.343750
905		-23.437500
906		-25.390625
907		-23.437500
908		-25.390625
909		-21.484375
910		-25.390625
911		-19.531250
912		-23.437500
913		-19.531250
914		-21.484375
915		-17.578125
916		-19.531250
917		-17.578125
918		-19.531250
919		-15.625000
920		-17.578125
921		-13.671875
922		-15.625000
923		-13.671875
924		-13.671875
925		-11.718750
926		-13.671875
927		-9.765625
928		-11.718750
929		-7.812500
930		-9.765625
931		-5.859375
932		-7.812500
933		-3.906250
934		-5.859375
935		-1.953125
936		-3.906250
937		0.000000
938		-1.953125
939		1.953125
940		0.000000
941		3.906250
942		1.953125
943		5.859375
944		3.906250
945		7.812500
946		3.906250
947		9.765625
948		5.859375
949		11.718750
950		9.765625
951		13.671875
952		11.718750
953		15.625000
954		13.671875
955		17.578125
956		15.625000
957		19.531250
958		17.578125
959		21.484375
960		17.578125
961		23.437500
962		21.484375
963		25.390625
964		23.437500
965		27.343750
966		25.390625
967		29.296875
968		27.343750
969		31.250000
970		29.296875
971		33.203125
972		29.296875
973		33.203125
974		31.250000
975		35.156250
976		33.203125
977		39.062500
978		35.156250
979		39.062500
980		37.109375
981		41.015625
982		39.062500
983		41.015625
984		39.062500
985		42.968750
986		41.015625
987		44.921875
988		41.015625
989		44.921875
990		42.968750
991		46.875000
992		44.921875
993		46.875000
994		44.921875
995		48.828125
996		44.921875
997		48.828125
998		46.875000
999		50.781250
1000		46.875000
1001		50.781250
1002		46.875000
1003		50.781250
1004		48.828125
1005		52.734375
1006		48.828125
1007		52.734375
1008		48.828125
1009		52.734375
1010		48.828125
1011		52.734375
1012		50.781250
1013		52.734375
1014		50.781250
1015		52.734375
1016		50.781250
1017		52.734375
1018		48.828125
1019		52.734375
1020		50.781250
1021		52.734375
1022		48.828125
1023		52.734375
1024		48.828125
1025		52.734375
1026		46.875000
1027		50.781250
1028		48.828125
1029		50.781250
1030		46.875000
1031		50.781250
1032		46.875000
1033		50.781250
1034		44.921875
1035		48.828125
1036		44.921875
1037		48.828125
1038		42.968750
1039		46.875000
1040		42.968750
1041		44.921875
1042		41.015625
1043		44.921875
1044		41.015625
1045		44.921875
1046		39.062500
1047		42.968750
1048		37.109375
1049		42.968750
1050		37.109375
1051		39.062500
1052		35.156250
1053		39.062500
1054		33.203125
1055		37.109375
1056		31.250000
1057		35.156250
1058		29.296875
1059		33.203125
1060		27.343750
1061		33.203125
1062		27.343750
1063		29.296875
1064		23.437500
1065		29.296875
1066		23.437500
1067		27.343750
1068		21.484375
1069		25.390625
1070		17.578125
1071		23.437500
1072		17.578125
1073		21.484375
1074		15.625000
1075		19.531250
1076		11.718750
1077		17.578125
1078		11.718750
1079		15.625000
1080		9.765625
1081		13.671875
1082		7.812500
1083		11.718750
1084		3.906250
1085		7.812500
1086		3.906250
1087		7.812500
1088		0.000000
1089		3.906250
1090		0.000000
1091		3.906250
1092		-1.953125
1093		0.000000
1094		-3.906250
1095		0.000000
1096		-5.859375
1097		-1.953125
1098		-7.812500
1099		-3.906250
1100		-9.765625
1101		-5.859375
1102		-11.718750
1103		-7.812500
1104		-13.671875
1105		-9.765625
1106		-15.625000
1107		-9.765625
1108		-15.625000
1109		-13.671875
1110		-19.531250
1111		-13.671875
1112		-19.531250
1113		-15.625000
1114		-21.484375
1115		-17.578125
1116		-21.484375
1117		-17.578125
1118		-23.437500
1119		-19.531250
1120		-23.437500
1121		-21.484375
1122		-27.343750
1123		-21.484375
1124		-25.390625
1125		-23.437500
1126		-27.343750
1127		-23.437500
1128		-27.343750
1129		-23.437500
1130		-27.343750
1131		-25.390625
1132		-29.296875
1133		-25.390625
1134		-29.296875
1135		-25.390625
1136		-29.296875
1137		-25.390625
1138		-29.296875
1139		-27.343750
1140		-31.250000
1141		-25.390625
1142		-29.296875
1143		-27.343750
1144		-29.296875
1145		-27.343750
1146		-29.296875
1147		-25.390625
1148		-29.296875
1149		-25.390625
1150		-29.296875
1151		-25.390625
1152		-29.296875
1153		-23.437500
1154		-27.343750
1155		-25.390625
1156		-27.343750
1157		-23.437500
1158		-25.390625
1159		-23.437500
1160		-25.390625
1161		-21.484375
1162		-25.390625
1163		-21.484375
1164		-23.437500
1165		-19.531250
1166		-21.484375
1167		-19.531250
1168		-21.484375
1169		-17.578125
1170		-19.531250
1171		-15.625000
1172		-17.578125
1173		-13.671875
1174		-17.578125
1175		-13.671875
1176		-15.625000
1177		-11.718750
1178		-13.671875
1179		-9.765625
1180		-11.718750
1181		-7.812500
1182		-9.765625
1183		-5.859375
1184		-7.812500
1185		-3.906250
1186		-7.812500
1187		-3.906250
1188		-5.859375
1189		-1.953125
1190		-3.906250
1191		1.953125
1192		-1.953125
1193		1.953125
1194		0.000000
1195		5.859375
1196		1.953125
1197		5.859375
1198		5.859375
1199		9.765625
1200		5.859375
1201		9.765625
1202		7.812500
1203		11.718750
1204		9.765625
1205		13.671875
1206		13.671875
1207		17.578125
1208		15.625000
1209		17.578125
1210		15.625000
1211		19.531250
1212		17.578125
1213		23.437500
1214		19.531250
1215		25.390625
1216		21.484375
1217		25.390625
1218		23.437500
1219		27.343750
1220		25.390625
1221		29.296875
1222		27.343750
1223		31.250000
1224		29.296875
1225		33.203125
1226		31.250000
1227		35.156250
1228		33.203125
1229		37.109375
1230		35.156250
1231		39.062500
1232		35.156250
1233		39.062500
1234		37.109375
1235		41.015625
1236		39.062500
1237		42.968750
1238		39.062500
1239		42.968750
1240		41.015625
1241		44.921875
1242		42.968750
1243		44.921875
1244		42.968750
1245		46.875000
1246		42.968750
1247		48.828125
1248		44.921875
1249		48.828125
1250		46.875000
1251		50.781250
1252		46.875000
1253		50.781250
1254		48.828125
1255		50.781250
1256		48.828125
1257		50.781250
1258		48.828125
1259		52.734375
1260		48.828125
1261		52.734375
1262		48.828125
1263		52.734375
1264		48.828125
1265		52.734375
1266		48.828125
1267		52.734375
1268		50.781250
1269		52.734375
1270		50.781250
1271		54.687500
1272		48.828125
1273		52.734375
1274		48.828125
1275		52.734375
1276		48.828125
1277		52.734375
1278		48.828125
1279		52.734375
1280		48.828125
1281		50.781250
1282		48.828125
1283		50.781250
1284		46.875000
1285		50.781250
1286		46.875000
1287		48.828125
