metingen laweit/2000Hz, 44.1cm/data_81_201.txt

Channel              :		CH1
Frequency            :		1.973kHz
Period               :		0.507ms
PK-PK                :		66.41mV
Probe attenuation    :		1X
Voltage per ADC value:		0.122070mV
Time interval        :		2.00000us

index		CH1_Voltage(mV)
1		39.062500
2		39.062500
3		35.156250
4		39.062500
5		35.156250
6		39.062500
7		33.203125
8		37.109375
9		33.203125
10		37.109375
11		33.203125
12		37.109375
13		33.203125
14		35.156250
15		31.250000
16		35.156250
17		31.250000
18		35.156250
19		29.296875
20		33.203125
21		29.296875
22		33.203125
23		27.343750
24		31.250000
25		27.343750
26		29.296875
27		25.390625
28		29.296875
29		25.390625
30		27.343750
31		23.437500
32		27.343750
33		21.484375
34		25.390625
35		21.484375
36		25.390625
37		19.531250
38		23.437500
39		19.531250
40		21.484375
41		17.578125
42		21.484375
43		15.625000
44		19.531250
45		13.671875
46		17.578125
47		13.671875
48		15.625000
49		11.718750
50		15.625000
51		9.765625
52		13.671875
53		7.812500
54		13.671875
55		7.812500
56		11.718750
57		5.859375
58		9.765625
59		3.906250
60		7.812500
61		3.906250
62		5.859375
63		1.953125
64		5.859375
65		0.000000
66		3.906250
67		0.000000
68		1.953125
69		-1.953125
70		1.953125
71		-3.906250
72		0.000000
73		-5.859375
74		-1.953125
75		-5.859375
76		-1.953125
77		-7.812500
78		-3.906250
79		-7.812500
80		-5.859375
81		-9.765625
82		-5.859375
83		-11.718750
84		-7.812500
85		-11.718750
86		-7.812500
87		-13.671875
88		-9.765625
89		-13.671875
90		-9.765625
91		-15.625000
92		-11.718750
93		-15.625000
94		-13.671875
95		-15.625000
96		-13.671875
97		-17.578125
98		-13.671875
99		-17.578125
100		-15.625000
101		-17.578125
102		-15.625000
103		-17.578125
104		-15.625000
105		-19.531250
106		-15.625000
107		-19.531250
108		-17.578125
109		-19.531250
110		-17.578125
111		-19.531250
112		-17.578125
113		-21.484375
114		-17.578125
115		-19.531250
116		-17.578125
117		-21.484375
118		-17.578125
119		-19.531250
120		-17.578125
121		-19.531250
122		-17.578125
123		-19.531250
124		-15.625000
125		-19.531250
126		-15.625000
127		-19.531250
128		-15.625000
129		-17.578125
130		-15.625000
131		-17.578125
132		-15.625000
133		-17.578125
134		-13.671875
135		-17.578125
136		-13.671875
137		-17.578125
138		-13.671875
139		-15.625000
140		-11.718750
141		-15.625000
142		-11.718750
143		-13.671875
144		-11.718750
145		-11.718750
146		-9.765625
147		-11.718750
148		-7.812500
149		-11.718750
150		-7.812500
151		-9.765625
152		-5.859375
153		-7.812500
154		-5.859375
155		-7.812500
156		-3.906250
157		-5.859375
158		-1.953125
159		-5.859375
160		-1.953125
161		-3.906250
162		0.000000
163		-1.953125
164		1.953125
165		-1.953125
166		3.906250
167		1.953125
168		3.906250
169		1.953125
170		5.859375
171		3.906250
172		5.859375
173		5.859375
174		9.765625
175		5.859375
176		9.765625
177		7.812500
178		11.718750
179		9.765625
180		13.671875
181		9.765625
182		13.671875
183		11.718750
184		15.625000
185		13.671875
186		17.578125
187		15.625000
188		17.578125
189		15.625000
190		19.531250
191		17.578125
192		21.484375
193		19.531250
194		21.484375
195		19.531250
196		23.437500
197		21.484375
198		25.390625
199		23.437500
200		25.390625
201		23.437500
202		27.343750
203		25.390625
204		29.296875
205		25.390625
206		29.296875
207		27.343750
208		31.250000
209		27.343750
210		31.250000
211		29.296875
212		33.203125
213		29.296875
214		35.156250
215		29.296875
216		35.156250
217		31.250000
218		35.156250
219		33.203125
220		35.156250
221		33.203125
222		37.109375
223		33.203125
224		39.062500
225		33.203125
226		39.062500
227		35.156250
228		37.109375
229		37.109375
230		39.062500
231		33.203125
232		41.015625
233		35.156250
234		41.015625
235		35.156250
236		41.015625
237		35.156250
238		41.015625
239		35.156250
240		41.015625
241		35.156250
242		42.968750
243		37.109375
244		41.015625
245		37.109375
246		39.062500
247		35.156250
248		42.968750
249		35.156250
250		41.015625
251		35.156250
252		41.015625
253		33.203125
254		41.015625
255		33.203125
256		41.015625
257		33.203125
258		41.015625
259		33.203125
260		41.015625
261		35.156250
262		37.109375
263		33.203125
264		37.109375
265		31.250000
266		37.109375
267		31.250000
268		37.109375
269		29.296875
270		37.109375
271		29.296875
272		35.156250
273		27.343750
274		35.156250
275		27.343750
276		33.203125
277		27.343750
278		31.250000
279		27.343750
280		29.296875
281		23.437500
282		31.250000
283		23.437500
284		29.296875
285		21.484375
286		27.343750
287		19.531250
288		27.343750
289		19.531250
290		27.343750
291		17.578125
292		25.390625
293		17.578125
294		23.437500
295		17.578125
296		19.531250
297		13.671875
298		19.531250
299		11.718750
300		19.531250
301		9.765625
302		17.578125
303		9.765625
304		17.578125
305		7.812500
306		15.625000
307		5.859375
308		13.671875
309		5.859375
310		11.718750
311		5.859375
312		9.765625
313		3.906250
314		7.812500
315		0.000000
316		7.812500
317		0.000000
318		5.859375
319		-1.953125
320		5.859375
321		-3.906250
322		3.906250
323		-5.859375
324		1.953125
325		-5.859375
326		1.953125
327		-5.859375
328		-1.953125
329		-5.859375
330		-3.906250
331		-9.765625
332		-1.953125
333		-9.765625
334		-3.906250
335		-11.718750
336		-3.906250
337		-13.671875
338		-5.859375
339		-13.671875
340		-5.859375
341		-15.625000
342		-7.812500
343		-15.625000
344		-9.765625
345		-15.625000
346		-11.718750
347		-17.578125
348		-11.718750
349		-19.531250
350		-11.718750
351		-19.531250
352		-11.718750
353		-19.531250
354		-11.718750
355		-19.531250
356		-13.671875
357		-19.531250
358		-13.671875
359		-21.484375
360		-13.671875
361		-19.531250
362		-17.578125
363		-19.531250
364		-17.578125
365		-21.484375
366		-15.625000
367		-21.484375
368		-15.625000
369		-21.484375
370		-15.625000
371		-21.484375
372		-15.625000
373		-21.484375
374		-15.625000
375		-21.484375
376		-15.625000
377		-21.484375
378		-15.625000
379		-19.531250
380		-15.625000
381		-21.484375
382		-13.671875
383		-19.531250
384		-13.671875
385		-19.531250
386		-13.671875
387		-19.531250
388		-11.718750
389		-17.578125
390		-11.718750
391		-19.531250
392		-9.765625
393		-17.578125
394		-9.765625
395		-13.671875
396		-11.718750
397		-13.671875
398		-9.765625
399		-13.671875
400		-7.812500
401		-13.671875
402		-5.859375
403		-11.718750
404		-3.906250
405		-11.718750
406		-3.906250
407		-9.765625
408		-1.953125
409		-7.812500
410		-1.953125
411		-5.859375
412		-1.953125
413		-3.906250
414		0.000000
415		-3.906250
416		1.953125
417		-3.906250
418		3.906250
419		-1.953125
420		5.859375
421		0.000000
422		5.859375
423		1.953125
424		7.812500
425		1.953125
426		9.765625
427		3.906250
428		11.718750
429		7.812500
430		9.765625
431		7.812500
432		13.671875
433		7.812500
434		15.625000
435		9.765625
436		15.625000
437		9.765625
438		17.578125
439		11.718750
440		19.531250
441		13.671875
442		21.484375
443		15.625000
444		21.484375
445		17.578125
446		21.484375
447		19.531250
448		23.437500
449		19.531250
450		25.390625
451		19.531250
452		27.343750
453		21.484375
454		29.296875
455		23.437500
456		29.296875
457		23.437500
458		31.250000
459		25.390625
460		31.250000
461		25.390625
462		31.250000
463		29.296875
464		31.250000
465		29.296875
466		35.156250
467		27.343750
468		35.156250
469		29.296875
470		37.109375
471		31.250000
472		37.109375
473		31.250000
474		39.062500
475		31.250000
476		39.062500
477		33.203125
478		39.062500
479		35.156250
480		37.109375
481		35.156250
482		39.062500
483		33.203125
484		41.015625
485		35.156250
486		41.015625
487		35.156250
488		42.968750
489		35.156250
490		42.968750
491		35.156250
492		41.015625
493		35.156250
494		42.968750
495		35.156250
496		41.015625
497		37.109375
498		39.062500
499		35.156250
500		42.968750
501		35.156250
502		41.015625
503		35.156250
504		41.015625
505		33.203125
506		41.015625
507		33.203125
508		41.015625
509		33.203125
510		41.015625
511		33.203125
512		41.015625
513		35.156250
514		37.109375
515		33.203125
516		37.109375
517		31.250000
518		39.062500
519		29.296875
520		39.062500
521		29.296875
522		37.109375
523		29.296875
524		37.109375
525		27.343750
526		35.156250
527		27.343750
528		35.156250
529		27.343750
530		33.203125
531		27.343750
532		31.250000
533		25.390625
534		31.250000
535		23.437500
536		31.250000
537		21.484375
538		29.296875
539		21.484375
540		29.296875
541		19.531250
542		27.343750
543		19.531250
544		25.390625
545		17.578125
546		23.437500
547		17.578125
548		21.484375
549		13.671875
550		19.531250
551		13.671875
552		21.484375
553		11.718750
554		19.531250
555		9.765625
556		17.578125
557		7.812500
558		15.625000
559		7.812500
560		15.625000
561		5.859375
562		13.671875
563		7.812500
564		9.765625
565		5.859375
566		9.765625
567		1.953125
568		9.765625
569		1.953125
570		7.812500
571		-1.953125
572		7.812500
573		-1.953125
574		5.859375
575		-3.906250
576		3.906250
577		-5.859375
578		3.906250
579		-3.906250
580		0.000000
581		-5.859375
582		-1.953125
583		-7.812500
584		-1.953125
585		-9.765625
586		-1.953125
587		-11.718750
588		-3.906250
589		-11.718750
590		-3.906250
591		-13.671875
592		-5.859375
593		-15.625000
594		-7.812500
595		-15.625000
596		-7.812500
597		-13.671875
598		-11.718750
599		-15.625000
600		-11.718750
601		-17.578125
602		-9.765625
603		-19.531250
604		-11.718750
605		-19.531250
606		-11.718750
607		-19.531250
608		-11.718750
609		-19.531250
610		-13.671875
611		-21.484375
612		-13.671875
613		-19.531250
614		-15.625000
615		-19.531250
616		-17.578125
617		-21.484375
618		-15.625000
619		-21.484375
620		-15.625000
621		-21.484375
622		-15.625000
623		-21.484375
624		-13.671875
625		-21.484375
626		-15.625000
627		-21.484375
628		-15.625000
629		-21.484375
630		-15.625000
631		-19.531250
632		-15.625000
633		-19.531250
634		-15.625000
635		-19.531250
636		-13.671875
637		-19.531250
638		-13.671875
639		-19.531250
640		-11.718750
641		-19.531250
642		-11.718750
643		-17.578125
644		-11.718750
645		-17.578125
646		-9.765625
647		-13.671875
648		-11.718750
649		-13.671875
650		-9.765625
651		-13.671875
652		-7.812500
653		-13.671875
654		-5.859375
655		-11.718750
656		-5.859375
657		-11.718750
658		-3.906250
659		-11.718750
660		-1.953125
661		-9.765625
662		-1.953125
663		-7.812500
664		-1.953125
665		-3.906250
666		-1.953125
667		-3.906250
668		1.953125
669		-3.906250
670		3.906250
671		-1.953125
672		5.859375
673		0.000000
674		5.859375
675		0.000000
676		7.812500
677		1.953125
678		9.765625
679		3.906250
680		9.765625
681		5.859375
682		9.765625
683		7.812500
684		11.718750
685		7.812500
686		15.625000
687		7.812500
688		15.625000
689		9.765625
690		17.578125
691		11.718750
692		19.531250
693		13.671875
694		19.531250
695		13.671875
696		21.484375
697		17.578125
698		21.484375
699		19.531250
700		21.484375
701		19.531250
702		25.390625
703		19.531250
704		27.343750
705		21.484375
706		27.343750
707		21.484375
708		29.296875
709		23.437500
710		31.250000
711		23.437500
712		31.250000
713		25.390625
714		31.250000
715		29.296875
716		31.250000
717		27.343750
718		35.156250
719		27.343750
720		35.156250
721		29.296875
722		37.109375
723		29.296875
724		37.109375
725		31.250000
726		37.109375
727		31.250000
728		39.062500
729		31.250000
730		39.062500
731		35.156250
732		39.062500
733		35.156250
734		39.062500
735		33.203125
736		41.015625
737		33.203125
738		41.015625
739		35.156250
740		41.015625
741		35.156250
742		42.968750
743		35.156250
744		42.968750
745		35.156250
746		42.968750
747		35.156250
748		42.968750
749		37.109375
750		41.015625
751		37.109375
752		42.968750
753		35.156250
754		41.015625
755		35.156250
756		41.015625
757		33.203125
758		41.015625
759		35.156250
760		41.015625
761		35.156250
762		41.015625
763		33.203125
764		41.015625
765		35.156250
766		39.062500
767		35.156250
768		37.109375
769		31.250000
770		39.062500
771		31.250000
772		39.062500
773		31.250000
774		37.109375
775		29.296875
776		37.109375
777		29.296875
778		37.109375
779		27.343750
780		35.156250
781		29.296875
782		33.203125
783		29.296875
784		31.250000
785		25.390625
786		31.250000
787		25.390625
788		31.250000
789		23.437500
790		31.250000
791		21.484375
792		29.296875
793		21.484375
794		27.343750
795		19.531250
796		27.343750
797		19.531250
798		25.390625
799		19.531250
800		21.484375
801		15.625000
802		21.484375
803		15.625000
804		21.484375
805		13.671875
806		19.531250
807		11.718750
808		19.531250
809		9.765625
810		17.578125
811		9.765625
812		17.578125
813		5.859375
814		15.625000
815		7.812500
816		11.718750
817		5.859375
818		9.765625
819		3.906250
820		9.765625
821		1.953125
822		9.765625
823		0.000000
824		7.812500
825		-1.953125
826		5.859375
827		-1.953125
828		5.859375
829		-3.906250
830		3.906250
831		-3.906250
832		1.953125
833		-3.906250
834		0.000000
835		-7.812500
836		-1.953125
837		-7.812500
838		-1.953125
839		-9.765625
840		-3.906250
841		-11.718750
842		-3.906250
843		-11.718750
844		-5.859375
845		-13.671875
846		-5.859375
847		-13.671875
848		-7.812500
849		-13.671875
850		-9.765625
851		-13.671875
852		-11.718750
853		-17.578125
854		-9.765625
855		-17.578125
856		-9.765625
857		-19.531250
858		-11.718750
859		-19.531250
860		-11.718750
861		-19.531250
862		-11.718750
863		-19.531250
864		-13.671875
865		-19.531250
866		-13.671875
867		-17.578125
868		-15.625000
869		-21.484375
870		-15.625000
871		-21.484375
872		-13.671875
873		-21.484375
874		-13.671875
875		-21.484375
876		-13.671875
877		-21.484375
878		-13.671875
879		-21.484375
880		-13.671875
881		-21.484375
882		-13.671875
883		-19.531250
884		-15.625000
885		-19.531250
886		-15.625000
887		-21.484375
888		-13.671875
889		-19.531250
890		-13.671875
891		-19.531250
892		-11.718750
893		-19.531250
894		-11.718750
895		-17.578125
896		-11.718750
897		-17.578125
898		-9.765625
899		-15.625000
900		-11.718750
901		-13.671875
902		-11.718750
903		-15.625000
904		-7.812500
905		-13.671875
906		-5.859375
907		-13.671875
908		-5.859375
909		-11.718750
910		-3.906250
911		-9.765625
912		-3.906250
913		-9.765625
914		-1.953125
915		-7.812500
916		-1.953125
917		-5.859375
918		-1.953125
919		-5.859375
920		1.953125
921		-3.906250
922		3.906250
923		-3.906250
924		3.906250
925		-1.953125
926		5.859375
927		0.000000
928		7.812500
929		0.000000
930		9.765625
931		1.953125
932		9.765625
933		5.859375
934		9.765625
935		7.812500
936		9.765625
937		5.859375
938		13.671875
939		7.812500
940		15.625000
941		9.765625
942		15.625000
943		9.765625
944		19.531250
945		11.718750
946		19.531250
947		13.671875
948		21.484375
949		15.625000
950		19.531250
951		19.531250
952		21.484375
953		19.531250
954		25.390625
955		17.578125
956		27.343750
957		19.531250
958		27.343750
959		21.484375
960		29.296875
961		21.484375
962		29.296875
963		23.437500
964		31.250000
965		25.390625
966		31.250000
967		27.343750
968		31.250000
969		29.296875
970		33.203125
971		27.343750
972		35.156250
973		29.296875
974		35.156250
975		29.296875
976		37.109375
977		31.250000
978		37.109375
979		31.250000
980		39.062500
981		31.250000
982		39.062500
983		35.156250
984		37.109375
985		35.156250
986		39.062500
987		33.203125
988		41.015625
989		33.203125
990		42.968750
991		35.156250
992		42.968750
993		35.156250
994		41.015625
995		35.156250
996		42.968750
997		35.156250
998		42.968750
999		35.156250
1000		42.968750
1001		39.062500
1002		41.015625
1003		35.156250
1004		42.968750
1005		35.156250
1006		42.968750
1007		35.156250
1008		42.968750
1009		35.156250
1010		42.968750
1011		35.156250
1012		42.968750
1013		35.156250
1014		41.015625
1015		35.156250
1016		41.015625
1017		37.109375
1018		39.062500
1019		35.156250
1020		39.062500
1021		33.203125
1022		39.062500
1023		33.203125
1024		39.062500
1025		31.250000
1026		39.062500
1027		31.250000
1028		39.062500
1029		29.296875
1030		37.109375
1031		29.296875
1032		37.109375
1033		29.296875
1034		35.156250
1035		29.296875
1036		33.203125
1037		27.343750
1038		33.203125
1039		25.390625
1040		33.203125
1041		23.437500
1042		31.250000
1043		23.437500
1044		31.250000
1045		21.484375
1046		29.296875
1047		21.484375
1048		27.343750
1049		19.531250
1050		27.343750
1051		19.531250
1052		23.437500
1053		19.531250
1054		21.484375
1055		15.625000
1056		23.437500
1057		13.671875
1058		21.484375
1059		13.671875
1060		19.531250
1061		11.718750
1062		19.531250
1063		9.765625
1064		17.578125
1065		7.812500
1066		15.625000
1067		9.765625
1068		11.718750
1069		7.812500
1070		11.718750
1071		3.906250
1072		11.718750
1073		1.953125
1074		11.718750
1075		1.953125
1076		9.765625
1077		0.000000
1078		7.812500
1079		-1.953125
1080		5.859375
1081		-3.906250
1082		3.906250
1083		-3.906250
1084		3.906250
1085		-3.906250
1086		0.000000
1087		-7.812500
1088		0.000000
1089		-7.812500
1090		0.000000
1091		-9.765625
1092		-1.953125
1093		-9.765625
1094		-1.953125
1095		-11.718750
1096		-3.906250
1097		-11.718750
1098		-5.859375
1099		-13.671875
1100		-5.859375
1101		-11.718750
1102		-9.765625
1103		-13.671875
1104		-9.765625
1105		-15.625000
1106		-9.765625
1107		-17.578125
1108		-9.765625
1109		-17.578125
1110		-9.765625
1111		-17.578125
1112		-9.765625
1113		-19.531250
1114		-11.718750
1115		-19.531250
1116		-11.718750
1117		-19.531250
1118		-13.671875
1119		-17.578125
1120		-15.625000
1121		-21.484375
1122		-13.671875
1123		-21.484375
1124		-13.671875
1125		-21.484375
1126		-13.671875
1127		-21.484375
1128		-13.671875
1129		-21.484375
1130		-15.625000
1131		-21.484375
1132		-13.671875
1133		-21.484375
1134		-15.625000
1135		-19.531250
1136		-15.625000
1137		-19.531250
1138		-15.625000
1139		-19.531250
1140		-13.671875
1141		-19.531250
1142		-11.718750
1143		-19.531250
1144		-13.671875
1145		-19.531250
1146		-11.718750
1147		-19.531250
1148		-11.718750
1149		-19.531250
1150		-11.718750
1151		-15.625000
1152		-11.718750
1153		-13.671875
1154		-11.718750
1155		-15.625000
1156		-7.812500
1157		-13.671875
1158		-7.812500
1159		-13.671875
1160		-5.859375
1161		-11.718750
1162		-5.859375
1163		-11.718750
1164		-3.906250
1165		-11.718750
1166		-3.906250
1167		-9.765625
1168		-1.953125
1169		-5.859375
1170		-1.953125
1171		-5.859375
1172		0.000000
1173		-5.859375
1174		1.953125
1175		-3.906250
1176		3.906250
1177		-1.953125
1178		5.859375
1179		-1.953125
1180		5.859375
1181		0.000000
1182		7.812500
1183		1.953125
1184		7.812500
1185		3.906250
1186		7.812500
1187		5.859375
1188		9.765625
1189		5.859375
1190		13.671875
1191		7.812500
1192		13.671875
1193		7.812500
1194		15.625000
1195		9.765625
1196		17.578125
1197		11.718750
1198		19.531250
1199		13.671875
1200		19.531250
1201		13.671875
1202		19.531250
1203		17.578125
1204		21.484375
1205		17.578125
1206		23.437500
1207		17.578125
1208		25.390625
1209		19.531250
1210		27.343750
1211		19.531250
1212		27.343750
1213		21.484375
1214		29.296875
1215		23.437500
1216		31.250000
1217		23.437500
1218		31.250000
1219		27.343750
1220		31.250000
1221		29.296875
1222		31.250000
1223		27.343750
1224		35.156250
1225		29.296875
1226		35.156250
1227		29.296875
1228		37.109375
1229		31.250000
1230		37.109375
1231		31.250000
1232		37.109375
1233		31.250000
1234		39.062500
1235		35.156250
1236		37.109375
1237		35.156250
1238		39.062500
1239		33.203125
1240		41.015625
1241		35.156250
1242		41.015625
1243		35.156250
1244		41.015625
1245		35.156250
1246		41.015625
1247		35.156250
1248		42.968750
1249		35.156250
1250		42.968750
1251		35.156250
1252		42.968750
1253		39.062500
1254		41.015625
1255		37.109375
1256		41.015625
1257		35.156250
1258		42.968750
1259		35.156250
1260		42.968750
1261		35.156250
1262		42.968750
1263		35.156250
1264		42.968750
1265		35.156250
1266		42.968750
1267		35.156250
1268		41.015625
1269		37.109375
1270		39.062500
1271		35.156250
1272		39.062500
1273		35.156250
1274		39.062500
1275		33.203125
1276		39.062500
1277		31.250000
1278		39.062500
1279		31.250000
1280		39.062500
1281		31.250000
1282		37.109375
1283		29.296875
1284		37.109375
1285		31.250000
1286		35.156250
1287		29.296875
1288		33.203125
1289		29.296875
1290		33.203125
1291		25.390625
1292		33.203125
1293		25.390625
1294		31.250000
1295		23.437500
