metingen laweit/2000Hz, 44.1cm/data_81_180.txt

Channel              :		CH1
Frequency            :		1.973kHz
Period               :		0.507ms
PK-PK                :		115.2mV
Probe attenuation    :		1X
Voltage per ADC value:		0.122070mV
Time interval        :		2.00000us

index		CH1_Voltage(mV)
1		60.546875
2		60.546875
3		64.453125
4		60.546875
5		64.453125
6		60.546875
7		62.500000
8		58.593750
9		62.500000
10		58.593750
11		60.546875
12		56.640625
13		60.546875
14		56.640625
15		58.593750
16		54.687500
17		58.593750
18		52.734375
19		56.640625
20		50.781250
21		56.640625
22		50.781250
23		54.687500
24		48.828125
25		52.734375
26		46.875000
27		50.781250
28		44.921875
29		48.828125
30		42.968750
31		46.875000
32		41.015625
33		44.921875
34		39.062500
35		42.968750
36		37.109375
37		41.015625
38		35.156250
39		39.062500
40		31.250000
41		37.109375
42		29.296875
43		33.203125
44		27.343750
45		31.250000
46		25.390625
47		29.296875
48		23.437500
49		27.343750
50		19.531250
51		23.437500
52		17.578125
53		21.484375
54		15.625000
55		19.531250
56		11.718750
57		17.578125
58		9.765625
59		13.671875
60		7.812500
61		11.718750
62		3.906250
63		7.812500
64		1.953125
65		5.859375
66		-1.953125
67		3.906250
68		-3.906250
69		0.000000
70		-5.859375
71		-1.953125
72		-9.765625
73		-3.906250
74		-11.718750
75		-7.812500
76		-13.671875
77		-9.765625
78		-17.578125
79		-11.718750
80		-19.531250
81		-13.671875
82		-21.484375
83		-15.625000
84		-23.437500
85		-19.531250
86		-25.390625
87		-21.484375
88		-27.343750
89		-23.437500
90		-29.296875
91		-25.390625
92		-31.250000
93		-27.343750
94		-33.203125
95		-29.296875
96		-33.203125
97		-29.296875
98		-35.156250
99		-31.250000
100		-37.109375
101		-33.203125
102		-39.062500
103		-35.156250
104		-39.062500
105		-37.109375
106		-41.015625
107		-37.109375
108		-41.015625
109		-37.109375
110		-42.968750
111		-39.062500
112		-42.968750
113		-41.015625
114		-42.968750
115		-41.015625
116		-42.968750
117		-41.015625
118		-44.921875
119		-41.015625
120		-44.921875
121		-41.015625
122		-44.921875
123		-41.015625
124		-44.921875
125		-41.015625
126		-42.968750
127		-41.015625
128		-42.968750
129		-41.015625
130		-42.968750
131		-39.062500
132		-42.968750
133		-39.062500
134		-41.015625
135		-37.109375
136		-41.015625
137		-37.109375
138		-39.062500
139		-35.156250
140		-39.062500
141		-35.156250
142		-37.109375
143		-33.203125
144		-35.156250
145		-31.250000
146		-33.203125
147		-29.296875
148		-31.250000
149		-29.296875
150		-31.250000
151		-27.343750
152		-29.296875
153		-23.437500
154		-27.343750
155		-21.484375
156		-23.437500
157		-19.531250
158		-21.484375
159		-17.578125
160		-19.531250
161		-15.625000
162		-17.578125
163		-13.671875
164		-17.578125
165		-11.718750
166		-13.671875
167		-7.812500
168		-9.765625
169		-5.859375
170		-7.812500
171		-3.906250
172		-5.859375
173		0.000000
174		-1.953125
175		1.953125
176		0.000000
177		3.906250
178		1.953125
179		5.859375
180		3.906250
181		9.765625
182		7.812500
183		11.718750
184		9.765625
185		13.671875
186		13.671875
187		17.578125
188		15.625000
189		19.531250
190		17.578125
191		21.484375
192		19.531250
193		25.390625
194		23.437500
195		27.343750
196		25.390625
197		31.250000
198		29.296875
199		33.203125
200		31.250000
201		35.156250
202		31.250000
203		37.109375
204		35.156250
205		39.062500
206		37.109375
207		41.015625
208		39.062500
209		44.921875
210		41.015625
211		44.921875
212		42.968750
213		46.875000
214		44.921875
215		48.828125
216		46.875000
217		50.781250
218		48.828125
219		52.734375
220		50.781250
221		54.687500
222		50.781250
223		56.640625
224		54.687500
225		56.640625
226		54.687500
227		58.593750
228		56.640625
229		58.593750
230		56.640625
231		60.546875
232		56.640625
233		60.546875
234		58.593750
235		62.500000
236		60.546875
237		62.500000
238		60.546875
239		62.500000
240		60.546875
241		64.453125
242		60.546875
243		64.453125
244		62.500000
245		64.453125
246		62.500000
247		64.453125
248		62.500000
249		64.453125
250		62.500000
251		64.453125
252		60.546875
253		64.453125
254		60.546875
255		64.453125
256		60.546875
257		64.453125
258		58.593750
259		64.453125
260		58.593750
261		62.500000
262		58.593750
263		62.500000
264		56.640625
265		60.546875
266		56.640625
267		60.546875
268		56.640625
269		58.593750
270		54.687500
271		58.593750
272		52.734375
273		56.640625
274		50.781250
275		54.687500
276		50.781250
277		54.687500
278		48.828125
279		50.781250
280		44.921875
281		50.781250
282		44.921875
283		48.828125
284		42.968750
285		46.875000
286		39.062500
287		44.921875
288		39.062500
289		42.968750
290		37.109375
291		41.015625
292		33.203125
293		39.062500
294		31.250000
295		35.156250
296		29.296875
297		33.203125
298		25.390625
299		31.250000
300		23.437500
301		27.343750
302		21.484375
303		25.390625
304		19.531250
305		23.437500
306		15.625000
307		21.484375
308		13.671875
309		17.578125
310		11.718750
311		15.625000
312		7.812500
313		11.718750
314		5.859375
315		9.765625
316		3.906250
317		7.812500
318		0.000000
319		5.859375
320		-1.953125
321		1.953125
322		-3.906250
323		0.000000
324		-7.812500
325		-1.953125
326		-9.765625
327		-5.859375
328		-11.718750
329		-7.812500
330		-13.671875
331		-9.765625
332		-17.578125
333		-11.718750
334		-19.531250
335		-15.625000
336		-21.484375
337		-17.578125
338		-23.437500
339		-19.531250
340		-25.390625
341		-21.484375
342		-27.343750
343		-23.437500
344		-29.296875
345		-25.390625
346		-31.250000
347		-27.343750
348		-33.203125
349		-29.296875
350		-35.156250
351		-31.250000
352		-37.109375
353		-33.203125
354		-37.109375
355		-33.203125
356		-39.062500
357		-35.156250
358		-41.015625
359		-37.109375
360		-41.015625
361		-37.109375
362		-41.015625
363		-39.062500
364		-42.968750
365		-39.062500
366		-42.968750
367		-41.015625
368		-44.921875
369		-41.015625
370		-44.921875
371		-41.015625
372		-44.921875
373		-41.015625
374		-44.921875
375		-41.015625
376		-44.921875
377		-41.015625
378		-42.968750
379		-41.015625
380		-42.968750
381		-41.015625
382		-42.968750
383		-39.062500
384		-42.968750
385		-39.062500
386		-42.968750
387		-39.062500
388		-41.015625
389		-39.062500
390		-41.015625
391		-37.109375
392		-39.062500
393		-35.156250
394		-39.062500
395		-35.156250
396		-37.109375
397		-33.203125
398		-35.156250
399		-31.250000
400		-33.203125
401		-29.296875
402		-31.250000
403		-27.343750
404		-29.296875
405		-25.390625
406		-27.343750
407		-25.390625
408		-25.390625
409		-21.484375
410		-23.437500
411		-19.531250
412		-21.484375
413		-17.578125
414		-19.531250
415		-15.625000
416		-17.578125
417		-13.671875
418		-15.625000
419		-9.765625
420		-11.718750
421		-7.812500
422		-9.765625
423		-5.859375
424		-7.812500
425		-3.906250
426		-5.859375
427		0.000000
428		-1.953125
429		1.953125
430		0.000000
431		3.906250
432		1.953125
433		7.812500
434		5.859375
435		9.765625
436		7.812500
437		11.718750
438		9.765625
439		15.625000
440		13.671875
441		17.578125
442		15.625000
443		19.531250
444		17.578125
445		23.437500
446		21.484375
447		25.390625
448		23.437500
449		29.296875
450		25.390625
451		31.250000
452		29.296875
453		33.203125
454		31.250000
455		35.156250
456		33.203125
457		37.109375
458		35.156250
459		39.062500
460		39.062500
461		42.968750
462		39.062500
463		44.921875
464		42.968750
465		44.921875
466		44.921875
467		48.828125
468		44.921875
469		48.828125
470		46.875000
471		50.781250
472		48.828125
473		52.734375
474		50.781250
475		54.687500
476		52.734375
477		54.687500
478		52.734375
479		56.640625
480		54.687500
481		58.593750
482		56.640625
483		60.546875
484		56.640625
485		60.546875
486		58.593750
487		62.500000
488		58.593750
489		62.500000
490		58.593750
491		62.500000
492		60.546875
493		62.500000
494		60.546875
495		64.453125
496		62.500000
497		64.453125
498		62.500000
499		64.453125
500		60.546875
501		64.453125
502		62.500000
503		64.453125
504		62.500000
505		64.453125
506		62.500000
507		64.453125
508		60.546875
509		64.453125
510		60.546875
511		64.453125
512		60.546875
513		62.500000
514		58.593750
515		62.500000
516		58.593750
517		62.500000
518		56.640625
519		60.546875
520		56.640625
521		60.546875
522		54.687500
523		58.593750
524		54.687500
525		56.640625
526		52.734375
527		56.640625
528		50.781250
529		54.687500
530		48.828125
531		52.734375
532		46.875000
533		50.781250
534		44.921875
535		48.828125
536		42.968750
537		46.875000
538		42.968750
539		46.875000
540		39.062500
541		42.968750
542		37.109375
543		42.968750
544		35.156250
545		39.062500
546		33.203125
547		37.109375
548		31.250000
549		35.156250
550		27.343750
551		33.203125
552		25.390625
553		29.296875
554		23.437500
555		27.343750
556		21.484375
557		25.390625
558		17.578125
559		23.437500
560		15.625000
561		19.531250
562		13.671875
563		17.578125
564		9.765625
565		13.671875
566		5.859375
567		11.718750
568		5.859375
569		9.765625
570		1.953125
571		5.859375
572		0.000000
573		3.906250
574		-3.906250
575		1.953125
576		-5.859375
577		-1.953125
578		-9.765625
579		-3.906250
580		-9.765625
581		-5.859375
582		-13.671875
583		-9.765625
584		-15.625000
585		-11.718750
586		-17.578125
587		-13.671875
588		-19.531250
589		-15.625000
590		-21.484375
591		-17.578125
592		-23.437500
593		-19.531250
594		-27.343750
595		-21.484375
596		-29.296875
597		-23.437500
598		-31.250000
599		-27.343750
600		-33.203125
601		-29.296875
602		-33.203125
603		-29.296875
604		-35.156250
605		-31.250000
606		-37.109375
607		-33.203125
608		-39.062500
609		-35.156250
610		-41.015625
611		-35.156250
612		-41.015625
613		-37.109375
614		-41.015625
615		-39.062500
616		-42.968750
617		-39.062500
618		-42.968750
619		-39.062500
620		-42.968750
621		-41.015625
622		-44.921875
623		-41.015625
624		-44.921875
625		-41.015625
626		-44.921875
627		-41.015625
628		-44.921875
629		-41.015625
630		-44.921875
631		-41.015625
632		-44.921875
633		-41.015625
634		-44.921875
635		-41.015625
636		-44.921875
637		-41.015625
638		-42.968750
639		-39.062500
640		-41.015625
641		-39.062500
642		-41.015625
643		-37.109375
644		-41.015625
645		-37.109375
646		-41.015625
647		-35.156250
648		-37.109375
649		-33.203125
650		-37.109375
651		-33.203125
652		-35.156250
653		-31.250000
654		-33.203125
655		-29.296875
656		-31.250000
657		-27.343750
658		-29.296875
659		-25.390625
660		-27.343750
661		-23.437500
662		-25.390625
663		-21.484375
664		-23.437500
665		-19.531250
666		-21.484375
667		-17.578125
668		-19.531250
669		-15.625000
670		-17.578125
671		-11.718750
672		-15.625000
673		-9.765625
674		-11.718750
675		-7.812500
676		-9.765625
677		-5.859375
678		-7.812500
679		-1.953125
680		-3.906250
681		0.000000
682		-1.953125
683		1.953125
684		0.000000
685		5.859375
686		3.906250
687		7.812500
688		5.859375
689		9.765625
690		9.765625
691		13.671875
692		11.718750
693		15.625000
694		13.671875
695		19.531250
696		17.578125
697		21.484375
698		19.531250
699		23.437500
700		21.484375
701		27.343750
702		23.437500
703		29.296875
704		25.390625
705		31.250000
706		29.296875
707		33.203125
708		31.250000
709		35.156250
710		33.203125
711		39.062500
712		37.109375
713		41.015625
714		39.062500
715		42.968750
716		41.015625
717		44.921875
718		41.015625
719		46.875000
720		42.968750
721		48.828125
722		46.875000
723		50.781250
724		48.828125
725		52.734375
726		50.781250
727		52.734375
728		50.781250
729		54.687500
730		50.781250
731		56.640625
732		54.687500
733		56.640625
734		54.687500
735		58.593750
736		56.640625
737		60.546875
738		58.593750
739		60.546875
740		58.593750
741		62.500000
742		58.593750
743		62.500000
744		60.546875
745		64.453125
746		60.546875
747		64.453125
748		60.546875
749		64.453125
750		60.546875
751		64.453125
752		60.546875
753		64.453125
754		60.546875
755		64.453125
756		60.546875
757		64.453125
758		60.546875
759		64.453125
760		60.546875
761		64.453125
762		60.546875
763		64.453125
764		60.546875
765		64.453125
766		60.546875
767		62.500000
768		58.593750
769		62.500000
770		58.593750
771		60.546875
772		56.640625
773		60.546875
774		56.640625
775		58.593750
776		54.687500
777		58.593750
778		52.734375
779		56.640625
780		52.734375
781		54.687500
782		50.781250
783		54.687500
784		48.828125
785		52.734375
786		46.875000
787		50.781250
788		44.921875
789		48.828125
790		42.968750
791		46.875000
792		41.015625
793		44.921875
794		39.062500
795		42.968750
796		37.109375
797		41.015625
798		35.156250
799		39.062500
800		33.203125
801		37.109375
802		31.250000
803		33.203125
804		27.343750
805		31.250000
806		25.390625
807		29.296875
808		21.484375
809		27.343750
810		19.531250
811		23.437500
812		17.578125
813		21.484375
814		15.625000
815		19.531250
816		11.718750
817		17.578125
818		9.765625
819		13.671875
820		7.812500
821		11.718750
822		3.906250
823		7.812500
824		1.953125
825		5.859375
826		-1.953125
827		3.906250
828		-3.906250
829		0.000000
830		-5.859375
831		-1.953125
832		-7.812500
833		-3.906250
834		-11.718750
835		-7.812500
836		-13.671875
837		-9.765625
838		-15.625000
839		-11.718750
840		-19.531250
841		-13.671875
842		-21.484375
843		-17.578125
844		-23.437500
845		-19.531250
846		-25.390625
847		-21.484375
848		-27.343750
849		-23.437500
850		-29.296875
851		-25.390625
852		-31.250000
853		-27.343750
854		-33.203125
855		-29.296875
856		-35.156250
857		-31.250000
858		-35.156250
859		-33.203125
860		-37.109375
861		-33.203125
862		-39.062500
863		-35.156250
864		-39.062500
865		-37.109375
866		-41.015625
867		-37.109375
868		-41.015625
869		-39.062500
870		-42.968750
871		-39.062500
872		-42.968750
873		-39.062500
874		-42.968750
875		-41.015625
876		-44.921875
877		-41.015625
878		-44.921875
879		-41.015625
880		-44.921875
881		-41.015625
882		-44.921875
883		-41.015625
884		-44.921875
885		-41.015625
886		-44.921875
887		-41.015625
888		-44.921875
889		-41.015625
890		-42.968750
891		-39.062500
892		-42.968750
893		-39.062500
894		-42.968750
895		-39.062500
896		-41.015625
897		-37.109375
898		-39.062500
899		-37.109375
900		-39.062500
901		-33.203125
902		-37.109375
903		-33.203125
904		-35.156250
905		-31.250000
906		-35.156250
907		-31.250000
908		-33.203125
909		-29.296875
910		-31.250000
911		-27.343750
912		-29.296875
913		-25.390625
914		-27.343750
915		-23.437500
916		-25.390625
917		-21.484375
918		-23.437500
919		-19.531250
920		-21.484375
921		-15.625000
922		-19.531250
923		-13.671875
924		-17.578125
925		-11.718750
926		-13.671875
927		-9.765625
928		-11.718750
929		-7.812500
930		-7.812500
931		-3.906250
932		-7.812500
933		-1.953125
934		-3.906250
935		0.000000
936		-1.953125
937		3.906250
938		1.953125
939		5.859375
940		3.906250
941		7.812500
942		7.812500
943		11.718750
944		7.812500
945		13.671875
946		11.718750
947		15.625000
948		13.671875
949		19.531250
950		17.578125
951		21.484375
952		19.531250
953		23.437500
954		21.484375
955		27.343750
956		25.390625
957		29.296875
958		27.343750
959		31.250000
960		29.296875
961		33.203125
962		33.203125
963		37.109375
964		33.203125
965		39.062500
966		35.156250
967		41.015625
968		39.062500
969		42.968750
970		41.015625
971		44.921875
972		42.968750
973		46.875000
974		44.921875
975		48.828125
976		46.875000
977		50.781250
978		48.828125
979		50.781250
980		48.828125
981		54.687500
982		50.781250
983		54.687500
984		52.734375
985		56.640625
986		54.687500
987		58.593750
988		54.687500
989		58.593750
990		56.640625
991		60.546875
992		56.640625
993		60.546875
994		58.593750
995		62.500000
996		58.593750
997		62.500000
998		58.593750
999		64.453125
1000		60.546875
1001		62.500000
1002		60.546875
1003		64.453125
1004		60.546875
1005		64.453125
1006		62.500000
1007		64.453125
1008		60.546875
1009		64.453125
1010		60.546875
1011		64.453125
1012		60.546875
1013		64.453125
1014		60.546875
1015		64.453125
1016		60.546875
1017		64.453125
1018		60.546875
1019		62.500000
1020		58.593750
1021		62.500000
1022		58.593750
1023		62.500000
1024		56.640625
1025		60.546875
1026		56.640625
1027		60.546875
1028		54.687500
1029		58.593750
1030		54.687500
1031		58.593750
1032		52.734375
1033		56.640625
1034		50.781250
1035		54.687500
1036		50.781250
1037		52.734375
1038		48.828125
1039		52.734375
1040		46.875000
1041		50.781250
1042		44.921875
1043		48.828125
1044		42.968750
1045		46.875000
1046		41.015625
1047		44.921875
1048		37.109375
1049		42.968750
1050		37.109375
1051		41.015625
1052		33.203125
1053		37.109375
1054		31.250000
1055		35.156250
1056		29.296875
1057		33.203125
1058		27.343750
1059		31.250000
1060		23.437500
1061		29.296875
1062		21.484375
1063		25.390625
1064		19.531250
1065		23.437500
1066		15.625000
1067		21.484375
1068		13.671875
1069		17.578125
1070		11.718750
1071		15.625000
1072		7.812500
1073		13.671875
1074		5.859375
1075		9.765625
1076		3.906250
1077		7.812500
1078		0.000000
1079		5.859375
1080		-1.953125
1081		1.953125
1082		-5.859375
1083		0.000000
1084		-7.812500
1085		-1.953125
1086		-9.765625
1087		-5.859375
1088		-11.718750
1089		-7.812500
1090		-13.671875
1091		-9.765625
1092		-17.578125
1093		-13.671875
1094		-19.531250
1095		-15.625000
1096		-21.484375
1097		-17.578125
1098		-23.437500
1099		-19.531250
1100		-25.390625
1101		-21.484375
1102		-27.343750
1103		-23.437500
1104		-31.250000
1105		-25.390625
1106		-31.250000
1107		-27.343750
1108		-33.203125
1109		-29.296875
1110		-35.156250
1111		-31.250000
1112		-37.109375
1113		-33.203125
1114		-37.109375
1115		-35.156250
1116		-39.062500
1117		-35.156250
1118		-41.015625
1119		-37.109375
1120		-41.015625
1121		-39.062500
1122		-42.968750
1123		-37.109375
1124		-42.968750
1125		-39.062500
1126		-42.968750
1127		-41.015625
1128		-44.921875
1129		-41.015625
1130		-44.921875
1131		-41.015625
1132		-44.921875
1133		-41.015625
1134		-44.921875
1135		-41.015625
1136		-44.921875
1137		-41.015625
1138		-44.921875
1139		-41.015625
1140		-44.921875
1141		-41.015625
1142		-42.968750
1143		-41.015625
1144		-44.921875
1145		-39.062500
1146		-42.968750
1147		-39.062500
1148		-41.015625
1149		-39.062500
1150		-41.015625
1151		-37.109375
1152		-39.062500
1153		-37.109375
1154		-37.109375
1155		-33.203125
1156		-37.109375
1157		-33.203125
1158		-35.156250
1159		-33.203125
1160		-35.156250
1161		-31.250000
1162		-33.203125
1163		-29.296875
1164		-31.250000
1165		-27.343750
1166		-29.296875
1167		-23.437500
1168		-27.343750
1169		-23.437500
1170		-25.390625
1171		-21.484375
1172		-23.437500
1173		-17.578125
1174		-19.531250
1175		-15.625000
1176		-17.578125
1177		-13.671875
1178		-15.625000
1179		-11.718750
1180		-13.671875
1181		-7.812500
1182		-9.765625
1183		-5.859375
1184		-7.812500
1185		-3.906250
1186		-5.859375
1187		-1.953125
1188		-3.906250
1189		1.953125
1190		-1.953125
1191		3.906250
1192		1.953125
1193		5.859375
1194		5.859375
1195		9.765625
1196		7.812500
1197		11.718750
1198		9.765625
1199		13.671875
1200		11.718750
1201		17.578125
1202		15.625000
1203		19.531250
1204		17.578125
1205		23.437500
1206		19.531250
1207		25.390625
1208		23.437500
1209		27.343750
1210		25.390625
1211		29.296875
1212		27.343750
1213		31.250000
1214		31.250000
1215		35.156250
1216		31.250000
1217		37.109375
1218		33.203125
1219		39.062500
1220		37.109375
1221		41.015625
1222		39.062500
1223		42.968750
1224		41.015625
1225		44.921875
1226		42.968750
1227		46.875000
1228		44.921875
1229		48.828125
1230		46.875000
1231		50.781250
1232		48.828125
1233		52.734375
1234		50.781250
1235		54.687500
1236		52.734375
1237		54.687500
1238		52.734375
1239		56.640625
1240		54.687500
1241		58.593750
1242		54.687500
1243		58.593750
1244		56.640625
1245		60.546875
1246		58.593750
1247		60.546875
1248		58.593750
1249		62.500000
1250		60.546875
1251		62.500000
1252		60.546875
1253		62.500000
1254		60.546875
1255		64.453125
1256		60.546875
1257		64.453125
1258		60.546875
1259		64.453125
1260		62.500000
1261		64.453125
1262		62.500000
1263		64.453125
1264		60.546875
1265		64.453125
1266		60.546875
1267		64.453125
1268		60.546875
1269		64.453125
1270		60.546875
1271		62.500000
1272		58.593750
1273		62.500000
1274		58.593750
1275		62.500000
1276		58.593750
1277		62.500000
1278		56.640625
1279		60.546875
1280		56.640625
