metingen laweit/1000Hz, 35.3cm/data_81_m138.txt

Channel              :		CH1
Frequency            :		1.061kHz
Period               :		0.942ms
PK-PK                :		175.8mV
Probe attenuation    :		1X
Voltage per ADC value:		0.122070mV
Time interval        :		2.00000us

index		CH1_Voltage(mV)
1		44.921875
2		44.921875
3		52.734375
4		44.921875
5		50.781250
6		42.968750
7		48.828125
8		41.015625
9		46.875000
10		39.062500
11		44.921875
12		39.062500
13		42.968750
14		37.109375
15		39.062500
16		33.203125
17		39.062500
18		31.250000
19		37.109375
20		29.296875
21		37.109375
22		27.343750
23		33.203125
24		23.437500
25		31.250000
26		21.484375
27		29.296875
28		21.484375
29		27.343750
30		19.531250
31		23.437500
32		15.625000
33		21.484375
34		13.671875
35		21.484375
36		11.718750
37		19.531250
38		9.765625
39		15.625000
40		7.812500
41		13.671875
42		5.859375
43		11.718750
44		3.906250
45		9.765625
46		1.953125
47		5.859375
48		0.000000
49		3.906250
50		-3.906250
51		3.906250
52		-5.859375
53		1.953125
54		-9.765625
55		0.000000
56		-11.718750
57		-3.906250
58		-11.718750
59		-5.859375
60		-15.625000
61		-7.812500
62		-15.625000
63		-11.718750
64		-17.578125
65		-13.671875
66		-21.484375
67		-15.625000
68		-23.437500
69		-17.578125
70		-27.343750
71		-19.531250
72		-29.296875
73		-21.484375
74		-31.250000
75		-23.437500
76		-33.203125
77		-25.390625
78		-33.203125
79		-27.343750
80		-35.156250
81		-31.250000
82		-37.109375
83		-33.203125
84		-41.015625
85		-33.203125
86		-42.968750
87		-35.156250
88		-44.921875
89		-37.109375
90		-46.875000
91		-39.062500
92		-48.828125
93		-42.968750
94		-50.781250
95		-42.968750
96		-50.781250
97		-46.875000
98		-52.734375
99		-48.828125
100		-56.640625
101		-50.781250
102		-58.593750
103		-50.781250
104		-60.546875
105		-52.734375
106		-62.500000
107		-54.687500
108		-62.500000
109		-56.640625
110		-64.453125
111		-58.593750
112		-64.453125
113		-58.593750
114		-66.406250
115		-62.500000
116		-70.312500
117		-62.500000
118		-70.312500
119		-64.453125
120		-72.265625
121		-64.453125
122		-72.265625
123		-66.406250
124		-74.218750
125		-68.359375
126		-76.171875
127		-68.359375
128		-76.171875
129		-70.312500
130		-76.171875
131		-72.265625
132		-76.171875
133		-74.218750
134		-80.078125
135		-74.218750
136		-82.031250
137		-74.218750
138		-82.031250
139		-74.218750
140		-82.031250
141		-76.171875
142		-83.984375
143		-76.171875
144		-83.984375
145		-76.171875
146		-83.984375
147		-78.125000
148		-82.031250
149		-80.078125
150		-83.984375
151		-78.125000
152		-85.937500
153		-78.125000
154		-85.937500
155		-80.078125
156		-85.937500
157		-80.078125
158		-85.937500
159		-80.078125
160		-85.937500
161		-80.078125
162		-85.937500
163		-80.078125
164		-83.984375
165		-82.031250
166		-83.984375
167		-82.031250
168		-85.937500
169		-80.078125
170		-85.937500
171		-78.125000
172		-85.937500
173		-80.078125
174		-85.937500
175		-78.125000
176		-83.984375
177		-78.125000
178		-83.984375
179		-78.125000
180		-83.984375
181		-80.078125
182		-80.078125
183		-78.125000
184		-82.031250
185		-76.171875
186		-82.031250
187		-76.171875
188		-82.031250
189		-74.218750
190		-80.078125
191		-74.218750
192		-80.078125
193		-72.265625
194		-78.125000
195		-72.265625
196		-78.125000
197		-72.265625
198		-74.218750
199		-72.265625
200		-76.171875
201		-68.359375
202		-74.218750
203		-66.406250
204		-74.218750
205		-66.406250
206		-72.265625
207		-64.453125
208		-70.312500
209		-62.500000
210		-68.359375
211		-62.500000
212		-68.359375
213		-60.546875
214		-64.453125
215		-60.546875
216		-62.500000
217		-58.593750
218		-60.546875
219		-56.640625
220		-60.546875
221		-54.687500
222		-58.593750
223		-52.734375
224		-56.640625
225		-50.781250
226		-56.640625
227		-48.828125
228		-54.687500
229		-48.828125
230		-50.781250
231		-46.875000
232		-48.828125
233		-44.921875
234		-46.875000
235		-41.015625
236		-46.875000
237		-39.062500
238		-44.921875
239		-37.109375
240		-42.968750
241		-35.156250
242		-41.015625
243		-33.203125
244		-39.062500
245		-31.250000
246		-37.109375
247		-31.250000
248		-33.203125
249		-29.296875
250		-31.250000
251		-27.343750
252		-29.296875
253		-23.437500
254		-29.296875
255		-21.484375
256		-25.390625
257		-17.578125
258		-23.437500
259		-15.625000
260		-21.484375
261		-13.671875
262		-19.531250
263		-11.718750
264		-15.625000
265		-11.718750
266		-13.671875
267		-9.765625
268		-11.718750
269		-3.906250
270		-11.718750
271		-1.953125
272		-9.765625
273		0.000000
274		-5.859375
275		1.953125
276		-3.906250
277		3.906250
278		-1.953125
279		5.859375
280		0.000000
281		5.859375
282		5.859375
283		7.812500
284		7.812500
285		11.718750
286		7.812500
287		15.625000
288		9.765625
289		17.578125
290		11.718750
291		19.531250
292		13.671875
293		21.484375
294		15.625000
295		23.437500
296		17.578125
297		25.390625
298		21.484375
299		25.390625
300		25.390625
301		27.343750
302		25.390625
303		31.250000
304		27.343750
305		33.203125
306		27.343750
307		35.156250
308		31.250000
309		37.109375
310		33.203125
311		39.062500
312		35.156250
313		41.015625
314		37.109375
315		41.015625
316		39.062500
317		42.968750
318		41.015625
319		46.875000
320		42.968750
321		48.828125
322		44.921875
323		50.781250
324		44.921875
325		52.734375
326		46.875000
327		54.687500
328		48.828125
329		56.640625
330		50.781250
331		56.640625
332		54.687500
333		56.640625
334		56.640625
335		58.593750
336		54.687500
337		62.500000
338		56.640625
339		64.453125
340		58.593750
341		64.453125
342		58.593750
343		66.406250
344		60.546875
345		68.359375
346		62.500000
347		68.359375
348		64.453125
349		70.312500
350		66.406250
351		68.359375
352		66.406250
353		72.265625
354		66.406250
355		74.218750
356		68.359375
357		74.218750
358		70.312500
359		76.171875
360		70.312500
361		76.171875
362		70.312500
363		78.125000
364		72.265625
365		78.125000
366		74.218750
367		78.125000
368		76.171875
369		78.125000
370		74.218750
371		82.031250
372		74.218750
373		82.031250
374		76.171875
375		82.031250
376		76.171875
377		82.031250
378		76.171875
379		83.984375
380		76.171875
381		83.984375
382		80.078125
383		82.031250
384		80.078125
385		82.031250
386		78.125000
387		85.937500
388		78.125000
389		85.937500
390		80.078125
391		85.937500
392		80.078125
393		85.937500
394		80.078125
395		85.937500
396		80.078125
397		85.937500
398		80.078125
399		85.937500
400		82.031250
401		83.984375
402		80.078125
403		85.937500
404		80.078125
405		85.937500
406		78.125000
407		85.937500
408		80.078125
409		85.937500
410		78.125000
411		85.937500
412		78.125000
413		85.937500
414		78.125000
415		83.984375
416		80.078125
417		83.984375
418		80.078125
419		82.031250
420		76.171875
421		83.984375
422		76.171875
423		82.031250
424		76.171875
425		82.031250
426		74.218750
427		82.031250
428		74.218750
429		82.031250
430		74.218750
431		80.078125
432		74.218750
433		80.078125
434		74.218750
435		76.171875
436		70.312500
437		78.125000
438		70.312500
439		76.171875
440		68.359375
441		76.171875
442		68.359375
443		74.218750
444		66.406250
445		74.218750
446		66.406250
447		72.265625
448		64.453125
449		70.312500
450		64.453125
451		68.359375
452		62.500000
453		66.406250
454		60.546875
455		66.406250
456		58.593750
457		66.406250
458		58.593750
459		64.453125
460		56.640625
461		64.453125
462		54.687500
463		62.500000
464		52.734375
465		60.546875
466		52.734375
467		56.640625
468		50.781250
469		54.687500
470		48.828125
471		54.687500
472		46.875000
473		52.734375
474		44.921875
475		52.734375
476		42.968750
477		50.781250
478		41.015625
479		48.828125
480		39.062500
481		46.875000
482		39.062500
483		44.921875
484		37.109375
485		41.015625
486		33.203125
487		39.062500
488		31.250000
489		39.062500
490		29.296875
491		37.109375
492		27.343750
493		35.156250
494		25.390625
495		33.203125
496		23.437500
497		31.250000
498		21.484375
499		29.296875
500		21.484375
501		25.390625
502		19.531250
503		23.437500
504		15.625000
505		21.484375
506		13.671875
507		19.531250
508		9.765625
509		17.578125
510		7.812500
511		15.625000
512		5.859375
513		13.671875
514		3.906250
515		11.718750
516		3.906250
517		7.812500
518		1.953125
519		5.859375
520		-1.953125
521		3.906250
522		-5.859375
523		1.953125
524		-7.812500
525		1.953125
526		-9.765625
527		-1.953125
528		-11.718750
529		-3.906250
530		-13.671875
531		-5.859375
532		-15.625000
533		-9.765625
534		-15.625000
535		-13.671875
536		-17.578125
537		-15.625000
538		-23.437500
539		-15.625000
540		-25.390625
541		-17.578125
542		-25.390625
543		-19.531250
544		-29.296875
545		-21.484375
546		-31.250000
547		-23.437500
548		-33.203125
549		-25.390625
550		-33.203125
551		-29.296875
552		-35.156250
553		-31.250000
554		-39.062500
555		-33.203125
556		-42.968750
557		-35.156250
558		-42.968750
559		-37.109375
560		-44.921875
561		-37.109375
562		-46.875000
563		-41.015625
564		-50.781250
565		-41.015625
566		-50.781250
567		-44.921875
568		-50.781250
569		-46.875000
570		-54.687500
571		-48.828125
572		-56.640625
573		-48.828125
574		-58.593750
575		-52.734375
576		-60.546875
577		-52.734375
578		-62.500000
579		-54.687500
580		-64.453125
581		-56.640625
582		-64.453125
583		-58.593750
584		-64.453125
585		-62.500000
586		-66.406250
587		-62.500000
588		-70.312500
589		-62.500000
590		-72.265625
591		-62.500000
592		-72.265625
593		-66.406250
594		-74.218750
595		-66.406250
596		-74.218750
597		-68.359375
598		-76.171875
599		-70.312500
600		-76.171875
601		-70.312500
602		-76.171875
603		-72.265625
604		-78.125000
605		-72.265625
606		-80.078125
607		-74.218750
608		-80.078125
609		-74.218750
610		-82.031250
611		-74.218750
612		-82.031250
613		-76.171875
614		-83.984375
615		-76.171875
616		-83.984375
617		-76.171875
618		-82.031250
619		-80.078125
620		-82.031250
621		-80.078125
622		-85.937500
623		-78.125000
624		-85.937500
625		-78.125000
626		-85.937500
627		-78.125000
628		-85.937500
629		-80.078125
630		-85.937500
631		-80.078125
632		-85.937500
633		-78.125000
634		-85.937500
635		-80.078125
636		-83.984375
637		-82.031250
638		-85.937500
639		-80.078125
640		-85.937500
641		-80.078125
642		-85.937500
643		-80.078125
644		-85.937500
645		-78.125000
646		-85.937500
647		-78.125000
648		-83.984375
649		-78.125000
650		-83.984375
651		-78.125000
652		-82.031250
653		-78.125000
654		-82.031250
655		-76.171875
656		-82.031250
657		-76.171875
658		-82.031250
659		-74.218750
660		-82.031250
661		-74.218750
662		-80.078125
663		-72.265625
664		-78.125000
665		-72.265625
666		-78.125000
667		-72.265625
668		-74.218750
669		-72.265625
670		-74.218750
671		-70.312500
672		-74.218750
673		-68.359375
674		-74.218750
675		-66.406250
676		-72.265625
677		-66.406250
678		-70.312500
679		-64.453125
680		-70.312500
681		-62.500000
682		-68.359375
683		-60.546875
684		-66.406250
685		-60.546875
686		-62.500000
687		-60.546875
688		-62.500000
689		-56.640625
690		-62.500000
691		-54.687500
692		-60.546875
693		-52.734375
694		-58.593750
695		-50.781250
696		-56.640625
697		-50.781250
698		-54.687500
699		-48.828125
700		-54.687500
701		-46.875000
702		-48.828125
703		-46.875000
704		-48.828125
705		-42.968750
706		-48.828125
707		-41.015625
708		-46.875000
709		-37.109375
710		-44.921875
711		-37.109375
712		-41.015625
713		-33.203125
714		-39.062500
715		-33.203125
716		-37.109375
717		-31.250000
718		-37.109375
719		-29.296875
720		-31.250000
721		-27.343750
722		-31.250000
723		-23.437500
724		-29.296875
725		-21.484375
726		-27.343750
727		-19.531250
728		-25.390625
729		-17.578125
730		-23.437500
731		-15.625000
732		-19.531250
733		-11.718750
734		-19.531250
735		-11.718750
736		-13.671875
737		-9.765625
738		-11.718750
739		-5.859375
740		-11.718750
741		-3.906250
742		-9.765625
743		-1.953125
744		-7.812500
745		0.000000
746		-5.859375
747		1.953125
748		-3.906250
749		3.906250
750		0.000000
751		7.812500
752		3.906250
753		7.812500
754		5.859375
755		9.765625
756		5.859375
757		13.671875
758		7.812500
759		15.625000
760		9.765625
761		17.578125
762		11.718750
763		19.531250
764		13.671875
765		21.484375
766		17.578125
767		23.437500
768		19.531250
769		25.390625
770		23.437500
771		27.343750
772		25.390625
773		31.250000
774		25.390625
775		31.250000
776		27.343750
777		35.156250
778		29.296875
779		37.109375
780		31.250000
781		39.062500
782		33.203125
783		41.015625
784		35.156250
785		41.015625
786		39.062500
787		42.968750
788		41.015625
789		44.921875
790		41.015625
791		46.875000
792		41.015625
793		50.781250
794		44.921875
795		50.781250
796		46.875000
797		52.734375
798		46.875000
799		54.687500
800		48.828125
801		56.640625
802		50.781250
803		56.640625
804		54.687500
805		56.640625
806		54.687500
807		60.546875
808		54.687500
809		62.500000
810		56.640625
811		64.453125
812		58.593750
813		66.406250
814		60.546875
815		66.406250
816		60.546875
817		68.359375
818		62.500000
819		68.359375
820		66.406250
821		68.359375
822		66.406250
823		72.265625
824		66.406250
825		72.265625
826		68.359375
827		74.218750
828		68.359375
829		76.171875
830		70.312500
831		76.171875
832		70.312500
833		78.125000
834		70.312500
835		78.125000
836		74.218750
837		76.171875
838		76.171875
839		78.125000
840		74.218750
841		80.078125
842		74.218750
843		82.031250
844		74.218750
845		82.031250
846		76.171875
847		82.031250
848		76.171875
849		83.984375
850		76.171875
851		83.984375
852		78.125000
853		83.984375
854		80.078125
855		82.031250
856		80.078125
857		85.937500
858		78.125000
859		85.937500
860		80.078125
861		85.937500
862		80.078125
863		85.937500
864		80.078125
865		85.937500
866		80.078125
867		85.937500
868		80.078125
869		87.890625
870		82.031250
871		85.937500
872		82.031250
873		83.984375
874		80.078125
875		85.937500
876		80.078125
877		85.937500
878		80.078125
879		85.937500
880		80.078125
881		85.937500
882		80.078125
883		85.937500
884		80.078125
885		85.937500
886		80.078125
887		83.984375
888		80.078125
889		82.031250
890		78.125000
891		83.984375
892		78.125000
893		83.984375
894		76.171875
895		83.984375
896		76.171875
897		82.031250
898		74.218750
899		82.031250
900		74.218750
901		80.078125
902		74.218750
903		80.078125
904		74.218750
905		78.125000
906		72.265625
907		78.125000
908		70.312500
909		78.125000
910		70.312500
911		78.125000
912		68.359375
913		76.171875
914		68.359375
915		74.218750
916		66.406250
917		74.218750
918		66.406250
919		72.265625
920		66.406250
921		70.312500
922		66.406250
923		68.359375
924		62.500000
925		70.312500
926		60.546875
927		68.359375
928		58.593750
929		66.406250
930		58.593750
931		64.453125
932		56.640625
933		64.453125
934		54.687500
935		62.500000
936		54.687500
937		60.546875
938		54.687500
939		56.640625
940		50.781250
941		56.640625
942		48.828125
943		56.640625
944		46.875000
945		54.687500
946		44.921875
947		52.734375
948		42.968750
949		50.781250
950		41.015625
951		48.828125
952		41.015625
953		46.875000
954		39.062500
955		42.968750
956		37.109375
957		41.015625
958		35.156250
959		41.015625
960		33.203125
961		39.062500
962		29.296875
963		37.109375
964		27.343750
965		35.156250
966		25.390625
967		33.203125
968		23.437500
969		31.250000
970		23.437500
971		29.296875
972		21.484375
973		25.390625
974		15.625000
975		23.437500
976		15.625000
977		21.484375
978		13.671875
979		19.531250
980		9.765625
981		17.578125
982		7.812500
983		15.625000
984		5.859375
985		13.671875
986		3.906250
987		11.718750
988		3.906250
989		7.812500
990		0.000000
991		5.859375
992		-3.906250
993		5.859375
994		-5.859375
995		1.953125
996		-5.859375
997		0.000000
998		-7.812500
999		-1.953125
1000		-13.671875
1001		-3.906250
1002		-13.671875
1003		-5.859375
1004		-13.671875
1005		-9.765625
1006		-15.625000
1007		-13.671875
1008		-21.484375
1009		-13.671875
1010		-23.437500
1011		-15.625000
1012		-25.390625
1013		-17.578125
1014		-27.343750
1015		-19.531250
1016		-29.296875
1017		-21.484375
1018		-31.250000
1019		-23.437500
1020		-33.203125
1021		-25.390625
1022		-33.203125
1023		-29.296875
1024		-37.109375
1025		-33.203125
1026		-41.015625
1027		-31.250000
1028		-41.015625
1029		-35.156250
1030		-42.968750
1031		-37.109375
1032		-46.875000
1033		-39.062500
1034		-46.875000
1035		-41.015625
1036		-48.828125
1037		-42.968750
1038		-48.828125
1039		-46.875000
1040		-50.781250
1041		-48.828125
1042		-54.687500
1043		-48.828125
1044		-56.640625
1045		-50.781250
1046		-58.593750
1047		-50.781250
1048		-60.546875
1049		-52.734375
1050		-62.500000
1051		-54.687500
1052		-62.500000
1053		-56.640625
1054		-64.453125
1055		-58.593750
1056		-64.453125
1057		-60.546875
1058		-68.359375
1059		-62.500000
1060		-68.359375
1061		-62.500000
1062		-70.312500
1063		-64.453125
1064		-72.265625
1065		-64.453125
1066		-74.218750
1067		-66.406250
1068		-74.218750
1069		-68.359375
1070		-76.171875
1071		-70.312500
1072		-74.218750
1073		-72.265625
1074		-76.171875
1075		-72.265625
1076		-80.078125
1077		-72.265625
1078		-80.078125
1079		-72.265625
1080		-80.078125
1081		-74.218750
1082		-82.031250
1083		-74.218750
1084		-82.031250
1085		-74.218750
1086		-83.984375
1087		-76.171875
1088		-82.031250
1089		-78.125000
1090		-82.031250
1091		-80.078125
1092		-83.984375
1093		-78.125000
1094		-85.937500
1095		-78.125000
1096		-85.937500
1097		-78.125000
1098		-85.937500
1099		-78.125000
1100		-85.937500
1101		-78.125000
1102		-85.937500
1103		-78.125000
1104		-85.937500
1105		-80.078125
1106		-83.984375
1107		-82.031250
1108		-83.984375
1109		-80.078125
1110		-85.937500
1111		-80.078125
1112		-85.937500
1113		-78.125000
1114		-85.937500
1115		-78.125000
1116		-85.937500
1117		-78.125000
1118		-85.937500
1119		-78.125000
1120		-83.984375
1121		-78.125000
1122		-82.031250
1123		-78.125000
1124		-80.078125
1125		-78.125000
1126		-82.031250
1127		-76.171875
1128		-82.031250
1129		-76.171875
1130		-82.031250
1131		-74.218750
1132		-80.078125
1133		-74.218750
1134		-80.078125
1135		-72.265625
1136		-78.125000
1137		-72.265625
1138		-78.125000
1139		-72.265625
1140		-74.218750
1141		-72.265625
1142		-76.171875
1143		-68.359375
1144		-74.218750
1145		-66.406250
1146		-74.218750
1147		-66.406250
1148		-72.265625
1149		-64.453125
1150		-70.312500
1151		-64.453125
1152		-68.359375
1153		-62.500000
1154		-66.406250
1155		-60.546875
1156		-64.453125
1157		-60.546875
1158		-62.500000
1159		-58.593750
1160		-64.453125
1161		-56.640625
1162		-62.500000
1163		-54.687500
1164		-60.546875
1165		-52.734375
1166		-58.593750
1167		-50.781250
1168		-56.640625
1169		-48.828125
1170		-54.687500
1171		-46.875000
1172		-52.734375
1173		-46.875000
1174		-48.828125
1175		-44.921875
1176		-48.828125
1177		-42.968750
1178		-46.875000
1179		-39.062500
1180		-46.875000
1181		-37.109375
1182		-42.968750
1183		-35.156250
1184		-41.015625
1185		-33.203125
1186		-39.062500
1187		-31.250000
1188		-37.109375
1189		-31.250000
1190		-33.203125
1191		-29.296875
1192		-31.250000
1193		-25.390625
1194		-31.250000
1195		-23.437500
1196		-27.343750
1197		-21.484375
1198		-25.390625
1199		-19.531250
1200		-25.390625
1201		-15.625000
1202		-21.484375
1203		-13.671875
1204		-19.531250
1205		-11.718750
1206		-15.625000
1207		-11.718750
1208		-13.671875
1209		-9.765625
1210		-13.671875
1211		-5.859375
1212		-11.718750
1213		-3.906250
1214		-7.812500
1215		-1.953125
1216		-5.859375
1217		1.953125
1218		-3.906250
1219		1.953125
1220		-1.953125
1221		5.859375
1222		0.000000
1223		5.859375
1224		3.906250
1225		7.812500
1226		5.859375
1227		11.718750
1228		5.859375
1229		15.625000
1230		7.812500
1231		17.578125
1232		11.718750
1233		19.531250
1234		13.671875
1235		21.484375
1236		15.625000
1237		23.437500
1238		17.578125
1239		25.390625
1240		21.484375
1241		25.390625
1242		23.437500
1243		27.343750
1244		23.437500
1245		31.250000
1246		25.390625
1247		33.203125
1248		27.343750
1249		35.156250
1250		29.296875
1251		37.109375
1252		31.250000
1253		39.062500
1254		33.203125
1255		41.015625
1256		37.109375
1257		41.015625
1258		39.062500
1259		42.968750
1260		41.015625
1261		46.875000
1262		41.015625
1263		48.828125
1264		42.968750
1265		50.781250
1266		44.921875
1267		50.781250
1268		46.875000
