metingen laweit/1000Hz, 35.3cm/data_81_m62.txt

Channel              :		CH1
Frequency            :		1.061kHz
Period               :		0.942ms
PK-PK                :		287.1mV
Probe attenuation    :		1X
Voltage per ADC value:		0.122070mV
Time interval        :		2.00000us

index		CH1_Voltage(mV)
1		93.750000
2		93.750000
3		97.656250
4		89.843750
5		97.656250
6		87.890625
7		95.703125
8		83.984375
9		93.750000
10		82.031250
11		89.843750
12		80.078125
13		85.937500
14		76.171875
15		83.984375
16		76.171875
17		80.078125
18		72.265625
19		76.171875
20		68.359375
21		74.218750
22		64.453125
23		72.265625
24		62.500000
25		68.359375
26		58.593750
27		66.406250
28		54.687500
29		62.500000
30		50.781250
31		60.546875
32		48.828125
33		56.640625
34		46.875000
35		50.781250
36		42.968750
37		48.828125
38		37.109375
39		46.875000
40		33.203125
41		42.968750
42		31.250000
43		39.062500
44		27.343750
45		37.109375
46		23.437500
47		31.250000
48		21.484375
49		27.343750
50		17.578125
51		23.437500
52		13.671875
53		19.531250
54		9.765625
55		17.578125
56		5.859375
57		13.671875
58		1.953125
59		9.765625
60		-1.953125
61		5.859375
62		-5.859375
63		1.953125
64		-9.765625
65		0.000000
66		-11.718750
67		-3.906250
68		-15.625000
69		-9.765625
70		-19.531250
71		-13.671875
72		-23.437500
73		-15.625000
74		-25.390625
75		-19.531250
76		-31.250000
77		-23.437500
78		-35.156250
79		-27.343750
80		-37.109375
81		-31.250000
82		-41.015625
83		-33.203125
84		-44.921875
85		-39.062500
86		-48.828125
87		-42.968750
88		-52.734375
89		-44.921875
90		-56.640625
91		-48.828125
92		-60.546875
93		-52.734375
94		-64.453125
95		-54.687500
96		-66.406250
97		-58.593750
98		-70.312500
99		-62.500000
100		-72.265625
101		-66.406250
102		-74.218750
103		-70.312500
104		-80.078125
105		-72.265625
106		-83.984375
107		-74.218750
108		-85.937500
109		-78.125000
110		-87.890625
111		-80.078125
112		-91.796875
113		-83.984375
114		-95.703125
115		-87.890625
116		-95.703125
117		-89.843750
118		-97.656250
119		-93.750000
120		-101.562500
121		-95.703125
122		-105.468750
123		-97.656250
124		-107.421875
125		-101.562500
126		-109.375000
127		-101.562500
128		-113.281250
129		-105.468750
130		-115.234375
131		-107.421875
132		-117.187500
133		-109.375000
134		-117.187500
135		-113.281250
136		-119.140625
137		-115.234375
138		-123.046875
139		-115.234375
140		-125.000000
141		-117.187500
142		-126.953125
143		-119.140625
144		-128.906250
145		-121.093750
146		-128.906250
147		-123.046875
148		-130.859375
149		-125.000000
150		-130.859375
151		-126.953125
152		-130.859375
153		-128.906250
154		-134.765625
155		-128.906250
156		-134.765625
157		-128.906250
158		-136.718750
159		-128.906250
160		-136.718750
161		-130.859375
162		-138.671875
163		-130.859375
164		-138.671875
165		-132.812500
166		-138.671875
167		-132.812500
168		-136.718750
169		-134.765625
170		-138.671875
171		-134.765625
172		-140.625000
173		-132.812500
174		-138.671875
175		-132.812500
176		-138.671875
177		-132.812500
178		-140.625000
179		-132.812500
180		-138.671875
181		-132.812500
182		-138.671875
183		-132.812500
184		-136.718750
185		-132.812500
186		-134.765625
187		-132.812500
188		-136.718750
189		-128.906250
190		-134.765625
191		-128.906250
192		-134.765625
193		-126.953125
194		-132.812500
195		-126.953125
196		-132.812500
197		-125.000000
198		-130.859375
199		-123.046875
200		-128.906250
201		-123.046875
202		-125.000000
203		-123.046875
204		-125.000000
205		-119.140625
206		-125.000000
207		-117.187500
208		-123.046875
209		-115.234375
210		-119.140625
211		-113.281250
212		-117.187500
213		-111.328125
214		-115.234375
215		-107.421875
216		-113.281250
217		-107.421875
218		-109.375000
219		-105.468750
220		-107.421875
221		-101.562500
222		-107.421875
223		-97.656250
224		-103.515625
225		-95.703125
226		-101.562500
227		-91.796875
228		-97.656250
229		-89.843750
230		-95.703125
231		-85.937500
232		-91.796875
233		-83.984375
234		-89.843750
235		-82.031250
236		-83.984375
237		-80.078125
238		-82.031250
239		-74.218750
240		-80.078125
241		-72.265625
242		-76.171875
243		-68.359375
244		-72.265625
245		-64.453125
246		-70.312500
247		-60.546875
248		-66.406250
249		-58.593750
250		-62.500000
251		-56.640625
252		-56.640625
253		-52.734375
254		-54.687500
255		-46.875000
256		-50.781250
257		-42.968750
258		-48.828125
259		-39.062500
260		-44.921875
261		-35.156250
262		-41.015625
263		-33.203125
264		-37.109375
265		-27.343750
266		-33.203125
267		-25.390625
268		-29.296875
269		-23.437500
270		-25.390625
271		-19.531250
272		-21.484375
273		-13.671875
274		-19.531250
275		-9.765625
276		-15.625000
277		-5.859375
278		-11.718750
279		-1.953125
280		-7.812500
281		1.953125
282		-1.953125
283		3.906250
284		0.000000
285		7.812500
286		5.859375
287		11.718750
288		9.765625
289		15.625000
290		11.718750
291		19.531250
292		15.625000
293		23.437500
294		19.531250
295		25.390625
296		21.484375
297		31.250000
298		25.390625
299		33.203125
300		29.296875
301		37.109375
302		35.156250
303		39.062500
304		37.109375
305		42.968750
306		41.015625
307		46.875000
308		42.968750
309		50.781250
310		46.875000
311		54.687500
312		48.828125
313		56.640625
314		52.734375
315		60.546875
316		54.687500
317		64.453125
318		60.546875
319		66.406250
320		64.453125
321		68.359375
322		66.406250
323		72.265625
324		68.359375
325		76.171875
326		70.312500
327		80.078125
328		76.171875
329		82.031250
330		76.171875
331		83.984375
332		80.078125
333		87.890625
334		82.031250
335		87.890625
336		87.890625
337		91.796875
338		89.843750
339		95.703125
340		89.843750
341		97.656250
342		93.750000
343		99.609375
344		93.750000
345		103.515625
346		97.656250
347		105.468750
348		99.609375
349		107.421875
350		101.562500
351		109.375000
352		105.468750
353		109.375000
354		107.421875
355		111.328125
356		107.421875
357		115.234375
358		109.375000
359		117.187500
360		111.328125
361		119.140625
362		113.281250
363		119.140625
364		115.234375
365		121.093750
366		117.187500
367		123.046875
368		119.140625
369		125.000000
370		121.093750
371		125.000000
372		123.046875
373		128.906250
374		123.046875
375		128.906250
376		123.046875
377		130.859375
378		125.000000
379		132.812500
380		126.953125
381		132.812500
382		126.953125
383		132.812500
384		128.906250
385		134.765625
386		130.859375
387		132.812500
388		130.859375
389		134.765625
390		130.859375
391		136.718750
392		130.859375
393		138.671875
394		132.812500
395		138.671875
396		132.812500
397		138.671875
398		132.812500
399		138.671875
400		132.812500
401		138.671875
402		134.765625
403		138.671875
404		134.765625
405		138.671875
406		132.812500
407		140.625000
408		132.812500
409		140.625000
410		132.812500
411		140.625000
412		132.812500
413		138.671875
414		132.812500
415		138.671875
416		132.812500
417		140.625000
418		132.812500
419		138.671875
420		134.765625
421		136.718750
422		132.812500
423		136.718750
424		130.859375
425		136.718750
426		128.906250
427		136.718750
428		128.906250
429		136.718750
430		128.906250
431		134.765625
432		126.953125
433		134.765625
434		126.953125
435		132.812500
436		126.953125
437		130.859375
438		126.953125
439		128.906250
440		123.046875
441		128.906250
442		123.046875
443		128.906250
444		121.093750
445		126.953125
446		119.140625
447		126.953125
448		117.187500
449		125.000000
450		115.234375
451		123.046875
452		115.234375
453		121.093750
454		115.234375
455		119.140625
456		111.328125
457		117.187500
458		109.375000
459		115.234375
460		107.421875
461		115.234375
462		103.515625
463		111.328125
464		101.562500
465		111.328125
466		101.562500
467		109.375000
468		99.609375
469		105.468750
470		97.656250
471		101.562500
472		95.703125
473		99.609375
474		91.796875
475		97.656250
476		87.890625
477		95.703125
478		85.937500
479		93.750000
480		83.984375
481		91.796875
482		80.078125
483		87.890625
484		76.171875
485		85.937500
486		76.171875
487		83.984375
488		74.218750
489		78.125000
490		68.359375
491		76.171875
492		66.406250
493		74.218750
494		62.500000
495		70.312500
496		58.593750
497		68.359375
498		56.640625
499		64.453125
500		52.734375
501		62.500000
502		50.781250
503		58.593750
504		48.828125
505		52.734375
506		44.921875
507		50.781250
508		39.062500
509		48.828125
510		35.156250
511		44.921875
512		33.203125
513		41.015625
514		29.296875
515		37.109375
516		25.390625
517		33.203125
518		21.484375
519		31.250000
520		19.531250
521		25.390625
522		15.625000
523		21.484375
524		9.765625
525		17.578125
526		7.812500
527		15.625000
528		3.906250
529		11.718750
530		0.000000
531		7.812500
532		-3.906250
533		3.906250
534		-7.812500
535		1.953125
536		-9.765625
537		-3.906250
538		-13.671875
539		-7.812500
540		-19.531250
541		-11.718750
542		-23.437500
543		-13.671875
544		-25.390625
545		-17.578125
546		-31.250000
547		-21.484375
548		-33.203125
549		-25.390625
550		-37.109375
551		-29.296875
552		-41.015625
553		-33.203125
554		-42.968750
555		-37.109375
556		-46.875000
557		-41.015625
558		-50.781250
559		-42.968750
560		-54.687500
561		-46.875000
562		-58.593750
563		-50.781250
564		-62.500000
565		-52.734375
566		-64.453125
567		-56.640625
568		-68.359375
569		-60.546875
570		-70.312500
571		-64.453125
572		-74.218750
573		-68.359375
574		-78.125000
575		-72.265625
576		-80.078125
577		-74.218750
578		-83.984375
579		-76.171875
580		-87.890625
581		-80.078125
582		-91.796875
583		-82.031250
584		-93.750000
585		-85.937500
586		-93.750000
587		-89.843750
588		-97.656250
589		-93.750000
590		-101.562500
591		-95.703125
592		-105.468750
593		-97.656250
594		-107.421875
595		-99.609375
596		-109.375000
597		-101.562500
598		-111.328125
599		-105.468750
600		-115.234375
601		-107.421875
602		-117.187500
603		-109.375000
604		-117.187500
605		-111.328125
606		-119.140625
607		-115.234375
608		-123.046875
609		-115.234375
610		-123.046875
611		-117.187500
612		-126.953125
613		-119.140625
614		-126.953125
615		-121.093750
616		-130.859375
617		-123.046875
618		-130.859375
619		-123.046875
620		-130.859375
621		-125.000000
622		-130.859375
623		-128.906250
624		-134.765625
625		-128.906250
626		-136.718750
627		-128.906250
628		-136.718750
629		-130.859375
630		-136.718750
631		-130.859375
632		-138.671875
633		-130.859375
634		-138.671875
635		-132.812500
636		-138.671875
637		-132.812500
638		-136.718750
639		-134.765625
640		-138.671875
641		-134.765625
642		-140.625000
643		-132.812500
644		-140.625000
645		-134.765625
646		-140.625000
647		-134.765625
648		-138.671875
649		-134.765625
650		-138.671875
651		-132.812500
652		-140.625000
653		-132.812500
654		-138.671875
655		-132.812500
656		-136.718750
657		-132.812500
658		-136.718750
659		-130.859375
660		-136.718750
661		-128.906250
662		-136.718750
663		-128.906250
664		-134.765625
665		-128.906250
666		-134.765625
667		-126.953125
668		-132.812500
669		-125.000000
670		-130.859375
671		-123.046875
672		-126.953125
673		-123.046875
674		-125.000000
675		-123.046875
676		-125.000000
677		-119.140625
678		-125.000000
679		-117.187500
680		-123.046875
681		-115.234375
682		-121.093750
683		-113.281250
684		-117.187500
685		-111.328125
686		-115.234375
687		-107.421875
688		-115.234375
689		-107.421875
690		-109.375000
691		-105.468750
692		-107.421875
693		-101.562500
694		-105.468750
695		-97.656250
696		-103.515625
697		-95.703125
698		-99.609375
699		-93.750000
700		-97.656250
701		-89.843750
702		-95.703125
703		-85.937500
704		-91.796875
705		-85.937500
706		-85.937500
707		-82.031250
708		-83.984375
709		-78.125000
710		-82.031250
711		-74.218750
712		-78.125000
713		-72.265625
714		-76.171875
715		-68.359375
716		-72.265625
717		-64.453125
718		-70.312500
719		-60.546875
720		-66.406250
721		-58.593750
722		-60.546875
723		-54.687500
724		-56.640625
725		-52.734375
726		-54.687500
727		-46.875000
728		-52.734375
729		-42.968750
730		-46.875000
731		-39.062500
732		-44.921875
733		-37.109375
734		-41.015625
735		-31.250000
736		-37.109375
737		-29.296875
738		-33.203125
739		-25.390625
740		-27.343750
741		-23.437500
742		-25.390625
743		-17.578125
744		-23.437500
745		-11.718750
746		-19.531250
747		-9.765625
748		-13.671875
749		-5.859375
750		-11.718750
751		-1.953125
752		-7.812500
753		1.953125
754		-3.906250
755		3.906250
756		1.953125
757		7.812500
758		5.859375
759		11.718750
760		7.812500
761		15.625000
762		9.765625
763		19.531250
764		15.625000
765		23.437500
766		17.578125
767		27.343750
768		23.437500
769		31.250000
770		25.390625
771		35.156250
772		29.296875
773		35.156250
774		35.156250
775		39.062500
776		37.109375
777		44.921875
778		39.062500
779		46.875000
780		42.968750
781		50.781250
782		44.921875
783		54.687500
784		48.828125
785		58.593750
786		54.687500
787		60.546875
788		56.640625
789		62.500000
790		60.546875
791		66.406250
792		64.453125
793		70.312500
794		66.406250
795		74.218750
796		68.359375
797		76.171875
798		70.312500
799		78.125000
800		74.218750
801		82.031250
802		78.125000
803		83.984375
804		80.078125
805		87.890625
806		83.984375
807		87.890625
808		87.890625
809		91.796875
810		87.890625
811		95.703125
812		89.843750
813		97.656250
814		93.750000
815		99.609375
816		95.703125
817		101.562500
818		97.656250
819		105.468750
820		99.609375
821		107.421875
822		101.562500
823		107.421875
824		105.468750
825		109.375000
826		107.421875
827		113.281250
828		107.421875
829		115.234375
830		109.375000
831		117.187500
832		111.328125
833		119.140625
834		113.281250
835		121.093750
836		113.281250
837		121.093750
838		117.187500
839		123.046875
840		119.140625
841		123.046875
842		121.093750
843		125.000000
844		121.093750
845		126.953125
846		121.093750
847		128.906250
848		123.046875
849		130.859375
850		125.000000
851		130.859375
852		125.000000
853		132.812500
854		126.953125
855		132.812500
856		126.953125
857		132.812500
858		130.859375
859		132.812500
860		130.859375
861		136.718750
862		128.906250
863		136.718750
864		130.859375
865		136.718750
866		130.859375
867		138.671875
868		132.812500
869		138.671875
870		132.812500
871		138.671875
872		132.812500
873		138.671875
874		134.765625
875		136.718750
876		134.765625
877		138.671875
878		132.812500
879		138.671875
880		132.812500
881		138.671875
882		132.812500
883		138.671875
884		132.812500
885		138.671875
886		132.812500
887		138.671875
888		132.812500
889		138.671875
890		134.765625
891		136.718750
892		132.812500
893		136.718750
894		130.859375
895		136.718750
896		130.859375
897		136.718750
898		128.906250
899		136.718750
900		128.906250
901		134.765625
902		126.953125
903		134.765625
904		126.953125
905		134.765625
906		126.953125
907		132.812500
908		126.953125
909		128.906250
910		123.046875
911		128.906250
912		123.046875
913		128.906250
914		121.093750
915		128.906250
916		121.093750
917		126.953125
918		119.140625
919		125.000000
920		115.234375
921		123.046875
922		115.234375
923		123.046875
924		115.234375
925		119.140625
926		113.281250
927		117.187500
928		109.375000
929		117.187500
930		107.421875
931		115.234375
932		105.468750
933		113.281250
934		105.468750
935		111.328125
936		101.562500
937		109.375000
938		99.609375
939		107.421875
940		99.609375
941		105.468750
942		95.703125
943		99.609375
944		91.796875
945		99.609375
946		89.843750
947		97.656250
948		85.937500
949		95.703125
950		83.984375
951		91.796875
952		82.031250
953		89.843750
954		78.125000
955		87.890625
956		78.125000
957		83.984375
958		76.171875
959		80.078125
960		70.312500
961		76.171875
962		66.406250
963		76.171875
964		64.453125
965		72.265625
966		60.546875
967		68.359375
968		58.593750
969		66.406250
970		54.687500
971		62.500000
972		52.734375
973		60.546875
974		48.828125
975		54.687500
976		46.875000
977		50.781250
978		41.015625
979		48.828125
980		39.062500
981		46.875000
982		33.203125
983		42.968750
984		31.250000
985		39.062500
986		27.343750
987		37.109375
988		23.437500
989		31.250000
990		21.484375
991		27.343750
992		17.578125
993		23.437500
994		11.718750
995		19.531250
996		9.765625
997		17.578125
998		5.859375
999		13.671875
1000		1.953125
1001		9.765625
1002		-3.906250
1003		5.859375
1004		-5.859375
1005		1.953125
1006		-9.765625
1007		-1.953125
1008		-11.718750
1009		-5.859375
1010		-15.625000
1011		-9.765625
1012		-21.484375
1013		-11.718750
1014		-25.390625
1015		-15.625000
1016		-29.296875
1017		-19.531250
1018		-31.250000
1019		-23.437500
1020		-37.109375
1021		-27.343750
1022		-39.062500
1023		-31.250000
1024		-41.015625
1025		-35.156250
1026		-44.921875
1027		-39.062500
1028		-50.781250
1029		-42.968750
1030		-54.687500
1031		-44.921875
1032		-56.640625
1033		-46.875000
1034		-60.546875
1035		-52.734375
1036		-64.453125
1037		-56.640625
1038		-68.359375
1039		-58.593750
1040		-68.359375
1041		-62.500000
1042		-72.265625
1043		-66.406250
1044		-76.171875
1045		-70.312500
1046		-80.078125
1047		-72.265625
1048		-83.984375
1049		-76.171875
1050		-87.890625
1051		-78.125000
1052		-89.843750
1053		-82.031250
1054		-93.750000
1055		-83.984375
1056		-95.703125
1057		-87.890625
1058		-95.703125
1059		-91.796875
1060		-99.609375
1061		-95.703125
1062		-103.515625
1063		-97.656250
1064		-105.468750
1065		-99.609375
1066		-109.375000
1067		-101.562500
1068		-111.328125
1069		-103.515625
1070		-113.281250
1071		-107.421875
1072		-115.234375
1073		-109.375000
1074		-117.187500
1075		-111.328125
1076		-119.140625
1077		-115.234375
1078		-121.093750
1079		-115.234375
1080		-123.046875
1081		-117.187500
1082		-125.000000
1083		-119.140625
1084		-128.906250
1085		-121.093750
1086		-128.906250
1087		-121.093750
1088		-130.859375
1089		-123.046875
1090		-132.812500
1091		-125.000000
1092		-130.859375
1093		-128.906250
1094		-132.812500
1095		-128.906250
1096		-136.718750
1097		-128.906250
1098		-136.718750
1099		-130.859375
1100		-138.671875
1101		-130.859375
1102		-138.671875
1103		-132.812500
1104		-138.671875
1105		-132.812500
1106		-140.625000
1107		-132.812500
1108		-138.671875
1109		-134.765625
1110		-138.671875
1111		-136.718750
1112		-140.625000
1113		-134.765625
1114		-140.625000
1115		-134.765625
1116		-140.625000
1117		-134.765625
1118		-140.625000
1119		-134.765625
1120		-140.625000
1121		-134.765625
1122		-140.625000
1123		-132.812500
1124		-140.625000
1125		-132.812500
1126		-136.718750
1127		-134.765625
1128		-136.718750
1129		-132.812500
1130		-138.671875
1131		-130.859375
1132		-136.718750
1133		-128.906250
1134		-134.765625
1135		-128.906250
1136		-134.765625
1137		-126.953125
1138		-132.812500
1139		-126.953125
1140		-132.812500
1141		-125.000000
1142		-128.906250
1143		-125.000000
1144		-126.953125
1145		-123.046875
1146		-126.953125
1147		-121.093750
1148		-126.953125
1149		-119.140625
1150		-123.046875
1151		-117.187500
1152		-121.093750
1153		-115.234375
1154		-119.140625
1155		-113.281250
1156		-117.187500
1157		-109.375000
1158		-115.234375
1159		-109.375000
1160		-111.328125
1161		-107.421875
1162		-109.375000
1163		-103.515625
1164		-107.421875
1165		-99.609375
1166		-105.468750
1167		-97.656250
1168		-103.515625
1169		-93.750000
1170		-99.609375
1171		-91.796875
1172		-97.656250
1173		-89.843750
1174		-93.750000
1175		-85.937500
1176		-89.843750
1177		-85.937500
1178		-85.937500
1179		-82.031250
1180		-83.984375
1181		-78.125000
1182		-82.031250
1183		-74.218750
1184		-80.078125
1185		-70.312500
1186		-76.171875
1187		-66.406250
1188		-70.312500
1189		-64.453125
1190		-68.359375
1191		-60.546875
1192		-64.453125
1193		-58.593750
1194		-60.546875
1195		-54.687500
1196		-56.640625
1197		-50.781250
1198		-54.687500
1199		-46.875000
1200		-50.781250
1201		-42.968750
1202		-48.828125
1203		-39.062500
1204		-42.968750
1205		-35.156250
1206		-41.015625
1207		-31.250000
1208		-35.156250
1209		-29.296875
1210		-31.250000
1211		-25.390625
1212		-27.343750
1213		-21.484375
1214		-25.390625
1215		-17.578125
1216		-21.484375
1217		-11.718750
1218		-17.578125
1219		-9.765625
1220		-13.671875
1221		-5.859375
1222		-9.765625
1223		-1.953125
1224		-7.812500
1225		1.953125
1226		-1.953125
1227		3.906250
1228		1.953125
1229		7.812500
1230		5.859375
1231		13.671875
1232		9.765625
