metingen laweit/1000Hz, 35.3cm/data_81_m162.txt

Channel              :		CH1
Frequency            :		1.061kHz
Period               :		0.942ms
PK-PK                :		275.4mV
Probe attenuation    :		1X
Voltage per ADC value:		0.122070mV
Time interval        :		2.00000us

index		CH1_Voltage(mV)
1		76.171875
2		76.171875
3		82.031250
4		74.218750
5		78.125000
6		72.265625
7		76.171875
8		70.312500
9		74.218750
10		66.406250
11		70.312500
12		64.453125
13		68.359375
14		60.546875
15		66.406250
16		56.640625
17		62.500000
18		54.687500
19		58.593750
20		50.781250
21		56.640625
22		48.828125
23		52.734375
24		44.921875
25		50.781250
26		41.015625
27		46.875000
28		39.062500
29		42.968750
30		35.156250
31		41.015625
32		31.250000
33		37.109375
34		29.296875
35		33.203125
36		25.390625
37		29.296875
38		21.484375
39		27.343750
40		17.578125
41		23.437500
42		13.671875
43		19.531250
44		11.718750
45		15.625000
46		7.812500
47		13.671875
48		3.906250
49		9.765625
50		0.000000
51		5.859375
52		-1.953125
53		1.953125
54		-5.859375
55		-1.953125
56		-9.765625
57		-3.906250
58		-13.671875
59		-7.812500
60		-17.578125
61		-11.718750
62		-21.484375
63		-15.625000
64		-23.437500
65		-19.531250
66		-27.343750
67		-21.484375
68		-31.250000
69		-25.390625
70		-35.156250
71		-29.296875
72		-39.062500
73		-33.203125
74		-42.968750
75		-37.109375
76		-44.921875
77		-41.015625
78		-48.828125
79		-42.968750
80		-52.734375
81		-46.875000
82		-56.640625
83		-50.781250
84		-60.546875
85		-54.687500
86		-62.500000
87		-58.593750
88		-68.359375
89		-62.500000
90		-70.312500
91		-64.453125
92		-72.265625
93		-68.359375
94		-76.171875
95		-70.312500
96		-78.125000
97		-74.218750
98		-82.031250
99		-78.125000
100		-85.937500
101		-80.078125
102		-87.890625
103		-83.984375
104		-91.796875
105		-85.937500
106		-93.750000
107		-89.843750
108		-97.656250
109		-91.796875
110		-99.609375
111		-95.703125
112		-103.515625
113		-97.656250
114		-105.468750
115		-101.562500
116		-107.421875
117		-103.515625
118		-109.375000
119		-105.468750
120		-111.328125
121		-109.375000
122		-115.234375
123		-111.328125
124		-117.187500
125		-113.281250
126		-119.140625
127		-115.234375
128		-121.093750
129		-117.187500
130		-123.046875
131		-119.140625
132		-125.000000
133		-121.093750
134		-126.953125
135		-123.046875
136		-128.906250
137		-125.000000
138		-130.859375
139		-126.953125
140		-132.812500
141		-126.953125
142		-134.765625
143		-128.906250
144		-134.765625
145		-130.859375
146		-136.718750
147		-132.812500
148		-136.718750
149		-134.765625
150		-138.671875
151		-134.765625
152		-138.671875
153		-134.765625
154		-138.671875
155		-136.718750
156		-140.625000
157		-136.718750
158		-140.625000
159		-138.671875
160		-142.578125
161		-138.671875
162		-142.578125
163		-138.671875
164		-142.578125
165		-138.671875
166		-142.578125
167		-140.625000
168		-142.578125
169		-138.671875
170		-142.578125
171		-140.625000
172		-142.578125
173		-138.671875
174		-142.578125
175		-138.671875
176		-142.578125
177		-138.671875
178		-140.625000
179		-138.671875
180		-140.625000
181		-136.718750
182		-140.625000
183		-136.718750
184		-138.671875
185		-134.765625
186		-138.671875
187		-134.765625
188		-138.671875
189		-134.765625
190		-136.718750
191		-130.859375
192		-136.718750
193		-130.859375
194		-134.765625
195		-128.906250
196		-132.812500
197		-128.906250
198		-130.859375
199		-126.953125
200		-128.906250
201		-125.000000
202		-128.906250
203		-123.046875
204		-125.000000
205		-123.046875
206		-125.000000
207		-119.140625
208		-123.046875
209		-115.234375
210		-121.093750
211		-115.234375
212		-117.187500
213		-113.281250
214		-115.234375
215		-111.328125
216		-113.281250
217		-109.375000
218		-111.328125
219		-105.468750
220		-107.421875
221		-103.515625
222		-105.468750
223		-101.562500
224		-105.468750
225		-97.656250
226		-103.515625
227		-93.750000
228		-99.609375
229		-91.796875
230		-93.750000
231		-89.843750
232		-91.796875
233		-87.890625
234		-87.890625
235		-83.984375
236		-85.937500
237		-82.031250
238		-82.031250
239		-78.125000
240		-80.078125
241		-72.265625
242		-78.125000
243		-70.312500
244		-74.218750
245		-66.406250
246		-70.312500
247		-64.453125
248		-66.406250
249		-60.546875
250		-62.500000
251		-56.640625
252		-58.593750
253		-54.687500
254		-54.687500
255		-50.781250
256		-52.734375
257		-46.875000
258		-50.781250
259		-41.015625
260		-46.875000
261		-37.109375
262		-42.968750
263		-35.156250
264		-39.062500
265		-31.250000
266		-35.156250
267		-27.343750
268		-33.203125
269		-23.437500
270		-27.343750
271		-21.484375
272		-23.437500
273		-17.578125
274		-19.531250
275		-13.671875
276		-17.578125
277		-9.765625
278		-15.625000
279		-5.859375
280		-11.718750
281		-1.953125
282		-7.812500
283		1.953125
284		-1.953125
285		3.906250
286		0.000000
287		7.812500
288		5.859375
289		9.765625
290		9.765625
291		15.625000
292		11.718750
293		17.578125
294		15.625000
295		21.484375
296		17.578125
297		25.390625
298		21.484375
299		29.296875
300		25.390625
301		33.203125
302		27.343750
303		35.156250
304		33.203125
305		37.109375
306		37.109375
307		41.015625
308		39.062500
309		44.921875
310		41.015625
311		48.828125
312		44.921875
313		52.734375
314		46.875000
315		54.687500
316		50.781250
317		58.593750
318		52.734375
319		60.546875
320		56.640625
321		62.500000
322		60.546875
323		64.453125
324		64.453125
325		70.312500
326		64.453125
327		72.265625
328		68.359375
329		76.171875
330		72.265625
331		78.125000
332		74.218750
333		80.078125
334		76.171875
335		83.984375
336		78.125000
337		83.984375
338		82.031250
339		85.937500
340		85.937500
341		87.890625
342		85.937500
343		93.750000
344		87.890625
345		93.750000
346		89.843750
347		97.656250
348		91.796875
349		99.609375
350		93.750000
351		101.562500
352		95.703125
353		103.515625
354		99.609375
355		103.515625
356		101.562500
357		105.468750
358		101.562500
359		109.375000
360		103.515625
361		111.328125
362		103.515625
363		111.328125
364		105.468750
365		113.281250
366		107.421875
367		115.234375
368		109.375000
369		115.234375
370		109.375000
371		117.187500
372		113.281250
373		117.187500
374		113.281250
375		121.093750
376		113.281250
377		121.093750
378		115.234375
379		121.093750
380		115.234375
381		123.046875
382		117.187500
383		123.046875
384		117.187500
385		123.046875
386		119.140625
387		125.000000
388		121.093750
389		125.000000
390		121.093750
391		125.000000
392		119.140625
393		126.953125
394		119.140625
395		126.953125
396		119.140625
397		126.953125
398		121.093750
399		126.953125
400		121.093750
401		126.953125
402		121.093750
403		128.906250
404		123.046875
405		126.953125
406		123.046875
407		125.000000
408		121.093750
409		126.953125
410		121.093750
411		126.953125
412		121.093750
413		126.953125
414		119.140625
415		126.953125
416		119.140625
417		126.953125
418		119.140625
419		126.953125
420		119.140625
421		125.000000
422		119.140625
423		123.046875
424		119.140625
425		123.046875
426		115.234375
427		123.046875
428		115.234375
429		123.046875
430		115.234375
431		121.093750
432		113.281250
433		121.093750
434		111.328125
435		119.140625
436		111.328125
437		117.187500
438		111.328125
439		115.234375
440		111.328125
441		113.281250
442		107.421875
443		113.281250
444		105.468750
445		113.281250
446		103.515625
447		111.328125
448		103.515625
449		109.375000
450		101.562500
451		107.421875
452		99.609375
453		107.421875
454		99.609375
455		105.468750
456		95.703125
457		101.562500
458		93.750000
459		99.609375
460		91.796875
461		99.609375
462		87.890625
463		97.656250
464		85.937500
465		93.750000
466		83.984375
467		91.796875
468		82.031250
469		89.843750
470		80.078125
471		87.890625
472		80.078125
473		82.031250
474		76.171875
475		80.078125
476		72.265625
477		80.078125
478		68.359375
479		76.171875
480		66.406250
481		74.218750
482		64.453125
483		72.265625
484		60.546875
485		70.312500
486		58.593750
487		66.406250
488		56.640625
489		62.500000
490		52.734375
491		58.593750
492		50.781250
493		54.687500
494		46.875000
495		54.687500
496		42.968750
497		50.781250
498		39.062500
499		48.828125
500		35.156250
501		44.921875
502		33.203125
503		41.015625
504		31.250000
505		37.109375
506		27.343750
507		33.203125
508		23.437500
509		29.296875
510		19.531250
511		27.343750
512		15.625000
513		23.437500
514		11.718750
515		21.484375
516		7.812500
517		17.578125
518		3.906250
519		13.671875
520		1.953125
521		9.765625
522		0.000000
523		5.859375
524		-3.906250
525		1.953125
526		-9.765625
527		-1.953125
528		-11.718750
529		-3.906250
530		-15.625000
531		-7.812500
532		-19.531250
533		-11.718750
534		-23.437500
535		-15.625000
536		-27.343750
537		-17.578125
538		-29.296875
539		-23.437500
540		-33.203125
541		-27.343750
542		-37.109375
543		-31.250000
544		-42.968750
545		-33.203125
546		-44.921875
547		-37.109375
548		-50.781250
549		-41.015625
550		-50.781250
551		-44.921875
552		-56.640625
553		-46.875000
554		-58.593750
555		-50.781250
556		-60.546875
557		-56.640625
558		-64.453125
559		-58.593750
560		-70.312500
561		-62.500000
562		-72.265625
563		-64.453125
564		-76.171875
565		-68.359375
566		-78.125000
567		-70.312500
568		-82.031250
569		-74.218750
570		-85.937500
571		-76.171875
572		-85.937500
573		-80.078125
574		-89.843750
575		-83.984375
576		-93.750000
577		-87.890625
578		-97.656250
579		-89.843750
580		-99.609375
581		-91.796875
582		-101.562500
583		-93.750000
584		-105.468750
585		-97.656250
586		-107.421875
587		-99.609375
588		-109.375000
589		-101.562500
590		-111.328125
591		-107.421875
592		-113.281250
593		-109.375000
594		-117.187500
595		-109.375000
596		-119.140625
597		-113.281250
598		-121.093750
599		-113.281250
600		-125.000000
601		-115.234375
602		-125.000000
603		-119.140625
604		-126.953125
605		-119.140625
606		-128.906250
607		-123.046875
608		-128.906250
609		-125.000000
610		-132.812500
611		-125.000000
612		-134.765625
613		-126.953125
614		-136.718750
615		-128.906250
616		-136.718750
617		-128.906250
618		-138.671875
619		-130.859375
620		-138.671875
621		-132.812500
622		-138.671875
623		-132.812500
624		-138.671875
625		-136.718750
626		-140.625000
627		-136.718750
628		-142.578125
629		-134.765625
630		-142.578125
631		-136.718750
632		-144.531250
633		-136.718750
634		-144.531250
635		-136.718750
636		-144.531250
637		-136.718750
638		-144.531250
639		-138.671875
640		-142.578125
641		-138.671875
642		-142.578125
643		-140.625000
644		-144.531250
645		-136.718750
646		-144.531250
647		-136.718750
648		-142.578125
649		-136.718750
650		-142.578125
651		-136.718750
652		-142.578125
653		-134.765625
654		-142.578125
655		-134.765625
656		-140.625000
657		-136.718750
658		-138.671875
659		-134.765625
660		-138.671875
661		-130.859375
662		-136.718750
663		-130.859375
664		-136.718750
665		-128.906250
666		-134.765625
667		-128.906250
668		-134.765625
669		-126.953125
670		-132.812500
671		-125.000000
672		-130.859375
673		-125.000000
674		-126.953125
675		-123.046875
676		-125.000000
677		-121.093750
678		-125.000000
679		-117.187500
680		-123.046875
681		-115.234375
682		-121.093750
683		-113.281250
684		-119.140625
685		-111.328125
686		-117.187500
687		-109.375000
688		-115.234375
689		-107.421875
690		-111.328125
691		-105.468750
692		-107.421875
693		-103.515625
694		-105.468750
695		-99.609375
696		-103.515625
697		-95.703125
698		-101.562500
699		-93.750000
700		-97.656250
701		-89.843750
702		-95.703125
703		-87.890625
704		-93.750000
705		-85.937500
706		-89.843750
707		-83.984375
708		-83.984375
709		-80.078125
710		-82.031250
711		-76.171875
712		-80.078125
713		-72.265625
714		-76.171875
715		-68.359375
716		-72.265625
717		-66.406250
718		-70.312500
719		-62.500000
720		-64.453125
721		-58.593750
722		-62.500000
723		-56.640625
724		-58.593750
725		-52.734375
726		-54.687500
727		-50.781250
728		-52.734375
729		-44.921875
730		-48.828125
731		-41.015625
732		-46.875000
733		-37.109375
734		-42.968750
735		-33.203125
736		-37.109375
737		-31.250000
738		-33.203125
739		-25.390625
740		-31.250000
741		-25.390625
742		-25.390625
743		-21.484375
744		-23.437500
745		-15.625000
746		-19.531250
747		-11.718750
748		-15.625000
749		-7.812500
750		-13.671875
751		-3.906250
752		-9.765625
753		0.000000
754		-5.859375
755		3.906250
756		-3.906250
757		3.906250
758		3.906250
759		7.812500
760		5.859375
761		11.718750
762		9.765625
763		17.578125
764		11.718750
765		21.484375
766		15.625000
767		25.390625
768		19.531250
769		27.343750
770		21.484375
771		29.296875
772		25.390625
773		35.156250
774		29.296875
775		35.156250
776		35.156250
777		39.062500
778		37.109375
779		42.968750
780		39.062500
781		46.875000
782		42.968750
783		50.781250
784		44.921875
785		52.734375
786		48.828125
787		56.640625
788		50.781250
789		58.593750
790		54.687500
791		60.546875
792		58.593750
793		64.453125
794		62.500000
795		68.359375
796		62.500000
797		72.265625
798		66.406250
799		74.218750
800		70.312500
801		76.171875
802		72.265625
803		78.125000
804		74.218750
805		82.031250
806		76.171875
807		83.984375
808		80.078125
809		83.984375
810		83.984375
811		87.890625
812		83.984375
813		91.796875
814		85.937500
815		93.750000
816		87.890625
817		95.703125
818		89.843750
819		97.656250
820		91.796875
821		99.609375
822		95.703125
823		101.562500
824		95.703125
825		101.562500
826		99.609375
827		103.515625
828		101.562500
829		107.421875
830		101.562500
831		109.375000
832		103.515625
833		111.328125
834		105.468750
835		113.281250
836		105.468750
837		113.281250
838		107.421875
839		115.234375
840		109.375000
841		115.234375
842		113.281250
843		115.234375
844		113.281250
845		117.187500
846		113.281250
847		119.140625
848		113.281250
849		121.093750
850		115.234375
851		123.046875
852		115.234375
853		123.046875
854		117.187500
855		123.046875
856		117.187500
857		125.000000
858		121.093750
859		123.046875
860		121.093750
861		123.046875
862		121.093750
863		126.953125
864		119.140625
865		126.953125
866		121.093750
867		126.953125
868		121.093750
869		126.953125
870		121.093750
871		126.953125
872		121.093750
873		126.953125
874		121.093750
875		126.953125
876		123.046875
877		125.000000
878		121.093750
879		126.953125
880		121.093750
881		128.906250
882		121.093750
883		126.953125
884		121.093750
885		126.953125
886		119.140625
887		126.953125
888		119.140625
889		126.953125
890		119.140625
891		125.000000
892		121.093750
893		123.046875
894		119.140625
895		123.046875
896		117.187500
897		123.046875
898		117.187500
899		123.046875
900		115.234375
901		121.093750
902		115.234375
903		121.093750
904		113.281250
905		119.140625
906		111.328125
907		119.140625
908		111.328125
909		119.140625
910		111.328125
911		115.234375
912		109.375000
913		113.281250
914		107.421875
915		113.281250
916		105.468750
917		113.281250
918		103.515625
919		111.328125
920		101.562500
921		109.375000
922		99.609375
923		107.421875
924		99.609375
925		105.468750
926		97.656250
927		101.562500
928		95.703125
929		99.609375
930		93.750000
931		99.609375
932		89.843750
933		97.656250
934		87.890625
935		95.703125
936		85.937500
937		93.750000
938		83.984375
939		91.796875
940		82.031250
941		87.890625
942		80.078125
943		85.937500
944		78.125000
945		82.031250
946		74.218750
947		80.078125
948		70.312500
949		80.078125
950		68.359375
951		76.171875
952		66.406250
953		74.218750
954		62.500000
955		72.265625
956		60.546875
957		68.359375
958		58.593750
959		64.453125
960		56.640625
961		60.546875
962		52.734375
963		56.640625
964		46.875000
965		56.640625
966		44.921875
967		52.734375
968		41.015625
969		48.828125
970		37.109375
971		46.875000
972		35.156250
973		42.968750
974		31.250000
975		39.062500
976		29.296875
977		35.156250
978		27.343750
979		31.250000
980		21.484375
981		29.296875
982		17.578125
983		25.390625
984		13.671875
985		21.484375
986		11.718750
987		19.531250
988		7.812500
989		15.625000
990		3.906250
991		11.718750
992		1.953125
993		9.765625
994		-1.953125
995		3.906250
996		-5.859375
997		0.000000
998		-9.765625
999		-1.953125
1000		-13.671875
1001		-5.859375
1002		-17.578125
1003		-7.812500
1004		-21.484375
1005		-13.671875
1006		-25.390625
1007		-15.625000
1008		-27.343750
1009		-19.531250
1010		-31.250000
1011		-25.390625
1012		-33.203125
1013		-29.296875
1014		-39.062500
1015		-31.250000
1016		-42.968750
1017		-33.203125
1018		-46.875000
1019		-37.109375
1020		-50.781250
1021		-41.015625
1022		-52.734375
1023		-44.921875
1024		-56.640625
1025		-48.828125
1026		-58.593750
1027		-52.734375
1028		-62.500000
1029		-56.640625
1030		-66.406250
1031		-60.546875
1032		-70.312500
1033		-62.500000
1034		-74.218750
1035		-64.453125
1036		-76.171875
1037		-68.359375
1038		-80.078125
1039		-70.312500
1040		-82.031250
1041		-74.218750
1042		-83.984375
1043		-78.125000
1044		-87.890625
1045		-82.031250
1046		-89.843750
1047		-85.937500
1048		-95.703125
1049		-85.937500
1050		-97.656250
1051		-89.843750
1052		-101.562500
1053		-91.796875
1054		-103.515625
1055		-95.703125
1056		-105.468750
1057		-97.656250
1058		-107.421875
1059		-99.609375
1060		-109.375000
1061		-103.515625
1062		-111.328125
1063		-107.421875
1064		-115.234375
1065		-109.375000
1066		-117.187500
1067		-109.375000
1068		-119.140625
1069		-113.281250
1070		-123.046875
1071		-115.234375
1072		-125.000000
1073		-117.187500
1074		-126.953125
1075		-119.140625
1076		-126.953125
1077		-121.093750
1078		-126.953125
1079		-125.000000
1080		-130.859375
1081		-125.000000
1082		-132.812500
1083		-125.000000
1084		-134.765625
1085		-126.953125
1086		-134.765625
1087		-128.906250
1088		-136.718750
1089		-128.906250
1090		-138.671875
1091		-130.859375
1092		-138.671875
1093		-132.812500
1094		-138.671875
1095		-134.765625
1096		-138.671875
1097		-136.718750
1098		-142.578125
1099		-134.765625
1100		-142.578125
1101		-134.765625
1102		-142.578125
1103		-136.718750
1104		-142.578125
1105		-136.718750
1106		-144.531250
1107		-136.718750
1108		-144.531250
1109		-136.718750
1110		-142.578125
1111		-138.671875
1112		-142.578125
1113		-138.671875
1114		-142.578125
1115		-136.718750
1116		-144.531250
1117		-136.718750
1118		-144.531250
1119		-136.718750
1120		-142.578125
1121		-136.718750
1122		-142.578125
1123		-136.718750
1124		-142.578125
1125		-134.765625
1126		-140.625000
1127		-134.765625
1128		-138.671875
1129		-134.765625
1130		-136.718750
1131		-134.765625
1132		-138.671875
1133		-130.859375
1134		-136.718750
1135		-130.859375
1136		-136.718750
1137		-128.906250
1138		-134.765625
1139		-126.953125
1140		-132.812500
1141		-126.953125
1142		-130.859375
1143		-125.000000
1144		-128.906250
1145		-125.000000
1146		-126.953125
1147		-123.046875
1148		-125.000000
1149		-119.140625
1150		-125.000000
1151		-117.187500
1152		-123.046875
1153		-115.234375
1154		-121.093750
1155		-111.328125
1156		-117.187500
1157		-109.375000
1158		-115.234375
1159		-107.421875
1160		-113.281250
1161		-107.421875
1162		-109.375000
1163		-105.468750
1164		-105.468750
1165		-99.609375
1166		-105.468750
1167		-97.656250
1168		-103.515625
1169		-95.703125
1170		-99.609375
1171		-91.796875
1172		-97.656250
1173		-89.843750
1174		-93.750000
1175		-87.890625
1176		-91.796875
1177		-83.984375
1178		-85.937500
1179		-82.031250
1180		-83.984375
1181		-78.125000
1182		-80.078125
1183		-74.218750
1184		-78.125000
1185		-70.312500
1186		-74.218750
1187		-66.406250
1188		-72.265625
1189		-64.453125
1190		-68.359375
1191		-60.546875
1192		-64.453125
1193		-56.640625
1194		-60.546875
1195		-54.687500
1196		-56.640625
1197		-50.781250
1198		-52.734375
1199		-46.875000
1200		-50.781250
1201		-42.968750
1202		-46.875000
1203		-39.062500
1204		-42.968750
1205		-35.156250
1206		-41.015625
1207		-31.250000
1208		-37.109375
1209		-27.343750
1210		-33.203125
1211		-25.390625
1212		-27.343750
1213		-21.484375
1214		-23.437500
1215		-19.531250
1216		-21.484375
1217		-13.671875
1218		-19.531250
1219		-9.765625
1220		-15.625000
1221		-5.859375
1222		-11.718750
1223		-1.953125
1224		-7.812500
1225		0.000000
1226		-3.906250
1227		3.906250
1228		0.000000
1229		5.859375
1230		5.859375
1231		9.765625
