metingen laweit/1000Hz, 35.3cm/data_81_m226.txt

Channel              :		CH1
Frequency            :		1.061kHz
Period               :		0.942ms
PK-PK                :		296.9mV
Probe attenuation    :		1X
Voltage per ADC value:		0.122070mV
Time interval        :		2.00000us

index		CH1_Voltage(mV)
1		105.468750
2		105.468750
3		95.703125
4		103.515625
5		93.750000
6		99.609375
7		89.843750
8		97.656250
9		87.890625
10		95.703125
11		85.937500
12		91.796875
13		82.031250
14		87.890625
15		78.125000
16		83.984375
17		74.218750
18		83.984375
19		72.265625
20		80.078125
21		68.359375
22		76.171875
23		66.406250
24		74.218750
25		64.453125
26		70.312500
27		58.593750
28		68.359375
29		56.640625
30		62.500000
31		54.687500
32		58.593750
33		48.828125
34		56.640625
35		44.921875
36		52.734375
37		41.015625
38		50.781250
39		37.109375
40		46.875000
41		35.156250
42		42.968750
43		31.250000
44		39.062500
45		27.343750
46		35.156250
47		25.390625
48		29.296875
49		19.531250
50		25.390625
51		15.625000
52		23.437500
53		11.718750
54		19.531250
55		7.812500
56		15.625000
57		3.906250
58		13.671875
59		0.000000
60		7.812500
61		-1.953125
62		5.859375
63		-5.859375
64		-1.953125
65		-9.765625
66		-5.859375
67		-15.625000
68		-7.812500
69		-19.531250
70		-9.765625
71		-23.437500
72		-15.625000
73		-27.343750
74		-19.531250
75		-31.250000
76		-23.437500
77		-35.156250
78		-27.343750
79		-37.109375
80		-31.250000
81		-41.015625
82		-37.109375
83		-46.875000
84		-39.062500
85		-50.781250
86		-41.015625
87		-52.734375
88		-44.921875
89		-58.593750
90		-48.828125
91		-62.500000
92		-52.734375
93		-66.406250
94		-56.640625
95		-68.359375
96		-60.546875
97		-70.312500
98		-66.406250
99		-76.171875
100		-70.312500
101		-80.078125
102		-70.312500
103		-83.984375
104		-74.218750
105		-85.937500
106		-78.125000
107		-89.843750
108		-80.078125
109		-91.796875
110		-83.984375
111		-95.703125
112		-87.890625
113		-97.656250
114		-91.796875
115		-101.562500
116		-95.703125
117		-105.468750
118		-97.656250
119		-107.421875
120		-99.609375
121		-109.375000
122		-103.515625
123		-113.281250
124		-105.468750
125		-115.234375
126		-107.421875
127		-119.140625
128		-111.328125
129		-119.140625
130		-113.281250
131		-121.093750
132		-117.187500
133		-125.000000
134		-119.140625
135		-128.906250
136		-121.093750
137		-130.859375
138		-123.046875
139		-132.812500
140		-125.000000
141		-134.765625
142		-126.953125
143		-136.718750
144		-128.906250
145		-136.718750
146		-130.859375
147		-136.718750
148		-134.765625
149		-138.671875
150		-134.765625
151		-142.578125
152		-134.765625
153		-142.578125
154		-136.718750
155		-144.531250
156		-136.718750
157		-146.484375
158		-138.671875
159		-146.484375
160		-140.625000
161		-146.484375
162		-140.625000
163		-146.484375
164		-142.578125
165		-146.484375
166		-144.531250
167		-148.437500
168		-142.578125
169		-150.390625
170		-142.578125
171		-150.390625
172		-142.578125
173		-150.390625
174		-142.578125
175		-150.390625
176		-142.578125
177		-150.390625
178		-142.578125
179		-148.437500
180		-144.531250
181		-146.484375
182		-144.531250
183		-148.437500
184		-142.578125
185		-148.437500
186		-142.578125
187		-148.437500
188		-140.625000
189		-146.484375
190		-140.625000
191		-146.484375
192		-138.671875
193		-146.484375
194		-138.671875
195		-144.531250
196		-136.718750
197		-140.625000
198		-136.718750
199		-138.671875
200		-136.718750
201		-138.671875
202		-132.812500
203		-136.718750
204		-130.859375
205		-136.718750
206		-128.906250
207		-134.765625
208		-126.953125
209		-132.812500
210		-125.000000
211		-130.859375
212		-123.046875
213		-128.906250
214		-123.046875
215		-125.000000
216		-121.093750
217		-123.046875
218		-115.234375
219		-121.093750
220		-113.281250
221		-119.140625
222		-111.328125
223		-117.187500
224		-107.421875
225		-113.281250
226		-105.468750
227		-111.328125
228		-103.515625
229		-107.421875
230		-101.562500
231		-103.515625
232		-97.656250
233		-99.609375
234		-95.703125
235		-99.609375
236		-89.843750
237		-95.703125
238		-87.890625
239		-91.796875
240		-83.984375
241		-87.890625
242		-80.078125
243		-85.937500
244		-76.171875
245		-82.031250
246		-74.218750
247		-78.125000
248		-72.265625
249		-72.265625
250		-68.359375
251		-70.312500
252		-62.500000
253		-68.359375
254		-58.593750
255		-64.453125
256		-54.687500
257		-60.546875
258		-50.781250
259		-56.640625
260		-46.875000
261		-52.734375
262		-42.968750
263		-48.828125
264		-41.015625
265		-42.968750
266		-37.109375
267		-39.062500
268		-33.203125
269		-37.109375
270		-27.343750
271		-33.203125
272		-23.437500
273		-29.296875
274		-19.531250
275		-25.390625
276		-15.625000
277		-21.484375
278		-11.718750
279		-15.625000
280		-7.812500
281		-13.671875
282		-5.859375
283		-7.812500
284		-1.953125
285		-3.906250
286		3.906250
287		0.000000
288		7.812500
289		1.953125
290		11.718750
291		5.859375
292		13.671875
293		9.765625
294		19.531250
295		15.625000
296		23.437500
297		19.531250
298		25.390625
299		23.437500
300		29.296875
301		27.343750
302		35.156250
303		29.296875
304		37.109375
305		33.203125
306		41.015625
307		37.109375
308		44.921875
309		41.015625
310		48.828125
311		42.968750
312		52.734375
313		46.875000
314		54.687500
315		52.734375
316		56.640625
317		56.640625
318		62.500000
319		56.640625
320		66.406250
321		60.546875
322		68.359375
323		64.453125
324		72.265625
325		66.406250
326		74.218750
327		70.312500
328		78.125000
329		72.265625
330		80.078125
331		76.171875
332		82.031250
333		80.078125
334		85.937500
335		83.984375
336		89.843750
337		83.984375
338		91.796875
339		87.890625
340		95.703125
341		91.796875
342		99.609375
343		93.750000
344		99.609375
345		95.703125
346		103.515625
347		97.656250
348		105.468750
349		101.562500
350		105.468750
351		105.468750
352		109.375000
353		105.468750
354		111.328125
355		107.421875
356		113.281250
357		107.421875
358		117.187500
359		111.328125
360		119.140625
361		113.281250
362		121.093750
363		115.234375
364		123.046875
365		119.140625
366		123.046875
367		121.093750
368		125.000000
369		121.093750
370		126.953125
371		121.093750
372		128.906250
373		123.046875
374		130.859375
375		125.000000
376		132.812500
377		126.953125
378		132.812500
379		126.953125
380		134.765625
381		128.906250
382		134.765625
383		130.859375
384		134.765625
385		130.859375
386		136.718750
387		130.859375
388		138.671875
389		132.812500
390		140.625000
391		132.812500
392		140.625000
393		132.812500
394		140.625000
395		134.765625
396		142.578125
397		134.765625
398		142.578125
399		138.671875
400		140.625000
401		138.671875
402		140.625000
403		136.718750
404		142.578125
405		136.718750
406		142.578125
407		136.718750
408		142.578125
409		136.718750
410		144.531250
411		136.718750
412		144.531250
413		136.718750
414		144.531250
415		138.671875
416		142.578125
417		138.671875
418		140.625000
419		136.718750
420		142.578125
421		134.765625
422		142.578125
423		134.765625
424		142.578125
425		134.765625
426		140.625000
427		134.765625
428		140.625000
429		132.812500
430		140.625000
431		132.812500
432		140.625000
433		134.765625
434		136.718750
435		132.812500
436		136.718750
437		128.906250
438		136.718750
439		128.906250
440		134.765625
441		126.953125
442		134.765625
443		126.953125
444		132.812500
445		125.000000
446		130.859375
447		123.046875
448		130.859375
449		123.046875
450		126.953125
451		121.093750
452		125.000000
453		117.187500
454		125.000000
455		117.187500
456		123.046875
457		115.234375
458		121.093750
459		113.281250
460		121.093750
461		111.328125
462		117.187500
463		109.375000
464		115.234375
465		107.421875
466		113.281250
467		105.468750
468		109.375000
469		101.562500
470		107.421875
471		99.609375
472		107.421875
473		97.656250
474		105.468750
475		93.750000
476		103.515625
477		89.843750
478		99.609375
479		87.890625
480		97.656250
481		85.937500
482		93.750000
483		85.937500
484		89.843750
485		82.031250
486		85.937500
487		76.171875
488		85.937500
489		74.218750
490		82.031250
491		70.312500
492		80.078125
493		66.406250
494		76.171875
495		64.453125
496		72.265625
497		60.546875
498		70.312500
499		58.593750
500		66.406250
501		56.640625
502		60.546875
503		50.781250
504		58.593750
505		46.875000
506		56.640625
507		44.921875
508		52.734375
509		39.062500
510		48.828125
511		37.109375
512		44.921875
513		33.203125
514		41.015625
515		31.250000
516		37.109375
517		27.343750
518		33.203125
519		23.437500
520		29.296875
521		17.578125
522		27.343750
523		13.671875
524		21.484375
525		9.765625
526		17.578125
527		5.859375
528		15.625000
529		3.906250
530		11.718750
531		-1.953125
532		7.812500
533		-3.906250
534		1.953125
535		-7.812500
536		-1.953125
537		-11.718750
538		-5.859375
539		-17.578125
540		-7.812500
541		-21.484375
542		-11.718750
543		-23.437500
544		-15.625000
545		-27.343750
546		-21.484375
547		-33.203125
548		-23.437500
549		-35.156250
550		-27.343750
551		-39.062500
552		-33.203125
553		-44.921875
554		-37.109375
555		-48.828125
556		-39.062500
557		-52.734375
558		-42.968750
559		-56.640625
560		-46.875000
561		-58.593750
562		-50.781250
563		-62.500000
564		-54.687500
565		-66.406250
566		-58.593750
567		-68.359375
568		-62.500000
569		-72.265625
570		-66.406250
571		-78.125000
572		-70.312500
573		-80.078125
574		-72.265625
575		-83.984375
576		-76.171875
577		-87.890625
578		-78.125000
579		-89.843750
580		-82.031250
581		-93.750000
582		-85.937500
583		-95.703125
584		-87.890625
585		-97.656250
586		-93.750000
587		-101.562500
588		-95.703125
589		-105.468750
590		-97.656250
591		-107.421875
592		-101.562500
593		-111.328125
594		-103.515625
595		-115.234375
596		-105.468750
597		-117.187500
598		-107.421875
599		-117.187500
600		-111.328125
601		-119.140625
602		-115.234375
603		-123.046875
604		-119.140625
605		-126.953125
606		-119.140625
607		-128.906250
608		-121.093750
609		-130.859375
610		-123.046875
611		-132.812500
612		-125.000000
613		-134.765625
614		-126.953125
615		-136.718750
616		-128.906250
617		-136.718750
618		-132.812500
619		-136.718750
620		-134.765625
621		-140.625000
622		-134.765625
623		-142.578125
624		-134.765625
625		-144.531250
626		-136.718750
627		-144.531250
628		-138.671875
629		-146.484375
630		-138.671875
631		-148.437500
632		-140.625000
633		-148.437500
634		-140.625000
635		-146.484375
636		-144.531250
637		-148.437500
638		-142.578125
639		-150.390625
640		-142.578125
641		-150.390625
642		-142.578125
643		-150.390625
644		-142.578125
645		-150.390625
646		-142.578125
647		-150.390625
648		-144.531250
649		-150.390625
650		-142.578125
651		-146.484375
652		-144.531250
653		-146.484375
654		-144.531250
655		-148.437500
656		-142.578125
657		-148.437500
658		-140.625000
659		-148.437500
660		-140.625000
661		-146.484375
662		-138.671875
663		-146.484375
664		-138.671875
665		-144.531250
666		-136.718750
667		-142.578125
668		-136.718750
669		-140.625000
670		-136.718750
671		-140.625000
672		-132.812500
673		-138.671875
674		-130.859375
675		-136.718750
676		-128.906250
677		-136.718750
678		-128.906250
679		-134.765625
680		-126.953125
681		-130.859375
682		-125.000000
683		-128.906250
684		-123.046875
685		-125.000000
686		-121.093750
687		-123.046875
688		-119.140625
689		-123.046875
690		-115.234375
691		-119.140625
692		-113.281250
693		-117.187500
694		-109.375000
695		-115.234375
696		-107.421875
697		-111.328125
698		-105.468750
699		-109.375000
700		-99.609375
701		-105.468750
702		-99.609375
703		-101.562500
704		-97.656250
705		-99.609375
706		-91.796875
707		-95.703125
708		-87.890625
709		-93.750000
710		-85.937500
711		-91.796875
712		-82.031250
713		-87.890625
714		-78.125000
715		-83.984375
716		-76.171875
717		-80.078125
718		-72.265625
719		-74.218750
720		-70.312500
721		-72.265625
722		-64.453125
723		-70.312500
724		-60.546875
725		-66.406250
726		-56.640625
727		-60.546875
728		-54.687500
729		-58.593750
730		-48.828125
731		-54.687500
732		-46.875000
733		-50.781250
734		-42.968750
735		-44.921875
736		-39.062500
737		-41.015625
738		-35.156250
739		-39.062500
740		-31.250000
741		-35.156250
742		-27.343750
743		-31.250000
744		-21.484375
745		-25.390625
746		-17.578125
747		-23.437500
748		-13.671875
749		-19.531250
750		-9.765625
751		-15.625000
752		-7.812500
753		-9.765625
754		-3.906250
755		-5.859375
756		1.953125
757		-3.906250
758		3.906250
759		0.000000
760		9.765625
761		5.859375
762		13.671875
763		7.812500
764		17.578125
765		11.718750
766		21.484375
767		15.625000
768		23.437500
769		21.484375
770		27.343750
771		25.390625
772		31.250000
773		27.343750
774		35.156250
775		31.250000
776		39.062500
777		33.203125
778		42.968750
779		37.109375
780		46.875000
781		42.968750
782		50.781250
783		44.921875
784		52.734375
785		48.828125
786		54.687500
787		54.687500
788		58.593750
789		56.640625
790		64.453125
791		58.593750
792		66.406250
793		62.500000
794		70.312500
795		64.453125
796		74.218750
797		68.359375
798		76.171875
799		72.265625
800		80.078125
801		76.171875
802		82.031250
803		80.078125
804		83.984375
805		82.031250
806		89.843750
807		83.984375
808		91.796875
809		85.937500
810		93.750000
811		89.843750
812		95.703125
813		91.796875
814		99.609375
815		93.750000
816		101.562500
817		97.656250
818		103.515625
819		101.562500
820		105.468750
821		103.515625
822		107.421875
823		105.468750
824		111.328125
825		105.468750
826		113.281250
827		109.375000
828		115.234375
829		109.375000
830		117.187500
831		111.328125
832		119.140625
833		113.281250
834		121.093750
835		115.234375
836		123.046875
837		119.140625
838		123.046875
839		121.093750
840		126.953125
841		121.093750
842		128.906250
843		123.046875
844		128.906250
845		125.000000
846		130.859375
847		125.000000
848		132.812500
849		126.953125
850		132.812500
851		128.906250
852		134.765625
853		130.859375
854		134.765625
855		132.812500
856		134.765625
857		130.859375
858		138.671875
859		132.812500
860		138.671875
861		132.812500
862		140.625000
863		132.812500
864		140.625000
865		134.765625
866		140.625000
867		134.765625
868		142.578125
869		134.765625
870		142.578125
871		138.671875
872		140.625000
873		136.718750
874		142.578125
875		136.718750
876		142.578125
877		136.718750
878		144.531250
879		136.718750
880		144.531250
881		136.718750
882		144.531250
883		136.718750
884		142.578125
885		136.718750
886		144.531250
887		138.671875
888		142.578125
889		136.718750
890		142.578125
891		136.718750
892		142.578125
893		136.718750
894		142.578125
895		134.765625
896		142.578125
897		134.765625
898		140.625000
899		132.812500
900		140.625000
901		132.812500
902		140.625000
903		134.765625
904		136.718750
905		132.812500
906		136.718750
907		130.859375
908		136.718750
909		128.906250
910		136.718750
911		128.906250
912		134.765625
913		126.953125
914		132.812500
915		125.000000
916		132.812500
917		125.000000
918		130.859375
919		125.000000
920		130.859375
921		123.046875
922		126.953125
923		119.140625
924		125.000000
925		117.187500
926		125.000000
927		115.234375
928		123.046875
929		113.281250
930		121.093750
931		113.281250
932		119.140625
933		109.375000
934		117.187500
935		109.375000
936		115.234375
937		107.421875
938		111.328125
939		105.468750
940		109.375000
941		101.562500
942		109.375000
943		99.609375
944		107.421875
945		95.703125
946		103.515625
947		93.750000
948		101.562500
949		91.796875
950		99.609375
951		87.890625
952		95.703125
953		87.890625
954		93.750000
955		83.984375
956		89.843750
957		80.078125
958		85.937500
959		76.171875
960		83.984375
961		74.218750
962		82.031250
963		70.312500
964		78.125000
965		68.359375
966		76.171875
967		64.453125
968		72.265625
969		62.500000
970		68.359375
971		58.593750
972		64.453125
973		52.734375
974		60.546875
975		50.781250
976		58.593750
977		46.875000
978		54.687500
979		42.968750
980		50.781250
981		39.062500
982		46.875000
983		35.156250
984		44.921875
985		33.203125
986		41.015625
987		29.296875
988		35.156250
989		27.343750
990		31.250000
991		21.484375
992		29.296875
993		17.578125
994		27.343750
995		11.718750
996		21.484375
997		9.765625
998		17.578125
999		5.859375
1000		15.625000
1001		1.953125
1002		11.718750
1003		0.000000
1004		7.812500
1005		-3.906250
1006		1.953125
1007		-9.765625
1008		-1.953125
1009		-13.671875
1010		-3.906250
1011		-17.578125
1012		-9.765625
1013		-21.484375
1014		-13.671875
1015		-25.390625
1016		-17.578125
1017		-29.296875
1018		-21.484375
1019		-33.203125
1020		-23.437500
1021		-35.156250
1022		-29.296875
1023		-39.062500
1024		-33.203125
1025		-44.921875
1026		-37.109375
1027		-48.828125
1028		-39.062500
1029		-52.734375
1030		-42.968750
1031		-54.687500
1032		-46.875000
1033		-60.546875
1034		-50.781250
1035		-64.453125
1036		-54.687500
1037		-64.453125
1038		-58.593750
1039		-68.359375
1040		-64.453125
1041		-74.218750
1042		-66.406250
1043		-78.125000
1044		-70.312500
1045		-80.078125
1046		-72.265625
1047		-83.984375
1048		-76.171875
1049		-87.890625
1050		-80.078125
1051		-89.843750
1052		-82.031250
1053		-91.796875
1054		-85.937500
1055		-95.703125
1056		-89.843750
1057		-99.609375
1058		-93.750000
1059		-103.515625
1060		-93.750000
1061		-107.421875
1062		-97.656250
1063		-109.375000
1064		-101.562500
1065		-111.328125
1066		-105.468750
1067		-113.281250
1068		-105.468750
1069		-117.187500
1070		-109.375000
1071		-117.187500
1072		-113.281250
1073		-119.140625
1074		-115.234375
1075		-125.000000
1076		-117.187500
1077		-126.953125
1078		-119.140625
1079		-128.906250
1080		-121.093750
1081		-130.859375
1082		-123.046875
1083		-132.812500
1084		-125.000000
1085		-134.765625
1086		-126.953125
1087		-134.765625
1088		-128.906250
1089		-136.718750
1090		-132.812500
1091		-140.625000
1092		-132.812500
1093		-140.625000
1094		-134.765625
1095		-142.578125
1096		-134.765625
1097		-144.531250
1098		-136.718750
1099		-144.531250
1100		-138.671875
1101		-146.484375
1102		-138.671875
1103		-146.484375
1104		-140.625000
1105		-144.531250
1106		-142.578125
1107		-146.484375
1108		-142.578125
1109		-148.437500
1110		-142.578125
1111		-148.437500
1112		-142.578125
1113		-148.437500
1114		-142.578125
1115		-148.437500
1116		-142.578125
1117		-150.390625
1118		-142.578125
1119		-148.437500
1120		-142.578125
1121		-148.437500
1122		-142.578125
1123		-146.484375
1124		-144.531250
1125		-148.437500
1126		-140.625000
1127		-148.437500
1128		-140.625000
1129		-146.484375
1130		-140.625000
1131		-146.484375
1132		-138.671875
1133		-146.484375
1134		-138.671875
1135		-144.531250
1136		-136.718750
1137		-144.531250
1138		-136.718750
1139		-140.625000
1140		-136.718750
1141		-138.671875
1142		-136.718750
1143		-140.625000
1144		-132.812500
1145		-138.671875
1146		-130.859375
1147		-134.765625
1148		-128.906250
1149		-134.765625
1150		-126.953125
1151		-132.812500
1152		-125.000000
1153		-130.859375
1154		-123.046875
1155		-126.953125
1156		-123.046875
1157		-125.000000
1158		-121.093750
1159		-123.046875
1160		-117.187500
1161		-123.046875
1162		-113.281250
1163		-119.140625
1164		-111.328125
1165		-117.187500
1166		-109.375000
1167		-113.281250
1168		-105.468750
1169		-111.328125
1170		-103.515625
1171		-109.375000
1172		-101.562500
1173		-103.515625
1174		-99.609375
1175		-99.609375
1176		-95.703125
1177		-99.609375
1178		-89.843750
1179		-95.703125
1180		-87.890625
1181		-93.750000
1182		-83.984375
1183		-87.890625
1184		-80.078125
1185		-83.984375
1186		-76.171875
1187		-82.031250
1188		-74.218750
1189		-76.171875
1190		-72.265625
1191		-72.265625
1192		-68.359375
1193		-70.312500
1194		-62.500000
1195		-68.359375
1196		-58.593750
1197		-64.453125
1198		-56.640625
1199		-60.546875
1200		-50.781250
1201		-54.687500
1202		-48.828125
1203		-52.734375
1204		-44.921875
1205		-48.828125
1206		-41.015625
1207		-42.968750
1208		-37.109375
1209		-39.062500
1210		-33.203125
1211		-37.109375
1212		-27.343750
1213		-31.250000
1214		-23.437500
1215		-29.296875
1216		-19.531250
1217		-25.390625
1218		-17.578125
1219		-21.484375
1220		-13.671875
1221		-17.578125
1222		-9.765625
1223		-11.718750
1224		-5.859375
1225		-7.812500
1226		-1.953125
1227		-5.859375
1228		3.906250
