metingen laweit/1000Hz, 35.3cm/data_81_m332.txt

Channel              :		CH1
Frequency            :		1.061kHz
Period               :		0.942ms
PK-PK                :		296.9mV
Probe attenuation    :		1X
Voltage per ADC value:		0.122070mV
Time interval        :		2.00000us

index		CH1_Voltage(mV)
1		93.750000
2		93.750000
3		82.031250
4		91.796875
5		80.078125
6		87.890625
7		78.125000
8		83.984375
9		76.171875
10		80.078125
11		72.265625
12		80.078125
13		68.359375
14		76.171875
15		64.453125
16		72.265625
17		62.500000
18		70.312500
19		58.593750
20		66.406250
21		54.687500
22		64.453125
23		52.734375
24		60.546875
25		50.781250
26		54.687500
27		44.921875
28		50.781250
29		41.015625
30		48.828125
31		37.109375
32		44.921875
33		35.156250
34		42.968750
35		31.250000
36		39.062500
37		27.343750
38		35.156250
39		25.390625
40		33.203125
41		21.484375
42		25.390625
43		17.578125
44		23.437500
45		11.718750
46		19.531250
47		7.812500
48		15.625000
49		3.906250
50		11.718750
51		0.000000
52		9.765625
53		-3.906250
54		3.906250
55		-7.812500
56		1.953125
57		-9.765625
58		-3.906250
59		-13.671875
60		-7.812500
61		-19.531250
62		-11.718750
63		-23.437500
64		-13.671875
65		-27.343750
66		-17.578125
67		-31.250000
68		-21.484375
69		-35.156250
70		-27.343750
71		-39.062500
72		-29.296875
73		-41.015625
74		-35.156250
75		-44.921875
76		-39.062500
77		-50.781250
78		-42.968750
79		-54.687500
80		-46.875000
81		-58.593750
82		-48.828125
83		-60.546875
84		-52.734375
85		-66.406250
86		-56.640625
87		-68.359375
88		-60.546875
89		-72.265625
90		-64.453125
91		-74.218750
92		-68.359375
93		-78.125000
94		-72.265625
95		-83.984375
96		-76.171875
97		-87.890625
98		-78.125000
99		-89.843750
100		-82.031250
101		-93.750000
102		-83.984375
103		-95.703125
104		-87.890625
105		-99.609375
106		-91.796875
107		-101.562500
108		-93.750000
109		-103.515625
110		-99.609375
111		-107.421875
112		-101.562500
113		-111.328125
114		-103.515625
115		-115.234375
116		-107.421875
117		-117.187500
118		-109.375000
119		-119.140625
120		-111.328125
121		-121.093750
122		-115.234375
123		-123.046875
124		-119.140625
125		-125.000000
126		-121.093750
127		-126.953125
128		-123.046875
129		-132.812500
130		-125.000000
131		-134.765625
132		-126.953125
133		-134.765625
134		-128.906250
135		-138.671875
136		-130.859375
137		-140.625000
138		-132.812500
139		-142.578125
140		-134.765625
141		-140.625000
142		-136.718750
143		-142.578125
144		-138.671875
145		-146.484375
146		-140.625000
147		-146.484375
148		-140.625000
149		-148.437500
150		-142.578125
151		-148.437500
152		-142.578125
153		-150.390625
154		-144.531250
155		-152.343750
156		-144.531250
157		-152.343750
158		-144.531250
159		-150.390625
160		-148.437500
161		-152.343750
162		-148.437500
163		-154.296875
164		-146.484375
165		-154.296875
166		-146.484375
167		-154.296875
168		-148.437500
169		-154.296875
170		-148.437500
171		-154.296875
172		-148.437500
173		-154.296875
174		-146.484375
175		-152.343750
176		-148.437500
177		-150.390625
178		-148.437500
179		-152.343750
180		-146.484375
181		-152.343750
182		-144.531250
183		-152.343750
184		-144.531250
185		-150.390625
186		-142.578125
187		-150.390625
188		-142.578125
189		-148.437500
190		-140.625000
191		-146.484375
192		-140.625000
193		-144.531250
194		-140.625000
195		-142.578125
196		-136.718750
197		-142.578125
198		-134.765625
199		-140.625000
200		-134.765625
201		-138.671875
202		-130.859375
203		-136.718750
204		-130.859375
205		-134.765625
206		-126.953125
207		-132.812500
208		-126.953125
209		-128.906250
210		-125.000000
211		-126.953125
212		-123.046875
213		-126.953125
214		-119.140625
215		-123.046875
216		-117.187500
217		-121.093750
218		-113.281250
219		-117.187500
220		-109.375000
221		-115.234375
222		-107.421875
223		-111.328125
224		-105.468750
225		-109.375000
226		-103.515625
227		-105.468750
228		-99.609375
229		-101.562500
230		-95.703125
231		-99.609375
232		-91.796875
233		-97.656250
234		-89.843750
235		-93.750000
236		-85.937500
237		-89.843750
238		-82.031250
239		-87.890625
240		-78.125000
241		-83.984375
242		-76.171875
243		-78.125000
244		-74.218750
245		-74.218750
246		-68.359375
247		-72.265625
248		-64.453125
249		-68.359375
250		-60.546875
251		-66.406250
252		-56.640625
253		-62.500000
254		-52.734375
255		-58.593750
256		-48.828125
257		-52.734375
258		-44.921875
259		-48.828125
260		-42.968750
261		-44.921875
262		-39.062500
263		-41.015625
264		-33.203125
265		-37.109375
266		-29.296875
267		-33.203125
268		-25.390625
269		-29.296875
270		-23.437500
271		-27.343750
272		-17.578125
273		-21.484375
274		-13.671875
275		-17.578125
276		-11.718750
277		-13.671875
278		-7.812500
279		-9.765625
280		-1.953125
281		-5.859375
282		1.953125
283		-1.953125
284		5.859375
285		0.000000
286		9.765625
287		3.906250
288		13.671875
289		9.765625
290		17.578125
291		11.718750
292		19.531250
293		17.578125
294		23.437500
295		21.484375
296		27.343750
297		23.437500
298		33.203125
299		27.343750
300		37.109375
301		31.250000
302		39.062500
303		35.156250
304		42.968750
305		39.062500
306		46.875000
307		41.015625
308		48.828125
309		44.921875
310		52.734375
311		50.781250
312		54.687500
313		54.687500
314		60.546875
315		54.687500
316		64.453125
317		58.593750
318		68.359375
319		62.500000
320		70.312500
321		64.453125
322		74.218750
323		68.359375
324		76.171875
325		72.265625
326		78.125000
327		76.171875
328		82.031250
329		78.125000
330		85.937500
331		80.078125
332		87.890625
333		82.031250
334		91.796875
335		85.937500
336		93.750000
337		87.890625
338		95.703125
339		91.796875
340		99.609375
341		93.750000
342		99.609375
343		97.656250
344		101.562500
345		99.609375
346		103.515625
347		101.562500
348		109.375000
349		103.515625
350		111.328125
351		105.468750
352		113.281250
353		107.421875
354		113.281250
355		109.375000
356		117.187500
357		111.328125
358		119.140625
359		113.281250
360		119.140625
361		117.187500
362		119.140625
363		117.187500
364		123.046875
365		119.140625
366		125.000000
367		119.140625
368		126.953125
369		121.093750
370		128.906250
371		123.046875
372		128.906250
373		123.046875
374		130.859375
375		125.000000
376		130.859375
377		126.953125
378		130.859375
379		128.906250
380		130.859375
381		128.906250
382		134.765625
383		128.906250
384		136.718750
385		128.906250
386		136.718750
387		130.859375
388		136.718750
389		130.859375
390		138.671875
391		132.812500
392		138.671875
393		132.812500
394		138.671875
395		134.765625
396		136.718750
397		132.812500
398		140.625000
399		132.812500
400		140.625000
401		132.812500
402		140.625000
403		132.812500
404		140.625000
405		134.765625
406		140.625000
407		132.812500
408		140.625000
409		132.812500
410		138.671875
411		134.765625
412		138.671875
413		134.765625
414		138.671875
415		132.812500
416		138.671875
417		132.812500
418		138.671875
419		130.859375
420		138.671875
421		130.859375
422		136.718750
423		130.859375
424		136.718750
425		128.906250
426		136.718750
427		130.859375
428		132.812500
429		128.906250
430		132.812500
431		126.953125
432		132.812500
433		125.000000
434		132.812500
435		125.000000
436		130.859375
437		123.046875
438		130.859375
439		123.046875
440		128.906250
441		121.093750
442		126.953125
443		119.140625
444		125.000000
445		119.140625
446		123.046875
447		115.234375
448		121.093750
449		113.281250
450		121.093750
451		111.328125
452		119.140625
453		109.375000
454		117.187500
455		107.421875
456		115.234375
457		105.468750
458		113.281250
459		103.515625
460		111.328125
461		103.515625
462		107.421875
463		101.562500
464		105.468750
465		97.656250
466		103.515625
467		95.703125
468		101.562500
469		91.796875
470		99.609375
471		87.890625
472		95.703125
473		85.937500
474		93.750000
475		82.031250
476		91.796875
477		82.031250
478		87.890625
479		78.125000
480		83.984375
481		74.218750
482		80.078125
483		70.312500
484		80.078125
485		68.359375
486		76.171875
487		66.406250
488		74.218750
489		62.500000
490		70.312500
491		58.593750
492		66.406250
493		56.640625
494		64.453125
495		52.734375
496		58.593750
497		50.781250
498		54.687500
499		44.921875
500		52.734375
501		41.015625
502		50.781250
503		37.109375
504		46.875000
505		35.156250
506		42.968750
507		29.296875
508		39.062500
509		27.343750
510		35.156250
511		25.390625
512		31.250000
513		21.484375
514		25.390625
515		13.671875
516		21.484375
517		11.718750
518		19.531250
519		7.812500
520		17.578125
521		3.906250
522		13.671875
523		0.000000
524		7.812500
525		-3.906250
526		3.906250
527		-5.859375
528		0.000000
529		-9.765625
530		-3.906250
531		-15.625000
532		-7.812500
533		-19.531250
534		-9.765625
535		-23.437500
536		-15.625000
537		-27.343750
538		-17.578125
539		-31.250000
540		-23.437500
541		-35.156250
542		-27.343750
543		-39.062500
544		-31.250000
545		-41.015625
546		-35.156250
547		-44.921875
548		-39.062500
549		-50.781250
550		-41.015625
551		-52.734375
552		-44.921875
553		-58.593750
554		-50.781250
555		-62.500000
556		-52.734375
557		-66.406250
558		-56.640625
559		-68.359375
560		-60.546875
561		-70.312500
562		-64.453125
563		-74.218750
564		-70.312500
565		-80.078125
566		-72.265625
567		-83.984375
568		-74.218750
569		-85.937500
570		-78.125000
571		-91.796875
572		-82.031250
573		-93.750000
574		-83.984375
575		-95.703125
576		-87.890625
577		-99.609375
578		-91.796875
579		-101.562500
580		-95.703125
581		-103.515625
582		-99.609375
583		-109.375000
584		-101.562500
585		-111.328125
586		-103.515625
587		-113.281250
588		-107.421875
589		-117.187500
590		-109.375000
591		-119.140625
592		-111.328125
593		-123.046875
594		-113.281250
595		-123.046875
596		-117.187500
597		-125.000000
598		-121.093750
599		-128.906250
600		-121.093750
601		-132.812500
602		-123.046875
603		-132.812500
604		-126.953125
605		-134.765625
606		-126.953125
607		-136.718750
608		-130.859375
609		-138.671875
610		-132.812500
611		-140.625000
612		-134.765625
613		-140.625000
614		-136.718750
615		-144.531250
616		-138.671875
617		-144.531250
618		-138.671875
619		-146.484375
620		-140.625000
621		-148.437500
622		-140.625000
623		-148.437500
624		-142.578125
625		-150.390625
626		-142.578125
627		-150.390625
628		-144.531250
629		-148.437500
630		-146.484375
631		-150.390625
632		-146.484375
633		-152.343750
634		-146.484375
635		-152.343750
636		-146.484375
637		-154.296875
638		-146.484375
639		-154.296875
640		-146.484375
641		-152.343750
642		-146.484375
643		-152.343750
644		-146.484375
645		-152.343750
646		-146.484375
647		-150.390625
648		-148.437500
649		-152.343750
650		-144.531250
651		-152.343750
652		-144.531250
653		-150.390625
654		-144.531250
655		-150.390625
656		-142.578125
657		-150.390625
658		-142.578125
659		-148.437500
660		-140.625000
661		-146.484375
662		-140.625000
663		-144.531250
664		-140.625000
665		-142.578125
666		-138.671875
667		-142.578125
668		-136.718750
669		-140.625000
670		-134.765625
671		-140.625000
672		-132.812500
673		-138.671875
674		-130.859375
675		-134.765625
676		-128.906250
677		-132.812500
678		-125.000000
679		-130.859375
680		-125.000000
681		-126.953125
682		-123.046875
683		-126.953125
684		-119.140625
685		-125.000000
686		-117.187500
687		-121.093750
688		-113.281250
689		-119.140625
690		-111.328125
691		-117.187500
692		-107.421875
693		-113.281250
694		-105.468750
695		-111.328125
696		-103.515625
697		-105.468750
698		-101.562500
699		-103.515625
700		-97.656250
701		-101.562500
702		-93.750000
703		-97.656250
704		-89.843750
705		-93.750000
706		-85.937500
707		-91.796875
708		-83.984375
709		-87.890625
710		-80.078125
711		-85.937500
712		-76.171875
713		-80.078125
714		-74.218750
715		-76.171875
716		-70.312500
717		-74.218750
718		-66.406250
719		-72.265625
720		-60.546875
721		-66.406250
722		-58.593750
723		-62.500000
724		-54.687500
725		-58.593750
726		-50.781250
727		-56.640625
728		-46.875000
729		-52.734375
730		-44.921875
731		-46.875000
732		-41.015625
733		-42.968750
734		-35.156250
735		-41.015625
736		-31.250000
737		-37.109375
738		-27.343750
739		-33.203125
740		-23.437500
741		-27.343750
742		-19.531250
743		-23.437500
744		-15.625000
745		-19.531250
746		-11.718750
747		-13.671875
748		-9.765625
749		-9.765625
750		-5.859375
751		-7.812500
752		0.000000
753		-3.906250
754		3.906250
755		0.000000
756		7.812500
757		3.906250
758		13.671875
759		7.812500
760		15.625000
761		11.718750
762		19.531250
763		15.625000
764		21.484375
765		21.484375
766		25.390625
767		23.437500
768		31.250000
769		27.343750
770		35.156250
771		31.250000
772		39.062500
773		33.203125
774		41.015625
775		37.109375
776		44.921875
777		41.015625
778		48.828125
779		44.921875
780		50.781250
781		48.828125
782		54.687500
783		52.734375
784		60.546875
785		54.687500
786		62.500000
787		58.593750
788		66.406250
789		60.546875
790		68.359375
791		64.453125
792		72.265625
793		66.406250
794		76.171875
795		70.312500
796		78.125000
797		74.218750
798		80.078125
799		78.125000
800		82.031250
801		80.078125
802		87.890625
803		82.031250
804		89.843750
805		85.937500
806		91.796875
807		87.890625
808		95.703125
809		89.843750
810		97.656250
811		91.796875
812		99.609375
813		93.750000
814		101.562500
815		99.609375
816		103.515625
817		101.562500
818		107.421875
819		101.562500
820		109.375000
821		103.515625
822		111.328125
823		107.421875
824		113.281250
825		109.375000
826		115.234375
827		109.375000
828		117.187500
829		111.328125
830		119.140625
831		115.234375
832		119.140625
833		117.187500
834		121.093750
835		117.187500
836		125.000000
837		119.140625
838		126.953125
839		119.140625
840		126.953125
841		123.046875
842		128.906250
843		123.046875
844		130.859375
845		125.000000
846		130.859375
847		125.000000
848		130.859375
849		128.906250
850		130.859375
851		128.906250
852		134.765625
853		128.906250
854		134.765625
855		128.906250
856		136.718750
857		128.906250
858		136.718750
859		130.859375
860		138.671875
861		130.859375
862		138.671875
863		130.859375
864		138.671875
865		134.765625
866		136.718750
867		134.765625
868		138.671875
869		132.812500
870		140.625000
871		132.812500
872		140.625000
873		132.812500
874		140.625000
875		134.765625
876		140.625000
877		132.812500
878		140.625000
879		132.812500
880		140.625000
881		134.765625
882		138.671875
883		134.765625
884		136.718750
885		132.812500
886		138.671875
887		132.812500
888		138.671875
889		130.859375
890		138.671875
891		130.859375
892		138.671875
893		130.859375
894		136.718750
895		128.906250
896		136.718750
897		128.906250
898		136.718750
899		130.859375
900		132.812500
901		126.953125
902		132.812500
903		125.000000
904		132.812500
905		125.000000
906		132.812500
907		123.046875
908		130.859375
909		123.046875
910		128.906250
911		121.093750
912		128.906250
913		119.140625
914		126.953125
915		119.140625
916		123.046875
917		119.140625
918		121.093750
919		113.281250
920		121.093750
921		113.281250
922		119.140625
923		109.375000
924		119.140625
925		109.375000
926		115.234375
927		107.421875
928		113.281250
929		105.468750
930		111.328125
931		103.515625
932		109.375000
933		101.562500
934		105.468750
935		99.609375
936		103.515625
937		95.703125
938		103.515625
939		91.796875
940		101.562500
941		89.843750
942		97.656250
943		87.890625
944		95.703125
945		83.984375
946		91.796875
947		83.984375
948		89.843750
949		82.031250
950		85.937500
951		78.125000
952		82.031250
953		74.218750
954		82.031250
955		70.312500
956		78.125000
957		66.406250
958		76.171875
959		64.453125
960		72.265625
961		60.546875
962		68.359375
963		56.640625
964		64.453125
965		54.687500
966		60.546875
967		52.734375
968		56.640625
969		46.875000
970		54.687500
971		44.921875
972		50.781250
973		39.062500
974		48.828125
975		35.156250
976		44.921875
977		31.250000
978		42.968750
979		29.296875
980		37.109375
981		27.343750
982		33.203125
983		23.437500
984		27.343750
985		17.578125
986		25.390625
987		13.671875
988		21.484375
989		9.765625
990		19.531250
991		5.859375
992		13.671875
993		1.953125
994		11.718750
995		-1.953125
996		7.812500
997		-5.859375
998		1.953125
999		-7.812500
1000		-1.953125
1001		-11.718750
1002		-5.859375
1003		-17.578125
1004		-7.812500
1005		-21.484375
1006		-11.718750
1007		-25.390625
1008		-15.625000
1009		-27.343750
1010		-21.484375
1011		-33.203125
1012		-23.437500
1013		-37.109375
1014		-27.343750
1015		-39.062500
1016		-31.250000
1017		-42.968750
1018		-37.109375
1019		-48.828125
1020		-41.015625
1021		-52.734375
1022		-42.968750
1023		-54.687500
1024		-46.875000
1025		-58.593750
1026		-50.781250
1027		-62.500000
1028		-54.687500
1029		-66.406250
1030		-58.593750
1031		-68.359375
1032		-62.500000
1033		-72.265625
1034		-66.406250
1035		-76.171875
1036		-70.312500
1037		-82.031250
1038		-72.265625
1039		-83.984375
1040		-76.171875
1041		-87.890625
1042		-80.078125
1043		-91.796875
1044		-83.984375
1045		-93.750000
1046		-85.937500
1047		-97.656250
1048		-89.843750
1049		-99.609375
1050		-93.750000
1051		-101.562500
1052		-97.656250
1053		-107.421875
1054		-99.609375
1055		-109.375000
1056		-101.562500
1057		-113.281250
1058		-105.468750
1059		-115.234375
1060		-107.421875
1061		-119.140625
1062		-111.328125
1063		-121.093750
1064		-113.281250
1065		-121.093750
1066		-115.234375
1067		-123.046875
1068		-119.140625
1069		-128.906250
1070		-121.093750
1071		-130.859375
1072		-123.046875
1073		-132.812500
1074		-125.000000
1075		-134.765625
1076		-126.953125
1077		-136.718750
1078		-128.906250
1079		-138.671875
1080		-130.859375
1081		-140.625000
1082		-132.812500
1083		-140.625000
1084		-136.718750
1085		-142.578125
1086		-138.671875
1087		-146.484375
1088		-138.671875
1089		-146.484375
1090		-140.625000
1091		-148.437500
1092		-140.625000
1093		-148.437500
1094		-142.578125
1095		-150.390625
1096		-142.578125
1097		-152.343750
1098		-144.531250
1099		-152.343750
1100		-146.484375
1101		-150.390625
1102		-148.437500
1103		-152.343750
1104		-146.484375
1105		-154.296875
1106		-146.484375
1107		-154.296875
1108		-148.437500
1109		-154.296875
1110		-148.437500
1111		-154.296875
1112		-148.437500
1113		-154.296875
1114		-148.437500
1115		-154.296875
1116		-148.437500
1117		-152.343750
1118		-150.390625
1119		-152.343750
1120		-148.437500
1121		-154.296875
1122		-146.484375
1123		-152.343750
1124		-146.484375
1125		-152.343750
1126		-144.531250
1127		-150.390625
1128		-144.531250
1129		-150.390625
1130		-142.578125
1131		-148.437500
1132		-142.578125
1133		-146.484375
1134		-142.578125
1135		-144.531250
1136		-140.625000
1137		-144.531250
1138		-138.671875
1139		-144.531250
1140		-136.718750
1141		-142.578125
1142		-134.765625
1143		-140.625000
1144		-132.812500
1145		-138.671875
1146		-130.859375
1147		-136.718750
1148		-128.906250
1149		-134.765625
1150		-128.906250
1151		-130.859375
1152		-126.953125
1153		-128.906250
1154		-123.046875
1155		-128.906250
1156		-121.093750
1157		-125.000000
1158		-117.187500
1159		-123.046875
1160		-113.281250
1161		-119.140625
1162		-111.328125
1163		-117.187500
1164		-109.375000
1165		-115.234375
1166		-107.421875
1167		-109.375000
1168		-105.468750
1169		-107.421875
1170		-101.562500
1171		-105.468750
1172		-95.703125
1173		-103.515625
1174		-93.750000
1175		-99.609375
1176		-91.796875
1177		-95.703125
1178		-87.890625
1179		-93.750000
1180		-83.984375
1181		-89.843750
1182		-82.031250
1183		-85.937500
1184		-78.125000
1185		-80.078125
1186		-76.171875
1187		-78.125000
1188		-70.312500
1189		-76.171875
1190		-66.406250
1191		-70.312500
1192		-62.500000
1193		-68.359375
1194		-58.593750
1195		-64.453125
1196		-54.687500
1197		-60.546875
1198		-52.734375
1199		-56.640625
1200		-48.828125
1201		-50.781250
1202		-44.921875
1203		-46.875000
1204		-41.015625
1205		-44.921875
1206		-35.156250
1207		-41.015625
1208		-31.250000
1209		-35.156250
1210		-27.343750
1211		-31.250000
1212		-23.437500
1213		-29.296875
1214		-19.531250
1215		-25.390625
1216		-15.625000
1217		-19.531250
1218		-13.671875
1219		-15.625000
1220		-9.765625
1221		-11.718750
1222		-5.859375
1223		-9.765625
1224		0.000000
1225		-3.906250
1226		1.953125
1227		-1.953125
