metingen laweit/1000Hz, 35.3cm/data_81_m295.txt

Channel              :		CH1
Frequency            :		1.061kHz
Period               :		0.942ms
PK-PK                :		148.4mV
Probe attenuation    :		1X
Voltage per ADC value:		0.122070mV
Time interval        :		2.00000us

index		CH1_Voltage(mV)
1		46.875000
2		46.875000
3		39.062500
4		44.921875
5		39.062500
6		42.968750
7		37.109375
8		41.015625
9		33.203125
10		41.015625
11		33.203125
12		39.062500
13		29.296875
14		37.109375
15		29.296875
16		35.156250
17		27.343750
18		35.156250
19		25.390625
20		33.203125
21		25.390625
22		31.250000
23		23.437500
24		27.343750
25		19.531250
26		25.390625
27		19.531250
28		25.390625
29		15.625000
30		23.437500
31		15.625000
32		21.484375
33		13.671875
34		19.531250
35		11.718750
36		17.578125
37		9.765625
38		15.625000
39		9.765625
40		11.718750
41		7.812500
42		9.765625
43		3.906250
44		9.765625
45		1.953125
46		9.765625
47		0.000000
48		7.812500
49		-1.953125
50		5.859375
51		-3.906250
52		3.906250
53		-5.859375
54		1.953125
55		-5.859375
56		-1.953125
57		-7.812500
58		-3.906250
59		-11.718750
60		-5.859375
61		-13.671875
62		-5.859375
63		-15.625000
64		-7.812500
65		-15.625000
66		-9.765625
67		-17.578125
68		-9.765625
69		-19.531250
70		-13.671875
71		-21.484375
72		-15.625000
73		-21.484375
74		-19.531250
75		-23.437500
76		-19.531250
77		-27.343750
78		-19.531250
79		-29.296875
80		-21.484375
81		-31.250000
82		-23.437500
83		-33.203125
84		-25.390625
85		-33.203125
86		-27.343750
87		-35.156250
88		-29.296875
89		-35.156250
90		-31.250000
91		-37.109375
92		-33.203125
93		-41.015625
94		-33.203125
95		-41.015625
96		-35.156250
97		-42.968750
98		-35.156250
99		-44.921875
100		-37.109375
101		-46.875000
102		-39.062500
103		-48.828125
104		-41.015625
105		-48.828125
106		-41.015625
107		-48.828125
108		-44.921875
109		-52.734375
110		-44.921875
111		-52.734375
112		-44.921875
113		-54.687500
114		-46.875000
115		-54.687500
116		-48.828125
117		-56.640625
118		-48.828125
119		-56.640625
120		-50.781250
121		-56.640625
122		-50.781250
123		-56.640625
124		-54.687500
125		-58.593750
126		-54.687500
127		-60.546875
128		-54.687500
129		-62.500000
130		-54.687500
131		-62.500000
132		-56.640625
133		-62.500000
134		-56.640625
135		-64.453125
136		-56.640625
137		-64.453125
138		-56.640625
139		-64.453125
140		-58.593750
141		-62.500000
142		-60.546875
143		-64.453125
144		-60.546875
145		-68.359375
146		-60.546875
147		-66.406250
148		-60.546875
149		-66.406250
150		-60.546875
151		-68.359375
152		-60.546875
153		-68.359375
154		-60.546875
155		-68.359375
156		-60.546875
157		-66.406250
158		-62.500000
159		-66.406250
160		-64.453125
161		-68.359375
162		-62.500000
163		-68.359375
164		-60.546875
165		-68.359375
166		-60.546875
167		-68.359375
168		-60.546875
169		-66.406250
170		-60.546875
171		-66.406250
172		-60.546875
173		-64.453125
174		-62.500000
175		-64.453125
176		-62.500000
177		-66.406250
178		-58.593750
179		-64.453125
180		-58.593750
181		-64.453125
182		-58.593750
183		-64.453125
184		-56.640625
185		-64.453125
186		-56.640625
187		-62.500000
188		-56.640625
189		-60.546875
190		-56.640625
191		-58.593750
192		-56.640625
193		-60.546875
194		-54.687500
195		-58.593750
196		-52.734375
197		-58.593750
198		-52.734375
199		-58.593750
200		-50.781250
201		-56.640625
202		-50.781250
203		-56.640625
204		-48.828125
205		-54.687500
206		-48.828125
207		-50.781250
208		-48.828125
209		-50.781250
210		-46.875000
211		-50.781250
212		-44.921875
213		-48.828125
214		-42.968750
215		-48.828125
216		-41.015625
217		-46.875000
218		-41.015625
219		-46.875000
220		-39.062500
221		-44.921875
222		-37.109375
223		-41.015625
224		-37.109375
225		-41.015625
226		-37.109375
227		-39.062500
228		-33.203125
229		-39.062500
230		-31.250000
231		-35.156250
232		-29.296875
233		-35.156250
234		-29.296875
235		-33.203125
236		-27.343750
237		-33.203125
238		-25.390625
239		-31.250000
240		-23.437500
241		-27.343750
242		-23.437500
243		-25.390625
244		-21.484375
245		-25.390625
246		-17.578125
247		-23.437500
248		-15.625000
249		-21.484375
250		-13.671875
251		-19.531250
252		-11.718750
253		-17.578125
254		-9.765625
255		-15.625000
256		-9.765625
257		-13.671875
258		-9.765625
259		-11.718750
260		-7.812500
261		-9.765625
262		-3.906250
263		-9.765625
264		-1.953125
265		-7.812500
266		0.000000
267		-5.859375
268		1.953125
269		-3.906250
270		3.906250
271		-1.953125
272		5.859375
273		0.000000
274		5.859375
275		3.906250
276		7.812500
277		5.859375
278		9.765625
279		7.812500
280		11.718750
281		7.812500
282		13.671875
283		9.765625
284		15.625000
285		11.718750
286		17.578125
287		13.671875
288		19.531250
289		15.625000
290		21.484375
291		17.578125
292		21.484375
293		19.531250
294		23.437500
295		19.531250
296		27.343750
297		21.484375
298		29.296875
299		23.437500
300		31.250000
301		23.437500
302		31.250000
303		27.343750
304		33.203125
305		29.296875
306		35.156250
307		31.250000
308		35.156250
309		33.203125
310		37.109375
311		33.203125
312		39.062500
313		35.156250
314		41.015625
315		37.109375
316		42.968750
317		37.109375
318		44.921875
319		39.062500
320		46.875000
321		41.015625
322		48.828125
323		41.015625
324		48.828125
325		44.921875
326		48.828125
327		46.875000
328		50.781250
329		46.875000
330		52.734375
331		46.875000
332		54.687500
333		48.828125
334		56.640625
335		50.781250
336		56.640625
337		50.781250
338		58.593750
339		50.781250
340		58.593750
341		52.734375
342		58.593750
343		56.640625
344		60.546875
345		56.640625
346		62.500000
347		56.640625
348		62.500000
349		56.640625
350		64.453125
351		58.593750
352		64.453125
353		60.546875
354		66.406250
355		60.546875
356		66.406250
357		62.500000
358		68.359375
359		64.453125
360		66.406250
361		64.453125
362		68.359375
363		62.500000
364		70.312500
365		64.453125
366		72.265625
367		64.453125
368		72.265625
369		66.406250
370		72.265625
371		66.406250
372		72.265625
373		66.406250
374		72.265625
375		68.359375
376		72.265625
377		70.312500
378		72.265625
379		68.359375
380		74.218750
381		68.359375
382		74.218750
383		68.359375
384		74.218750
385		68.359375
386		76.171875
387		68.359375
388		76.171875
389		70.312500
390		76.171875
391		70.312500
392		76.171875
393		72.265625
394		74.218750
395		70.312500
396		76.171875
397		70.312500
398		76.171875
399		70.312500
400		76.171875
401		70.312500
402		76.171875
403		68.359375
404		76.171875
405		68.359375
406		76.171875
407		70.312500
408		76.171875
409		70.312500
410		74.218750
411		70.312500
412		74.218750
413		68.359375
414		74.218750
415		68.359375
416		74.218750
417		66.406250
418		74.218750
419		66.406250
420		74.218750
421		66.406250
422		72.265625
423		66.406250
424		72.265625
425		66.406250
426		72.265625
427		66.406250
428		68.359375
429		64.453125
430		70.312500
431		62.500000
432		70.312500
433		62.500000
434		70.312500
435		62.500000
436		68.359375
437		60.546875
438		68.359375
439		60.546875
440		66.406250
441		60.546875
442		66.406250
443		60.546875
444		62.500000
445		58.593750
446		62.500000
447		56.640625
448		62.500000
449		54.687500
450		62.500000
451		54.687500
452		60.546875
453		52.734375
454		58.593750
455		52.734375
456		58.593750
457		50.781250
458		58.593750
459		50.781250
460		54.687500
461		50.781250
462		52.734375
463		46.875000
464		52.734375
465		46.875000
466		52.734375
467		44.921875
468		50.781250
469		42.968750
470		48.828125
471		41.015625
472		48.828125
473		39.062500
474		46.875000
475		39.062500
476		44.921875
477		39.062500
478		41.015625
479		35.156250
480		41.015625
481		33.203125
482		41.015625
483		31.250000
484		39.062500
485		31.250000
486		37.109375
487		29.296875
488		35.156250
489		27.343750
490		33.203125
491		25.390625
492		31.250000
493		25.390625
494		29.296875
495		23.437500
496		27.343750
497		19.531250
498		27.343750
499		17.578125
500		25.390625
501		15.625000
502		23.437500
503		13.671875
504		21.484375
505		13.671875
506		19.531250
507		11.718750
508		17.578125
509		9.765625
510		15.625000
511		9.765625
512		11.718750
513		5.859375
514		11.718750
515		3.906250
516		11.718750
517		1.953125
518		9.765625
519		0.000000
520		5.859375
521		-1.953125
522		3.906250
523		-3.906250
524		3.906250
525		-5.859375
526		1.953125
527		-5.859375
528		-1.953125
529		-7.812500
530		-3.906250
531		-11.718750
532		-3.906250
533		-13.671875
534		-5.859375
535		-13.671875
536		-7.812500
537		-17.578125
538		-9.765625
539		-19.531250
540		-11.718750
541		-21.484375
542		-13.671875
543		-21.484375
544		-17.578125
545		-21.484375
546		-17.578125
547		-27.343750
548		-19.531250
549		-27.343750
550		-19.531250
551		-29.296875
552		-21.484375
553		-31.250000
554		-23.437500
555		-33.203125
556		-25.390625
557		-33.203125
558		-27.343750
559		-35.156250
560		-29.296875
561		-35.156250
562		-33.203125
563		-39.062500
564		-33.203125
565		-41.015625
566		-33.203125
567		-42.968750
568		-35.156250
569		-42.968750
570		-37.109375
571		-46.875000
572		-39.062500
573		-46.875000
574		-39.062500
575		-46.875000
576		-41.015625
577		-46.875000
578		-42.968750
579		-48.828125
580		-44.921875
581		-50.781250
582		-44.921875
583		-52.734375
584		-44.921875
585		-54.687500
586		-46.875000
587		-54.687500
588		-46.875000
589		-56.640625
590		-48.828125
591		-56.640625
592		-50.781250
593		-56.640625
594		-50.781250
595		-56.640625
596		-54.687500
597		-60.546875
598		-52.734375
599		-60.546875
600		-54.687500
601		-60.546875
602		-54.687500
603		-62.500000
604		-54.687500
605		-62.500000
606		-56.640625
607		-62.500000
608		-56.640625
609		-64.453125
610		-56.640625
611		-62.500000
612		-60.546875
613		-64.453125
614		-58.593750
615		-66.406250
616		-58.593750
617		-66.406250
618		-58.593750
619		-66.406250
620		-60.546875
621		-66.406250
622		-60.546875
623		-66.406250
624		-60.546875
625		-68.359375
626		-60.546875
627		-66.406250
628		-62.500000
629		-64.453125
630		-62.500000
631		-68.359375
632		-60.546875
633		-68.359375
634		-60.546875
635		-66.406250
636		-60.546875
637		-66.406250
638		-60.546875
639		-66.406250
640		-60.546875
641		-66.406250
642		-60.546875
643		-66.406250
644		-60.546875
645		-64.453125
646		-60.546875
647		-64.453125
648		-60.546875
649		-64.453125
650		-58.593750
651		-64.453125
652		-56.640625
653		-64.453125
654		-56.640625
655		-64.453125
656		-56.640625
657		-62.500000
658		-56.640625
659		-62.500000
660		-56.640625
661		-58.593750
662		-56.640625
663		-58.593750
664		-56.640625
665		-58.593750
666		-52.734375
667		-58.593750
668		-52.734375
669		-58.593750
670		-50.781250
671		-56.640625
672		-50.781250
673		-56.640625
674		-48.828125
675		-54.687500
676		-46.875000
677		-54.687500
678		-48.828125
679		-50.781250
680		-46.875000
681		-50.781250
682		-44.921875
683		-50.781250
684		-42.968750
685		-48.828125
686		-42.968750
687		-48.828125
688		-41.015625
689		-46.875000
690		-39.062500
691		-44.921875
692		-37.109375
693		-44.921875
694		-37.109375
695		-41.015625
696		-37.109375
697		-39.062500
698		-35.156250
699		-39.062500
700		-31.250000
701		-37.109375
702		-31.250000
703		-37.109375
704		-29.296875
705		-33.203125
706		-27.343750
707		-33.203125
708		-25.390625
709		-31.250000
710		-23.437500
711		-29.296875
712		-23.437500
713		-25.390625
714		-21.484375
715		-25.390625
716		-19.531250
717		-23.437500
718		-17.578125
719		-23.437500
720		-15.625000
721		-21.484375
722		-13.671875
723		-19.531250
724		-11.718750
725		-17.578125
726		-9.765625
727		-15.625000
728		-9.765625
729		-11.718750
730		-7.812500
731		-9.765625
732		-3.906250
733		-9.765625
734		-1.953125
735		-7.812500
736		-1.953125
737		-7.812500
738		1.953125
739		-5.859375
740		3.906250
741		-1.953125
742		5.859375
743		0.000000
744		5.859375
745		3.906250
746		5.859375
747		3.906250
748		7.812500
749		3.906250
750		11.718750
751		5.859375
752		13.671875
753		7.812500
754		15.625000
755		9.765625
756		17.578125
757		11.718750
758		19.531250
759		13.671875
760		21.484375
761		15.625000
762		21.484375
763		19.531250
764		23.437500
765		19.531250
766		25.390625
767		21.484375
768		27.343750
769		21.484375
770		29.296875
771		23.437500
772		31.250000
773		25.390625
774		33.203125
775		27.343750
776		35.156250
777		29.296875
778		37.109375
779		33.203125
780		37.109375
781		35.156250
782		39.062500
783		35.156250
784		41.015625
785		35.156250
786		42.968750
787		37.109375
788		44.921875
789		37.109375
790		44.921875
791		39.062500
792		48.828125
793		41.015625
794		48.828125
795		42.968750
796		48.828125
797		46.875000
798		48.828125
799		46.875000
800		52.734375
801		46.875000
802		54.687500
803		48.828125
804		56.640625
805		50.781250
806		56.640625
807		50.781250
808		58.593750
809		52.734375
810		58.593750
811		52.734375
812		60.546875
813		56.640625
814		60.546875
815		56.640625
816		62.500000
817		56.640625
818		64.453125
819		56.640625
820		64.453125
821		58.593750
822		66.406250
823		60.546875
824		66.406250
825		60.546875
826		68.359375
827		60.546875
828		68.359375
829		64.453125
830		66.406250
831		64.453125
832		68.359375
833		64.453125
834		70.312500
835		64.453125
836		70.312500
837		64.453125
838		72.265625
839		66.406250
840		72.265625
841		66.406250
842		74.218750
843		66.406250
844		74.218750
845		68.359375
846		74.218750
847		70.312500
848		72.265625
849		68.359375
850		76.171875
851		68.359375
852		76.171875
853		68.359375
854		76.171875
855		70.312500
856		76.171875
857		70.312500
858		76.171875
859		70.312500
860		76.171875
861		70.312500
862		76.171875
863		72.265625
864		74.218750
865		72.265625
866		74.218750
867		70.312500
868		76.171875
869		70.312500
870		76.171875
871		70.312500
872		78.125000
873		70.312500
874		76.171875
875		70.312500
876		76.171875
877		70.312500
878		76.171875
879		70.312500
880		76.171875
881		72.265625
882		74.218750
883		68.359375
884		76.171875
885		68.359375
886		76.171875
887		68.359375
888		74.218750
889		68.359375
890		74.218750
891		66.406250
892		74.218750
893		66.406250
894		74.218750
895		66.406250
896		72.265625
897		68.359375
898		70.312500
899		64.453125
900		70.312500
901		64.453125
902		70.312500
903		64.453125
904		70.312500
905		62.500000
906		70.312500
907		62.500000
908		68.359375
909		60.546875
910		68.359375
911		60.546875
912		66.406250
913		60.546875
914		64.453125
915		60.546875
916		62.500000
917		56.640625
918		64.453125
919		56.640625
920		62.500000
921		54.687500
922		62.500000
923		54.687500
924		60.546875
925		52.734375
926		60.546875
927		52.734375
928		58.593750
929		50.781250
930		56.640625
931		50.781250
932		54.687500
933		48.828125
934		54.687500
935		46.875000
936		54.687500
937		44.921875
938		52.734375
939		42.968750
940		50.781250
941		42.968750
942		48.828125
943		41.015625
944		48.828125
945		41.015625
946		46.875000
947		41.015625
948		42.968750
949		39.062500
950		41.015625
951		35.156250
952		41.015625
953		33.203125
954		41.015625
955		31.250000
956		39.062500
957		29.296875
958		37.109375
959		29.296875
960		35.156250
961		27.343750
962		33.203125
963		27.343750
964		31.250000
965		25.390625
966		29.296875
967		21.484375
968		27.343750
969		19.531250
970		27.343750
971		17.578125
972		25.390625
973		15.625000
974		23.437500
975		13.671875
976		21.484375
977		11.718750
978		19.531250
979		11.718750
980		17.578125
981		11.718750
982		13.671875
983		5.859375
984		13.671875
985		3.906250
986		11.718750
987		3.906250
988		11.718750
989		1.953125
990		7.812500
991		0.000000
992		5.859375
993		-1.953125
994		5.859375
995		-3.906250
996		1.953125
997		-3.906250
998		0.000000
999		-5.859375
1000		-1.953125
1001		-9.765625
1002		-1.953125
1003		-11.718750
1004		-3.906250
1005		-13.671875
1006		-5.859375
1007		-13.671875
1008		-7.812500
1009		-17.578125
1010		-9.765625
1011		-19.531250
1012		-11.718750
1013		-19.531250
1014		-13.671875
1015		-19.531250
1016		-17.578125
1017		-23.437500
1018		-17.578125
1019		-25.390625
1020		-17.578125
1021		-27.343750
1022		-19.531250
1023		-29.296875
1024		-21.484375
1025		-31.250000
1026		-23.437500
1027		-33.203125
1028		-25.390625
1029		-33.203125
1030		-27.343750
1031		-33.203125
1032		-31.250000
1033		-35.156250
1034		-33.203125
1035		-39.062500
1036		-31.250000
1037		-41.015625
1038		-33.203125
1039		-42.968750
1040		-35.156250
1041		-42.968750
1042		-37.109375
1043		-44.921875
1044		-37.109375
1045		-46.875000
1046		-39.062500
1047		-46.875000
1048		-41.015625
1049		-46.875000
1050		-44.921875
1051		-48.828125
1052		-44.921875
1053		-50.781250
1054		-44.921875
1055		-52.734375
1056		-44.921875
1057		-54.687500
1058		-46.875000
1059		-54.687500
1060		-46.875000
1061		-56.640625
1062		-48.828125
1063		-56.640625
1064		-50.781250
1065		-56.640625
1066		-52.734375
1067		-58.593750
1068		-54.687500
1069		-60.546875
1070		-52.734375
1071		-60.546875
1072		-54.687500
1073		-62.500000
1074		-54.687500
1075		-62.500000
1076		-54.687500
1077		-62.500000
1078		-56.640625
1079		-64.453125
1080		-56.640625
1081		-62.500000
1082		-58.593750
1083		-62.500000
1084		-60.546875
1085		-64.453125
1086		-58.593750
1087		-66.406250
1088		-58.593750
1089		-66.406250
1090		-58.593750
1091		-66.406250
1092		-58.593750
1093		-66.406250
1094		-60.546875
1095		-66.406250
1096		-60.546875
1097		-66.406250
1098		-60.546875
1099		-64.453125
1100		-62.500000
1101		-66.406250
1102		-60.546875
1103		-66.406250
1104		-60.546875
1105		-66.406250
1106		-60.546875
1107		-66.406250
1108		-60.546875
1109		-66.406250
1110		-60.546875
1111		-66.406250
1112		-60.546875
1113		-66.406250
1114		-58.593750
1115		-64.453125
1116		-60.546875
1117		-62.500000
1118		-60.546875
1119		-64.453125
1120		-58.593750
1121		-64.453125
1122		-58.593750
1123		-64.453125
1124		-56.640625
1125		-64.453125
1126		-56.640625
1127		-62.500000
1128		-56.640625
1129		-62.500000
1130		-54.687500
1131		-60.546875
1132		-56.640625
1133		-58.593750
1134		-56.640625
1135		-60.546875
1136		-54.687500
1137		-60.546875
1138		-52.734375
1139		-58.593750
1140		-50.781250
1141		-56.640625
1142		-50.781250
1143		-56.640625
1144		-48.828125
1145		-54.687500
1146		-48.828125
1147		-54.687500
1148		-48.828125
1149		-50.781250
1150		-48.828125
1151		-50.781250
1152		-46.875000
1153		-50.781250
1154		-42.968750
1155		-48.828125
1156		-42.968750
1157		-48.828125
1158		-41.015625
1159		-46.875000
1160		-39.062500
1161		-46.875000
1162		-39.062500
1163		-44.921875
1164		-37.109375
1165		-41.015625
1166		-37.109375
1167		-39.062500
1168		-35.156250
1169		-39.062500
1170		-33.203125
1171		-37.109375
1172		-31.250000
1173		-37.109375
1174		-29.296875
1175		-35.156250
1176		-27.343750
1177		-35.156250
1178		-27.343750
1179		-31.250000
1180		-23.437500
1181		-29.296875
1182		-23.437500
1183		-27.343750
1184		-23.437500
1185		-25.390625
1186		-19.531250
1187		-23.437500
1188		-17.578125
1189		-23.437500
1190		-15.625000
1191		-21.484375
1192		-13.671875
1193		-19.531250
1194		-13.671875
1195		-17.578125
1196		-9.765625
1197		-15.625000
1198		-9.765625
1199		-11.718750
1200		-9.765625
1201		-9.765625
1202		-7.812500
1203		-11.718750
1204		-3.906250
1205		-7.812500
1206		-1.953125
1207		-7.812500
1208		0.000000
1209		-3.906250
1210		1.953125
1211		-3.906250
1212		3.906250
1213		-1.953125
1214		5.859375
1215		0.000000
1216		5.859375
1217		3.906250
1218		7.812500
1219		5.859375
1220		11.718750
1221		5.859375
1222		13.671875
1223		7.812500
1224		15.625000
1225		9.765625
1226		17.578125
1227		11.718750
1228		17.578125
1229		13.671875
1230		21.484375
1231		15.625000
1232		21.484375
1233		17.578125
1234		21.484375
1235		19.531250
1236		23.437500
1237		19.531250
1238		27.343750
1239		21.484375
1240		29.296875
1241		23.437500
1242		31.250000
1243		25.390625
1244		33.203125
1245		27.343750
1246		33.203125
1247		29.296875
1248		35.156250
1249		31.250000
1250		35.156250
1251		33.203125
1252		37.109375
1253		35.156250
1254		41.015625
1255		35.156250
1256		41.015625
1257		37.109375
1258		44.921875
1259		39.062500
1260		44.921875
1261		39.062500
1262		46.875000
1263		41.015625
1264		48.828125
1265		42.968750
1266		48.828125
1267		46.875000
1268		48.828125
1269		46.875000
1270		50.781250
1271		46.875000
1272		54.687500
