metingen laweit/1000Hz, 35.3cm/data_81_m199.txt

Channel              :		CH1
Frequency            :		1.060kHz
Period               :		0.944ms
PK-PK                :		347.7mV
Probe attenuation    :		1X
Voltage per ADC value:		0.122070mV
Time interval        :		2.00000us

index		CH1_Voltage(mV)
1		119.140625
2		119.140625
3		109.375000
4		115.234375
5		105.468750
6		111.328125
7		101.562500
8		107.421875
9		99.609375
10		105.468750
11		95.703125
12		103.515625
13		89.843750
14		99.609375
15		89.843750
16		95.703125
17		83.984375
18		93.750000
19		82.031250
20		89.843750
21		78.125000
22		83.984375
23		74.218750
24		80.078125
25		70.312500
26		78.125000
27		66.406250
28		76.171875
29		60.546875
30		70.312500
31		58.593750
32		66.406250
33		54.687500
34		62.500000
35		48.828125
36		58.593750
37		46.875000
38		52.734375
39		42.968750
40		48.828125
41		37.109375
42		44.921875
43		31.250000
44		41.015625
45		27.343750
46		37.109375
47		23.437500
48		31.250000
49		19.531250
50		27.343750
51		13.671875
52		23.437500
53		11.718750
54		19.531250
55		7.812500
56		13.671875
57		3.906250
58		9.765625
59		-3.906250
60		5.859375
61		-5.859375
62		1.953125
63		-11.718750
64		-3.906250
65		-17.578125
66		-7.812500
67		-21.484375
68		-11.718750
69		-25.390625
70		-17.578125
71		-29.296875
72		-21.484375
73		-33.203125
74		-27.343750
75		-41.015625
76		-31.250000
77		-42.968750
78		-35.156250
79		-48.828125
80		-39.062500
81		-52.734375
82		-42.968750
83		-58.593750
84		-48.828125
85		-60.546875
86		-52.734375
87		-64.453125
88		-56.640625
89		-68.359375
90		-62.500000
91		-74.218750
92		-66.406250
93		-78.125000
94		-68.359375
95		-83.984375
96		-74.218750
97		-87.890625
98		-78.125000
99		-91.796875
100		-82.031250
101		-95.703125
102		-85.937500
103		-97.656250
104		-89.843750
105		-101.562500
106		-95.703125
107		-105.468750
108		-99.609375
109		-111.328125
110		-101.562500
111		-113.281250
112		-105.468750
113		-117.187500
114		-109.375000
115		-121.093750
116		-111.328125
117		-125.000000
118		-115.234375
119		-128.906250
120		-119.140625
121		-128.906250
122		-123.046875
123		-132.812500
124		-126.953125
125		-136.718750
126		-130.859375
127		-138.671875
128		-132.812500
129		-142.578125
130		-134.765625
131		-144.531250
132		-138.671875
133		-146.484375
134		-140.625000
135		-150.390625
136		-144.531250
137		-152.343750
138		-146.484375
139		-152.343750
140		-148.437500
141		-154.296875
142		-150.390625
143		-160.156250
144		-150.390625
145		-160.156250
146		-154.296875
147		-162.109375
148		-154.296875
149		-166.015625
150		-156.250000
151		-166.015625
152		-158.203125
153		-167.968750
154		-160.156250
155		-166.015625
156		-162.109375
157		-167.968750
158		-164.062500
159		-169.921875
160		-162.109375
161		-171.875000
162		-164.062500
163		-171.875000
164		-164.062500
165		-171.875000
166		-166.015625
167		-173.828125
168		-166.015625
169		-173.828125
170		-166.015625
171		-173.828125
172		-166.015625
173		-171.875000
174		-167.968750
175		-171.875000
176		-166.015625
177		-171.875000
178		-166.015625
179		-171.875000
180		-166.015625
181		-171.875000
182		-166.015625
183		-171.875000
184		-164.062500
185		-169.921875
186		-162.109375
187		-169.921875
188		-162.109375
189		-166.015625
190		-162.109375
191		-166.015625
192		-162.109375
193		-166.015625
194		-158.203125
195		-164.062500
196		-156.250000
197		-162.109375
198		-154.296875
199		-160.156250
200		-154.296875
201		-160.156250
202		-150.390625
203		-156.250000
204		-148.437500
205		-154.296875
206		-148.437500
207		-150.390625
208		-146.484375
209		-148.437500
210		-142.578125
211		-146.484375
212		-138.671875
213		-144.531250
214		-136.718750
215		-142.578125
216		-132.812500
217		-138.671875
218		-130.859375
219		-136.718750
220		-126.953125
221		-132.812500
222		-125.000000
223		-126.953125
224		-123.046875
225		-125.000000
226		-119.140625
227		-123.046875
228		-113.281250
229		-119.140625
230		-111.328125
231		-115.234375
232		-105.468750
233		-111.328125
234		-103.515625
235		-107.421875
236		-99.609375
237		-105.468750
238		-95.703125
239		-99.609375
240		-91.796875
241		-93.750000
242		-87.890625
243		-89.843750
244		-83.984375
245		-87.890625
246		-78.125000
247		-83.984375
248		-74.218750
249		-80.078125
250		-70.312500
251		-74.218750
252		-66.406250
253		-70.312500
254		-60.546875
255		-66.406250
256		-58.593750
257		-60.546875
258		-54.687500
259		-54.687500
260		-48.828125
261		-52.734375
262		-42.968750
263		-48.828125
264		-37.109375
265		-42.968750
266		-33.203125
267		-39.062500
268		-29.296875
269		-35.156250
270		-25.390625
271		-29.296875
272		-21.484375
273		-23.437500
274		-17.578125
275		-19.531250
276		-11.718750
277		-13.671875
278		-5.859375
279		-11.718750
280		-1.953125
281		-5.859375
282		1.953125
283		-1.953125
284		7.812500
285		1.953125
286		11.718750
287		7.812500
288		15.625000
289		11.718750
290		19.531250
291		17.578125
292		23.437500
293		23.437500
294		29.296875
295		25.390625
296		35.156250
297		29.296875
298		39.062500
299		35.156250
300		42.968750
301		37.109375
302		46.875000
303		42.968750
304		52.734375
305		46.875000
306		54.687500
307		50.781250
308		58.593750
309		56.640625
310		62.500000
311		58.593750
312		66.406250
313		62.500000
314		70.312500
315		66.406250
316		74.218750
317		70.312500
318		78.125000
319		74.218750
320		82.031250
321		76.171875
322		85.937500
323		82.031250
324		87.890625
325		85.937500
326		91.796875
327		89.843750
328		97.656250
329		91.796875
330		99.609375
331		95.703125
332		103.515625
333		99.609375
334		105.468750
335		101.562500
336		109.375000
337		103.515625
338		113.281250
339		107.421875
340		113.281250
341		111.328125
342		117.187500
343		115.234375
344		119.140625
345		115.234375
346		123.046875
347		119.140625
348		126.953125
349		121.093750
350		128.906250
351		123.046875
352		130.859375
353		126.953125
354		132.812500
355		128.906250
356		136.718750
357		132.812500
358		136.718750
359		134.765625
360		138.671875
361		134.765625
362		142.578125
363		136.718750
364		144.531250
365		138.671875
366		146.484375
367		140.625000
368		148.437500
369		142.578125
370		148.437500
371		144.531250
372		150.390625
373		146.484375
374		152.343750
375		148.437500
376		152.343750
377		148.437500
378		154.296875
379		150.390625
380		156.250000
381		150.390625
382		158.203125
383		152.343750
384		158.203125
385		152.343750
386		160.156250
387		152.343750
388		160.156250
389		154.296875
390		160.156250
391		156.250000
392		160.156250
393		158.203125
394		160.156250
395		156.250000
396		164.062500
397		156.250000
398		164.062500
399		156.250000
400		164.062500
401		158.203125
402		164.062500
403		158.203125
404		164.062500
405		158.203125
406		164.062500
407		158.203125
408		164.062500
409		160.156250
410		162.109375
411		158.203125
412		164.062500
413		158.203125
414		164.062500
415		158.203125
416		164.062500
417		156.250000
418		164.062500
419		156.250000
420		162.109375
421		156.250000
422		162.109375
423		156.250000
424		162.109375
425		156.250000
426		160.156250
427		154.296875
428		158.203125
429		152.343750
430		160.156250
431		150.390625
432		158.203125
433		150.390625
434		158.203125
435		148.437500
436		156.250000
437		148.437500
438		154.296875
439		146.484375
440		154.296875
441		146.484375
442		150.390625
443		144.531250
444		148.437500
445		142.578125
446		148.437500
447		138.671875
448		148.437500
449		138.671875
450		146.484375
451		136.718750
452		144.531250
453		134.765625
454		142.578125
455		130.859375
456		140.625000
457		132.812500
458		138.671875
459		128.906250
460		134.765625
461		126.953125
462		132.812500
463		123.046875
464		130.859375
465		121.093750
466		128.906250
467		117.187500
468		125.000000
469		115.234375
470		123.046875
471		113.281250
472		121.093750
473		109.375000
474		117.187500
475		107.421875
476		113.281250
477		105.468750
478		109.375000
479		99.609375
480		107.421875
481		97.656250
482		105.468750
483		93.750000
484		101.562500
485		89.843750
486		97.656250
487		85.937500
488		95.703125
489		82.031250
490		91.796875
491		80.078125
492		85.937500
493		78.125000
494		82.031250
495		70.312500
496		78.125000
497		68.359375
498		76.171875
499		64.453125
500		72.265625
501		58.593750
502		68.359375
503		56.640625
504		64.453125
505		50.781250
506		60.546875
507		48.828125
508		56.640625
509		44.921875
510		50.781250
511		41.015625
512		46.875000
513		33.203125
514		42.968750
515		29.296875
516		39.062500
517		25.390625
518		35.156250
519		23.437500
520		29.296875
521		17.578125
522		25.390625
523		13.671875
524		21.484375
525		9.765625
526		15.625000
527		5.859375
528		11.718750
529		-1.953125
530		5.859375
531		-5.859375
532		1.953125
533		-9.765625
534		0.000000
535		-15.625000
536		-3.906250
537		-17.578125
538		-9.765625
539		-23.437500
540		-15.625000
541		-27.343750
542		-19.531250
543		-31.250000
544		-25.390625
545		-37.109375
546		-29.296875
547		-41.015625
548		-33.203125
549		-46.875000
550		-37.109375
551		-50.781250
552		-42.968750
553		-54.687500
554		-46.875000
555		-60.546875
556		-50.781250
557		-62.500000
558		-54.687500
559		-66.406250
560		-60.546875
561		-70.312500
562		-66.406250
563		-76.171875
564		-68.359375
565		-80.078125
566		-72.265625
567		-85.937500
568		-76.171875
569		-87.890625
570		-80.078125
571		-93.750000
572		-83.984375
573		-97.656250
574		-87.890625
575		-99.609375
576		-93.750000
577		-103.515625
578		-97.656250
579		-109.375000
580		-101.562500
581		-111.328125
582		-103.515625
583		-115.234375
584		-107.421875
585		-119.140625
586		-111.328125
587		-123.046875
588		-115.234375
589		-126.953125
590		-119.140625
591		-128.906250
592		-121.093750
593		-130.859375
594		-126.953125
595		-134.765625
596		-128.906250
597		-140.625000
598		-130.859375
599		-142.578125
600		-132.812500
601		-144.531250
602		-136.718750
603		-146.484375
604		-140.625000
605		-150.390625
606		-140.625000
607		-152.343750
608		-144.531250
609		-152.343750
610		-148.437500
611		-154.296875
612		-150.390625
613		-160.156250
614		-152.343750
615		-160.156250
616		-154.296875
617		-162.109375
618		-154.296875
619		-164.062500
620		-156.250000
621		-166.015625
622		-158.203125
623		-166.015625
624		-160.156250
625		-167.968750
626		-160.156250
627		-167.968750
628		-164.062500
629		-169.921875
630		-164.062500
631		-171.875000
632		-164.062500
633		-171.875000
634		-166.015625
635		-173.828125
636		-166.015625
637		-173.828125
638		-166.015625
639		-173.828125
640		-167.968750
641		-173.828125
642		-167.968750
643		-171.875000
644		-169.921875
645		-171.875000
646		-169.921875
647		-173.828125
648		-167.968750
649		-173.828125
650		-167.968750
651		-173.828125
652		-166.015625
653		-171.875000
654		-166.015625
655		-171.875000
656		-166.015625
657		-169.921875
658		-164.062500
659		-167.968750
660		-164.062500
661		-166.015625
662		-164.062500
663		-167.968750
664		-160.156250
665		-166.015625
666		-158.203125
667		-164.062500
668		-158.203125
669		-162.109375
670		-156.250000
671		-162.109375
672		-154.296875
673		-158.203125
674		-150.390625
675		-156.250000
676		-150.390625
677		-152.343750
678		-148.437500
679		-150.390625
680		-146.484375
681		-150.390625
682		-142.578125
683		-146.484375
684		-138.671875
685		-144.531250
686		-136.718750
687		-142.578125
688		-132.812500
689		-138.671875
690		-130.859375
691		-136.718750
692		-126.953125
693		-132.812500
694		-126.953125
695		-126.953125
696		-123.046875
697		-125.000000
698		-117.187500
699		-123.046875
700		-115.234375
701		-119.140625
702		-111.328125
703		-115.234375
704		-107.421875
705		-111.328125
706		-101.562500
707		-109.375000
708		-99.609375
709		-105.468750
710		-95.703125
711		-97.656250
712		-91.796875
713		-93.750000
714		-85.937500
715		-93.750000
716		-83.984375
717		-87.890625
718		-78.125000
719		-82.031250
720		-74.218750
721		-78.125000
722		-70.312500
723		-74.218750
724		-66.406250
725		-70.312500
726		-62.500000
727		-64.453125
728		-58.593750
729		-60.546875
730		-54.687500
731		-56.640625
732		-46.875000
733		-52.734375
734		-42.968750
735		-46.875000
736		-39.062500
737		-42.968750
738		-33.203125
739		-37.109375
740		-29.296875
741		-33.203125
742		-23.437500
743		-27.343750
744		-21.484375
745		-23.437500
746		-15.625000
747		-17.578125
748		-9.765625
749		-15.625000
750		-5.859375
751		-9.765625
752		0.000000
753		-5.859375
754		3.906250
755		-1.953125
756		7.812500
757		3.906250
758		13.671875
759		7.812500
760		15.625000
761		13.671875
762		19.531250
763		17.578125
764		23.437500
765		21.484375
766		29.296875
767		25.390625
768		33.203125
769		29.296875
770		39.062500
771		33.203125
772		42.968750
773		39.062500
774		46.875000
775		42.968750
776		50.781250
777		48.828125
778		54.687500
779		52.734375
780		58.593750
781		56.640625
782		62.500000
783		60.546875
784		66.406250
785		62.500000
786		70.312500
787		66.406250
788		76.171875
789		70.312500
790		78.125000
791		74.218750
792		82.031250
793		78.125000
794		83.984375
795		83.984375
796		87.890625
797		85.937500
798		93.750000
799		87.890625
800		97.656250
801		91.796875
802		99.609375
803		95.703125
804		103.515625
805		97.656250
806		105.468750
807		101.562500
808		109.375000
809		103.515625
810		111.328125
811		109.375000
812		113.281250
813		111.328125
814		117.187500
815		113.281250
816		121.093750
817		115.234375
818		123.046875
819		119.140625
820		126.953125
821		121.093750
822		128.906250
823		123.046875
824		130.859375
825		125.000000
826		132.812500
827		126.953125
828		132.812500
829		132.812500
830		136.718750
831		132.812500
832		138.671875
833		134.765625
834		142.578125
835		136.718750
836		144.531250
837		138.671875
838		144.531250
839		140.625000
840		146.484375
841		140.625000
842		148.437500
843		142.578125
844		150.390625
845		146.484375
846		150.390625
847		148.437500
848		152.343750
849		146.484375
850		154.296875
851		148.437500
852		156.250000
853		148.437500
854		156.250000
855		150.390625
856		158.203125
857		152.343750
858		158.203125
859		152.343750
860		160.156250
861		154.296875
862		158.203125
863		156.250000
864		158.203125
865		154.296875
866		162.109375
867		154.296875
868		162.109375
869		156.250000
870		162.109375
871		156.250000
872		162.109375
873		156.250000
874		164.062500
875		156.250000
876		162.109375
877		156.250000
878		162.109375
879		158.203125
880		162.109375
881		158.203125
882		162.109375
883		156.250000
884		162.109375
885		156.250000
886		162.109375
887		156.250000
888		162.109375
889		156.250000
890		162.109375
891		154.296875
892		162.109375
893		154.296875
894		160.156250
895		156.250000
896		158.203125
897		154.296875
898		158.203125
899		152.343750
900		158.203125
901		150.390625
902		158.203125
903		150.390625
904		156.250000
905		148.437500
906		156.250000
907		148.437500
908		154.296875
909		146.484375
910		152.343750
911		146.484375
912		152.343750
913		144.531250
914		148.437500
915		140.625000
916		148.437500
917		140.625000
918		146.484375
919		138.671875
920		146.484375
921		136.718750
922		144.531250
923		134.765625
924		140.625000
925		132.812500
926		138.671875
927		130.859375
928		136.718750
929		128.906250
930		132.812500
931		126.953125
932		130.859375
933		123.046875
934		130.859375
935		121.093750
936		128.906250
937		117.187500
938		126.953125
939		115.234375
940		123.046875
941		111.328125
942		121.093750
943		109.375000
944		117.187500
945		107.421875
946		113.281250
947		105.468750
948		109.375000
949		99.609375
950		107.421875
951		97.656250
952		105.468750
953		91.796875
954		101.562500
955		89.843750
956		97.656250
957		87.890625
958		95.703125
959		83.984375
960		91.796875
961		82.031250
962		87.890625
963		78.125000
964		82.031250
965		72.265625
966		78.125000
967		68.359375
968		76.171875
969		64.453125
970		72.265625
971		60.546875
972		68.359375
973		56.640625
974		64.453125
975		52.734375
976		60.546875
977		48.828125
978		54.687500
979		44.921875
980		50.781250
981		41.015625
982		46.875000
983		35.156250
984		42.968750
985		31.250000
986		39.062500
987		27.343750
988		35.156250
989		21.484375
990		31.250000
991		17.578125
992		27.343750
993		11.718750
994		21.484375
995		9.765625
996		17.578125
997		5.859375
998		11.718750
999		-1.953125
1000		7.812500
1001		-5.859375
1002		3.906250
1003		-9.765625
1004		0.000000
1005		-13.671875
1006		-3.906250
1007		-19.531250
1008		-9.765625
1009		-23.437500
1010		-13.671875
1011		-27.343750
1012		-17.578125
1013		-31.250000
1014		-25.390625
1015		-35.156250
1016		-29.296875
1017		-42.968750
1018		-33.203125
1019		-46.875000
1020		-37.109375
1021		-50.781250
1022		-41.015625
1023		-54.687500
1024		-46.875000
1025		-58.593750
1026		-48.828125
1027		-64.453125
1028		-54.687500
1029		-66.406250
1030		-60.546875
1031		-70.312500
1032		-64.453125
1033		-76.171875
1034		-70.312500
1035		-80.078125
1036		-70.312500
1037		-85.937500
1038		-76.171875
1039		-89.843750
1040		-80.078125
1041		-93.750000
1042		-83.984375
1043		-97.656250
1044		-87.890625
1045		-99.609375
1046		-91.796875
1047		-103.515625
1048		-97.656250
1049		-109.375000
1050		-101.562500
1051		-113.281250
1052		-103.515625
1053		-117.187500
1054		-107.421875
1055		-121.093750
1056		-111.328125
1057		-123.046875
1058		-115.234375
1059		-126.953125
1060		-117.187500
1061		-128.906250
1062		-123.046875
1063		-130.859375
1064		-126.953125
1065		-134.765625
1066		-128.906250
1067		-138.671875
1068		-132.812500
1069		-142.578125
1070		-134.765625
1071		-144.531250
1072		-136.718750
1073		-148.437500
1074		-140.625000
1075		-150.390625
1076		-142.578125
1077		-152.343750
1078		-144.531250
1079		-154.296875
1080		-148.437500
1081		-156.250000
1082		-152.343750
1083		-160.156250
1084		-152.343750
1085		-162.109375
1086		-154.296875
1087		-164.062500
1088		-156.250000
1089		-166.015625
1090		-156.250000
1091		-167.968750
1092		-160.156250
1093		-167.968750
1094		-162.109375
1095		-169.921875
1096		-162.109375
1097		-169.921875
1098		-166.015625
1099		-169.921875
1100		-167.968750
1101		-173.828125
1102		-166.015625
1103		-173.828125
1104		-166.015625
1105		-173.828125
1106		-167.968750
1107		-175.781250
1108		-167.968750
1109		-175.781250
1110		-169.921875
1111		-175.781250
1112		-169.921875
1113		-175.781250
1114		-169.921875
1115		-173.828125
1116		-171.875000
1117		-175.781250
1118		-169.921875
1119		-175.781250
1120		-169.921875
1121		-175.781250
1122		-167.968750
1123		-175.781250
1124		-167.968750
1125		-173.828125
1126		-167.968750
1127		-173.828125
1128		-166.015625
1129		-171.875000
1130		-166.015625
1131		-169.921875
1132		-166.015625
1133		-167.968750
1134		-164.062500
1135		-167.968750
1136		-162.109375
1137		-167.968750
1138		-160.156250
1139		-166.015625
1140		-158.203125
1141		-166.015625
1142		-156.250000
1143		-162.109375
1144		-154.296875
1145		-160.156250
1146		-152.343750
1147		-156.250000
1148		-152.343750
1149		-154.296875
1150		-150.390625
1151		-152.343750
1152		-144.531250
1153		-150.390625
1154		-142.578125
1155		-148.437500
1156		-140.625000
1157		-146.484375
1158		-138.671875
1159		-140.625000
1160		-134.765625
1161		-138.671875
1162		-130.859375
1163		-136.718750
1164		-128.906250
1165		-130.859375
1166		-126.953125
1167		-128.906250
1168		-121.093750
1169		-126.953125
1170		-117.187500
1171		-123.046875
1172		-113.281250
1173		-119.140625
1174		-109.375000
1175		-115.234375
1176		-105.468750
1177		-111.328125
1178		-103.515625
1179		-107.421875
1180		-99.609375
1181		-101.562500
1182		-95.703125
1183		-97.656250
1184		-91.796875
1185		-93.750000
1186		-87.890625
1187		-91.796875
1188		-82.031250
1189		-85.937500
1190		-78.125000
1191		-83.984375
1192		-74.218750
1193		-78.125000
1194		-70.312500
1195		-76.171875
1196		-64.453125
1197		-68.359375
1198		-60.546875
1199		-64.453125
1200		-58.593750
1201		-58.593750
1202		-52.734375
1203		-56.640625
1204		-46.875000
1205		-50.781250
1206		-42.968750
1207		-46.875000
1208		-39.062500
1209		-42.968750
1210		-33.203125
1211		-39.062500
1212		-29.296875
1213		-33.203125
1214		-25.390625
1215		-27.343750
1216		-21.484375
1217		-23.437500
1218		-15.625000
1219		-19.531250
1220		-9.765625
1221		-13.671875
