metingen laweit/1000Hz, 35.3cm/data_81_m26.txt

Channel              :		CH1
Frequency            :		1.061kHz
Period               :		0.942ms
PK-PK                :		320.3mV
Probe attenuation    :		1X
Voltage per ADC value:		0.122070mV
Time interval        :		2.00000us

index		CH1_Voltage(mV)
1		91.796875
2		91.796875
3		99.609375
4		87.890625
5		97.656250
6		83.984375
7		93.750000
8		83.984375
9		89.843750
10		80.078125
11		85.937500
12		76.171875
13		82.031250
14		72.265625
15		80.078125
16		68.359375
17		78.125000
18		66.406250
19		74.218750
20		62.500000
21		70.312500
22		58.593750
23		66.406250
24		54.687500
25		62.500000
26		52.734375
27		58.593750
28		48.828125
29		54.687500
30		44.921875
31		50.781250
32		39.062500
33		48.828125
34		35.156250
35		44.921875
36		31.250000
37		41.015625
38		27.343750
39		37.109375
40		23.437500
41		33.203125
42		21.484375
43		29.296875
44		17.578125
45		23.437500
46		11.718750
47		19.531250
48		7.812500
49		15.625000
50		1.953125
51		11.718750
52		-1.953125
53		7.812500
54		-5.859375
55		3.906250
56		-9.765625
57		0.000000
58		-11.718750
59		-3.906250
60		-15.625000
61		-9.765625
62		-19.531250
63		-13.671875
64		-25.390625
65		-17.578125
66		-29.296875
67		-21.484375
68		-33.203125
69		-25.390625
70		-39.062500
71		-29.296875
72		-42.968750
73		-33.203125
74		-46.875000
75		-37.109375
76		-48.828125
77		-42.968750
78		-54.687500
79		-46.875000
80		-58.593750
81		-50.781250
82		-62.500000
83		-54.687500
84		-66.406250
85		-58.593750
86		-72.265625
87		-62.500000
88		-74.218750
89		-66.406250
90		-80.078125
91		-70.312500
92		-80.078125
93		-72.265625
94		-83.984375
95		-80.078125
96		-91.796875
97		-82.031250
98		-93.750000
99		-83.984375
100		-97.656250
101		-87.890625
102		-101.562500
103		-91.796875
104		-103.515625
105		-95.703125
106		-107.421875
107		-97.656250
108		-109.375000
109		-101.562500
110		-111.328125
111		-107.421875
112		-115.234375
113		-111.328125
114		-119.140625
115		-111.328125
116		-123.046875
117		-113.281250
118		-125.000000
119		-117.187500
120		-128.906250
121		-119.140625
122		-130.859375
123		-123.046875
124		-134.765625
125		-126.953125
126		-134.765625
127		-128.906250
128		-136.718750
129		-132.812500
130		-140.625000
131		-134.765625
132		-144.531250
133		-136.718750
134		-144.531250
135		-136.718750
136		-148.437500
137		-140.625000
138		-148.437500
139		-142.578125
140		-150.390625
141		-144.531250
142		-152.343750
143		-146.484375
144		-152.343750
145		-148.437500
146		-154.296875
147		-150.390625
148		-156.250000
149		-150.390625
150		-158.203125
151		-152.343750
152		-160.156250
153		-152.343750
154		-160.156250
155		-154.296875
156		-162.109375
157		-154.296875
158		-162.109375
159		-156.250000
160		-162.109375
161		-156.250000
162		-160.156250
163		-158.203125
164		-162.109375
165		-158.203125
166		-162.109375
167		-158.203125
168		-162.109375
169		-158.203125
170		-162.109375
171		-158.203125
172		-162.109375
173		-158.203125
174		-162.109375
175		-158.203125
176		-162.109375
177		-158.203125
178		-160.156250
179		-158.203125
180		-160.156250
181		-156.250000
182		-160.156250
183		-154.296875
184		-160.156250
185		-152.343750
186		-158.203125
187		-152.343750
188		-158.203125
189		-150.390625
190		-156.250000
191		-150.390625
192		-154.296875
193		-148.437500
194		-152.343750
195		-148.437500
196		-150.390625
197		-146.484375
198		-148.437500
199		-142.578125
200		-148.437500
201		-140.625000
202		-146.484375
203		-138.671875
204		-144.531250
205		-136.718750
206		-142.578125
207		-134.765625
208		-140.625000
209		-130.859375
210		-136.718750
211		-130.859375
212		-132.812500
213		-128.906250
214		-130.859375
215		-123.046875
216		-128.906250
217		-121.093750
218		-126.953125
219		-117.187500
220		-123.046875
221		-115.234375
222		-119.140625
223		-111.328125
224		-117.187500
225		-109.375000
226		-115.234375
227		-105.468750
228		-107.421875
229		-103.515625
230		-105.468750
231		-99.609375
232		-103.515625
233		-93.750000
234		-99.609375
235		-91.796875
236		-97.656250
237		-87.890625
238		-91.796875
239		-83.984375
240		-87.890625
241		-80.078125
242		-85.937500
243		-76.171875
244		-82.031250
245		-74.218750
246		-74.218750
247		-70.312500
248		-70.312500
249		-64.453125
250		-70.312500
251		-60.546875
252		-64.453125
253		-56.640625
254		-60.546875
255		-50.781250
256		-56.640625
257		-48.828125
258		-50.781250
259		-42.968750
260		-48.828125
261		-41.015625
262		-42.968750
263		-37.109375
264		-39.062500
265		-31.250000
266		-35.156250
267		-25.390625
268		-31.250000
269		-21.484375
270		-27.343750
271		-17.578125
272		-23.437500
273		-13.671875
274		-19.531250
275		-9.765625
276		-13.671875
277		-5.859375
278		-7.812500
279		-1.953125
280		-3.906250
281		1.953125
282		0.000000
283		7.812500
284		3.906250
285		11.718750
286		5.859375
287		15.625000
288		9.765625
289		19.531250
290		15.625000
291		23.437500
292		19.531250
293		29.296875
294		23.437500
295		29.296875
296		29.296875
297		35.156250
298		33.203125
299		39.062500
300		35.156250
301		44.921875
302		39.062500
303		46.875000
304		42.968750
305		50.781250
306		46.875000
307		54.687500
308		50.781250
309		56.640625
310		52.734375
311		60.546875
312		58.593750
313		64.453125
314		62.500000
315		68.359375
316		64.453125
317		72.265625
318		66.406250
319		76.171875
320		72.265625
321		80.078125
322		74.218750
323		82.031250
324		78.125000
325		85.937500
326		80.078125
327		89.843750
328		83.984375
329		89.843750
330		89.843750
331		93.750000
332		91.796875
333		97.656250
334		91.796875
335		101.562500
336		95.703125
337		103.515625
338		97.656250
339		105.468750
340		101.562500
341		109.375000
342		103.515625
343		111.328125
344		105.468750
345		113.281250
346		111.328125
347		115.234375
348		113.281250
349		117.187500
350		113.281250
351		121.093750
352		115.234375
353		123.046875
354		117.187500
355		125.000000
356		119.140625
357		126.953125
358		123.046875
359		128.906250
360		123.046875
361		130.859375
362		126.953125
363		130.859375
364		128.906250
365		132.812500
366		128.906250
367		136.718750
368		128.906250
369		136.718750
370		130.859375
371		138.671875
372		132.812500
373		138.671875
374		134.765625
375		140.625000
376		134.765625
377		142.578125
378		136.718750
379		142.578125
380		138.671875
381		142.578125
382		138.671875
383		144.531250
384		138.671875
385		146.484375
386		140.625000
387		146.484375
388		140.625000
389		146.484375
390		142.578125
391		148.437500
392		142.578125
393		148.437500
394		142.578125
395		148.437500
396		144.531250
397		146.484375
398		144.531250
399		146.484375
400		142.578125
401		150.390625
402		142.578125
403		150.390625
404		142.578125
405		150.390625
406		142.578125
407		150.390625
408		142.578125
409		148.437500
410		142.578125
411		148.437500
412		144.531250
413		148.437500
414		144.531250
415		146.484375
416		142.578125
417		148.437500
418		140.625000
419		146.484375
420		140.625000
421		146.484375
422		140.625000
423		146.484375
424		138.671875
425		146.484375
426		138.671875
427		144.531250
428		136.718750
429		144.531250
430		138.671875
431		140.625000
432		136.718750
433		140.625000
434		132.812500
435		140.625000
436		132.812500
437		138.671875
438		130.859375
439		136.718750
440		128.906250
441		136.718750
442		126.953125
443		134.765625
444		125.000000
445		132.812500
446		125.000000
447		130.859375
448		123.046875
449		126.953125
450		121.093750
451		126.953125
452		117.187500
453		125.000000
454		115.234375
455		123.046875
456		113.281250
457		121.093750
458		111.328125
459		119.140625
460		109.375000
461		117.187500
462		107.421875
463		115.234375
464		105.468750
465		109.375000
466		101.562500
467		107.421875
468		99.609375
469		107.421875
470		95.703125
471		105.468750
472		93.750000
473		101.562500
474		89.843750
475		99.609375
476		85.937500
477		95.703125
478		83.984375
479		91.796875
480		82.031250
481		87.890625
482		80.078125
483		83.984375
484		74.218750
485		82.031250
486		72.265625
487		80.078125
488		68.359375
489		76.171875
490		64.453125
491		74.218750
492		60.546875
493		68.359375
494		56.640625
495		66.406250
496		54.687500
497		62.500000
498		50.781250
499		56.640625
500		46.875000
501		52.734375
502		41.015625
503		50.781250
504		39.062500
505		46.875000
506		35.156250
507		42.968750
508		29.296875
509		39.062500
510		27.343750
511		35.156250
512		23.437500
513		31.250000
514		19.531250
515		25.390625
516		15.625000
517		21.484375
518		9.765625
519		19.531250
520		5.859375
521		15.625000
522		1.953125
523		9.765625
524		-1.953125
525		5.859375
526		-5.859375
527		1.953125
528		-11.718750
529		-1.953125
530		-11.718750
531		-3.906250
532		-17.578125
533		-11.718750
534		-23.437500
535		-15.625000
536		-27.343750
537		-17.578125
538		-31.250000
539		-23.437500
540		-35.156250
541		-25.390625
542		-39.062500
543		-29.296875
544		-42.968750
545		-35.156250
546		-44.921875
547		-39.062500
548		-50.781250
549		-44.921875
550		-56.640625
551		-48.828125
552		-58.593750
553		-50.781250
554		-64.453125
555		-54.687500
556		-68.359375
557		-58.593750
558		-72.265625
559		-62.500000
560		-76.171875
561		-66.406250
562		-80.078125
563		-72.265625
564		-82.031250
565		-76.171875
566		-85.937500
567		-80.078125
568		-89.843750
569		-83.984375
570		-93.750000
571		-85.937500
572		-97.656250
573		-89.843750
574		-99.609375
575		-91.796875
576		-105.468750
577		-95.703125
578		-107.421875
579		-99.609375
580		-109.375000
581		-103.515625
582		-113.281250
583		-107.421875
584		-117.187500
585		-111.328125
586		-119.140625
587		-113.281250
588		-123.046875
589		-115.234375
590		-125.000000
591		-119.140625
592		-128.906250
593		-121.093750
594		-132.812500
595		-125.000000
596		-134.765625
597		-126.953125
598		-134.765625
599		-130.859375
600		-136.718750
601		-134.765625
602		-142.578125
603		-132.812500
604		-144.531250
605		-136.718750
606		-146.484375
607		-136.718750
608		-146.484375
609		-140.625000
610		-150.390625
611		-142.578125
612		-152.343750
613		-144.531250
614		-152.343750
615		-146.484375
616		-152.343750
617		-150.390625
618		-156.250000
619		-150.390625
620		-158.203125
621		-150.390625
622		-158.203125
623		-152.343750
624		-160.156250
625		-154.296875
626		-160.156250
627		-154.296875
628		-162.109375
629		-154.296875
630		-162.109375
631		-156.250000
632		-160.156250
633		-158.203125
634		-162.109375
635		-158.203125
636		-164.062500
637		-156.250000
638		-164.062500
639		-156.250000
640		-164.062500
641		-156.250000
642		-164.062500
643		-156.250000
644		-164.062500
645		-156.250000
646		-164.062500
647		-156.250000
648		-160.156250
649		-158.203125
650		-160.156250
651		-158.203125
652		-162.109375
653		-154.296875
654		-160.156250
655		-154.296875
656		-160.156250
657		-152.343750
658		-158.203125
659		-152.343750
660		-156.250000
661		-150.390625
662		-156.250000
663		-150.390625
664		-154.296875
665		-148.437500
666		-150.390625
667		-148.437500
668		-150.390625
669		-144.531250
670		-148.437500
671		-142.578125
672		-148.437500
673		-140.625000
674		-146.484375
675		-138.671875
676		-144.531250
677		-136.718750
678		-140.625000
679		-132.812500
680		-138.671875
681		-132.812500
682		-134.765625
683		-130.859375
684		-132.812500
685		-126.953125
686		-130.859375
687		-123.046875
688		-126.953125
689		-119.140625
690		-125.000000
691		-117.187500
692		-123.046875
693		-113.281250
694		-119.140625
695		-109.375000
696		-115.234375
697		-107.421875
698		-113.281250
699		-105.468750
700		-107.421875
701		-101.562500
702		-105.468750
703		-97.656250
704		-101.562500
705		-93.750000
706		-97.656250
707		-87.890625
708		-93.750000
709		-85.937500
710		-91.796875
711		-83.984375
712		-87.890625
713		-78.125000
714		-83.984375
715		-76.171875
716		-78.125000
717		-72.265625
718		-74.218750
719		-66.406250
720		-72.265625
721		-62.500000
722		-68.359375
723		-58.593750
724		-64.453125
725		-54.687500
726		-58.593750
727		-50.781250
728		-56.640625
729		-46.875000
730		-50.781250
731		-42.968750
732		-44.921875
733		-39.062500
734		-41.015625
735		-35.156250
736		-37.109375
737		-29.296875
738		-35.156250
739		-25.390625
740		-31.250000
741		-21.484375
742		-25.390625
743		-15.625000
744		-21.484375
745		-11.718750
746		-17.578125
747		-7.812500
748		-13.671875
749		-5.859375
750		-7.812500
751		-1.953125
752		-1.953125
753		3.906250
754		0.000000
755		7.812500
756		3.906250
757		11.718750
758		5.859375
759		15.625000
760		13.671875
761		21.484375
762		15.625000
763		25.390625
764		19.531250
765		27.343750
766		25.390625
767		31.250000
768		29.296875
769		35.156250
770		33.203125
771		41.015625
772		35.156250
773		44.921875
774		39.062500
775		48.828125
776		42.968750
777		52.734375
778		46.875000
779		56.640625
780		50.781250
781		60.546875
782		54.687500
783		60.546875
784		60.546875
785		64.453125
786		62.500000
787		70.312500
788		66.406250
789		74.218750
790		68.359375
791		76.171875
792		72.265625
793		80.078125
794		74.218750
795		83.984375
796		78.125000
797		87.890625
798		82.031250
799		87.890625
800		85.937500
801		91.796875
802		89.843750
803		93.750000
804		89.843750
805		99.609375
806		93.750000
807		101.562500
808		97.656250
809		103.515625
810		99.609375
811		105.468750
812		101.562500
813		109.375000
814		103.515625
815		111.328125
816		109.375000
817		113.281250
818		111.328125
819		115.234375
820		113.281250
821		119.140625
822		113.281250
823		121.093750
824		117.187500
825		123.046875
826		117.187500
827		125.000000
828		119.140625
829		126.953125
830		121.093750
831		128.906250
832		123.046875
833		130.859375
834		126.953125
835		130.859375
836		128.906250
837		134.765625
838		128.906250
839		136.718750
840		130.859375
841		136.718750
842		130.859375
843		138.671875
844		132.812500
845		140.625000
846		132.812500
847		140.625000
848		134.765625
849		142.578125
850		138.671875
851		140.625000
852		138.671875
853		142.578125
854		138.671875
855		144.531250
856		138.671875
857		144.531250
858		138.671875
859		146.484375
860		140.625000
861		146.484375
862		140.625000
863		148.437500
864		140.625000
865		148.437500
866		142.578125
867		148.437500
868		144.531250
869		146.484375
870		142.578125
871		148.437500
872		142.578125
873		148.437500
874		142.578125
875		150.390625
876		142.578125
877		148.437500
878		142.578125
879		148.437500
880		142.578125
881		150.390625
882		142.578125
883		148.437500
884		144.531250
885		146.484375
886		144.531250
887		146.484375
888		140.625000
889		148.437500
890		140.625000
891		146.484375
892		138.671875
893		146.484375
894		138.671875
895		146.484375
896		138.671875
897		144.531250
898		136.718750
899		144.531250
900		138.671875
901		140.625000
902		136.718750
903		140.625000
904		134.765625
905		140.625000
906		132.812500
907		138.671875
908		130.859375
909		138.671875
910		128.906250
911		136.718750
912		128.906250
913		134.765625
914		126.953125
915		134.765625
916		126.953125
917		132.812500
918		125.000000
919		128.906250
920		121.093750
921		126.953125
922		119.140625
923		126.953125
924		117.187500
925		125.000000
926		115.234375
927		123.046875
928		113.281250
929		121.093750
930		111.328125
931		117.187500
932		107.421875
933		115.234375
934		107.421875
935		111.328125
936		105.468750
937		109.375000
938		99.609375
939		107.421875
940		97.656250
941		105.468750
942		95.703125
943		103.515625
944		91.796875
945		99.609375
946		89.843750
947		95.703125
948		85.937500
949		93.750000
950		83.984375
951		91.796875
952		82.031250
953		85.937500
954		76.171875
955		83.984375
956		72.265625
957		82.031250
958		68.359375
959		78.125000
960		66.406250
961		74.218750
962		62.500000
963		70.312500
964		60.546875
965		68.359375
966		56.640625
967		64.453125
968		54.687500
969		58.593750
970		50.781250
971		54.687500
972		44.921875
973		52.734375
974		41.015625
975		48.828125
976		37.109375
977		44.921875
978		33.203125
979		42.968750
980		29.296875
981		39.062500
982		25.390625
983		35.156250
984		23.437500
985		29.296875
986		19.531250
987		23.437500
988		11.718750
989		19.531250
990		9.765625
991		17.578125
992		3.906250
993		13.671875
994		0.000000
995		9.765625
996		-3.906250
997		5.859375
998		-7.812500
999		0.000000
1000		-9.765625
1001		-3.906250
1002		-13.671875
1003		-9.765625
1004		-19.531250
1005		-13.671875
1006		-25.390625
1007		-15.625000
1008		-27.343750
1009		-19.531250
1010		-33.203125
1011		-23.437500
1012		-37.109375
1013		-27.343750
1014		-41.015625
1015		-31.250000
1016		-44.921875
1017		-37.109375
1018		-46.875000
1019		-42.968750
1020		-50.781250
1021		-46.875000
1022		-58.593750
1023		-48.828125
1024		-62.500000
1025		-52.734375
1026		-64.453125
1027		-56.640625
1028		-70.312500
1029		-60.546875
1030		-74.218750
1031		-64.453125
1032		-78.125000
1033		-68.359375
1034		-80.078125
1035		-72.265625
1036		-83.984375
1037		-78.125000
1038		-87.890625
1039		-82.031250
1040		-91.796875
1041		-83.984375
1042		-95.703125
1043		-87.890625
1044		-99.609375
1045		-91.796875
1046		-103.515625
1047		-93.750000
1048		-105.468750
1049		-97.656250
1050		-109.375000
1051		-101.562500
1052		-111.328125
1053		-107.421875
1054		-113.281250
1055		-109.375000
1056		-119.140625
1057		-111.328125
1058		-123.046875
1059		-113.281250
1060		-125.000000
1061		-117.187500
1062		-128.906250
1063		-119.140625
1064		-130.859375
1065		-123.046875
1066		-132.812500
1067		-125.000000
1068		-134.765625
1069		-128.906250
1070		-136.718750
1071		-132.812500
1072		-140.625000
1073		-134.765625
1074		-142.578125
1075		-134.765625
1076		-144.531250
1077		-138.671875
1078		-146.484375
1079		-138.671875
1080		-150.390625
1081		-142.578125
1082		-150.390625
1083		-144.531250
1084		-152.343750
1085		-146.484375
1086		-152.343750
1087		-148.437500
1088		-156.250000
1089		-150.390625
1090		-158.203125
1091		-150.390625
1092		-158.203125
1093		-152.343750
1094		-160.156250
1095		-152.343750
1096		-160.156250
1097		-154.296875
1098		-162.109375
1099		-154.296875
1100		-162.109375
1101		-156.250000
1102		-160.156250
1103		-158.203125
1104		-162.109375
1105		-158.203125
1106		-164.062500
1107		-158.203125
1108		-164.062500
1109		-158.203125
1110		-164.062500
1111		-156.250000
1112		-164.062500
1113		-158.203125
1114		-164.062500
1115		-158.203125
1116		-164.062500
1117		-156.250000
1118		-164.062500
1119		-158.203125
1120		-160.156250
1121		-158.203125
1122		-162.109375
1123		-156.250000
1124		-162.109375
1125		-156.250000
1126		-160.156250
1127		-154.296875
1128		-160.156250
1129		-152.343750
1130		-160.156250
1131		-152.343750
1132		-158.203125
1133		-150.390625
1134		-156.250000
1135		-150.390625
1136		-152.343750
1137		-150.390625
1138		-150.390625
1139		-148.437500
1140		-152.343750
1141		-144.531250
1142		-150.390625
1143		-142.578125
1144		-146.484375
1145		-140.625000
1146		-144.531250
1147		-138.671875
1148		-142.578125
1149		-136.718750
1150		-140.625000
1151		-132.812500
1152		-138.671875
1153		-132.812500
1154		-134.765625
1155		-130.859375
1156		-132.812500
1157		-125.000000
1158		-130.859375
1159		-123.046875
1160		-128.906250
1161		-119.140625
1162		-125.000000
1163		-117.187500
1164		-123.046875
1165		-113.281250
1166		-119.140625
1167		-111.328125
1168		-115.234375
1169		-109.375000
1170		-111.328125
1171		-105.468750
1172		-107.421875
1173		-101.562500
1174		-105.468750
1175		-97.656250
1176		-101.562500
1177		-93.750000
1178		-99.609375
1179		-89.843750
1180		-95.703125
1181		-85.937500
1182		-89.843750
1183		-82.031250
1184		-85.937500
1185		-78.125000
1186		-82.031250
1187		-76.171875
1188		-78.125000
1189		-72.265625
1190		-74.218750
1191		-66.406250
1192		-70.312500
1193		-62.500000
1194		-66.406250
1195		-58.593750
1196		-64.453125
1197		-54.687500
1198		-60.546875
1199		-50.781250
1200		-54.687500
1201		-46.875000
1202		-50.781250
1203		-42.968750
1204		-44.921875
1205		-39.062500
1206		-41.015625
1207		-33.203125
1208		-39.062500
1209		-29.296875
1210		-33.203125
1211		-25.390625
1212		-29.296875
1213		-21.484375
1214		-25.390625
1215		-15.625000
1216		-21.484375
1217		-11.718750
1218		-15.625000
1219		-9.765625
1220		-11.718750
1221		-5.859375
1222		-7.812500
1223		0.000000
1224		-3.906250
