metingen laweit/1000Hz, 35.3cm/data_81_m282.txt

Channel              :		CH1
Frequency            :		1.061kHz
Period               :		0.943ms
PK-PK                :		72.27mV
Probe attenuation    :		1X
Voltage per ADC value:		0.122070mV
Time interval        :		2.00000us

index		CH1_Voltage(mV)
1		15.625000
2		15.625000
3		21.484375
4		15.625000
5		19.531250
6		15.625000
7		17.578125
8		11.718750
9		19.531250
10		11.718750
11		17.578125
12		11.718750
13		17.578125
14		11.718750
15		13.671875
16		9.765625
17		15.625000
18		7.812500
19		13.671875
20		7.812500
21		13.671875
22		5.859375
23		13.671875
24		5.859375
25		11.718750
26		3.906250
27		11.718750
28		3.906250
29		9.765625
30		3.906250
31		7.812500
32		3.906250
33		5.859375
34		1.953125
35		7.812500
36		0.000000
37		7.812500
38		0.000000
39		5.859375
40		0.000000
41		3.906250
42		-1.953125
43		3.906250
44		-1.953125
45		1.953125
46		-1.953125
47		1.953125
48		-1.953125
49		0.000000
50		-5.859375
51		0.000000
52		-5.859375
53		0.000000
54		-7.812500
55		0.000000
56		-7.812500
57		-1.953125
58		-9.765625
59		-1.953125
60		-9.765625
61		-1.953125
62		-9.765625
63		-3.906250
64		-9.765625
65		-5.859375
66		-9.765625
67		-7.812500
68		-11.718750
69		-5.859375
70		-13.671875
71		-7.812500
72		-13.671875
73		-7.812500
74		-13.671875
75		-7.812500
76		-15.625000
77		-7.812500
78		-15.625000
79		-9.765625
80		-15.625000
81		-11.718750
82		-15.625000
83		-11.718750
84		-17.578125
85		-11.718750
86		-17.578125
87		-11.718750
88		-19.531250
89		-11.718750
90		-19.531250
91		-13.671875
92		-19.531250
93		-13.671875
94		-19.531250
95		-13.671875
96		-21.484375
97		-13.671875
98		-19.531250
99		-17.578125
100		-21.484375
101		-15.625000
102		-21.484375
103		-15.625000
104		-23.437500
105		-15.625000
106		-23.437500
107		-17.578125
108		-23.437500
109		-15.625000
110		-23.437500
111		-15.625000
112		-23.437500
113		-17.578125
114		-21.484375
115		-19.531250
116		-23.437500
117		-19.531250
118		-25.390625
119		-17.578125
120		-25.390625
121		-17.578125
122		-25.390625
123		-19.531250
124		-25.390625
125		-19.531250
126		-25.390625
127		-19.531250
128		-25.390625
129		-19.531250
130		-25.390625
131		-19.531250
132		-23.437500
133		-21.484375
134		-25.390625
135		-19.531250
136		-25.390625
137		-19.531250
138		-25.390625
139		-19.531250
140		-27.343750
141		-19.531250
142		-25.390625
143		-19.531250
144		-25.390625
145		-19.531250
146		-25.390625
147		-19.531250
148		-23.437500
149		-21.484375
150		-23.437500
151		-21.484375
152		-25.390625
153		-19.531250
154		-25.390625
155		-19.531250
156		-25.390625
157		-19.531250
158		-25.390625
159		-19.531250
160		-25.390625
161		-17.578125
162		-23.437500
163		-17.578125
164		-23.437500
165		-17.578125
166		-21.484375
167		-17.578125
168		-23.437500
169		-17.578125
170		-23.437500
171		-15.625000
172		-23.437500
173		-15.625000
174		-23.437500
175		-15.625000
176		-21.484375
177		-15.625000
178		-21.484375
179		-15.625000
180		-21.484375
181		-13.671875
182		-17.578125
183		-15.625000
184		-19.531250
185		-13.671875
186		-19.531250
187		-11.718750
188		-19.531250
189		-11.718750
190		-17.578125
191		-11.718750
192		-17.578125
193		-11.718750
194		-17.578125
195		-9.765625
196		-15.625000
197		-9.765625
198		-13.671875
199		-11.718750
200		-13.671875
201		-9.765625
202		-13.671875
203		-7.812500
204		-13.671875
205		-7.812500
206		-11.718750
207		-5.859375
208		-11.718750
209		-5.859375
210		-11.718750
211		-3.906250
212		-9.765625
213		-3.906250
214		-9.765625
215		-5.859375
216		-7.812500
217		-3.906250
218		-7.812500
219		-1.953125
220		-7.812500
221		-1.953125
222		-5.859375
223		0.000000
224		-5.859375
225		0.000000
226		-5.859375
227		1.953125
228		-3.906250
229		1.953125
230		-3.906250
231		1.953125
232		-1.953125
233		1.953125
234		-1.953125
235		3.906250
236		-1.953125
237		5.859375
238		0.000000
239		5.859375
240		0.000000
241		7.812500
242		1.953125
243		7.812500
244		1.953125
245		7.812500
246		1.953125
247		9.765625
248		5.859375
249		9.765625
250		5.859375
251		9.765625
252		5.859375
253		11.718750
254		5.859375
255		13.671875
256		7.812500
257		13.671875
258		7.812500
259		15.625000
260		7.812500
261		15.625000
262		9.765625
263		15.625000
264		11.718750
265		15.625000
266		13.671875
267		15.625000
268		13.671875
269		17.578125
270		13.671875
271		19.531250
272		13.671875
273		21.484375
274		15.625000
275		21.484375
276		15.625000
277		21.484375
278		15.625000
279		23.437500
280		17.578125
281		23.437500
282		19.531250
283		23.437500
284		19.531250
285		23.437500
286		19.531250
287		25.390625
288		19.531250
289		27.343750
290		21.484375
291		27.343750
292		21.484375
293		29.296875
294		23.437500
295		29.296875
296		23.437500
297		29.296875
298		23.437500
299		29.296875
300		27.343750
301		29.296875
302		25.390625
303		31.250000
304		25.390625
305		33.203125
306		25.390625
307		33.203125
308		27.343750
309		33.203125
310		27.343750
311		35.156250
312		29.296875
313		35.156250
314		29.296875
315		35.156250
316		31.250000
317		33.203125
318		31.250000
319		35.156250
320		29.296875
321		37.109375
322		31.250000
323		37.109375
324		31.250000
325		39.062500
326		33.203125
327		39.062500
328		33.203125
329		39.062500
330		33.203125
331		39.062500
332		33.203125
333		39.062500
334		35.156250
335		39.062500
336		35.156250
337		41.015625
338		35.156250
339		41.015625
340		35.156250
341		41.015625
342		35.156250
343		42.968750
344		35.156250
345		41.015625
346		35.156250
347		42.968750
348		37.109375
349		42.968750
350		39.062500
351		41.015625
352		37.109375
353		42.968750
354		37.109375
355		42.968750
356		37.109375
357		42.968750
358		37.109375
359		42.968750
360		37.109375
361		44.921875
362		37.109375
363		44.921875
364		37.109375
365		44.921875
366		39.062500
367		42.968750
368		39.062500
369		42.968750
370		37.109375
371		44.921875
372		39.062500
373		44.921875
374		37.109375
375		44.921875
376		37.109375
377		44.921875
378		37.109375
379		44.921875
380		37.109375
381		44.921875
382		39.062500
383		44.921875
384		41.015625
385		42.968750
386		39.062500
387		42.968750
388		37.109375
389		42.968750
390		37.109375
391		44.921875
392		37.109375
393		42.968750
394		37.109375
395		42.968750
396		37.109375
397		42.968750
398		37.109375
399		42.968750
400		39.062500
401		41.015625
402		37.109375
403		41.015625
404		35.156250
405		42.968750
406		35.156250
407		41.015625
408		35.156250
409		41.015625
410		35.156250
411		41.015625
412		33.203125
413		41.015625
414		33.203125
415		41.015625
416		35.156250
417		39.062500
418		35.156250
419		37.109375
420		33.203125
421		39.062500
422		33.203125
423		39.062500
424		31.250000
425		39.062500
426		31.250000
427		37.109375
428		31.250000
429		37.109375
430		31.250000
431		37.109375
432		29.296875
433		37.109375
434		31.250000
435		33.203125
436		29.296875
437		35.156250
438		27.343750
439		35.156250
440		27.343750
441		33.203125
442		27.343750
443		33.203125
444		25.390625
445		33.203125
446		25.390625
447		31.250000
448		23.437500
449		31.250000
450		25.390625
451		29.296875
452		25.390625
453		27.343750
454		23.437500
455		29.296875
456		21.484375
457		29.296875
458		21.484375
459		27.343750
460		19.531250
461		27.343750
462		19.531250
463		25.390625
464		19.531250
465		25.390625
466		19.531250
467		23.437500
468		19.531250
469		21.484375
470		17.578125
471		21.484375
472		15.625000
473		21.484375
474		13.671875
475		21.484375
476		13.671875
477		19.531250
478		13.671875
479		19.531250
480		11.718750
481		19.531250
482		11.718750
483		17.578125
484		13.671875
485		15.625000
486		11.718750
487		13.671875
488		9.765625
489		15.625000
490		9.765625
491		15.625000
492		7.812500
493		13.671875
494		5.859375
495		13.671875
496		5.859375
497		11.718750
498		3.906250
499		11.718750
500		3.906250
501		9.765625
502		5.859375
503		7.812500
504		1.953125
505		7.812500
506		1.953125
507		7.812500
508		0.000000
509		7.812500
510		0.000000
511		5.859375
512		-1.953125
513		5.859375
514		-1.953125
515		3.906250
516		-1.953125
517		3.906250
518		-1.953125
519		1.953125
520		-3.906250
521		0.000000
522		-5.859375
523		0.000000
524		-5.859375
525		0.000000
526		-7.812500
527		0.000000
528		-7.812500
529		-1.953125
530		-7.812500
531		-1.953125
532		-9.765625
533		-1.953125
534		-7.812500
535		-5.859375
536		-9.765625
537		-5.859375
538		-11.718750
539		-5.859375
540		-13.671875
541		-5.859375
542		-13.671875
543		-5.859375
544		-13.671875
545		-7.812500
546		-13.671875
547		-7.812500
548		-15.625000
549		-7.812500
550		-15.625000
551		-9.765625
552		-13.671875
553		-11.718750
554		-17.578125
555		-11.718750
556		-17.578125
557		-11.718750
558		-19.531250
559		-11.718750
560		-19.531250
561		-11.718750
562		-19.531250
563		-11.718750
564		-19.531250
565		-13.671875
566		-19.531250
567		-13.671875
568		-19.531250
569		-15.625000
570		-19.531250
571		-17.578125
572		-21.484375
573		-15.625000
574		-23.437500
575		-15.625000
576		-23.437500
577		-15.625000
578		-23.437500
579		-17.578125
580		-23.437500
581		-17.578125
582		-23.437500
583		-17.578125
584		-23.437500
585		-19.531250
586		-21.484375
587		-19.531250
588		-23.437500
589		-17.578125
590		-25.390625
591		-17.578125
592		-25.390625
593		-19.531250
594		-25.390625
595		-19.531250
596		-25.390625
597		-19.531250
598		-25.390625
599		-19.531250
600		-27.343750
601		-19.531250
602		-23.437500
603		-21.484375
604		-23.437500
605		-21.484375
606		-25.390625
607		-19.531250
608		-25.390625
609		-19.531250
610		-27.343750
611		-19.531250
612		-25.390625
613		-19.531250
614		-25.390625
615		-19.531250
616		-25.390625
617		-19.531250
618		-23.437500
619		-21.484375
620		-23.437500
621		-21.484375
622		-25.390625
623		-19.531250
624		-25.390625
625		-19.531250
626		-25.390625
627		-19.531250
628		-25.390625
629		-17.578125
630		-25.390625
631		-17.578125
632		-25.390625
633		-17.578125
634		-23.437500
635		-17.578125
636		-21.484375
637		-19.531250
638		-21.484375
639		-19.531250
640		-23.437500
641		-15.625000
642		-23.437500
643		-15.625000
644		-23.437500
645		-15.625000
646		-21.484375
647		-15.625000
648		-21.484375
649		-15.625000
650		-21.484375
651		-15.625000
652		-19.531250
653		-15.625000
654		-17.578125
655		-15.625000
656		-19.531250
657		-13.671875
658		-19.531250
659		-13.671875
660		-19.531250
661		-11.718750
662		-17.578125
663		-11.718750
664		-17.578125
665		-11.718750
666		-17.578125
667		-9.765625
668		-15.625000
669		-9.765625
670		-13.671875
671		-11.718750
672		-13.671875
673		-7.812500
674		-13.671875
675		-7.812500
676		-13.671875
677		-7.812500
678		-13.671875
679		-5.859375
680		-11.718750
681		-5.859375
682		-9.765625
683		-5.859375
684		-9.765625
685		-3.906250
686		-7.812500
687		-5.859375
688		-7.812500
689		-3.906250
690		-7.812500
691		-1.953125
692		-7.812500
693		0.000000
694		-5.859375
695		0.000000
696		-5.859375
697		1.953125
698		-5.859375
699		1.953125
700		-3.906250
701		1.953125
702		-1.953125
703		1.953125
704		0.000000
705		1.953125
706		-1.953125
707		3.906250
708		0.000000
709		5.859375
710		0.000000
711		5.859375
712		0.000000
713		7.812500
714		1.953125
715		7.812500
716		1.953125
717		9.765625
718		3.906250
719		9.765625
720		5.859375
721		7.812500
722		7.812500
723		11.718750
724		5.859375
725		11.718750
726		7.812500
727		13.671875
728		7.812500
729		13.671875
730		7.812500
731		15.625000
732		9.765625
733		15.625000
734		9.765625
735		15.625000
736		13.671875
737		15.625000
738		13.671875
739		15.625000
740		11.718750
741		19.531250
742		13.671875
743		19.531250
744		13.671875
745		19.531250
746		13.671875
747		21.484375
748		15.625000
749		21.484375
750		15.625000
751		23.437500
752		15.625000
753		23.437500
754		19.531250
755		23.437500
756		19.531250
757		25.390625
758		19.531250
759		27.343750
760		19.531250
761		27.343750
762		21.484375
763		27.343750
764		21.484375
765		29.296875
766		23.437500
767		29.296875
768		23.437500
769		29.296875
770		25.390625
771		29.296875
772		27.343750
773		29.296875
774		25.390625
775		31.250000
776		25.390625
777		33.203125
778		25.390625
779		33.203125
780		27.343750
781		33.203125
782		27.343750
783		35.156250
784		29.296875
785		35.156250
786		29.296875
787		33.203125
788		31.250000
789		33.203125
790		31.250000
791		37.109375
792		31.250000
793		37.109375
794		31.250000
795		37.109375
796		31.250000
797		37.109375
798		31.250000
799		39.062500
800		33.203125
801		39.062500
802		33.203125
803		39.062500
804		35.156250
805		37.109375
806		35.156250
807		39.062500
808		33.203125
809		41.015625
810		33.203125
811		41.015625
812		35.156250
813		41.015625
814		35.156250
815		42.968750
816		35.156250
817		42.968750
818		35.156250
819		42.968750
820		39.062500
821		41.015625
822		39.062500
823		41.015625
824		37.109375
825		42.968750
826		37.109375
827		42.968750
828		37.109375
829		42.968750
830		37.109375
831		42.968750
832		37.109375
833		42.968750
834		37.109375
835		42.968750
836		37.109375
837		42.968750
838		39.062500
839		41.015625
840		39.062500
841		42.968750
842		37.109375
843		44.921875
844		37.109375
845		44.921875
846		37.109375
847		44.921875
848		37.109375
849		44.921875
850		37.109375
851		44.921875
852		37.109375
853		42.968750
854		39.062500
855		41.015625
856		39.062500
857		41.015625
858		37.109375
859		42.968750
860		37.109375
861		44.921875
862		37.109375
863		42.968750
864		37.109375
865		42.968750
866		37.109375
867		42.968750
868		37.109375
869		42.968750
870		37.109375
871		41.015625
872		37.109375
873		41.015625
874		35.156250
875		41.015625
876		35.156250
877		41.015625
878		35.156250
879		41.015625
880		35.156250
881		41.015625
882		33.203125
883		41.015625
884		33.203125
885		41.015625
886		33.203125
887		39.062500
888		35.156250
889		37.109375
890		33.203125
891		37.109375
892		31.250000
893		39.062500
894		31.250000
895		39.062500
896		31.250000
897		37.109375
898		31.250000
899		37.109375
900		29.296875
901		37.109375
902		29.296875
903		37.109375
904		31.250000
905		35.156250
906		31.250000
907		33.203125
908		27.343750
909		35.156250
910		27.343750
911		35.156250
912		27.343750
913		33.203125
914		27.343750
915		33.203125
916		25.390625
917		31.250000
918		25.390625
919		31.250000
920		25.390625
921		31.250000
922		25.390625
923		27.343750
924		23.437500
925		27.343750
926		21.484375
927		29.296875
928		21.484375
929		27.343750
930		19.531250
931		27.343750
932		19.531250
933		27.343750
934		19.531250
935		25.390625
936		17.578125
937		25.390625
938		19.531250
939		21.484375
940		19.531250
941		21.484375
942		15.625000
943		21.484375
944		15.625000
945		21.484375
946		13.671875
947		21.484375
948		13.671875
949		21.484375
950		11.718750
951		19.531250
952		11.718750
953		17.578125
954		13.671875
955		15.625000
956		11.718750
957		15.625000
958		9.765625
959		15.625000
960		7.812500
961		15.625000
962		7.812500
963		15.625000
964		5.859375
965		13.671875
966		5.859375
967		13.671875
968		5.859375
969		11.718750
970		3.906250
971		9.765625
972		5.859375
973		7.812500
974		3.906250
975		7.812500
976		1.953125
977		7.812500
978		0.000000
979		7.812500
980		0.000000
981		5.859375
982		-1.953125
983		5.859375
984		-1.953125
985		3.906250
986		-1.953125
987		3.906250
988		-1.953125
989		1.953125
990		-1.953125
991		0.000000
992		-5.859375
993		0.000000
994		-5.859375
995		0.000000
996		-7.812500
997		0.000000
998		-7.812500
999		-1.953125
1000		-7.812500
1001		-1.953125
1002		-9.765625
1003		-1.953125
1004		-9.765625
1005		-3.906250
1006		-7.812500
1007		-5.859375
1008		-11.718750
1009		-5.859375
1010		-13.671875
1011		-5.859375
1012		-13.671875
1013		-5.859375
1014		-13.671875
1015		-7.812500
1016		-13.671875
1017		-7.812500
1018		-15.625000
1019		-7.812500
1020		-15.625000
1021		-9.765625
1022		-13.671875
1023		-11.718750
1024		-15.625000
1025		-11.718750
1026		-17.578125
1027		-11.718750
1028		-17.578125
1029		-11.718750
1030		-19.531250
1031		-11.718750
1032		-19.531250
1033		-11.718750
1034		-19.531250
1035		-13.671875
1036		-19.531250
1037		-13.671875
1038		-19.531250
1039		-15.625000
1040		-19.531250
1041		-17.578125
1042		-21.484375
1043		-15.625000
1044		-21.484375
1045		-15.625000
1046		-21.484375
1047		-15.625000
1048		-23.437500
1049		-15.625000
1050		-23.437500
1051		-17.578125
1052		-23.437500
1053		-17.578125
1054		-23.437500
1055		-17.578125
1056		-21.484375
1057		-19.531250
1058		-23.437500
1059		-19.531250
1060		-25.390625
1061		-17.578125
1062		-25.390625
1063		-19.531250
1064		-25.390625
1065		-19.531250
1066		-25.390625
1067		-19.531250
1068		-25.390625
1069		-19.531250
1070		-25.390625
1071		-19.531250
1072		-23.437500
1073		-21.484375
1074		-23.437500
1075		-21.484375
1076		-25.390625
1077		-19.531250
1078		-25.390625
1079		-19.531250
1080		-25.390625
1081		-19.531250
1082		-25.390625
1083		-19.531250
1084		-25.390625
1085		-19.531250
1086		-25.390625
1087		-19.531250
1088		-25.390625
1089		-21.484375
1090		-23.437500
1091		-21.484375
1092		-23.437500
1093		-19.531250
1094		-25.390625
1095		-19.531250
1096		-25.390625
1097		-19.531250
1098		-25.390625
1099		-17.578125
1100		-25.390625
1101		-17.578125
1102		-25.390625
1103		-17.578125
1104		-23.437500
1105		-17.578125
1106		-21.484375
1107		-19.531250
1108		-21.484375
1109		-19.531250
1110		-23.437500
1111		-17.578125
1112		-23.437500
1113		-15.625000
1114		-21.484375
1115		-15.625000
1116		-21.484375
1117		-15.625000
1118		-21.484375
1119		-15.625000
1120		-21.484375
1121		-15.625000
1122		-19.531250
1123		-15.625000
1124		-17.578125
1125		-15.625000
1126		-19.531250
1127		-13.671875
1128		-19.531250
1129		-13.671875
1130		-19.531250
1131		-11.718750
1132		-17.578125
1133		-11.718750
1134		-17.578125
1135		-11.718750
1136		-17.578125
1137		-9.765625
1138		-15.625000
1139		-9.765625
1140		-13.671875
1141		-11.718750
1142		-13.671875
1143		-9.765625
1144		-13.671875
1145		-7.812500
1146		-13.671875
1147		-7.812500
1148		-11.718750
1149		-5.859375
1150		-11.718750
1151		-5.859375
1152		-11.718750
1153		-5.859375
1154		-9.765625
1155		-3.906250
1156		-7.812500
1157		-5.859375
1158		-7.812500
1159		-3.906250
1160		-7.812500
1161		-1.953125
1162		-7.812500
1163		-1.953125
1164		-7.812500
1165		0.000000
1166		-5.859375
1167		0.000000
1168		-5.859375
1169		1.953125
1170		-1.953125
1171		0.000000
1172		-1.953125
1173		1.953125
1174		0.000000
1175		1.953125
1176		0.000000
1177		1.953125
1178		-1.953125
1179		5.859375
1180		0.000000
1181		5.859375
1182		0.000000
1183		7.812500
1184		1.953125
1185		7.812500
1186		3.906250
1187		7.812500
1188		3.906250
1189		7.812500
1190		5.859375
1191		7.812500
1192		5.859375
1193		9.765625
1194		5.859375
1195		11.718750
1196		5.859375
1197		13.671875
1198		7.812500
1199		13.671875
1200		9.765625
1201		13.671875
1202		9.765625
1203		13.671875
1204		11.718750
1205		15.625000
1206		11.718750
1207		15.625000
1208		13.671875
1209		15.625000
1210		13.671875
1211		17.578125
1212		13.671875
1213		19.531250
1214		15.625000
1215		19.531250
1216		15.625000
1217		19.531250
1218		17.578125
1219		19.531250
1220		17.578125
1221		21.484375
1222		17.578125
1223		21.484375
1224		19.531250
1225		21.484375
1226		19.531250
1227		23.437500
1228		19.531250
1229		23.437500
1230		21.484375
1231		25.390625
1232		21.484375
1233		25.390625
1234		21.484375
1235		27.343750
1236		23.437500
1237		27.343750
1238		25.390625
1239		27.343750
1240		25.390625
1241		27.343750
1242		25.390625
1243		29.296875
1244		25.390625
1245		31.250000
1246		27.343750
1247		31.250000
1248		27.343750
1249		31.250000
1250		29.296875
1251		31.250000
1252		29.296875
1253		33.203125
1254		29.296875
1255		33.203125
1256		29.296875
1257		33.203125
1258		31.250000
1259		33.203125
1260		31.250000
1261		35.156250
1262		31.250000
1263		35.156250
1264		33.203125
1265		35.156250
1266		33.203125
1267		37.109375
1268		33.203125
1269		37.109375
1270		33.203125
1271		37.109375
1272		35.156250
1273		37.109375
1274		35.156250
1275		37.109375
1276		35.156250
1277		39.062500
1278		35.156250
1279		39.062500
1280		37.109375
1281		39.062500
1282		37.109375
1283		39.062500
1284		37.109375
1285		39.062500
1286		37.109375
1287		41.015625
1288		37.109375
1289		41.015625
