metingen laweit/1000Hz, 35.3cm/data_81_m90.txt

Channel              :		CH1
Frequency            :		1.061kHz
Period               :		0.942ms
PK-PK                :		146.5mV
Probe attenuation    :		1X
Voltage per ADC value:		0.122070mV
Time interval        :		2.00000us

index		CH1_Voltage(mV)
1		50.781250
2		50.781250
3		42.968750
4		50.781250
5		42.968750
6		48.828125
7		41.015625
8		48.828125
9		39.062500
10		46.875000
11		39.062500
12		42.968750
13		37.109375
14		41.015625
15		33.203125
16		41.015625
17		33.203125
18		39.062500
19		31.250000
20		37.109375
21		29.296875
22		35.156250
23		27.343750
24		33.203125
25		27.343750
26		33.203125
27		25.390625
28		29.296875
29		23.437500
30		27.343750
31		19.531250
32		27.343750
33		19.531250
34		25.390625
35		15.625000
36		23.437500
37		13.671875
38		23.437500
39		13.671875
40		19.531250
41		11.718750
42		17.578125
43		11.718750
44		15.625000
45		9.765625
46		13.671875
47		5.859375
48		11.718750
49		3.906250
50		11.718750
51		1.953125
52		9.765625
53		0.000000
54		7.812500
55		-1.953125
56		5.859375
57		-3.906250
58		3.906250
59		-3.906250
60		1.953125
61		-3.906250
62		-1.953125
63		-5.859375
64		-3.906250
65		-9.765625
66		-3.906250
67		-11.718750
68		-3.906250
69		-13.671875
70		-7.812500
71		-15.625000
72		-7.812500
73		-17.578125
74		-9.765625
75		-19.531250
76		-11.718750
77		-19.531250
78		-15.625000
79		-21.484375
80		-17.578125
81		-25.390625
82		-17.578125
83		-27.343750
84		-19.531250
85		-27.343750
86		-21.484375
87		-29.296875
88		-23.437500
89		-31.250000
90		-23.437500
91		-33.203125
92		-25.390625
93		-33.203125
94		-27.343750
95		-33.203125
96		-31.250000
97		-37.109375
98		-31.250000
99		-39.062500
100		-31.250000
101		-41.015625
102		-33.203125
103		-42.968750
104		-35.156250
105		-42.968750
106		-37.109375
107		-44.921875
108		-37.109375
109		-44.921875
110		-39.062500
111		-44.921875
112		-41.015625
113		-46.875000
114		-42.968750
115		-48.828125
116		-42.968750
117		-50.781250
118		-42.968750
119		-50.781250
120		-44.921875
121		-52.734375
122		-44.921875
123		-54.687500
124		-46.875000
125		-54.687500
126		-46.875000
127		-54.687500
128		-50.781250
129		-54.687500
130		-50.781250
131		-56.640625
132		-50.781250
133		-58.593750
134		-50.781250
135		-58.593750
136		-52.734375
137		-60.546875
138		-52.734375
139		-60.546875
140		-52.734375
141		-60.546875
142		-54.687500
143		-60.546875
144		-54.687500
145		-58.593750
146		-56.640625
147		-60.546875
148		-56.640625
149		-62.500000
150		-54.687500
151		-62.500000
152		-56.640625
153		-62.500000
154		-56.640625
155		-62.500000
156		-56.640625
157		-64.453125
158		-56.640625
159		-64.453125
160		-56.640625
161		-62.500000
162		-58.593750
163		-62.500000
164		-58.593750
165		-64.453125
166		-56.640625
167		-64.453125
168		-56.640625
169		-64.453125
170		-56.640625
171		-64.453125
172		-56.640625
173		-64.453125
174		-56.640625
175		-62.500000
176		-54.687500
177		-62.500000
178		-56.640625
179		-60.546875
180		-56.640625
181		-62.500000
182		-56.640625
183		-60.546875
184		-54.687500
185		-60.546875
186		-54.687500
187		-60.546875
188		-52.734375
189		-58.593750
190		-52.734375
191		-58.593750
192		-52.734375
193		-58.593750
194		-50.781250
195		-54.687500
196		-52.734375
197		-54.687500
198		-50.781250
199		-54.687500
200		-48.828125
201		-54.687500
202		-48.828125
203		-54.687500
204		-46.875000
205		-52.734375
206		-46.875000
207		-50.781250
208		-44.921875
209		-50.781250
210		-42.968750
211		-48.828125
212		-44.921875
213		-46.875000
214		-42.968750
215		-46.875000
216		-41.015625
217		-46.875000
218		-39.062500
219		-44.921875
220		-37.109375
221		-42.968750
222		-37.109375
223		-42.968750
224		-35.156250
225		-41.015625
226		-33.203125
227		-39.062500
228		-33.203125
229		-35.156250
230		-33.203125
231		-35.156250
232		-31.250000
233		-35.156250
234		-27.343750
235		-33.203125
236		-25.390625
237		-31.250000
238		-25.390625
239		-31.250000
240		-23.437500
241		-27.343750
242		-21.484375
243		-27.343750
244		-19.531250
245		-25.390625
246		-19.531250
247		-21.484375
248		-17.578125
249		-21.484375
250		-13.671875
251		-21.484375
252		-13.671875
253		-17.578125
254		-11.718750
255		-17.578125
256		-9.765625
257		-15.625000
258		-7.812500
259		-13.671875
260		-5.859375
261		-11.718750
262		-5.859375
263		-7.812500
264		-3.906250
265		-5.859375
266		0.000000
267		-5.859375
268		1.953125
269		-3.906250
270		3.906250
271		-1.953125
272		5.859375
273		-1.953125
274		7.812500
275		1.953125
276		7.812500
277		1.953125
278		9.765625
279		5.859375
280		9.765625
281		7.812500
282		11.718750
283		9.765625
284		15.625000
285		9.765625
286		17.578125
287		11.718750
288		19.531250
289		13.671875
290		21.484375
291		15.625000
292		23.437500
293		17.578125
294		23.437500
295		19.531250
296		25.390625
297		21.484375
298		25.390625
299		23.437500
300		29.296875
301		23.437500
302		31.250000
303		25.390625
304		33.203125
305		27.343750
306		33.203125
307		29.296875
308		37.109375
309		31.250000
310		37.109375
311		31.250000
312		39.062500
313		35.156250
314		39.062500
315		37.109375
316		41.015625
317		37.109375
318		44.921875
319		39.062500
320		44.921875
321		39.062500
322		46.875000
323		41.015625
324		48.828125
325		42.968750
326		48.828125
327		42.968750
328		50.781250
329		46.875000
330		50.781250
331		48.828125
332		52.734375
333		46.875000
334		54.687500
335		48.828125
336		56.640625
337		50.781250
338		58.593750
339		50.781250
340		58.593750
341		52.734375
342		60.546875
343		54.687500
344		60.546875
345		54.687500
346		62.500000
347		58.593750
348		60.546875
349		58.593750
350		64.453125
351		58.593750
352		64.453125
353		58.593750
354		66.406250
355		60.546875
356		66.406250
357		62.500000
358		68.359375
359		62.500000
360		68.359375
361		62.500000
362		70.312500
363		66.406250
364		68.359375
365		66.406250
366		70.312500
367		66.406250
368		72.265625
369		66.406250
370		72.265625
371		66.406250
372		74.218750
373		68.359375
374		74.218750
375		68.359375
376		74.218750
377		68.359375
378		74.218750
379		70.312500
380		74.218750
381		70.312500
382		74.218750
383		70.312500
384		76.171875
385		70.312500
386		76.171875
387		70.312500
388		76.171875
389		70.312500
390		76.171875
391		70.312500
392		78.125000
393		72.265625
394		78.125000
395		70.312500
396		78.125000
397		72.265625
398		76.171875
399		74.218750
400		76.171875
401		72.265625
402		78.125000
403		72.265625
404		78.125000
405		70.312500
406		78.125000
407		70.312500
408		78.125000
409		70.312500
410		78.125000
411		70.312500
412		78.125000
413		72.265625
414		76.171875
415		72.265625
416		74.218750
417		70.312500
418		76.171875
419		68.359375
420		76.171875
421		68.359375
422		76.171875
423		68.359375
424		74.218750
425		68.359375
426		74.218750
427		68.359375
428		74.218750
429		68.359375
430		72.265625
431		68.359375
432		70.312500
433		66.406250
434		70.312500
435		64.453125
436		72.265625
437		64.453125
438		70.312500
439		64.453125
440		70.312500
441		62.500000
442		68.359375
443		62.500000
444		68.359375
445		60.546875
446		66.406250
447		60.546875
448		66.406250
449		60.546875
450		62.500000
451		56.640625
452		64.453125
453		56.640625
454		64.453125
455		56.640625
456		62.500000
457		54.687500
458		60.546875
459		52.734375
460		60.546875
461		52.734375
462		58.593750
463		52.734375
464		56.640625
465		50.781250
466		54.687500
467		48.828125
468		54.687500
469		46.875000
470		52.734375
471		44.921875
472		52.734375
473		42.968750
474		50.781250
475		42.968750
476		48.828125
477		41.015625
478		48.828125
479		39.062500
480		46.875000
481		41.015625
482		42.968750
483		39.062500
484		41.015625
485		35.156250
486		41.015625
487		33.203125
488		41.015625
489		31.250000
490		39.062500
491		29.296875
492		37.109375
493		27.343750
494		35.156250
495		27.343750
496		33.203125
497		25.390625
498		31.250000
499		25.390625
500		29.296875
501		21.484375
502		27.343750
503		19.531250
504		27.343750
505		17.578125
506		25.390625
507		15.625000
508		23.437500
509		13.671875
510		21.484375
511		11.718750
512		19.531250
513		11.718750
514		17.578125
515		9.765625
516		13.671875
517		7.812500
518		11.718750
519		5.859375
520		11.718750
521		3.906250
522		9.765625
523		1.953125
524		7.812500
525		0.000000
526		5.859375
527		-1.953125
528		3.906250
529		-3.906250
530		1.953125
531		-3.906250
532		0.000000
533		-5.859375
534		-1.953125
535		-9.765625
536		-1.953125
537		-11.718750
538		-3.906250
539		-13.671875
540		-5.859375
541		-13.671875
542		-7.812500
543		-17.578125
544		-9.765625
545		-19.531250
546		-11.718750
547		-19.531250
548		-13.671875
549		-19.531250
550		-15.625000
551		-23.437500
552		-17.578125
553		-25.390625
554		-17.578125
555		-27.343750
556		-19.531250
557		-29.296875
558		-21.484375
559		-29.296875
560		-23.437500
561		-33.203125
562		-25.390625
563		-33.203125
564		-27.343750
565		-33.203125
566		-29.296875
567		-35.156250
568		-31.250000
569		-39.062500
570		-31.250000
571		-39.062500
572		-33.203125
573		-41.015625
574		-33.203125
575		-42.968750
576		-35.156250
577		-42.968750
578		-37.109375
579		-44.921875
580		-37.109375
581		-46.875000
582		-39.062500
583		-44.921875
584		-42.968750
585		-48.828125
586		-42.968750
587		-50.781250
588		-42.968750
589		-50.781250
590		-44.921875
591		-52.734375
592		-44.921875
593		-52.734375
594		-46.875000
595		-54.687500
596		-46.875000
597		-54.687500
598		-48.828125
599		-54.687500
600		-50.781250
601		-54.687500
602		-52.734375
603		-58.593750
604		-50.781250
605		-58.593750
606		-52.734375
607		-60.546875
608		-52.734375
609		-60.546875
610		-52.734375
611		-60.546875
612		-54.687500
613		-62.500000
614		-54.687500
615		-60.546875
616		-56.640625
617		-60.546875
618		-58.593750
619		-62.500000
620		-56.640625
621		-62.500000
622		-56.640625
623		-64.453125
624		-56.640625
625		-64.453125
626		-56.640625
627		-64.453125
628		-58.593750
629		-64.453125
630		-58.593750
631		-62.500000
632		-58.593750
633		-62.500000
634		-60.546875
635		-64.453125
636		-58.593750
637		-64.453125
638		-58.593750
639		-64.453125
640		-58.593750
641		-64.453125
642		-56.640625
643		-64.453125
644		-56.640625
645		-64.453125
646		-56.640625
647		-64.453125
648		-56.640625
649		-60.546875
650		-58.593750
651		-60.546875
652		-58.593750
653		-62.500000
654		-54.687500
655		-62.500000
656		-54.687500
657		-60.546875
658		-54.687500
659		-60.546875
660		-54.687500
661		-60.546875
662		-54.687500
663		-60.546875
664		-52.734375
665		-58.593750
666		-52.734375
667		-54.687500
668		-52.734375
669		-56.640625
670		-50.781250
671		-56.640625
672		-48.828125
673		-54.687500
674		-48.828125
675		-54.687500
676		-46.875000
677		-52.734375
678		-46.875000
679		-52.734375
680		-44.921875
681		-50.781250
682		-42.968750
683		-48.828125
684		-44.921875
685		-46.875000
686		-42.968750
687		-48.828125
688		-41.015625
689		-46.875000
690		-39.062500
691		-44.921875
692		-37.109375
693		-42.968750
694		-37.109375
695		-42.968750
696		-35.156250
697		-41.015625
698		-35.156250
699		-39.062500
700		-35.156250
701		-35.156250
702		-33.203125
703		-37.109375
704		-29.296875
705		-35.156250
706		-27.343750
707		-33.203125
708		-27.343750
709		-31.250000
710		-25.390625
711		-31.250000
712		-23.437500
713		-29.296875
714		-21.484375
715		-27.343750
716		-21.484375
717		-23.437500
718		-19.531250
719		-21.484375
720		-17.578125
721		-21.484375
722		-15.625000
723		-19.531250
724		-13.671875
725		-19.531250
726		-11.718750
727		-17.578125
728		-9.765625
729		-15.625000
730		-7.812500
731		-13.671875
732		-5.859375
733		-9.765625
734		-5.859375
735		-7.812500
736		-3.906250
737		-7.812500
738		0.000000
739		-5.859375
740		1.953125
741		-3.906250
742		3.906250
743		-3.906250
744		3.906250
745		-1.953125
746		5.859375
747		0.000000
748		7.812500
749		1.953125
750		7.812500
751		5.859375
752		9.765625
753		7.812500
754		13.671875
755		7.812500
756		15.625000
757		9.765625
758		17.578125
759		11.718750
760		19.531250
761		13.671875
762		21.484375
763		13.671875
764		23.437500
765		17.578125
766		23.437500
767		19.531250
768		23.437500
769		21.484375
770		25.390625
771		21.484375
772		29.296875
773		23.437500
774		31.250000
775		25.390625
776		33.203125
777		27.343750
778		33.203125
779		29.296875
780		35.156250
781		29.296875
782		37.109375
783		33.203125
784		37.109375
785		35.156250
786		39.062500
787		35.156250
788		41.015625
789		35.156250
790		44.921875
791		39.062500
792		44.921875
793		39.062500
794		46.875000
795		41.015625
796		48.828125
797		41.015625
798		48.828125
799		42.968750
800		50.781250
801		46.875000
802		50.781250
803		46.875000
804		52.734375
805		48.828125
806		54.687500
807		48.828125
808		56.640625
809		50.781250
810		56.640625
811		50.781250
812		58.593750
813		52.734375
814		58.593750
815		52.734375
816		60.546875
817		56.640625
818		60.546875
819		58.593750
820		62.500000
821		56.640625
822		64.453125
823		58.593750
824		64.453125
825		58.593750
826		66.406250
827		60.546875
828		66.406250
829		60.546875
830		68.359375
831		60.546875
832		68.359375
833		64.453125
834		68.359375
835		66.406250
836		68.359375
837		64.453125
838		70.312500
839		64.453125
840		72.265625
841		64.453125
842		72.265625
843		66.406250
844		72.265625
845		66.406250
846		72.265625
847		66.406250
848		74.218750
849		68.359375
850		74.218750
851		70.312500
852		72.265625
853		70.312500
854		74.218750
855		68.359375
856		76.171875
857		68.359375
858		76.171875
859		70.312500
860		76.171875
861		70.312500
862		76.171875
863		70.312500
864		76.171875
865		70.312500
866		78.125000
867		72.265625
868		76.171875
869		72.265625
870		74.218750
871		72.265625
872		78.125000
873		70.312500
874		78.125000
875		70.312500
876		78.125000
877		70.312500
878		78.125000
879		70.312500
880		78.125000
881		70.312500
882		78.125000
883		70.312500
884		76.171875
885		72.265625
886		74.218750
887		70.312500
888		74.218750
889		70.312500
890		76.171875
891		68.359375
892		76.171875
893		68.359375
894		76.171875
895		68.359375
896		74.218750
897		68.359375
898		74.218750
899		66.406250
900		74.218750
901		68.359375
902		70.312500
903		68.359375
904		70.312500
905		64.453125
906		72.265625
907		64.453125
908		70.312500
909		62.500000
910		70.312500
911		62.500000
912		70.312500
913		62.500000
914		68.359375
915		60.546875
916		68.359375
917		60.546875
918		66.406250
919		60.546875
920		64.453125
921		58.593750
922		64.453125
923		56.640625
924		64.453125
925		56.640625
926		62.500000
927		54.687500
928		62.500000
929		54.687500
930		60.546875
931		52.734375
932		58.593750
933		50.781250
934		58.593750
935		52.734375
936		54.687500
937		50.781250
938		54.687500
939		46.875000
940		52.734375
941		46.875000
942		52.734375
943		44.921875
944		52.734375
945		42.968750
946		50.781250
947		41.015625
948		48.828125
949		41.015625
950		48.828125
951		41.015625
952		46.875000
953		39.062500
954		42.968750
955		35.156250
956		42.968750
957		33.203125
958		42.968750
959		31.250000
960		41.015625
961		31.250000
962		39.062500
963		29.296875
964		37.109375
965		27.343750
966		35.156250
967		27.343750
968		33.203125
969		25.390625
970		29.296875
971		23.437500
972		27.343750
973		21.484375
974		27.343750
975		19.531250
976		25.390625
977		17.578125
978		25.390625
979		15.625000
980		23.437500
981		13.671875
982		19.531250
983		11.718750
984		19.531250
985		11.718750
986		15.625000
987		9.765625
988		13.671875
989		5.859375
990		13.671875
991		3.906250
992		11.718750
993		1.953125
994		9.765625
995		0.000000
996		7.812500
997		-1.953125
998		5.859375
999		-1.953125
1000		3.906250
1001		-3.906250
1002		1.953125
1003		-3.906250
1004		-1.953125
1005		-7.812500
1006		-1.953125
1007		-9.765625
1008		-1.953125
1009		-11.718750
1010		-3.906250
1011		-13.671875
1012		-5.859375
1013		-15.625000
1014		-7.812500
1015		-17.578125
1016		-9.765625
1017		-19.531250
1018		-11.718750
1019		-19.531250
1020		-15.625000
1021		-21.484375
1022		-17.578125
1023		-23.437500
1024		-17.578125
1025		-25.390625
1026		-19.531250
1027		-27.343750
1028		-19.531250
1029		-29.296875
1030		-23.437500
1031		-31.250000
1032		-23.437500
1033		-31.250000
1034		-25.390625
1035		-33.203125
1036		-27.343750
1037		-33.203125
1038		-31.250000
1039		-37.109375
1040		-31.250000
1041		-39.062500
1042		-31.250000
1043		-41.015625
1044		-33.203125
1045		-41.015625
1046		-35.156250
1047		-42.968750
1048		-37.109375
1049		-44.921875
1050		-37.109375
1051		-44.921875
1052		-39.062500
1053		-44.921875
1054		-42.968750
1055		-46.875000
1056		-42.968750
1057		-48.828125
1058		-42.968750
1059		-50.781250
1060		-44.921875
1061		-52.734375
1062		-44.921875
1063		-52.734375
1064		-44.921875
1065		-52.734375
1066		-46.875000
1067		-54.687500
1068		-48.828125
1069		-54.687500
1070		-50.781250
1071		-54.687500
1072		-52.734375
1073		-58.593750
1074		-50.781250
1075		-58.593750
1076		-52.734375
1077		-58.593750
1078		-52.734375
1079		-60.546875
1080		-52.734375
1081		-60.546875
1082		-54.687500
1083		-60.546875
1084		-54.687500
1085		-62.500000
1086		-54.687500
1087		-60.546875
1088		-58.593750
1089		-62.500000
1090		-56.640625
1091		-64.453125
1092		-56.640625
1093		-64.453125
1094		-56.640625
1095		-64.453125
1096		-58.593750
1097		-64.453125
1098		-58.593750
1099		-64.453125
1100		-56.640625
1101		-64.453125
1102		-58.593750
1103		-62.500000
1104		-60.546875
1105		-62.500000
1106		-60.546875
1107		-64.453125
1108		-58.593750
1109		-64.453125
1110		-58.593750
1111		-64.453125
1112		-58.593750
1113		-64.453125
1114		-58.593750
1115		-64.453125
1116		-58.593750
1117		-64.453125
1118		-58.593750
1119		-62.500000
1120		-56.640625
1121		-60.546875
1122		-58.593750
1123		-62.500000
1124		-56.640625
1125		-62.500000
1126		-56.640625
1127		-62.500000
1128		-54.687500
1129		-62.500000
1130		-54.687500
1131		-60.546875
1132		-54.687500
1133		-60.546875
1134		-52.734375
1135		-58.593750
1136		-52.734375
1137		-56.640625
1138		-52.734375
1139		-56.640625
1140		-50.781250
1141		-56.640625
1142		-50.781250
1143		-56.640625
1144		-48.828125
1145		-54.687500
1146		-48.828125
1147		-54.687500
1148		-46.875000
1149		-52.734375
1150		-46.875000
1151		-52.734375
1152		-44.921875
1153		-48.828125
1154		-44.921875
1155		-48.828125
1156		-44.921875
1157		-48.828125
1158		-41.015625
1159		-46.875000
1160		-41.015625
1161		-44.921875
1162		-39.062500
1163		-44.921875
1164		-37.109375
1165		-42.968750
1166		-37.109375
1167		-41.015625
1168		-35.156250
1169		-41.015625
1170		-35.156250
1171		-37.109375
1172		-33.203125
1173		-35.156250
1174		-31.250000
1175		-35.156250
1176		-29.296875
1177		-35.156250
1178		-27.343750
1179		-33.203125
1180		-25.390625
1181		-31.250000
1182		-25.390625
1183		-29.296875
1184		-23.437500
1185		-27.343750
1186		-21.484375
1187		-25.390625
1188		-19.531250
1189		-23.437500
1190		-19.531250
1191		-23.437500
1192		-15.625000
1193		-21.484375
1194		-13.671875
1195		-19.531250
1196		-11.718750
1197		-17.578125
1198		-11.718750
1199		-15.625000
1200		-7.812500
1201		-13.671875
1202		-7.812500
1203		-11.718750
1204		-7.812500
1205		-7.812500
1206		-5.859375
1207		-7.812500
1208		-1.953125
1209		-7.812500
1210		0.000000
1211		-3.906250
1212		1.953125
1213		-3.906250
1214		3.906250
1215		-1.953125
1216		5.859375
1217		0.000000
1218		5.859375
1219		1.953125
1220		7.812500
1221		5.859375
1222		9.765625
1223		7.812500
1224		9.765625
1225		7.812500
1226		13.671875
1227		9.765625
1228		15.625000
1229		9.765625
1230		17.578125
1231		11.718750
1232		19.531250
1233		13.671875
1234		21.484375
1235		15.625000
1236		23.437500
1237		19.531250
1238		23.437500
1239		21.484375
1240		25.390625
1241		21.484375
1242		27.343750
1243		21.484375
1244		29.296875
1245		23.437500
1246		31.250000
1247		25.390625
1248		33.203125
1249		27.343750
1250		35.156250
1251		29.296875
1252		37.109375
1253		31.250000
1254		37.109375
1255		35.156250
1256		37.109375
1257		35.156250
1258		39.062500
1259		35.156250
1260		42.968750
1261		37.109375
1262		42.968750
1263		39.062500
1264		44.921875
1265		41.015625
1266		46.875000
1267		41.015625
1268		48.828125
1269		42.968750
1270		48.828125
1271		46.875000
1272		48.828125
1273		48.828125
