metingen laweit/1000Hz, 35.3cm/data_81_m209.txt

Channel              :		CH1
Frequency            :		1.061kHz
Period               :		0.942ms
PK-PK                :		335.9mV
Probe attenuation    :		1X
Voltage per ADC value:		0.122070mV
Time interval        :		2.00000us

index		CH1_Voltage(mV)
1		117.187500
2		117.187500
3		107.421875
4		115.234375
5		103.515625
6		113.281250
7		101.562500
8		109.375000
9		97.656250
10		107.421875
11		97.656250
12		101.562500
13		93.750000
14		97.656250
15		89.843750
16		95.703125
17		83.984375
18		93.750000
19		80.078125
20		89.843750
21		78.125000
22		85.937500
23		74.218750
24		83.984375
25		72.265625
26		78.125000
27		68.359375
28		76.171875
29		64.453125
30		70.312500
31		60.546875
32		66.406250
33		56.640625
34		62.500000
35		52.734375
36		58.593750
37		46.875000
38		56.640625
39		42.968750
40		52.734375
41		39.062500
42		46.875000
43		35.156250
44		44.921875
45		33.203125
46		39.062500
47		27.343750
48		33.203125
49		21.484375
50		29.296875
51		17.578125
52		27.343750
53		13.671875
54		21.484375
55		7.812500
56		17.578125
57		5.859375
58		11.718750
59		0.000000
60		9.765625
61		-1.953125
62		3.906250
63		-7.812500
64		-1.953125
65		-13.671875
66		-5.859375
67		-17.578125
68		-7.812500
69		-21.484375
70		-11.718750
71		-27.343750
72		-17.578125
73		-29.296875
74		-21.484375
75		-35.156250
76		-25.390625
77		-39.062500
78		-31.250000
79		-42.968750
80		-37.109375
81		-46.875000
82		-41.015625
83		-52.734375
84		-44.921875
85		-58.593750
86		-46.875000
87		-60.546875
88		-52.734375
89		-64.453125
90		-56.640625
91		-68.359375
92		-60.546875
93		-74.218750
94		-64.453125
95		-76.171875
96		-68.359375
97		-80.078125
98		-74.218750
99		-85.937500
100		-78.125000
101		-91.796875
102		-82.031250
103		-93.750000
104		-85.937500
105		-97.656250
106		-87.890625
107		-99.609375
108		-93.750000
109		-105.468750
110		-97.656250
111		-107.421875
112		-101.562500
113		-111.328125
114		-105.468750
115		-115.234375
116		-109.375000
117		-121.093750
118		-111.328125
119		-123.046875
120		-115.234375
121		-126.953125
122		-117.187500
123		-128.906250
124		-121.093750
125		-132.812500
126		-125.000000
127		-134.765625
128		-126.953125
129		-136.718750
130		-130.859375
131		-140.625000
132		-134.765625
133		-144.531250
134		-138.671875
135		-146.484375
136		-138.671875
137		-148.437500
138		-142.578125
139		-152.343750
140		-144.531250
141		-154.296875
142		-146.484375
143		-156.250000
144		-148.437500
145		-158.203125
146		-150.390625
147		-158.203125
148		-154.296875
149		-160.156250
150		-156.250000
151		-164.062500
152		-156.250000
153		-166.015625
154		-158.203125
155		-166.015625
156		-160.156250
157		-167.968750
158		-160.156250
159		-169.921875
160		-162.109375
161		-169.921875
162		-164.062500
163		-167.968750
164		-166.015625
165		-169.921875
166		-167.968750
167		-173.828125
168		-166.015625
169		-173.828125
170		-166.015625
171		-173.828125
172		-167.968750
173		-173.828125
174		-167.968750
175		-173.828125
176		-167.968750
177		-173.828125
178		-166.015625
179		-173.828125
180		-167.968750
181		-171.875000
182		-167.968750
183		-171.875000
184		-166.015625
185		-171.875000
186		-166.015625
187		-171.875000
188		-164.062500
189		-169.921875
190		-164.062500
191		-169.921875
192		-164.062500
193		-169.921875
194		-162.109375
195		-167.968750
196		-160.156250
197		-164.062500
198		-162.109375
199		-162.109375
200		-158.203125
201		-164.062500
202		-156.250000
203		-162.109375
204		-154.296875
205		-160.156250
206		-152.343750
207		-156.250000
208		-150.390625
209		-156.250000
210		-148.437500
211		-154.296875
212		-146.484375
213		-150.390625
214		-144.531250
215		-146.484375
216		-142.578125
217		-144.531250
218		-138.671875
219		-142.578125
220		-134.765625
221		-140.625000
222		-130.859375
223		-136.718750
224		-128.906250
225		-134.765625
226		-126.953125
227		-130.859375
228		-123.046875
229		-126.953125
230		-121.093750
231		-123.046875
232		-117.187500
233		-119.140625
234		-113.281250
235		-117.187500
236		-109.375000
237		-113.281250
238		-105.468750
239		-109.375000
240		-101.562500
241		-105.468750
242		-97.656250
243		-101.562500
244		-91.796875
245		-97.656250
246		-89.843750
247		-91.796875
248		-85.937500
249		-87.890625
250		-82.031250
251		-83.984375
252		-76.171875
253		-80.078125
254		-72.265625
255		-76.171875
256		-68.359375
257		-74.218750
258		-64.453125
259		-68.359375
260		-58.593750
261		-62.500000
262		-54.687500
263		-58.593750
264		-52.734375
265		-52.734375
266		-46.875000
267		-48.828125
268		-41.015625
269		-44.921875
270		-37.109375
271		-41.015625
272		-33.203125
273		-37.109375
274		-27.343750
275		-33.203125
276		-23.437500
277		-29.296875
278		-19.531250
279		-25.390625
280		-15.625000
281		-17.578125
282		-11.718750
283		-13.671875
284		-5.859375
285		-9.765625
286		0.000000
287		-5.859375
288		3.906250
289		0.000000
290		7.812500
291		3.906250
292		13.671875
293		7.812500
294		15.625000
295		11.718750
296		21.484375
297		17.578125
298		23.437500
299		21.484375
300		29.296875
301		27.343750
302		33.203125
303		29.296875
304		39.062500
305		35.156250
306		42.968750
307		39.062500
308		46.875000
309		41.015625
310		50.781250
311		44.921875
312		54.687500
313		50.781250
314		56.640625
315		54.687500
316		60.546875
317		58.593750
318		64.453125
319		60.546875
320		70.312500
321		64.453125
322		74.218750
323		68.359375
324		76.171875
325		72.265625
326		80.078125
327		76.171875
328		83.984375
329		80.078125
330		87.890625
331		83.984375
332		89.843750
333		87.890625
334		93.750000
335		89.843750
336		97.656250
337		91.796875
338		101.562500
339		95.703125
340		103.515625
341		99.609375
342		107.421875
343		103.515625
344		109.375000
345		105.468750
346		113.281250
347		107.421875
348		113.281250
349		113.281250
350		117.187500
351		115.234375
352		121.093750
353		115.234375
354		123.046875
355		117.187500
356		125.000000
357		119.140625
358		128.906250
359		123.046875
360		130.859375
361		125.000000
362		132.812500
363		126.953125
364		134.765625
365		130.859375
366		134.765625
367		132.812500
368		136.718750
369		132.812500
370		140.625000
371		134.765625
372		142.578125
373		136.718750
374		144.531250
375		138.671875
376		144.531250
377		140.625000
378		146.484375
379		140.625000
380		148.437500
381		144.531250
382		148.437500
383		146.484375
384		148.437500
385		146.484375
386		152.343750
387		146.484375
388		152.343750
389		148.437500
390		154.296875
391		148.437500
392		154.296875
393		148.437500
394		156.250000
395		148.437500
396		156.250000
397		150.390625
398		158.203125
399		152.343750
400		156.250000
401		154.296875
402		156.250000
403		152.343750
404		158.203125
405		152.343750
406		158.203125
407		152.343750
408		160.156250
409		152.343750
410		158.203125
411		152.343750
412		160.156250
413		152.343750
414		160.156250
415		154.296875
416		158.203125
417		154.296875
418		156.250000
419		152.343750
420		158.203125
421		152.343750
422		158.203125
423		150.390625
424		158.203125
425		150.390625
426		158.203125
427		150.390625
428		156.250000
429		150.390625
430		156.250000
431		148.437500
432		156.250000
433		150.390625
434		152.343750
435		148.437500
436		152.343750
437		146.484375
438		152.343750
439		144.531250
440		152.343750
441		142.578125
442		150.390625
443		140.625000
444		148.437500
445		140.625000
446		146.484375
447		138.671875
448		146.484375
449		138.671875
450		142.578125
451		136.718750
452		140.625000
453		132.812500
454		140.625000
455		130.859375
456		138.671875
457		128.906250
458		136.718750
459		126.953125
460		134.765625
461		125.000000
462		132.812500
463		123.046875
464		130.859375
465		123.046875
466		126.953125
467		119.140625
468		123.046875
469		115.234375
470		121.093750
471		113.281250
472		121.093750
473		111.328125
474		117.187500
475		107.421875
476		115.234375
477		103.515625
478		113.281250
479		99.609375
480		109.375000
481		99.609375
482		105.468750
483		97.656250
484		101.562500
485		93.750000
486		97.656250
487		87.890625
488		97.656250
489		85.937500
490		91.796875
491		82.031250
492		89.843750
493		78.125000
494		85.937500
495		72.265625
496		82.031250
497		70.312500
498		80.078125
499		68.359375
500		74.218750
501		64.453125
502		70.312500
503		58.593750
504		66.406250
505		54.687500
506		64.453125
507		50.781250
508		60.546875
509		48.828125
510		56.640625
511		42.968750
512		50.781250
513		39.062500
514		48.828125
515		37.109375
516		42.968750
517		33.203125
518		37.109375
519		27.343750
520		33.203125
521		21.484375
522		31.250000
523		17.578125
524		27.343750
525		11.718750
526		21.484375
527		9.765625
528		15.625000
529		5.859375
530		13.671875
531		1.953125
532		9.765625
533		-1.953125
534		3.906250
535		-5.859375
536		-1.953125
537		-11.718750
538		-5.859375
539		-17.578125
540		-9.765625
541		-21.484375
542		-13.671875
543		-25.390625
544		-17.578125
545		-29.296875
546		-21.484375
547		-35.156250
548		-27.343750
549		-39.062500
550		-31.250000
551		-42.968750
552		-37.109375
553		-48.828125
554		-41.015625
555		-52.734375
556		-42.968750
557		-56.640625
558		-48.828125
559		-60.546875
560		-52.734375
561		-66.406250
562		-56.640625
563		-70.312500
564		-60.546875
565		-72.265625
566		-66.406250
567		-76.171875
568		-70.312500
569		-80.078125
570		-74.218750
571		-87.890625
572		-78.125000
573		-89.843750
574		-82.031250
575		-93.750000
576		-85.937500
577		-97.656250
578		-89.843750
579		-101.562500
580		-93.750000
581		-105.468750
582		-97.656250
583		-107.421875
584		-101.562500
585		-111.328125
586		-105.468750
587		-117.187500
588		-109.375000
589		-119.140625
590		-111.328125
591		-123.046875
592		-115.234375
593		-126.953125
594		-119.140625
595		-128.906250
596		-121.093750
597		-132.812500
598		-125.000000
599		-134.765625
600		-126.953125
601		-136.718750
602		-132.812500
603		-140.625000
604		-134.765625
605		-144.531250
606		-136.718750
607		-146.484375
608		-138.671875
609		-148.437500
610		-140.625000
611		-150.390625
612		-142.578125
613		-152.343750
614		-146.484375
615		-154.296875
616		-148.437500
617		-154.296875
618		-150.390625
619		-156.250000
620		-152.343750
621		-160.156250
622		-154.296875
623		-162.109375
624		-156.250000
625		-164.062500
626		-156.250000
627		-166.015625
628		-158.203125
629		-166.015625
630		-158.203125
631		-167.968750
632		-160.156250
633		-167.968750
634		-162.109375
635		-167.968750
636		-164.062500
637		-169.921875
638		-164.062500
639		-171.875000
640		-164.062500
641		-171.875000
642		-164.062500
643		-171.875000
644		-166.015625
645		-171.875000
646		-166.015625
647		-171.875000
648		-166.015625
649		-171.875000
650		-166.015625
651		-169.921875
652		-166.015625
653		-169.921875
654		-166.015625
655		-171.875000
656		-164.062500
657		-169.921875
658		-164.062500
659		-169.921875
660		-162.109375
661		-167.968750
662		-162.109375
663		-167.968750
664		-160.156250
665		-166.015625
666		-160.156250
667		-164.062500
668		-160.156250
669		-162.109375
670		-158.203125
671		-162.109375
672		-154.296875
673		-160.156250
674		-154.296875
675		-158.203125
676		-152.343750
677		-156.250000
678		-150.390625
679		-154.296875
680		-146.484375
681		-152.343750
682		-144.531250
683		-150.390625
684		-144.531250
685		-146.484375
686		-142.578125
687		-144.531250
688		-136.718750
689		-142.578125
690		-134.765625
691		-140.625000
692		-130.859375
693		-136.718750
694		-128.906250
695		-134.765625
696		-126.953125
697		-130.859375
698		-123.046875
699		-126.953125
700		-119.140625
701		-123.046875
702		-117.187500
703		-119.140625
704		-113.281250
705		-115.234375
706		-109.375000
707		-113.281250
708		-105.468750
709		-109.375000
710		-101.562500
711		-105.468750
712		-97.656250
713		-103.515625
714		-93.750000
715		-97.656250
716		-89.843750
717		-93.750000
718		-87.890625
719		-87.890625
720		-83.984375
721		-83.984375
722		-78.125000
723		-82.031250
724		-72.265625
725		-78.125000
726		-68.359375
727		-74.218750
728		-64.453125
729		-68.359375
730		-58.593750
731		-64.453125
732		-56.640625
733		-60.546875
734		-52.734375
735		-54.687500
736		-48.828125
737		-48.828125
738		-42.968750
739		-46.875000
740		-37.109375
741		-42.968750
742		-33.203125
743		-39.062500
744		-29.296875
745		-33.203125
746		-23.437500
747		-27.343750
748		-19.531250
749		-25.390625
750		-15.625000
751		-19.531250
752		-11.718750
753		-13.671875
754		-7.812500
755		-9.765625
756		-1.953125
757		-5.859375
758		1.953125
759		-1.953125
760		7.812500
761		1.953125
762		11.718750
763		5.859375
764		15.625000
765		9.765625
766		19.531250
767		15.625000
768		23.437500
769		21.484375
770		27.343750
771		25.390625
772		33.203125
773		27.343750
774		37.109375
775		33.203125
776		41.015625
777		39.062500
778		44.921875
779		41.015625
780		48.828125
781		44.921875
782		54.687500
783		48.828125
784		56.640625
785		54.687500
786		60.546875
787		58.593750
788		64.453125
789		62.500000
790		68.359375
791		64.453125
792		72.265625
793		70.312500
794		78.125000
795		70.312500
796		80.078125
797		76.171875
798		83.984375
799		78.125000
800		87.890625
801		83.984375
802		89.843750
803		87.890625
804		91.796875
805		89.843750
806		97.656250
807		91.796875
808		101.562500
809		95.703125
810		103.515625
811		97.656250
812		107.421875
813		101.562500
814		109.375000
815		103.515625
816		113.281250
817		107.421875
818		113.281250
819		111.328125
820		115.234375
821		113.281250
822		119.140625
823		115.234375
824		123.046875
825		117.187500
826		125.000000
827		119.140625
828		126.953125
829		123.046875
830		128.906250
831		123.046875
832		130.859375
833		126.953125
834		134.765625
835		128.906250
836		134.765625
837		132.812500
838		136.718750
839		132.812500
840		140.625000
841		134.765625
842		142.578125
843		136.718750
844		142.578125
845		138.671875
846		144.531250
847		140.625000
848		146.484375
849		140.625000
850		148.437500
851		142.578125
852		148.437500
853		146.484375
854		148.437500
855		146.484375
856		150.390625
857		146.484375
858		152.343750
859		146.484375
860		154.296875
861		148.437500
862		154.296875
863		148.437500
864		156.250000
865		150.390625
866		156.250000
867		150.390625
868		156.250000
869		152.343750
870		156.250000
871		154.296875
872		156.250000
873		152.343750
874		158.203125
875		152.343750
876		158.203125
877		152.343750
878		158.203125
879		152.343750
880		160.156250
881		152.343750
882		158.203125
883		152.343750
884		160.156250
885		154.296875
886		158.203125
887		154.296875
888		156.250000
889		152.343750
890		158.203125
891		152.343750
892		158.203125
893		150.390625
894		158.203125
895		150.390625
896		158.203125
897		150.390625
898		156.250000
899		148.437500
900		156.250000
901		148.437500
902		156.250000
903		150.390625
904		152.343750
905		148.437500
906		152.343750
907		144.531250
908		152.343750
909		144.531250
910		152.343750
911		142.578125
912		150.390625
913		142.578125
914		148.437500
915		140.625000
916		148.437500
917		138.671875
918		146.484375
919		138.671875
920		144.531250
921		136.718750
922		140.625000
923		132.812500
924		140.625000
925		132.812500
926		140.625000
927		128.906250
928		138.671875
929		126.953125
930		134.765625
931		126.953125
932		132.812500
933		123.046875
934		130.859375
935		123.046875
936		128.906250
937		121.093750
938		125.000000
939		117.187500
940		123.046875
941		113.281250
942		121.093750
943		111.328125
944		119.140625
945		107.421875
946		117.187500
947		105.468750
948		113.281250
949		101.562500
950		111.328125
951		99.609375
952		107.421875
953		97.656250
954		103.515625
955		95.703125
956		99.609375
957		89.843750
958		97.656250
959		87.890625
960		95.703125
961		83.984375
962		91.796875
963		80.078125
964		87.890625
965		76.171875
966		83.984375
967		72.265625
968		80.078125
969		70.312500
970		76.171875
971		66.406250
972		72.265625
973		60.546875
974		68.359375
975		56.640625
976		66.406250
977		52.734375
978		62.500000
979		48.828125
980		58.593750
981		44.921875
982		54.687500
983		42.968750
984		50.781250
985		37.109375
986		46.875000
987		33.203125
988		41.015625
989		29.296875
990		35.156250
991		25.390625
992		33.203125
993		19.531250
994		29.296875
995		15.625000
996		25.390625
997		11.718750
998		19.531250
999		5.859375
1000		15.625000
1001		1.953125
1002		11.718750
1003		0.000000
1004		5.859375
1005		-3.906250
1006		1.953125
1007		-9.765625
1008		-3.906250
1009		-15.625000
1010		-5.859375
1011		-19.531250
1012		-9.765625
1013		-23.437500
1014		-15.625000
1015		-29.296875
1016		-19.531250
1017		-33.203125
1018		-23.437500
1019		-35.156250
1020		-29.296875
1021		-41.015625
1022		-35.156250
1023		-44.921875
1024		-39.062500
1025		-50.781250
1026		-41.015625
1027		-54.687500
1028		-44.921875
1029		-58.593750
1030		-50.781250
1031		-64.453125
1032		-54.687500
1033		-66.406250
1034		-58.593750
1035		-72.265625
1036		-62.500000
1037		-74.218750
1038		-68.359375
1039		-78.125000
1040		-72.265625
1041		-85.937500
1042		-76.171875
1043		-87.890625
1044		-80.078125
1045		-91.796875
1046		-83.984375
1047		-95.703125
1048		-87.890625
1049		-101.562500
1050		-91.796875
1051		-101.562500
1052		-95.703125
1053		-105.468750
1054		-97.656250
1055		-109.375000
1056		-103.515625
1057		-115.234375
1058		-107.421875
1059		-119.140625
1060		-109.375000
1061		-121.093750
1062		-113.281250
1063		-125.000000
1064		-115.234375
1065		-128.906250
1066		-119.140625
1067		-130.859375
1068		-123.046875
1069		-132.812500
1070		-125.000000
1071		-134.765625
1072		-130.859375
1073		-138.671875
1074		-132.812500
1075		-142.578125
1076		-134.765625
1077		-144.531250
1078		-136.718750
1079		-146.484375
1080		-140.625000
1081		-150.390625
1082		-142.578125
1083		-152.343750
1084		-144.531250
1085		-154.296875
1086		-146.484375
1087		-154.296875
1088		-148.437500
1089		-156.250000
1090		-152.343750
1091		-160.156250
1092		-154.296875
1093		-162.109375
1094		-154.296875
1095		-164.062500
1096		-156.250000
1097		-166.015625
1098		-158.203125
1099		-166.015625
1100		-160.156250
1101		-167.968750
1102		-160.156250
1103		-169.921875
1104		-162.109375
1105		-167.968750
1106		-164.062500
1107		-167.968750
1108		-166.015625
1109		-171.875000
1110		-164.062500
1111		-171.875000
1112		-166.015625
1113		-171.875000
1114		-166.015625
1115		-173.828125
1116		-166.015625
1117		-171.875000
1118		-166.015625
1119		-173.828125
1120		-166.015625
1121		-169.921875
1122		-167.968750
1123		-169.921875
1124		-166.015625
1125		-171.875000
1126		-166.015625
1127		-171.875000
1128		-166.015625
1129		-171.875000
1130		-164.062500
1131		-169.921875
1132		-164.062500
1133		-169.921875
1134		-162.109375
1135		-167.968750
1136		-162.109375
1137		-167.968750
1138		-160.156250
1139		-164.062500
1140		-160.156250
1141		-162.109375
1142		-158.203125
1143		-162.109375
1144		-156.250000
1145		-162.109375
1146		-154.296875
1147		-160.156250
1148		-152.343750
1149		-156.250000
1150		-148.437500
1151		-154.296875
1152		-146.484375
1153		-152.343750
1154		-144.531250
1155		-148.437500
1156		-144.531250
1157		-146.484375
1158		-142.578125
1159		-144.531250
1160		-136.718750
1161		-142.578125
1162		-134.765625
1163		-140.625000
1164		-132.812500
1165		-136.718750
1166		-128.906250
1167		-134.765625
1168		-126.953125
1169		-130.859375
1170		-121.093750
1171		-126.953125
1172		-121.093750
1173		-121.093750
1174		-117.187500
1175		-119.140625
1176		-113.281250
1177		-117.187500
1178		-107.421875
1179		-111.328125
1180		-105.468750
1181		-109.375000
1182		-101.562500
1183		-105.468750
1184		-97.656250
1185		-101.562500
1186		-91.796875
1187		-97.656250
1188		-89.843750
1189		-91.796875
1190		-85.937500
1191		-87.890625
1192		-82.031250
1193		-85.937500
1194		-76.171875
1195		-82.031250
1196		-72.265625
1197		-78.125000
1198		-68.359375
1199		-72.265625
1200		-62.500000
1201		-68.359375
1202		-58.593750
1203		-62.500000
1204		-56.640625
1205		-60.546875
1206		-52.734375
1207		-52.734375
1208		-46.875000
1209		-48.828125
1210		-42.968750
1211		-46.875000
1212		-37.109375
1213		-42.968750
1214		-31.250000
1215		-37.109375
1216		-27.343750
1217		-31.250000
1218		-23.437500
1219		-27.343750
1220		-19.531250
1221		-25.390625
