metingen laweit/2000Hz, 26.1cm/data_81_129.txt

Channel              :		CH1
Frequency            :		1.975kHz
Period               :		0.506ms
PK-PK                :		150.4mV
Probe attenuation    :		1X
Voltage per ADC value:		0.122070mV
Time interval        :		2.00000us

index		CH1_Voltage(mV)
1		72.265625
2		72.265625
3		76.171875
4		72.265625
5		76.171875
6		72.265625
7		74.218750
8		70.312500
9		74.218750
10		70.312500
11		74.218750
12		70.312500
13		72.265625
14		68.359375
15		72.265625
16		68.359375
17		70.312500
18		66.406250
19		70.312500
20		62.500000
21		68.359375
22		62.500000
23		66.406250
24		60.546875
25		64.453125
26		58.593750
27		62.500000
28		56.640625
29		60.546875
30		54.687500
31		58.593750
32		52.734375
33		56.640625
34		48.828125
35		54.687500
36		46.875000
37		50.781250
38		44.921875
39		48.828125
40		41.015625
41		46.875000
42		39.062500
43		42.968750
44		35.156250
45		41.015625
46		31.250000
47		37.109375
48		29.296875
49		33.203125
50		25.390625
51		31.250000
52		23.437500
53		27.343750
54		19.531250
55		25.390625
56		15.625000
57		21.484375
58		11.718750
59		17.578125
60		7.812500
61		13.671875
62		5.859375
63		11.718750
64		1.953125
65		7.812500
66		-1.953125
67		3.906250
68		-5.859375
69		0.000000
70		-7.812500
71		-3.906250
72		-11.718750
73		-7.812500
74		-15.625000
75		-11.718750
76		-19.531250
77		-13.671875
78		-23.437500
79		-17.578125
80		-25.390625
81		-21.484375
82		-29.296875
83		-23.437500
84		-33.203125
85		-27.343750
86		-35.156250
87		-31.250000
88		-39.062500
89		-33.203125
90		-41.015625
91		-37.109375
92		-44.921875
93		-39.062500
94		-46.875000
95		-41.015625
96		-48.828125
97		-44.921875
98		-50.781250
99		-46.875000
100		-52.734375
101		-48.828125
102		-56.640625
103		-50.781250
104		-58.593750
105		-54.687500
106		-60.546875
107		-56.640625
108		-60.546875
109		-58.593750
110		-62.500000
111		-58.593750
112		-62.500000
113		-60.546875
114		-64.453125
115		-62.500000
116		-66.406250
117		-62.500000
118		-66.406250
119		-64.453125
120		-66.406250
121		-64.453125
122		-68.359375
123		-64.453125
124		-66.406250
125		-64.453125
126		-68.359375
127		-64.453125
128		-68.359375
129		-64.453125
130		-66.406250
131		-64.453125
132		-68.359375
133		-64.453125
134		-66.406250
135		-62.500000
136		-66.406250
137		-62.500000
138		-64.453125
139		-60.546875
140		-62.500000
141		-60.546875
142		-62.500000
143		-58.593750
144		-60.546875
145		-56.640625
146		-58.593750
147		-54.687500
148		-56.640625
149		-52.734375
150		-54.687500
151		-50.781250
152		-52.734375
153		-48.828125
154		-50.781250
155		-46.875000
156		-48.828125
157		-42.968750
158		-44.921875
159		-41.015625
160		-42.968750
161		-37.109375
162		-39.062500
163		-35.156250
164		-37.109375
165		-31.250000
166		-33.203125
167		-29.296875
168		-29.296875
169		-25.390625
170		-27.343750
171		-21.484375
172		-23.437500
173		-19.531250
174		-21.484375
175		-15.625000
176		-17.578125
177		-11.718750
178		-13.671875
179		-7.812500
180		-9.765625
181		-5.859375
182		-7.812500
183		-1.953125
184		-3.906250
185		1.953125
186		0.000000
187		5.859375
188		3.906250
189		9.765625
190		7.812500
191		11.718750
192		11.718750
193		15.625000
194		13.671875
195		19.531250
196		17.578125
197		21.484375
198		21.484375
199		27.343750
200		25.390625
201		29.296875
202		27.343750
203		33.203125
204		31.250000
205		35.156250
206		33.203125
207		39.062500
208		37.109375
209		41.015625
210		41.015625
211		44.921875
212		41.015625
213		46.875000
214		44.921875
215		50.781250
216		48.828125
217		52.734375
218		50.781250
219		56.640625
220		52.734375
221		56.640625
222		54.687500
223		58.593750
224		56.640625
225		60.546875
226		60.546875
227		64.453125
228		60.546875
229		66.406250
230		64.453125
231		66.406250
232		64.453125
233		68.359375
234		66.406250
235		70.312500
236		68.359375
237		70.312500
238		68.359375
239		72.265625
240		70.312500
241		72.265625
242		72.265625
243		74.218750
244		72.265625
245		76.171875
246		72.265625
247		76.171875
248		72.265625
249		76.171875
250		72.265625
251		76.171875
252		74.218750
253		76.171875
254		72.265625
255		76.171875
256		72.265625
257		76.171875
258		72.265625
259		74.218750
260		72.265625
261		74.218750
262		70.312500
263		74.218750
264		70.312500
265		74.218750
266		70.312500
267		72.265625
268		68.359375
269		70.312500
270		66.406250
271		70.312500
272		66.406250
273		68.359375
274		64.453125
275		66.406250
276		62.500000
277		64.453125
278		60.546875
279		64.453125
280		58.593750
281		62.500000
282		54.687500
283		60.546875
284		52.734375
285		58.593750
286		50.781250
287		54.687500
288		48.828125
289		52.734375
290		46.875000
291		50.781250
292		42.968750
293		46.875000
294		39.062500
295		44.921875
296		37.109375
297		42.968750
298		33.203125
299		39.062500
300		31.250000
301		35.156250
302		27.343750
303		33.203125
304		25.390625
305		29.296875
306		21.484375
307		25.390625
308		17.578125
309		23.437500
310		13.671875
311		19.531250
312		11.718750
313		17.578125
314		7.812500
315		11.718750
316		3.906250
317		9.765625
318		0.000000
319		5.859375
320		-3.906250
321		1.953125
322		-7.812500
323		-1.953125
324		-9.765625
325		-3.906250
326		-13.671875
327		-9.765625
328		-17.578125
329		-11.718750
330		-21.484375
331		-15.625000
332		-23.437500
333		-17.578125
334		-27.343750
335		-21.484375
336		-29.296875
337		-25.390625
338		-33.203125
339		-29.296875
340		-37.109375
341		-31.250000
342		-39.062500
343		-35.156250
344		-42.968750
345		-39.062500
346		-44.921875
347		-41.015625
348		-46.875000
349		-42.968750
350		-50.781250
351		-46.875000
352		-52.734375
353		-48.828125
354		-54.687500
355		-50.781250
356		-56.640625
357		-52.734375
358		-58.593750
359		-54.687500
360		-60.546875
361		-56.640625
362		-62.500000
363		-58.593750
364		-62.500000
365		-58.593750
366		-64.453125
367		-60.546875
368		-66.406250
369		-62.500000
370		-66.406250
371		-62.500000
372		-66.406250
373		-64.453125
374		-68.359375
375		-64.453125
376		-68.359375
377		-64.453125
378		-68.359375
379		-64.453125
380		-68.359375
381		-64.453125
382		-68.359375
383		-64.453125
384		-68.359375
385		-64.453125
386		-68.359375
387		-62.500000
388		-66.406250
389		-62.500000
390		-66.406250
391		-60.546875
392		-64.453125
393		-60.546875
394		-62.500000
395		-60.546875
396		-60.546875
397		-56.640625
398		-60.546875
399		-56.640625
400		-58.593750
401		-54.687500
402		-54.687500
403		-50.781250
404		-52.734375
405		-50.781250
406		-50.781250
407		-46.875000
408		-48.828125
409		-44.921875
410		-46.875000
411		-42.968750
412		-42.968750
413		-39.062500
414		-41.015625
415		-37.109375
416		-39.062500
417		-33.203125
418		-35.156250
419		-31.250000
420		-31.250000
421		-27.343750
422		-29.296875
423		-23.437500
424		-25.390625
425		-21.484375
426		-21.484375
427		-17.578125
428		-19.531250
429		-13.671875
430		-17.578125
431		-11.718750
432		-11.718750
433		-7.812500
434		-7.812500
435		-3.906250
436		-5.859375
437		0.000000
438		-1.953125
439		3.906250
440		1.953125
441		7.812500
442		5.859375
443		9.765625
444		7.812500
445		13.671875
446		11.718750
447		17.578125
448		15.625000
449		21.484375
450		19.531250
451		23.437500
452		23.437500
453		27.343750
454		25.390625
455		31.250000
456		29.296875
457		33.203125
458		33.203125
459		37.109375
460		35.156250
461		41.015625
462		39.062500
463		42.968750
464		41.015625
465		46.875000
466		44.921875
467		48.828125
468		44.921875
469		50.781250
470		48.828125
471		52.734375
472		50.781250
473		56.640625
474		54.687500
475		58.593750
476		56.640625
477		60.546875
478		58.593750
479		62.500000
480		58.593750
481		64.453125
482		62.500000
483		66.406250
484		64.453125
485		68.359375
486		66.406250
487		68.359375
488		66.406250
489		70.312500
490		68.359375
491		72.265625
492		70.312500
493		72.265625
494		70.312500
495		74.218750
496		70.312500
497		76.171875
498		72.265625
499		74.218750
500		72.265625
501		76.171875
502		72.265625
503		76.171875
504		72.265625
505		76.171875
506		74.218750
507		76.171875
508		72.265625
509		76.171875
510		74.218750
511		76.171875
512		72.265625
513		74.218750
514		72.265625
515		76.171875
516		70.312500
517		74.218750
518		70.312500
519		74.218750
520		68.359375
521		72.265625
522		68.359375
523		70.312500
524		66.406250
525		70.312500
526		64.453125
527		68.359375
528		64.453125
529		66.406250
530		62.500000
531		64.453125
532		60.546875
533		64.453125
534		58.593750
535		62.500000
536		54.687500
537		58.593750
538		52.734375
539		56.640625
540		50.781250
541		56.640625
542		46.875000
543		52.734375
544		44.921875
545		50.781250
546		41.015625
547		46.875000
548		39.062500
549		44.921875
550		37.109375
551		41.015625
552		33.203125
553		39.062500
554		31.250000
555		35.156250
556		27.343750
557		33.203125
558		23.437500
559		29.296875
560		21.484375
561		25.390625
562		17.578125
563		21.484375
564		11.718750
565		19.531250
566		9.765625
567		15.625000
568		5.859375
569		11.718750
570		3.906250
571		7.812500
572		0.000000
573		3.906250
574		-5.859375
575		0.000000
576		-7.812500
577		-1.953125
578		-11.718750
579		-5.859375
580		-15.625000
581		-9.765625
582		-17.578125
583		-13.671875
584		-21.484375
585		-15.625000
586		-25.390625
587		-19.531250
588		-27.343750
589		-21.484375
590		-31.250000
591		-25.390625
592		-35.156250
593		-29.296875
594		-37.109375
595		-33.203125
596		-39.062500
597		-35.156250
598		-42.968750
599		-37.109375
600		-46.875000
601		-41.015625
602		-48.828125
603		-42.968750
604		-50.781250
605		-46.875000
606		-52.734375
607		-48.828125
608		-54.687500
609		-50.781250
610		-56.640625
611		-52.734375
612		-58.593750
613		-54.687500
614		-60.546875
615		-56.640625
616		-62.500000
617		-58.593750
618		-62.500000
619		-60.546875
620		-64.453125
621		-60.546875
622		-64.453125
623		-62.500000
624		-66.406250
625		-62.500000
626		-68.359375
627		-62.500000
628		-66.406250
629		-64.453125
630		-68.359375
631		-64.453125
632		-66.406250
633		-64.453125
634		-68.359375
635		-64.453125
636		-68.359375
637		-64.453125
638		-66.406250
639		-62.500000
640		-66.406250
641		-62.500000
642		-66.406250
643		-60.546875
644		-64.453125
645		-60.546875
646		-62.500000
647		-60.546875
648		-62.500000
649		-58.593750
650		-60.546875
651		-56.640625
652		-58.593750
653		-54.687500
654		-56.640625
655		-52.734375
656		-54.687500
657		-50.781250
658		-52.734375
659		-48.828125
660		-50.781250
661		-46.875000
662		-46.875000
663		-42.968750
664		-44.921875
665		-41.015625
666		-42.968750
667		-37.109375
668		-39.062500
669		-35.156250
670		-37.109375
671		-31.250000
672		-35.156250
673		-29.296875
674		-31.250000
675		-25.390625
676		-27.343750
677		-21.484375
678		-23.437500
679		-19.531250
680		-21.484375
681		-15.625000
682		-17.578125
683		-11.718750
684		-13.671875
685		-9.765625
686		-9.765625
687		-5.859375
688		-7.812500
689		-1.953125
690		-3.906250
691		1.953125
692		0.000000
693		5.859375
694		3.906250
695		7.812500
696		7.812500
697		11.718750
698		9.765625
699		15.625000
700		13.671875
701		19.531250
702		17.578125
703		21.484375
704		21.484375
705		25.390625
706		23.437500
707		29.296875
708		27.343750
709		33.203125
710		31.250000
711		35.156250
712		33.203125
713		39.062500
714		37.109375
715		42.968750
716		39.062500
717		44.921875
718		42.968750
719		46.875000
720		44.921875
721		50.781250
722		48.828125
723		52.734375
724		50.781250
725		54.687500
726		52.734375
727		58.593750
728		56.640625
729		58.593750
730		58.593750
731		60.546875
732		60.546875
733		64.453125
734		62.500000
735		66.406250
736		62.500000
737		68.359375
738		64.453125
739		68.359375
740		66.406250
741		70.312500
742		68.359375
743		70.312500
744		68.359375
745		72.265625
746		70.312500
747		74.218750
748		72.265625
749		74.218750
750		72.265625
751		76.171875
752		72.265625
753		76.171875
754		72.265625
755		76.171875
756		74.218750
757		76.171875
758		74.218750
759		76.171875
760		74.218750
761		76.171875
762		74.218750
763		76.171875
764		74.218750
765		76.171875
766		72.265625
767		76.171875
768		72.265625
769		76.171875
770		70.312500
771		74.218750
772		70.312500
773		74.218750
774		68.359375
775		72.265625
776		68.359375
777		72.265625
778		66.406250
779		70.312500
780		64.453125
781		68.359375
782		62.500000
783		66.406250
784		60.546875
785		64.453125
786		58.593750
787		62.500000
788		56.640625
789		60.546875
790		54.687500
791		58.593750
792		52.734375
793		56.640625
794		48.828125
795		54.687500
796		46.875000
797		50.781250
798		42.968750
799		48.828125
800		41.015625
801		44.921875
802		39.062500
803		42.968750
804		35.156250
805		41.015625
806		33.203125
807		37.109375
808		29.296875
809		35.156250
810		25.390625
811		31.250000
812		23.437500
813		27.343750
814		19.531250
815		23.437500
816		15.625000
817		21.484375
818		11.718750
819		17.578125
820		7.812500
821		13.671875
822		5.859375
823		9.765625
824		1.953125
825		7.812500
826		-1.953125
827		3.906250
828		-5.859375
829		0.000000
830		-7.812500
831		-3.906250
832		-13.671875
833		-5.859375
834		-15.625000
835		-9.765625
836		-19.531250
837		-13.671875
838		-23.437500
839		-17.578125
840		-27.343750
841		-21.484375
842		-29.296875
843		-23.437500
844		-31.250000
845		-27.343750
846		-35.156250
847		-31.250000
848		-39.062500
849		-33.203125
850		-41.015625
851		-35.156250
852		-44.921875
853		-39.062500
854		-46.875000
855		-41.015625
856		-48.828125
857		-44.921875
858		-50.781250
859		-46.875000
860		-52.734375
861		-48.828125
862		-54.687500
863		-50.781250
864		-56.640625
865		-54.687500
866		-60.546875
867		-54.687500
868		-60.546875
869		-56.640625
870		-62.500000
871		-58.593750
872		-64.453125
873		-60.546875
874		-64.453125
875		-60.546875
876		-64.453125
877		-62.500000
878		-66.406250
879		-62.500000
880		-66.406250
881		-64.453125
882		-68.359375
883		-64.453125
884		-66.406250
885		-64.453125
886		-68.359375
887		-64.453125
888		-66.406250
889		-64.453125
890		-66.406250
891		-62.500000
892		-66.406250
893		-62.500000
894		-66.406250
895		-60.546875
896		-64.453125
897		-62.500000
898		-62.500000
899		-60.546875
900		-62.500000
901		-58.593750
902		-60.546875
903		-56.640625
904		-58.593750
905		-54.687500
906		-58.593750
907		-54.687500
908		-56.640625
909		-50.781250
910		-52.734375
911		-48.828125
912		-52.734375
913		-46.875000
914		-48.828125
915		-44.921875
916		-46.875000
917		-41.015625
918		-44.921875
919		-39.062500
920		-41.015625
921		-35.156250
922		-39.062500
923		-33.203125
924		-35.156250
925		-29.296875
926		-31.250000
927		-27.343750
928		-29.296875
929		-23.437500
930		-25.390625
931		-21.484375
932		-23.437500
933		-17.578125
934		-19.531250
935		-13.671875
936		-15.625000
937		-11.718750
938		-13.671875
939		-7.812500
940		-7.812500
941		-3.906250
942		-5.859375
943		0.000000
944		-1.953125
945		3.906250
946		0.000000
947		5.859375
948		5.859375
949		9.765625
950		7.812500
951		13.671875
952		11.718750
953		17.578125
954		15.625000
955		21.484375
956		19.531250
957		23.437500
958		23.437500
959		27.343750
960		25.390625
961		29.296875
962		29.296875
963		33.203125
964		31.250000
965		37.109375
966		35.156250
967		39.062500
968		37.109375
969		42.968750
970		41.015625
971		44.921875
972		44.921875
973		48.828125
974		46.875000
975		50.781250
976		48.828125
977		54.687500
978		52.734375
979		56.640625
980		54.687500
981		58.593750
982		56.640625
983		60.546875
984		58.593750
985		62.500000
986		60.546875
987		64.453125
988		62.500000
989		66.406250
990		64.453125
991		68.359375
992		66.406250
993		70.312500
994		68.359375
995		70.312500
996		68.359375
997		72.265625
998		70.312500
999		72.265625
1000		70.312500
1001		74.218750
1002		72.265625
1003		76.171875
1004		72.265625
1005		76.171875
1006		72.265625
1007		76.171875
1008		72.265625
1009		76.171875
1010		74.218750
1011		76.171875
1012		72.265625
1013		78.125000
1014		74.218750
1015		76.171875
1016		74.218750
1017		76.171875
1018		72.265625
1019		76.171875
1020		72.265625
1021		76.171875
1022		72.265625
1023		76.171875
1024		70.312500
1025		74.218750
1026		70.312500
1027		74.218750
1028		68.359375
1029		72.265625
1030		68.359375
1031		72.265625
1032		66.406250
1033		68.359375
1034		64.453125
1035		68.359375
1036		62.500000
1037		66.406250
1038		60.546875
1039		64.453125
1040		58.593750
1041		62.500000
1042		56.640625
1043		60.546875
1044		52.734375
1045		58.593750
1046		52.734375
1047		56.640625
1048		48.828125
1049		52.734375
1050		46.875000
1051		50.781250
1052		42.968750
1053		48.828125
1054		41.015625
1055		44.921875
1056		37.109375
1057		42.968750
1058		35.156250
1059		39.062500
1060		31.250000
1061		37.109375
1062		27.343750
1063		33.203125
1064		25.390625
1065		29.296875
1066		21.484375
1067		27.343750
1068		19.531250
1069		23.437500
1070		15.625000
1071		19.531250
1072		11.718750
1073		15.625000
1074		7.812500
1075		13.671875
1076		3.906250
1077		9.765625
1078		1.953125
1079		5.859375
1080		-1.953125
1081		1.953125
1082		-5.859375
1083		-1.953125
1084		-9.765625
1085		-3.906250
1086		-13.671875
1087		-7.812500
1088		-15.625000
1089		-11.718750
1090		-19.531250
1091		-15.625000
1092		-23.437500
1093		-17.578125
1094		-27.343750
1095		-21.484375
1096		-29.296875
1097		-25.390625
1098		-33.203125
1099		-27.343750
1100		-35.156250
1101		-31.250000
1102		-39.062500
1103		-33.203125
1104		-41.015625
1105		-37.109375
1106		-44.921875
1107		-39.062500
1108		-46.875000
1109		-42.968750
1110		-48.828125
1111		-44.921875
1112		-50.781250
1113		-46.875000
1114		-52.734375
1115		-48.828125
1116		-54.687500
1117		-52.734375
1118		-58.593750
1119		-52.734375
1120		-58.593750
1121		-56.640625
1122		-60.546875
1123		-56.640625
1124		-62.500000
1125		-58.593750
1126		-64.453125
1127		-60.546875
1128		-64.453125
1129		-60.546875
1130		-66.406250
1131		-62.500000
1132		-66.406250
1133		-62.500000
1134		-66.406250
1135		-64.453125
1136		-66.406250
1137		-62.500000
1138		-66.406250
1139		-64.453125
1140		-66.406250
1141		-64.453125
1142		-66.406250
1143		-62.500000
1144		-66.406250
1145		-62.500000
1146		-64.453125
1147		-62.500000
1148		-66.406250
1149		-62.500000
1150		-64.453125
1151		-60.546875
1152		-62.500000
1153		-58.593750
1154		-60.546875
1155		-56.640625
1156		-58.593750
1157		-56.640625
1158		-58.593750
1159		-54.687500
1160		-56.640625
1161		-52.734375
1162		-54.687500
1163		-50.781250
1164		-52.734375
1165		-48.828125
1166		-48.828125
1167		-46.875000
1168		-46.875000
1169		-42.968750
1170		-44.921875
1171		-39.062500
1172		-42.968750
1173		-37.109375
1174		-39.062500
1175		-35.156250
1176		-37.109375
1177		-31.250000
1178		-35.156250
1179		-29.296875
1180		-31.250000
1181		-25.390625
1182		-27.343750
1183		-23.437500
1184		-23.437500
1185		-19.531250
1186		-21.484375
1187		-15.625000
1188		-17.578125
1189		-11.718750
1190		-15.625000
1191		-9.765625
1192		-9.765625
1193		-5.859375
1194		-7.812500
1195		-1.953125
1196		-3.906250
1197		1.953125
1198		0.000000
1199		3.906250
1200		3.906250
1201		7.812500
1202		7.812500
1203		11.718750
1204		9.765625
1205		15.625000
1206		13.671875
1207		19.531250
1208		17.578125
1209		21.484375
1210		19.531250
1211		25.390625
1212		23.437500
1213		29.296875
1214		27.343750
1215		31.250000
1216		31.250000
1217		35.156250
1218		33.203125
1219		39.062500
1220		37.109375
1221		41.015625
1222		39.062500
1223		44.921875
1224		42.968750
1225		46.875000
1226		44.921875
1227		50.781250
1228		48.828125
1229		52.734375
1230		50.781250
1231		54.687500
1232		52.734375
1233		56.640625
1234		56.640625
1235		58.593750
1236		56.640625
1237		64.453125
1238		58.593750
1239		64.453125
1240		62.500000
1241		66.406250
1242		64.453125
1243		68.359375
1244		64.453125
1245		70.312500
1246		66.406250
1247		72.265625
1248		68.359375
1249		72.265625
1250		70.312500
1251		72.265625
1252		70.312500
1253		74.218750
1254		70.312500
1255		76.171875
1256		72.265625
1257		76.171875
1258		74.218750
1259		76.171875
1260		72.265625
1261		78.125000
1262		74.218750
1263		76.171875
1264		74.218750
1265		78.125000
1266		74.218750
1267		76.171875
1268		74.218750
1269		76.171875
1270		72.265625
1271		78.125000
1272		70.312500
1273		78.125000
1274		72.265625
1275		78.125000
