metingen laweit/2000Hz, 26.1cm/data_81_125.txt

Channel              :		CH1
Frequency            :		1.987kHz
Period               :		0.503ms
PK-PK                :		189.5mV
Probe attenuation    :		1X
Voltage per ADC value:		0.122070mV
Time interval        :		2.00000us

index		CH1_Voltage(mV)
1		64.453125
2		64.453125
3		70.312500
4		66.406250
5		76.171875
6		68.359375
7		78.125000
8		72.265625
9		80.078125
10		74.218750
11		82.031250
12		76.171875
13		83.984375
14		78.125000
15		85.937500
16		80.078125
17		85.937500
18		83.984375
19		87.890625
20		83.984375
21		91.796875
22		85.937500
23		91.796875
24		85.937500
25		93.750000
26		87.890625
27		93.750000
28		87.890625
29		95.703125
30		87.890625
31		95.703125
32		89.843750
33		95.703125
34		91.796875
35		93.750000
36		91.796875
37		95.703125
38		89.843750
39		95.703125
40		87.890625
41		95.703125
42		87.890625
43		95.703125
44		87.890625
45		93.750000
46		85.937500
47		93.750000
48		85.937500
49		91.796875
50		85.937500
51		89.843750
52		83.984375
53		87.890625
54		80.078125
55		87.890625
56		78.125000
57		85.937500
58		76.171875
59		83.984375
60		74.218750
61		82.031250
62		70.312500
63		80.078125
64		68.359375
65		78.125000
66		68.359375
67		74.218750
68		64.453125
69		68.359375
70		60.546875
71		66.406250
72		56.640625
73		64.453125
74		52.734375
75		62.500000
76		48.828125
77		58.593750
78		44.921875
79		54.687500
80		42.968750
81		50.781250
82		39.062500
83		46.875000
84		35.156250
85		41.015625
86		31.250000
87		37.109375
88		25.390625
89		35.156250
90		21.484375
91		31.250000
92		15.625000
93		25.390625
94		11.718750
95		21.484375
96		7.812500
97		17.578125
98		1.953125
99		13.671875
100		0.000000
101		7.812500
102		-3.906250
103		1.953125
104		-11.718750
105		-1.953125
106		-15.625000
107		-5.859375
108		-19.531250
109		-9.765625
110		-23.437500
111		-13.671875
112		-29.296875
113		-19.531250
114		-33.203125
115		-23.437500
116		-35.156250
117		-27.343750
118		-39.062500
119		-33.203125
120		-44.921875
121		-39.062500
122		-48.828125
123		-41.015625
124		-52.734375
125		-44.921875
126		-56.640625
127		-46.875000
128		-60.546875
129		-50.781250
130		-64.453125
131		-54.687500
132		-66.406250
133		-58.593750
134		-68.359375
135		-64.453125
136		-70.312500
137		-66.406250
138		-76.171875
139		-68.359375
140		-78.125000
141		-70.312500
142		-80.078125
143		-72.265625
144		-82.031250
145		-74.218750
146		-83.984375
147		-76.171875
148		-85.937500
149		-78.125000
150		-85.937500
151		-80.078125
152		-85.937500
153		-83.984375
154		-89.843750
155		-82.031250
156		-89.843750
157		-82.031250
158		-89.843750
159		-83.984375
160		-89.843750
161		-83.984375
162		-89.843750
163		-83.984375
164		-89.843750
165		-82.031250
166		-89.843750
167		-82.031250
168		-85.937500
169		-83.984375
170		-85.937500
171		-82.031250
172		-85.937500
173		-80.078125
174		-85.937500
175		-78.125000
176		-83.984375
177		-76.171875
178		-82.031250
179		-74.218750
180		-80.078125
181		-72.265625
182		-78.125000
183		-68.359375
184		-72.265625
185		-68.359375
186		-70.312500
187		-64.453125
188		-66.406250
189		-60.546875
190		-66.406250
191		-56.640625
192		-62.500000
193		-52.734375
194		-58.593750
195		-50.781250
196		-56.640625
197		-46.875000
198		-52.734375
199		-42.968750
200		-48.828125
201		-41.015625
202		-42.968750
203		-37.109375
204		-37.109375
205		-31.250000
206		-37.109375
207		-25.390625
208		-31.250000
209		-21.484375
210		-27.343750
211		-17.578125
212		-21.484375
213		-11.718750
214		-17.578125
215		-7.812500
216		-13.671875
217		-3.906250
218		-7.812500
219		-1.953125
220		-1.953125
221		3.906250
222		1.953125
223		9.765625
224		5.859375
225		13.671875
226		9.765625
227		19.531250
228		13.671875
229		23.437500
230		17.578125
231		27.343750
232		23.437500
233		33.203125
234		27.343750
235		35.156250
236		33.203125
237		39.062500
238		37.109375
239		44.921875
240		39.062500
241		48.828125
242		42.968750
243		52.734375
244		46.875000
245		56.640625
246		50.781250
247		58.593750
248		52.734375
249		62.500000
250		56.640625
251		64.453125
252		62.500000
253		66.406250
254		66.406250
255		70.312500
256		66.406250
257		74.218750
258		68.359375
259		78.125000
260		72.265625
261		80.078125
262		74.218750
263		82.031250
264		76.171875
265		83.984375
266		78.125000
267		85.937500
268		80.078125
269		85.937500
270		83.984375
271		87.890625
272		83.984375
273		91.796875
274		85.937500
275		93.750000
276		85.937500
277		93.750000
278		87.890625
279		93.750000
280		87.890625
281		95.703125
282		87.890625
283		95.703125
284		89.843750
285		95.703125
286		91.796875
287		93.750000
288		91.796875
289		93.750000
290		87.890625
291		95.703125
292		87.890625
293		95.703125
294		87.890625
295		93.750000
296		85.937500
297		93.750000
298		85.937500
299		93.750000
300		83.984375
301		91.796875
302		85.937500
303		89.843750
304		83.984375
305		87.890625
306		80.078125
307		87.890625
308		76.171875
309		85.937500
310		76.171875
311		83.984375
312		72.265625
313		80.078125
314		70.312500
315		78.125000
316		68.359375
317		76.171875
318		66.406250
319		72.265625
320		64.453125
321		68.359375
322		60.546875
323		64.453125
324		56.640625
325		64.453125
326		50.781250
327		60.546875
328		48.828125
329		56.640625
330		44.921875
331		52.734375
332		41.015625
333		48.828125
334		37.109375
335		44.921875
336		35.156250
337		39.062500
338		29.296875
339		35.156250
340		23.437500
341		33.203125
342		19.531250
343		29.296875
344		15.625000
345		25.390625
346		9.765625
347		21.484375
348		5.859375
349		15.625000
350		1.953125
351		11.718750
352		0.000000
353		7.812500
354		-5.859375
355		0.000000
356		-11.718750
357		-3.906250
358		-15.625000
359		-5.859375
360		-21.484375
361		-11.718750
362		-25.390625
363		-15.625000
364		-31.250000
365		-19.531250
366		-35.156250
367		-25.390625
368		-37.109375
369		-29.296875
370		-41.015625
371		-35.156250
372		-44.921875
373		-39.062500
374		-50.781250
375		-41.015625
376		-54.687500
377		-44.921875
378		-58.593750
379		-48.828125
380		-60.546875
381		-52.734375
382		-64.453125
383		-56.640625
384		-68.359375
385		-60.546875
386		-68.359375
387		-64.453125
388		-72.265625
389		-68.359375
390		-76.171875
391		-70.312500
392		-80.078125
393		-72.265625
394		-82.031250
395		-72.265625
396		-83.984375
397		-76.171875
398		-83.984375
399		-78.125000
400		-85.937500
401		-80.078125
402		-87.890625
403		-80.078125
404		-85.937500
405		-83.984375
406		-89.843750
407		-82.031250
408		-89.843750
409		-82.031250
410		-89.843750
411		-83.984375
412		-89.843750
413		-83.984375
414		-89.843750
415		-83.984375
416		-89.843750
417		-82.031250
418		-89.843750
419		-82.031250
420		-85.937500
421		-83.984375
422		-85.937500
423		-82.031250
424		-85.937500
425		-78.125000
426		-83.984375
427		-76.171875
428		-82.031250
429		-74.218750
430		-80.078125
431		-72.265625
432		-78.125000
433		-70.312500
434		-76.171875
435		-66.406250
436		-74.218750
437		-66.406250
438		-68.359375
439		-64.453125
440		-66.406250
441		-58.593750
442		-64.453125
443		-56.640625
444		-60.546875
445		-52.734375
446		-58.593750
447		-48.828125
448		-52.734375
449		-44.921875
450		-50.781250
451		-41.015625
452		-46.875000
453		-39.062500
454		-41.015625
455		-35.156250
456		-37.109375
457		-29.296875
458		-33.203125
459		-23.437500
460		-29.296875
461		-19.531250
462		-25.390625
463		-15.625000
464		-21.484375
465		-11.718750
466		-15.625000
467		-5.859375
468		-11.718750
469		-1.953125
470		-7.812500
471		0.000000
472		0.000000
473		5.859375
474		3.906250
475		11.718750
476		5.859375
477		15.625000
478		11.718750
479		21.484375
480		15.625000
481		25.390625
482		19.531250
483		29.296875
484		23.437500
485		33.203125
486		27.343750
487		35.156250
488		35.156250
489		39.062500
490		39.062500
491		46.875000
492		41.015625
493		50.781250
494		42.968750
495		54.687500
496		46.875000
497		56.640625
498		50.781250
499		60.546875
500		54.687500
501		62.500000
502		58.593750
503		66.406250
504		64.453125
505		68.359375
506		66.406250
507		70.312500
508		68.359375
509		76.171875
510		70.312500
511		78.125000
512		72.265625
513		82.031250
514		76.171875
515		83.984375
516		78.125000
517		85.937500
518		80.078125
519		87.890625
520		80.078125
521		87.890625
522		85.937500
523		89.843750
524		85.937500
525		91.796875
526		85.937500
527		93.750000
528		85.937500
529		93.750000
530		87.890625
531		95.703125
532		87.890625
533		95.703125
534		87.890625
535		95.703125
536		89.843750
537		95.703125
538		91.796875
539		93.750000
540		91.796875
541		93.750000
542		87.890625
543		95.703125
544		87.890625
545		95.703125
546		87.890625
547		95.703125
548		85.937500
549		93.750000
550		85.937500
551		93.750000
552		83.984375
553		91.796875
554		83.984375
555		89.843750
556		83.984375
557		85.937500
558		80.078125
559		85.937500
560		76.171875
561		85.937500
562		76.171875
563		83.984375
564		72.265625
565		80.078125
566		70.312500
567		78.125000
568		66.406250
569		76.171875
570		66.406250
571		72.265625
572		62.500000
573		68.359375
574		58.593750
575		64.453125
576		54.687500
577		64.453125
578		50.781250
579		60.546875
580		46.875000
581		56.640625
582		44.921875
583		52.734375
584		41.015625
585		48.828125
586		35.156250
587		44.921875
588		33.203125
589		39.062500
590		29.296875
591		35.156250
592		23.437500
593		31.250000
594		19.531250
595		29.296875
596		13.671875
597		23.437500
598		9.765625
599		19.531250
600		5.859375
601		15.625000
602		0.000000
603		9.765625
604		-1.953125
605		5.859375
606		-5.859375
607		0.000000
608		-13.671875
609		-5.859375
610		-17.578125
611		-7.812500
612		-21.484375
613		-11.718750
614		-27.343750
615		-15.625000
616		-31.250000
617		-21.484375
618		-35.156250
619		-25.390625
620		-37.109375
621		-29.296875
622		-41.015625
623		-35.156250
624		-44.921875
625		-39.062500
626		-50.781250
627		-42.968750
628		-54.687500
629		-46.875000
630		-58.593750
631		-48.828125
632		-62.500000
633		-52.734375
634		-66.406250
635		-56.640625
636		-68.359375
637		-60.546875
638		-70.312500
639		-62.500000
640		-72.265625
641		-68.359375
642		-76.171875
643		-70.312500
644		-78.125000
645		-70.312500
646		-82.031250
647		-72.265625
648		-83.984375
649		-76.171875
650		-85.937500
651		-78.125000
652		-85.937500
653		-78.125000
654		-87.890625
655		-80.078125
656		-85.937500
657		-83.984375
658		-87.890625
659		-83.984375
660		-89.843750
661		-83.984375
662		-89.843750
663		-82.031250
664		-89.843750
665		-82.031250
666		-89.843750
667		-82.031250
668		-89.843750
669		-82.031250
670		-89.843750
671		-82.031250
672		-85.937500
673		-82.031250
674		-83.984375
675		-82.031250
676		-85.937500
677		-78.125000
678		-83.984375
679		-76.171875
680		-82.031250
681		-74.218750
682		-80.078125
683		-72.265625
684		-78.125000
685		-70.312500
686		-74.218750
687		-66.406250
688		-72.265625
689		-66.406250
690		-68.359375
691		-62.500000
692		-64.453125
693		-58.593750
694		-62.500000
695		-54.687500
696		-60.546875
697		-50.781250
698		-56.640625
699		-46.875000
700		-54.687500
701		-42.968750
702		-48.828125
703		-41.015625
704		-44.921875
705		-37.109375
706		-39.062500
707		-33.203125
708		-35.156250
709		-29.296875
710		-33.203125
711		-21.484375
712		-29.296875
713		-19.531250
714		-23.437500
715		-13.671875
716		-19.531250
717		-9.765625
718		-15.625000
719		-3.906250
720		-9.765625
721		0.000000
722		-5.859375
723		1.953125
724		0.000000
725		5.859375
726		5.859375
727		13.671875
728		7.812500
729		17.578125
730		11.718750
731		21.484375
732		15.625000
733		25.390625
734		19.531250
735		31.250000
736		25.390625
737		35.156250
738		29.296875
739		37.109375
740		35.156250
741		41.015625
742		39.062500
743		46.875000
744		41.015625
745		50.781250
746		44.921875
747		54.687500
748		48.828125
749		58.593750
750		52.734375
751		62.500000
752		56.640625
753		64.453125
754		58.593750
755		66.406250
756		64.453125
757		68.359375
758		68.359375
759		72.265625
760		68.359375
761		76.171875
762		70.312500
763		80.078125
764		74.218750
765		82.031250
766		76.171875
767		83.984375
768		78.125000
769		85.937500
770		80.078125
771		87.890625
772		83.984375
773		87.890625
774		85.937500
775		89.843750
776		85.937500
777		91.796875
778		85.937500
779		93.750000
780		87.890625
781		95.703125
782		87.890625
783		95.703125
784		89.843750
785		95.703125
786		87.890625
787		95.703125
788		89.843750
789		95.703125
790		91.796875
791		93.750000
792		91.796875
793		93.750000
794		89.843750
795		95.703125
796		89.843750
797		95.703125
798		87.890625
799		95.703125
800		85.937500
801		93.750000
802		85.937500
803		93.750000
804		83.984375
805		91.796875
806		83.984375
807		91.796875
808		83.984375
809		85.937500
810		78.125000
811		85.937500
812		76.171875
813		85.937500
814		74.218750
815		83.984375
816		72.265625
817		80.078125
818		70.312500
819		78.125000
820		66.406250
821		76.171875
822		66.406250
823		72.265625
824		62.500000
825		68.359375
826		58.593750
827		64.453125
828		54.687500
829		62.500000
830		50.781250
831		60.546875
832		46.875000
833		56.640625
834		42.968750
835		52.734375
836		39.062500
837		48.828125
838		35.156250
839		44.921875
840		33.203125
841		39.062500
842		29.296875
843		33.203125
844		21.484375
845		31.250000
846		17.578125
847		27.343750
848		13.671875
849		23.437500
850		9.765625
851		19.531250
852		5.859375
853		13.671875
854		0.000000
855		9.765625
856		-1.953125
857		5.859375
858		-7.812500
859		-1.953125
860		-11.718750
861		-5.859375
862		-17.578125
863		-7.812500
864		-23.437500
865		-13.671875
866		-27.343750
867		-17.578125
868		-33.203125
869		-21.484375
870		-35.156250
871		-25.390625
872		-39.062500
873		-29.296875
874		-41.015625
875		-37.109375
876		-44.921875
877		-41.015625
878		-50.781250
879		-42.968750
880		-54.687500
881		-44.921875
882		-58.593750
883		-48.828125
884		-62.500000
885		-54.687500
886		-66.406250
887		-56.640625
888		-68.359375
889		-60.546875
890		-70.312500
891		-62.500000
892		-72.265625
893		-68.359375
894		-78.125000
895		-70.312500
896		-80.078125
897		-70.312500
898		-82.031250
899		-74.218750
900		-83.984375
901		-76.171875
902		-83.984375
903		-78.125000
904		-85.937500
905		-78.125000
906		-87.890625
907		-80.078125
908		-85.937500
909		-83.984375
910		-85.937500
911		-83.984375
912		-89.843750
913		-82.031250
914		-89.843750
915		-82.031250
916		-89.843750
917		-82.031250
918		-89.843750
919		-82.031250
920		-89.843750
921		-82.031250
922		-87.890625
923		-80.078125
924		-85.937500
925		-82.031250
926		-83.984375
927		-80.078125
928		-83.984375
929		-78.125000
930		-82.031250
931		-76.171875
932		-82.031250
933		-74.218750
934		-80.078125
935		-72.265625
936		-78.125000
937		-70.312500
938		-74.218750
939		-66.406250
940		-72.265625
941		-66.406250
942		-66.406250
943		-62.500000
944		-64.453125
945		-56.640625
946		-62.500000
947		-54.687500
948		-58.593750
949		-50.781250
950		-56.640625
951		-46.875000
952		-50.781250
953		-42.968750
954		-46.875000
955		-39.062500
956		-44.921875
957		-35.156250
958		-39.062500
959		-33.203125
960		-33.203125
961		-27.343750
962		-31.250000
963		-21.484375
964		-27.343750
965		-17.578125
966		-23.437500
967		-13.671875
968		-19.531250
969		-7.812500
970		-13.671875
971		-3.906250
972		-9.765625
973		0.000000
974		-3.906250
975		3.906250
976		1.953125
977		7.812500
978		5.859375
979		13.671875
980		7.812500
981		19.531250
982		13.671875
983		23.437500
984		17.578125
985		27.343750
986		21.484375
987		31.250000
988		25.390625
989		35.156250
990		29.296875
991		39.062500
992		37.109375
993		42.968750
994		41.015625
995		46.875000
996		41.015625
997		52.734375
998		44.921875
999		54.687500
1000		48.828125
1001		58.593750
1002		52.734375
1003		62.500000
1004		56.640625
1005		66.406250
1006		60.546875
1007		68.359375
1008		64.453125
1009		70.312500
1010		68.359375
1011		72.265625
1012		70.312500
1013		78.125000
1014		72.265625
1015		80.078125
1016		74.218750
1017		82.031250
1018		76.171875
1019		83.984375
1020		78.125000
1021		85.937500
1022		80.078125
1023		87.890625
1024		82.031250
1025		89.843750
1026		85.937500
1027		89.843750
1028		85.937500
1029		91.796875
1030		85.937500
1031		93.750000
1032		87.890625
1033		93.750000
1034		87.890625
1035		95.703125
1036		87.890625
1037		95.703125
1038		89.843750
1039		95.703125
1040		89.843750
1041		95.703125
1042		91.796875
1043		93.750000
1044		91.796875
1045		93.750000
1046		87.890625
1047		95.703125
1048		87.890625
1049		95.703125
1050		87.890625
1051		95.703125
1052		85.937500
1053		93.750000
1054		85.937500
1055		93.750000
1056		83.984375
1057		91.796875
1058		83.984375
1059		89.843750
1060		82.031250
1061		85.937500
1062		78.125000
1063		85.937500
1064		76.171875
1065		83.984375
1066		74.218750
1067		82.031250
1068		70.312500
1069		80.078125
1070		68.359375
1071		78.125000
1072		66.406250
1073		74.218750
1074		64.453125
1075		72.265625
1076		62.500000
1077		66.406250
1078		58.593750
1079		62.500000
1080		52.734375
1081		62.500000
1082		48.828125
1083		58.593750
1084		44.921875
1085		54.687500
1086		42.968750
1087		50.781250
1088		39.062500
1089		46.875000
1090		33.203125
1091		42.968750
1092		31.250000
1093		37.109375
1094		27.343750
1095		33.203125
1096		21.484375
1097		29.296875
1098		15.625000
1099		25.390625
1100		11.718750
1101		21.484375
1102		7.812500
1103		17.578125
1104		1.953125
1105		13.671875
1106		-1.953125
1107		7.812500
1108		-3.906250
1109		3.906250
1110		-7.812500
1111		-1.953125
1112		-15.625000
1113		-7.812500
1114		-19.531250
1115		-9.765625
1116		-25.390625
1117		-13.671875
1118		-29.296875
1119		-19.531250
1120		-31.250000
1121		-23.437500
1122		-37.109375
1123		-27.343750
1124		-41.015625
1125		-31.250000
1126		-42.968750
1127		-37.109375
1128		-46.875000
1129		-41.015625
1130		-52.734375
1131		-44.921875
1132		-56.640625
1133		-46.875000
1134		-60.546875
1135		-50.781250
1136		-64.453125
1137		-54.687500
1138		-66.406250
1139		-58.593750
1140		-70.312500
1141		-60.546875
1142		-70.312500
1143		-64.453125
1144		-74.218750
1145		-68.359375
1146		-78.125000
1147		-70.312500
1148		-80.078125
1149		-72.265625
1150		-82.031250
1151		-74.218750
1152		-83.984375
1153		-76.171875
1154		-85.937500
1155		-78.125000
1156		-87.890625
1157		-80.078125
1158		-87.890625
1159		-80.078125
1160		-87.890625
1161		-83.984375
1162		-87.890625
1163		-83.984375
1164		-89.843750
1165		-83.984375
1166		-89.843750
1167		-83.984375
1168		-89.843750
1169		-83.984375
1170		-89.843750
1171		-82.031250
1172		-89.843750
1173		-82.031250
1174		-87.890625
1175		-82.031250
1176		-85.937500
1177		-82.031250
1178		-83.984375
1179		-80.078125
1180		-83.984375
1181		-78.125000
1182		-83.984375
1183		-76.171875
1184		-82.031250
1185		-74.218750
1186		-80.078125
1187		-70.312500
1188		-76.171875
1189		-68.359375
1190		-74.218750
1191		-66.406250
1192		-72.265625
1193		-64.453125
1194		-66.406250
1195		-62.500000
1196		-62.500000
1197		-56.640625
1198		-62.500000
1199		-52.734375
1200		-58.593750
1201		-50.781250
1202		-54.687500
1203		-44.921875
1204		-50.781250
1205		-41.015625
1206		-46.875000
1207		-39.062500
1208		-42.968750
1209		-35.156250
1210		-37.109375
1211		-31.250000
1212		-33.203125
1213		-27.343750
1214		-29.296875
1215		-21.484375
1216		-27.343750
1217		-17.578125
1218		-21.484375
1219		-11.718750
1220		-17.578125
1221		-7.812500
1222		-13.671875
1223		-3.906250
1224		-7.812500
1225		1.953125
1226		-3.906250
1227		3.906250
1228		1.953125
1229		7.812500
1230		7.812500
1231		15.625000
1232		9.765625
1233		19.531250
1234		13.671875
1235		23.437500
1236		17.578125
1237		27.343750
1238		23.437500
1239		33.203125
1240		27.343750
1241		37.109375
1242		31.250000
1243		39.062500
1244		37.109375
1245		42.968750
1246		41.015625
1247		46.875000
1248		42.968750
1249		52.734375
1250		46.875000
1251		56.640625
1252		50.781250
1253		60.546875
1254		54.687500
1255		62.500000
1256		58.593750
1257		66.406250
1258		60.546875
1259		70.312500
1260		62.500000
1261		70.312500
1262		68.359375
1263		74.218750
1264		72.265625
1265		78.125000
1266		72.265625
1267		80.078125
1268		74.218750
1269		82.031250
1270		76.171875
1271		83.984375
1272		78.125000
1273		85.937500
