metingen laweit/2000Hz, 26.1cm/data_81_139.txt

Channel              :		CH1
Frequency            :		1.987kHz
Period               :		0.503ms
PK-PK                :		125.0mV
Probe attenuation    :		1X
Voltage per ADC value:		0.122070mV
Time interval        :		2.00000us

index		CH1_Voltage(mV)
1		48.828125
2		48.828125
3		56.640625
4		50.781250
5		58.593750
6		50.781250
7		60.546875
8		52.734375
9		62.500000
10		54.687500
11		62.500000
12		56.640625
13		62.500000
14		60.546875
15		62.500000
16		58.593750
17		66.406250
18		58.593750
19		66.406250
20		60.546875
21		68.359375
22		60.546875
23		68.359375
24		62.500000
25		68.359375
26		62.500000
27		70.312500
28		62.500000
29		70.312500
30		64.453125
31		68.359375
32		64.453125
33		68.359375
34		62.500000
35		70.312500
36		62.500000
37		70.312500
38		62.500000
39		68.359375
40		60.546875
41		68.359375
42		60.546875
43		68.359375
44		60.546875
45		68.359375
46		60.546875
47		66.406250
48		60.546875
49		64.453125
50		58.593750
51		62.500000
52		56.640625
53		62.500000
54		54.687500
55		60.546875
56		54.687500
57		60.546875
58		52.734375
59		58.593750
60		50.781250
61		56.640625
62		50.781250
63		54.687500
64		46.875000
65		50.781250
66		44.921875
67		48.828125
68		41.015625
69		48.828125
70		39.062500
71		46.875000
72		37.109375
73		44.921875
74		33.203125
75		42.968750
76		31.250000
77		41.015625
78		29.296875
79		37.109375
80		29.296875
81		33.203125
82		25.390625
83		31.250000
84		21.484375
85		29.296875
86		17.578125
87		27.343750
88		15.625000
89		25.390625
90		11.718750
91		21.484375
92		9.765625
93		19.531250
94		5.859375
95		15.625000
96		5.859375
97		11.718750
98		3.906250
99		7.812500
100		-1.953125
101		5.859375
102		-3.906250
103		3.906250
104		-7.812500
105		1.953125
106		-9.765625
107		-1.953125
108		-13.671875
109		-3.906250
110		-15.625000
111		-7.812500
112		-17.578125
113		-9.765625
114		-19.531250
115		-13.671875
116		-21.484375
117		-17.578125
118		-25.390625
119		-17.578125
120		-29.296875
121		-19.531250
122		-31.250000
123		-21.484375
124		-33.203125
125		-25.390625
126		-35.156250
127		-27.343750
128		-37.109375
129		-29.296875
130		-37.109375
131		-31.250000
132		-39.062500
133		-35.156250
134		-42.968750
135		-35.156250
136		-44.921875
137		-37.109375
138		-46.875000
139		-37.109375
140		-46.875000
141		-39.062500
142		-48.828125
143		-41.015625
144		-48.828125
145		-41.015625
146		-48.828125
147		-42.968750
148		-48.828125
149		-46.875000
150		-48.828125
151		-46.875000
152		-52.734375
153		-44.921875
154		-52.734375
155		-44.921875
156		-52.734375
157		-44.921875
158		-52.734375
159		-44.921875
160		-52.734375
161		-44.921875
162		-52.734375
163		-44.921875
164		-48.828125
165		-46.875000
166		-48.828125
167		-44.921875
168		-50.781250
169		-42.968750
170		-48.828125
171		-41.015625
172		-48.828125
173		-41.015625
174		-46.875000
175		-39.062500
176		-44.921875
177		-39.062500
178		-44.921875
179		-37.109375
180		-42.968750
181		-35.156250
182		-39.062500
183		-35.156250
184		-39.062500
185		-31.250000
186		-37.109375
187		-29.296875
188		-35.156250
189		-27.343750
190		-33.203125
191		-25.390625
192		-31.250000
193		-21.484375
194		-29.296875
195		-19.531250
196		-25.390625
197		-17.578125
198		-21.484375
199		-17.578125
200		-19.531250
201		-13.671875
202		-17.578125
203		-9.765625
204		-15.625000
205		-7.812500
206		-11.718750
207		-3.906250
208		-9.765625
209		-1.953125
210		-7.812500
211		1.953125
212		-5.859375
213		3.906250
214		-1.953125
215		5.859375
216		3.906250
217		7.812500
218		5.859375
219		13.671875
220		5.859375
221		15.625000
222		9.765625
223		17.578125
224		11.718750
225		21.484375
226		15.625000
227		23.437500
228		17.578125
229		27.343750
230		21.484375
231		29.296875
232		25.390625
233		29.296875
234		29.296875
235		33.203125
236		29.296875
237		37.109375
238		31.250000
239		39.062500
240		35.156250
241		42.968750
242		35.156250
243		44.921875
244		39.062500
245		46.875000
246		41.015625
247		48.828125
248		42.968750
249		48.828125
250		46.875000
251		50.781250
252		46.875000
253		54.687500
254		48.828125
255		56.640625
256		50.781250
257		58.593750
258		52.734375
259		60.546875
260		54.687500
261		62.500000
262		54.687500
263		62.500000
264		56.640625
265		64.453125
266		60.546875
267		62.500000
268		60.546875
269		66.406250
270		58.593750
271		66.406250
272		60.546875
273		68.359375
274		60.546875
275		68.359375
276		62.500000
277		68.359375
278		60.546875
279		70.312500
280		62.500000
281		70.312500
282		64.453125
283		68.359375
284		64.453125
285		66.406250
286		62.500000
287		70.312500
288		62.500000
289		68.359375
290		60.546875
291		68.359375
292		60.546875
293		68.359375
294		60.546875
295		68.359375
296		60.546875
297		66.406250
298		60.546875
299		66.406250
300		58.593750
301		62.500000
302		56.640625
303		62.500000
304		54.687500
305		62.500000
306		52.734375
307		60.546875
308		52.734375
309		60.546875
310		50.781250
311		58.593750
312		48.828125
313		56.640625
314		46.875000
315		54.687500
316		46.875000
317		50.781250
318		44.921875
319		48.828125
320		41.015625
321		48.828125
322		37.109375
323		46.875000
324		35.156250
325		42.968750
326		33.203125
327		41.015625
328		31.250000
329		39.062500
330		29.296875
331		37.109375
332		27.343750
333		33.203125
334		25.390625
335		29.296875
336		19.531250
337		27.343750
338		17.578125
339		25.390625
340		15.625000
341		23.437500
342		11.718750
343		21.484375
344		7.812500
345		17.578125
346		5.859375
347		15.625000
348		3.906250
349		11.718750
350		1.953125
351		7.812500
352		-1.953125
353		3.906250
354		-5.859375
355		3.906250
356		-9.765625
357		0.000000
358		-11.718750
359		-1.953125
360		-13.671875
361		-3.906250
362		-15.625000
363		-7.812500
364		-19.531250
365		-11.718750
366		-19.531250
367		-15.625000
368		-21.484375
369		-17.578125
370		-27.343750
371		-19.531250
372		-29.296875
373		-21.484375
374		-33.203125
375		-23.437500
376		-35.156250
377		-25.390625
378		-37.109375
379		-29.296875
380		-39.062500
381		-29.296875
382		-39.062500
383		-33.203125
384		-41.015625
385		-37.109375
386		-42.968750
387		-37.109375
388		-44.921875
389		-37.109375
390		-46.875000
391		-39.062500
392		-48.828125
393		-41.015625
394		-48.828125
395		-41.015625
396		-50.781250
397		-42.968750
398		-50.781250
399		-42.968750
400		-48.828125
401		-46.875000
402		-50.781250
403		-44.921875
404		-52.734375
405		-44.921875
406		-52.734375
407		-44.921875
408		-54.687500
409		-44.921875
410		-52.734375
411		-44.921875
412		-52.734375
413		-44.921875
414		-52.734375
415		-44.921875
416		-52.734375
417		-44.921875
418		-48.828125
419		-46.875000
420		-48.828125
421		-42.968750
422		-50.781250
423		-42.968750
424		-48.828125
425		-41.015625
426		-46.875000
427		-39.062500
428		-46.875000
429		-39.062500
430		-44.921875
431		-37.109375
432		-42.968750
433		-35.156250
434		-39.062500
435		-35.156250
436		-37.109375
437		-31.250000
438		-37.109375
439		-29.296875
440		-35.156250
441		-27.343750
442		-33.203125
443		-25.390625
444		-31.250000
445		-23.437500
446		-29.296875
447		-19.531250
448		-25.390625
449		-17.578125
450		-21.484375
451		-17.578125
452		-19.531250
453		-15.625000
454		-17.578125
455		-9.765625
456		-15.625000
457		-7.812500
458		-13.671875
459		-3.906250
460		-9.765625
461		-1.953125
462		-7.812500
463		1.953125
464		-3.906250
465		3.906250
466		-1.953125
467		5.859375
468		3.906250
469		7.812500
470		5.859375
471		13.671875
472		7.812500
473		15.625000
474		9.765625
475		19.531250
476		11.718750
477		21.484375
478		15.625000
479		23.437500
480		19.531250
481		27.343750
482		19.531250
483		29.296875
484		25.390625
485		31.250000
486		29.296875
487		33.203125
488		29.296875
489		37.109375
490		31.250000
491		41.015625
492		33.203125
493		42.968750
494		35.156250
495		44.921875
496		39.062500
497		46.875000
498		41.015625
499		48.828125
500		42.968750
501		48.828125
502		46.875000
503		50.781250
504		48.828125
505		54.687500
506		48.828125
507		56.640625
508		50.781250
509		58.593750
510		50.781250
511		60.546875
512		52.734375
513		60.546875
514		54.687500
515		62.500000
516		56.640625
517		64.453125
518		60.546875
519		62.500000
520		60.546875
521		64.453125
522		58.593750
523		66.406250
524		60.546875
525		68.359375
526		60.546875
527		68.359375
528		62.500000
529		68.359375
530		62.500000
531		68.359375
532		62.500000
533		70.312500
534		64.453125
535		68.359375
536		64.453125
537		66.406250
538		62.500000
539		68.359375
540		62.500000
541		68.359375
542		60.546875
543		68.359375
544		60.546875
545		68.359375
546		58.593750
547		68.359375
548		58.593750
549		66.406250
550		58.593750
551		64.453125
552		58.593750
553		62.500000
554		56.640625
555		62.500000
556		54.687500
557		62.500000
558		52.734375
559		60.546875
560		50.781250
561		58.593750
562		48.828125
563		58.593750
564		46.875000
565		56.640625
566		46.875000
567		54.687500
568		46.875000
569		48.828125
570		44.921875
571		46.875000
572		39.062500
573		46.875000
574		37.109375
575		44.921875
576		35.156250
577		42.968750
578		33.203125
579		41.015625
580		29.296875
581		39.062500
582		27.343750
583		35.156250
584		27.343750
585		33.203125
586		23.437500
587		29.296875
588		19.531250
589		25.390625
590		15.625000
591		25.390625
592		13.671875
593		23.437500
594		9.765625
595		19.531250
596		7.812500
597		17.578125
598		5.859375
599		13.671875
600		1.953125
601		11.718750
602		1.953125
603		5.859375
604		-1.953125
605		1.953125
606		-5.859375
607		1.953125
608		-9.765625
609		0.000000
610		-11.718750
611		-3.906250
612		-13.671875
613		-5.859375
614		-17.578125
615		-7.812500
616		-19.531250
617		-11.718750
618		-21.484375
619		-15.625000
620		-23.437500
621		-19.531250
622		-27.343750
623		-19.531250
624		-31.250000
625		-21.484375
626		-33.203125
627		-23.437500
628		-35.156250
629		-27.343750
630		-37.109375
631		-27.343750
632		-39.062500
633		-31.250000
634		-41.015625
635		-33.203125
636		-41.015625
637		-37.109375
638		-42.968750
639		-39.062500
640		-44.921875
641		-37.109375
642		-46.875000
643		-39.062500
644		-48.828125
645		-41.015625
646		-50.781250
647		-42.968750
648		-50.781250
649		-42.968750
650		-50.781250
651		-42.968750
652		-50.781250
653		-46.875000
654		-50.781250
655		-46.875000
656		-52.734375
657		-46.875000
658		-52.734375
659		-44.921875
660		-52.734375
661		-46.875000
662		-52.734375
663		-44.921875
664		-52.734375
665		-44.921875
666		-52.734375
667		-44.921875
668		-52.734375
669		-44.921875
670		-48.828125
671		-44.921875
672		-48.828125
673		-42.968750
674		-48.828125
675		-41.015625
676		-48.828125
677		-41.015625
678		-46.875000
679		-39.062500
680		-46.875000
681		-39.062500
682		-44.921875
683		-37.109375
684		-42.968750
685		-35.156250
686		-39.062500
687		-35.156250
688		-37.109375
689		-33.203125
690		-37.109375
691		-29.296875
692		-35.156250
693		-27.343750
694		-33.203125
695		-25.390625
696		-31.250000
697		-21.484375
698		-29.296875
699		-19.531250
700		-25.390625
701		-17.578125
702		-21.484375
703		-17.578125
704		-19.531250
705		-13.671875
706		-15.625000
707		-9.765625
708		-15.625000
709		-5.859375
710		-11.718750
711		-3.906250
712		-9.765625
713		-1.953125
714		-5.859375
715		1.953125
716		-3.906250
717		3.906250
718		0.000000
719		5.859375
720		3.906250
721		7.812500
722		7.812500
723		13.671875
724		7.812500
725		15.625000
726		9.765625
727		19.531250
728		13.671875
729		21.484375
730		17.578125
731		25.390625
732		19.531250
733		27.343750
734		21.484375
735		29.296875
736		25.390625
737		31.250000
738		29.296875
739		33.203125
740		29.296875
741		39.062500
742		33.203125
743		41.015625
744		35.156250
745		42.968750
746		37.109375
747		44.921875
748		39.062500
749		46.875000
750		41.015625
751		48.828125
752		42.968750
753		50.781250
754		48.828125
755		50.781250
756		48.828125
757		54.687500
758		48.828125
759		56.640625
760		50.781250
761		58.593750
762		52.734375
763		60.546875
764		54.687500
765		60.546875
766		54.687500
767		62.500000
768		56.640625
769		64.453125
770		60.546875
771		62.500000
772		60.546875
773		64.453125
774		58.593750
775		66.406250
776		60.546875
777		68.359375
778		60.546875
779		68.359375
780		60.546875
781		68.359375
782		62.500000
783		68.359375
784		62.500000
785		68.359375
786		64.453125
787		66.406250
788		64.453125
789		66.406250
790		60.546875
791		68.359375
792		60.546875
793		68.359375
794		60.546875
795		68.359375
796		60.546875
797		68.359375
798		58.593750
799		66.406250
800		58.593750
801		66.406250
802		58.593750
803		64.453125
804		58.593750
805		62.500000
806		54.687500
807		62.500000
808		54.687500
809		62.500000
810		52.734375
811		60.546875
812		50.781250
813		58.593750
814		48.828125
815		56.640625
816		46.875000
817		56.640625
818		46.875000
819		52.734375
820		44.921875
821		48.828125
822		42.968750
823		46.875000
824		39.062500
825		46.875000
826		37.109375
827		44.921875
828		33.203125
829		42.968750
830		31.250000
831		39.062500
832		29.296875
833		37.109375
834		27.343750
835		35.156250
836		25.390625
837		33.203125
838		23.437500
839		27.343750
840		19.531250
841		25.390625
842		15.625000
843		23.437500
844		13.671875
845		21.484375
846		9.765625
847		19.531250
848		5.859375
849		15.625000
850		3.906250
851		13.671875
852		1.953125
853		9.765625
854		0.000000
855		5.859375
856		-1.953125
857		1.953125
858		-7.812500
859		1.953125
860		-9.765625
861		-1.953125
862		-13.671875
863		-3.906250
864		-15.625000
865		-5.859375
866		-19.531250
867		-9.765625
868		-21.484375
869		-11.718750
870		-21.484375
871		-15.625000
872		-23.437500
873		-19.531250
874		-27.343750
875		-21.484375
876		-31.250000
877		-23.437500
878		-33.203125
879		-25.390625
880		-35.156250
881		-27.343750
882		-37.109375
883		-29.296875
884		-39.062500
885		-31.250000
886		-41.015625
887		-33.203125
888		-41.015625
889		-37.109375
890		-42.968750
891		-39.062500
892		-46.875000
893		-39.062500
894		-48.828125
895		-39.062500
896		-48.828125
897		-41.015625
898		-48.828125
899		-42.968750
900		-50.781250
901		-44.921875
902		-52.734375
903		-44.921875
904		-50.781250
905		-46.875000
906		-50.781250
907		-48.828125
908		-52.734375
909		-46.875000
910		-54.687500
911		-46.875000
912		-54.687500
913		-44.921875
914		-54.687500
915		-46.875000
916		-52.734375
917		-44.921875
918		-52.734375
919		-44.921875
920		-52.734375
921		-44.921875
922		-48.828125
923		-46.875000
924		-48.828125
925		-42.968750
926		-50.781250
927		-42.968750
928		-48.828125
929		-41.015625
930		-46.875000
931		-39.062500
932		-46.875000
933		-37.109375
934		-42.968750
935		-37.109375
936		-42.968750
937		-35.156250
938		-39.062500
939		-35.156250
940		-37.109375
941		-33.203125
942		-37.109375
943		-29.296875
944		-35.156250
945		-25.390625
946		-33.203125
947		-23.437500
948		-29.296875
949		-21.484375
950		-27.343750
951		-19.531250
952		-25.390625
953		-17.578125
954		-21.484375
955		-15.625000
956		-17.578125
957		-13.671875
958		-15.625000
959		-9.765625
960		-15.625000
961		-5.859375
962		-13.671875
963		-3.906250
964		-9.765625
965		0.000000
966		-5.859375
967		1.953125
968		-3.906250
969		3.906250
970		-1.953125
971		7.812500
972		3.906250
973		9.765625
974		7.812500
975		13.671875
976		7.812500
977		17.578125
978		11.718750
979		19.531250
980		13.671875
981		21.484375
982		15.625000
983		25.390625
984		19.531250
985		27.343750
986		21.484375
987		31.250000
988		27.343750
989		31.250000
990		29.296875
991		33.203125
992		31.250000
993		39.062500
994		33.203125
995		41.015625
996		35.156250
997		42.968750
998		37.109375
999		44.921875
1000		39.062500
1001		46.875000
1002		42.968750
1003		48.828125
1004		42.968750
1005		50.781250
1006		48.828125
1007		52.734375
1008		48.828125
1009		54.687500
1010		50.781250
1011		56.640625
1012		50.781250
1013		58.593750
1014		52.734375
1015		60.546875
1016		54.687500
1017		62.500000
1018		54.687500
1019		62.500000
1020		56.640625
1021		64.453125
1022		60.546875
1023		64.453125
1024		60.546875
1025		64.453125
1026		60.546875
1027		66.406250
1028		60.546875
1029		68.359375
1030		60.546875
1031		68.359375
1032		60.546875
1033		68.359375
1034		60.546875
1035		68.359375
1036		62.500000
1037		68.359375
1038		62.500000
1039		68.359375
1040		64.453125
1041		66.406250
1042		60.546875
1043		68.359375
1044		60.546875
1045		68.359375
1046		60.546875
1047		68.359375
1048		60.546875
1049		66.406250
1050		58.593750
1051		66.406250
1052		58.593750
1053		66.406250
1054		58.593750
1055		64.453125
1056		58.593750
1057		60.546875
1058		56.640625
1059		60.546875
1060		52.734375
1061		60.546875
1062		52.734375
1063		60.546875
1064		50.781250
1065		58.593750
1066		48.828125
1067		56.640625
1068		46.875000
1069		54.687500
1070		44.921875
1071		52.734375
1072		44.921875
1073		48.828125
1074		42.968750
1075		46.875000
1076		39.062500
1077		44.921875
1078		37.109375
1079		44.921875
1080		33.203125
1081		42.968750
1082		31.250000
1083		39.062500
1084		29.296875
1085		37.109375
1086		25.390625
1087		35.156250
1088		25.390625
1089		31.250000
1090		23.437500
1091		27.343750
1092		17.578125
1093		25.390625
1094		13.671875
1095		23.437500
1096		11.718750
1097		21.484375
1098		9.765625
1099		17.578125
1100		5.859375
1101		15.625000
1102		3.906250
1103		11.718750
1104		1.953125
1105		9.765625
1106		0.000000
1107		3.906250
1108		-1.953125
1109		1.953125
1110		-7.812500
1111		0.000000
1112		-9.765625
1113		-1.953125
1114		-15.625000
1115		-5.859375
1116		-15.625000
1117		-7.812500
1118		-19.531250
1119		-9.765625
1120		-21.484375
1121		-13.671875
1122		-23.437500
1123		-15.625000
1124		-25.390625
1125		-21.484375
1126		-29.296875
1127		-23.437500
1128		-33.203125
1129		-23.437500
1130		-33.203125
1131		-25.390625
1132		-35.156250
1133		-27.343750
1134		-39.062500
1135		-29.296875
1136		-41.015625
1137		-33.203125
1138		-41.015625
1139		-33.203125
1140		-41.015625
1141		-39.062500
1142		-42.968750
1143		-39.062500
1144		-46.875000
1145		-39.062500
1146		-48.828125
1147		-41.015625
1148		-48.828125
1149		-41.015625
1150		-50.781250
1151		-42.968750
1152		-50.781250
1153		-42.968750
1154		-52.734375
1155		-44.921875
1156		-50.781250
1157		-46.875000
1158		-50.781250
1159		-46.875000
1160		-52.734375
1161		-44.921875
1162		-52.734375
1163		-46.875000
1164		-52.734375
1165		-46.875000
1166		-52.734375
1167		-44.921875
1168		-52.734375
1169		-44.921875
1170		-52.734375
1171		-44.921875
1172		-50.781250
1173		-44.921875
1174		-48.828125
1175		-46.875000
1176		-48.828125
1177		-42.968750
1178		-48.828125
1179		-41.015625
1180		-48.828125
1181		-41.015625
1182		-46.875000
1183		-39.062500
1184		-44.921875
1185		-37.109375
1186		-44.921875
1187		-37.109375
1188		-42.968750
1189		-35.156250
1190		-37.109375
1191		-35.156250
1192		-37.109375
1193		-33.203125
1194		-37.109375
1195		-29.296875
1196		-35.156250
1197		-25.390625
1198		-31.250000
1199		-23.437500
1200		-29.296875
1201		-21.484375
1202		-27.343750
1203		-19.531250
1204		-23.437500
1205		-15.625000
1206		-21.484375
1207		-15.625000
1208		-17.578125
1209		-13.671875
1210		-15.625000
1211		-7.812500
1212		-15.625000
1213		-5.859375
1214		-11.718750
1215		-1.953125
1216		-7.812500
1217		0.000000
1218		-5.859375
1219		3.906250
1220		-3.906250
1221		5.859375
1222		0.000000
1223		7.812500
1224		5.859375
1225		9.765625
1226		7.812500
1227		13.671875
1228		7.812500
1229		17.578125
1230		9.765625
1231		19.531250
1232		13.671875
1233		23.437500
1234		17.578125
1235		27.343750
1236		19.531250
1237		29.296875
1238		23.437500
1239		31.250000
1240		27.343750
1241		33.203125
1242		29.296875
1243		35.156250
1244		31.250000
1245		39.062500
1246		33.203125
1247		41.015625
1248		35.156250
1249		42.968750
1250		39.062500
1251		46.875000
1252		39.062500
1253		48.828125
1254		41.015625
1255		50.781250
1256		44.921875
1257		50.781250
1258		48.828125
1259		52.734375
1260		48.828125
1261		56.640625
1262		48.828125
1263		58.593750
1264		50.781250
1265		58.593750
1266		52.734375
1267		60.546875
1268		54.687500
1269		62.500000
1270		54.687500
1271		64.453125
1272		56.640625
1273		64.453125
1274		60.546875
1275		64.453125
1276		60.546875
1277		64.453125
1278		60.546875
1279		68.359375
