metingen laweit/2000Hz, 26.1cm/data_81_126.txt

Channel              :		CH1
Frequency            :		1.982kHz
Period               :		0.505ms
PK-PK                :		216.8mV
Probe attenuation    :		1X
Voltage per ADC value:		0.122070mV
Time interval        :		2.00000us

index		CH1_Voltage(mV)
1		91.796875
2		91.796875
3		95.703125
4		93.750000
5		97.656250
6		95.703125
7		99.609375
8		97.656250
9		101.562500
10		99.609375
11		103.515625
12		101.562500
13		105.468750
14		101.562500
15		105.468750
16		103.515625
17		107.421875
18		105.468750
19		109.375000
20		105.468750
21		109.375000
22		105.468750
23		109.375000
24		107.421875
25		109.375000
26		105.468750
27		109.375000
28		107.421875
29		109.375000
30		105.468750
31		109.375000
32		105.468750
33		107.421875
34		105.468750
35		107.421875
36		103.515625
37		107.421875
38		101.562500
39		105.468750
40		101.562500
41		103.515625
42		99.609375
43		103.515625
44		97.656250
45		101.562500
46		95.703125
47		99.609375
48		93.750000
49		97.656250
50		91.796875
51		95.703125
52		87.890625
53		91.796875
54		85.937500
55		89.843750
56		82.031250
57		87.890625
58		78.125000
59		83.984375
60		76.171875
61		80.078125
62		72.265625
63		78.125000
64		68.359375
65		72.265625
66		64.453125
67		70.312500
68		58.593750
69		66.406250
70		56.640625
71		62.500000
72		50.781250
73		58.593750
74		46.875000
75		52.734375
76		42.968750
77		48.828125
78		37.109375
79		42.968750
80		31.250000
81		39.062500
82		27.343750
83		33.203125
84		21.484375
85		29.296875
86		17.578125
87		23.437500
88		11.718750
89		19.531250
90		5.859375
91		13.671875
92		1.953125
93		7.812500
94		-3.906250
95		3.906250
96		-7.812500
97		-1.953125
98		-13.671875
99		-7.812500
100		-19.531250
101		-11.718750
102		-23.437500
103		-17.578125
104		-29.296875
105		-21.484375
106		-33.203125
107		-27.343750
108		-39.062500
109		-31.250000
110		-42.968750
111		-37.109375
112		-48.828125
113		-42.968750
114		-52.734375
115		-46.875000
116		-56.640625
117		-50.781250
118		-60.546875
119		-54.687500
120		-64.453125
121		-58.593750
122		-68.359375
123		-64.453125
124		-72.265625
125		-66.406250
126		-76.171875
127		-70.312500
128		-78.125000
129		-74.218750
130		-82.031250
131		-78.125000
132		-83.984375
133		-80.078125
134		-85.937500
135		-83.984375
136		-89.843750
137		-85.937500
138		-91.796875
139		-87.890625
140		-91.796875
141		-87.890625
142		-93.750000
143		-89.843750
144		-95.703125
145		-91.796875
146		-95.703125
147		-93.750000
148		-97.656250
149		-93.750000
150		-97.656250
151		-93.750000
152		-97.656250
153		-95.703125
154		-97.656250
155		-93.750000
156		-97.656250
157		-93.750000
158		-95.703125
159		-91.796875
160		-95.703125
161		-91.796875
162		-93.750000
163		-89.843750
164		-91.796875
165		-87.890625
166		-89.843750
167		-85.937500
168		-87.890625
169		-83.984375
170		-85.937500
171		-82.031250
172		-83.984375
173		-78.125000
174		-80.078125
175		-76.171875
176		-78.125000
177		-72.265625
178		-74.218750
179		-68.359375
180		-70.312500
181		-66.406250
182		-68.359375
183		-62.500000
184		-62.500000
185		-58.593750
186		-58.593750
187		-52.734375
188		-54.687500
189		-48.828125
190		-50.781250
191		-44.921875
192		-46.875000
193		-41.015625
194		-41.015625
195		-35.156250
196		-37.109375
197		-31.250000
198		-31.250000
199		-25.390625
200		-27.343750
201		-21.484375
202		-21.484375
203		-15.625000
204		-17.578125
205		-9.765625
206		-11.718750
207		-5.859375
208		-7.812500
209		0.000000
210		-1.953125
211		5.859375
212		3.906250
213		9.765625
214		7.812500
215		15.625000
216		13.671875
217		19.531250
218		19.531250
219		25.390625
220		23.437500
221		29.296875
222		29.296875
223		35.156250
224		33.203125
225		41.015625
226		39.062500
227		44.921875
228		42.968750
229		48.828125
230		48.828125
231		54.687500
232		52.734375
233		58.593750
234		56.640625
235		62.500000
236		60.546875
237		66.406250
238		62.500000
239		70.312500
240		68.359375
241		74.218750
242		72.265625
243		78.125000
244		76.171875
245		80.078125
246		80.078125
247		83.984375
248		82.031250
249		87.890625
250		83.984375
251		89.843750
252		87.890625
253		91.796875
254		91.796875
255		95.703125
256		93.750000
257		97.656250
258		95.703125
259		99.609375
260		97.656250
261		101.562500
262		99.609375
263		103.515625
264		101.562500
265		105.468750
266		101.562500
267		105.468750
268		103.515625
269		107.421875
270		105.468750
271		109.375000
272		105.468750
273		109.375000
274		105.468750
275		109.375000
276		105.468750
277		109.375000
278		107.421875
279		109.375000
280		105.468750
281		109.375000
282		105.468750
283		109.375000
284		105.468750
285		107.421875
286		105.468750
287		107.421875
288		103.515625
289		107.421875
290		101.562500
291		105.468750
292		99.609375
293		105.468750
294		99.609375
295		103.515625
296		97.656250
297		101.562500
298		95.703125
299		99.609375
300		93.750000
301		97.656250
302		91.796875
303		95.703125
304		87.890625
305		91.796875
306		85.937500
307		89.843750
308		82.031250
309		87.890625
310		78.125000
311		83.984375
312		74.218750
313		80.078125
314		70.312500
315		76.171875
316		68.359375
317		74.218750
318		64.453125
319		70.312500
320		60.546875
321		64.453125
322		54.687500
323		62.500000
324		50.781250
325		56.640625
326		46.875000
327		52.734375
328		42.968750
329		48.828125
330		37.109375
331		42.968750
332		31.250000
333		39.062500
334		27.343750
335		35.156250
336		21.484375
337		29.296875
338		17.578125
339		23.437500
340		11.718750
341		19.531250
342		5.859375
343		13.671875
344		1.953125
345		7.812500
346		-3.906250
347		1.953125
348		-7.812500
349		-1.953125
350		-13.671875
351		-7.812500
352		-19.531250
353		-13.671875
354		-25.390625
355		-17.578125
356		-29.296875
357		-23.437500
358		-33.203125
359		-27.343750
360		-39.062500
361		-31.250000
362		-42.968750
363		-37.109375
364		-48.828125
365		-41.015625
366		-52.734375
367		-46.875000
368		-56.640625
369		-50.781250
370		-60.546875
371		-54.687500
372		-64.453125
373		-60.546875
374		-68.359375
375		-64.453125
376		-72.265625
377		-66.406250
378		-76.171875
379		-70.312500
380		-78.125000
381		-74.218750
382		-82.031250
383		-78.125000
384		-83.984375
385		-80.078125
386		-85.937500
387		-83.984375
388		-89.843750
389		-85.937500
390		-91.796875
391		-87.890625
392		-93.750000
393		-87.890625
394		-93.750000
395		-91.796875
396		-95.703125
397		-91.796875
398		-95.703125
399		-93.750000
400		-97.656250
401		-93.750000
402		-97.656250
403		-95.703125
404		-97.656250
405		-95.703125
406		-97.656250
407		-93.750000
408		-97.656250
409		-91.796875
410		-95.703125
411		-91.796875
412		-95.703125
413		-91.796875
414		-93.750000
415		-89.843750
416		-93.750000
417		-87.890625
418		-91.796875
419		-87.890625
420		-87.890625
421		-83.984375
422		-85.937500
423		-82.031250
424		-83.984375
425		-78.125000
426		-80.078125
427		-76.171875
428		-78.125000
429		-72.265625
430		-74.218750
431		-70.312500
432		-72.265625
433		-66.406250
434		-68.359375
435		-62.500000
436		-64.453125
437		-58.593750
438		-60.546875
439		-52.734375
440		-56.640625
441		-48.828125
442		-50.781250
443		-44.921875
444		-46.875000
445		-41.015625
446		-41.015625
447		-35.156250
448		-37.109375
449		-31.250000
450		-33.203125
451		-25.390625
452		-27.343750
453		-21.484375
454		-21.484375
455		-15.625000
456		-17.578125
457		-9.765625
458		-11.718750
459		-5.859375
460		-7.812500
461		0.000000
462		-1.953125
463		3.906250
464		1.953125
465		9.765625
466		7.812500
467		15.625000
468		13.671875
469		19.531250
470		17.578125
471		25.390625
472		23.437500
473		31.250000
474		29.296875
475		35.156250
476		33.203125
477		39.062500
478		39.062500
479		44.921875
480		42.968750
481		48.828125
482		46.875000
483		52.734375
484		52.734375
485		58.593750
486		56.640625
487		62.500000
488		60.546875
489		66.406250
490		64.453125
491		70.312500
492		68.359375
493		74.218750
494		72.265625
495		76.171875
496		76.171875
497		80.078125
498		78.125000
499		83.984375
500		82.031250
501		85.937500
502		83.984375
503		89.843750
504		87.890625
505		91.796875
506		89.843750
507		95.703125
508		93.750000
509		97.656250
510		95.703125
511		99.609375
512		97.656250
513		101.562500
514		99.609375
515		103.515625
516		101.562500
517		105.468750
518		101.562500
519		105.468750
520		103.515625
521		107.421875
522		103.515625
523		109.375000
524		105.468750
525		109.375000
526		105.468750
527		109.375000
528		107.421875
529		109.375000
530		105.468750
531		109.375000
532		107.421875
533		109.375000
534		105.468750
535		109.375000
536		105.468750
537		107.421875
538		105.468750
539		107.421875
540		103.515625
541		107.421875
542		101.562500
543		105.468750
544		101.562500
545		105.468750
546		99.609375
547		103.515625
548		97.656250
549		101.562500
550		95.703125
551		99.609375
552		93.750000
553		97.656250
554		89.843750
555		95.703125
556		87.890625
557		91.796875
558		83.984375
559		89.843750
560		82.031250
561		85.937500
562		80.078125
563		83.984375
564		76.171875
565		80.078125
566		72.265625
567		76.171875
568		66.406250
569		74.218750
570		64.453125
571		68.359375
572		60.546875
573		64.453125
574		54.687500
575		60.546875
576		50.781250
577		56.640625
578		46.875000
579		52.734375
580		41.015625
581		46.875000
582		37.109375
583		42.968750
584		31.250000
585		39.062500
586		27.343750
587		35.156250
588		21.484375
589		29.296875
590		17.578125
591		23.437500
592		11.718750
593		17.578125
594		7.812500
595		13.671875
596		1.953125
597		7.812500
598		-3.906250
599		1.953125
600		-9.765625
601		-1.953125
602		-13.671875
603		-7.812500
604		-19.531250
605		-11.718750
606		-25.390625
607		-17.578125
608		-29.296875
609		-23.437500
610		-33.203125
611		-27.343750
612		-39.062500
613		-33.203125
614		-42.968750
615		-37.109375
616		-48.828125
617		-41.015625
618		-54.687500
619		-46.875000
620		-56.640625
621		-50.781250
622		-60.546875
623		-54.687500
624		-64.453125
625		-60.546875
626		-68.359375
627		-62.500000
628		-72.265625
629		-68.359375
630		-76.171875
631		-70.312500
632		-80.078125
633		-72.265625
634		-82.031250
635		-78.125000
636		-83.984375
637		-80.078125
638		-87.890625
639		-83.984375
640		-89.843750
641		-85.937500
642		-91.796875
643		-87.890625
644		-93.750000
645		-89.843750
646		-93.750000
647		-91.796875
648		-95.703125
649		-91.796875
650		-97.656250
651		-93.750000
652		-97.656250
653		-93.750000
654		-97.656250
655		-93.750000
656		-97.656250
657		-95.703125
658		-97.656250
659		-93.750000
660		-99.609375
661		-91.796875
662		-97.656250
663		-91.796875
664		-95.703125
665		-89.843750
666		-95.703125
667		-89.843750
668		-91.796875
669		-87.890625
670		-89.843750
671		-85.937500
672		-87.890625
673		-83.984375
674		-85.937500
675		-82.031250
676		-85.937500
677		-78.125000
678		-83.984375
679		-74.218750
680		-78.125000
681		-72.265625
682		-76.171875
683		-68.359375
684		-72.265625
685		-64.453125
686		-68.359375
687		-62.500000
688		-62.500000
689		-58.593750
690		-60.546875
691		-52.734375
692		-58.593750
693		-48.828125
694		-52.734375
695		-42.968750
696		-48.828125
697		-39.062500
698		-44.921875
699		-35.156250
700		-39.062500
701		-31.250000
702		-33.203125
703		-25.390625
704		-27.343750
705		-21.484375
706		-21.484375
707		-15.625000
708		-17.578125
709		-9.765625
710		-13.671875
711		-3.906250
712		-7.812500
713		0.000000
714		-3.906250
715		5.859375
716		0.000000
717		11.718750
718		5.859375
719		15.625000
720		13.671875
721		19.531250
722		19.531250
723		25.390625
724		23.437500
725		31.250000
726		27.343750
727		37.109375
728		31.250000
729		41.015625
730		35.156250
731		46.875000
732		41.015625
733		50.781250
734		44.921875
735		56.640625
736		50.781250
737		58.593750
738		56.640625
739		62.500000
740		60.546875
741		66.406250
742		62.500000
743		70.312500
744		66.406250
745		74.218750
746		70.312500
747		78.125000
748		72.265625
749		82.031250
750		78.125000
751		85.937500
752		80.078125
753		87.890625
754		83.984375
755		89.843750
756		87.890625
757		91.796875
758		91.796875
759		95.703125
760		91.796875
761		99.609375
762		93.750000
763		101.562500
764		95.703125
765		103.515625
766		97.656250
767		105.468750
768		99.609375
769		105.468750
770		101.562500
771		107.421875
772		103.515625
773		107.421875
774		105.468750
775		107.421875
776		103.515625
777		109.375000
778		103.515625
779		111.328125
780		103.515625
781		111.328125
782		103.515625
783		111.328125
784		103.515625
785		111.328125
786		103.515625
787		111.328125
788		105.468750
789		107.421875
790		105.468750
791		107.421875
792		101.562500
793		107.421875
794		99.609375
795		109.375000
796		99.609375
797		105.468750
798		97.656250
799		105.468750
800		95.703125
801		103.515625
802		93.750000
803		101.562500
804		93.750000
805		99.609375
806		89.843750
807		93.750000
808		85.937500
809		91.796875
810		82.031250
811		91.796875
812		80.078125
813		87.890625
814		76.171875
815		85.937500
816		72.265625
817		82.031250
818		70.312500
819		78.125000
820		66.406250
821		76.171875
822		62.500000
823		68.359375
824		58.593750
825		64.453125
826		54.687500
827		60.546875
828		48.828125
829		58.593750
830		44.921875
831		54.687500
832		41.015625
833		48.828125
834		35.156250
835		44.921875
836		31.250000
837		39.062500
838		27.343750
839		35.156250
840		21.484375
841		27.343750
842		13.671875
843		23.437500
844		9.765625
845		19.531250
846		5.859375
847		13.671875
848		0.000000
849		9.765625
850		-5.859375
851		5.859375
852		-9.765625
853		0.000000
854		-13.671875
855		-3.906250
856		-19.531250
857		-13.671875
858		-25.390625
859		-17.578125
860		-31.250000
861		-21.484375
862		-37.109375
863		-27.343750
864		-41.015625
865		-31.250000
866		-46.875000
867		-35.156250
868		-50.781250
869		-41.015625
870		-54.687500
871		-44.921875
872		-56.640625
873		-50.781250
874		-60.546875
875		-56.640625
876		-68.359375
877		-60.546875
878		-70.312500
879		-62.500000
880		-74.218750
881		-66.406250
882		-78.125000
883		-68.359375
884		-82.031250
885		-72.265625
886		-83.984375
887		-76.171875
888		-85.937500
889		-78.125000
890		-87.890625
891		-83.984375
892		-91.796875
893		-83.984375
894		-93.750000
895		-85.937500
896		-95.703125
897		-87.890625
898		-97.656250
899		-89.843750
900		-97.656250
901		-89.843750
902		-99.609375
903		-91.796875
904		-99.609375
905		-91.796875
906		-97.656250
907		-95.703125
908		-97.656250
909		-95.703125
910		-99.609375
911		-93.750000
912		-99.609375
913		-91.796875
914		-99.609375
915		-89.843750
916		-97.656250
917		-89.843750
918		-95.703125
919		-89.843750
920		-95.703125
921		-85.937500
922		-93.750000
923		-85.937500
924		-87.890625
925		-83.984375
926		-87.890625
927		-80.078125
928		-85.937500
929		-76.171875
930		-83.984375
931		-74.218750
932		-80.078125
933		-72.265625
934		-76.171875
935		-68.359375
936		-74.218750
937		-64.453125
938		-70.312500
939		-62.500000
940		-64.453125
941		-58.593750
942		-58.593750
943		-54.687500
944		-56.640625
945		-46.875000
946		-52.734375
947		-42.968750
948		-48.828125
949		-39.062500
950		-42.968750
951		-33.203125
952		-39.062500
953		-29.296875
954		-35.156250
955		-23.437500
956		-29.296875
957		-21.484375
958		-21.484375
959		-15.625000
960		-17.578125
961		-7.812500
962		-13.671875
963		-3.906250
964		-9.765625
965		1.953125
966		-3.906250
967		5.859375
968		1.953125
969		11.718750
970		5.859375
971		15.625000
972		11.718750
973		19.531250
974		19.531250
975		25.390625
976		23.437500
977		31.250000
978		27.343750
979		37.109375
980		33.203125
981		42.968750
982		37.109375
983		44.921875
984		41.015625
985		50.781250
986		44.921875
987		54.687500
988		48.828125
989		58.593750
990		56.640625
991		62.500000
992		60.546875
993		66.406250
994		64.453125
995		72.265625
996		66.406250
997		76.171875
998		70.312500
999		80.078125
1000		74.218750
1001		82.031250
1002		76.171875
1003		85.937500
1004		80.078125
1005		89.843750
1006		83.984375
1007		89.843750
1008		87.890625
1009		91.796875
1010		89.843750
1011		97.656250
1012		91.796875
1013		99.609375
1014		93.750000
1015		101.562500
1016		95.703125
1017		103.515625
1018		97.656250
1019		103.515625
1020		97.656250
1021		105.468750
1022		99.609375
1023		107.421875
1024		103.515625
1025		107.421875
1026		105.468750
1027		107.421875
1028		103.515625
1029		109.375000
1030		103.515625
1031		111.328125
1032		103.515625
1033		111.328125
1034		103.515625
1035		111.328125
1036		103.515625
1037		111.328125
1038		103.515625
1039		111.328125
1040		105.468750
1041		109.375000
1042		105.468750
1043		107.421875
1044		101.562500
1045		107.421875
1046		99.609375
1047		107.421875
1048		97.656250
1049		105.468750
1050		97.656250
1051		105.468750
1052		95.703125
1053		103.515625
1054		93.750000
1055		101.562500
1056		91.796875
1057		97.656250
1058		89.843750
1059		93.750000
1060		85.937500
1061		91.796875
1062		82.031250
1063		91.796875
1064		80.078125
1065		87.890625
1066		76.171875
1067		85.937500
1068		72.265625
1069		82.031250
1070		68.359375
1071		78.125000
1072		66.406250
1073		74.218750
1074		62.500000
1075		68.359375
1076		58.593750
1077		64.453125
1078		52.734375
1079		60.546875
1080		48.828125
1081		58.593750
1082		42.968750
1083		52.734375
1084		39.062500
1085		48.828125
1086		35.156250
1087		44.921875
1088		29.296875
1089		39.062500
1090		27.343750
1091		35.156250
1092		21.484375
1093		27.343750
1094		13.671875
1095		23.437500
1096		7.812500
1097		19.531250
1098		3.906250
1099		15.625000
1100		0.000000
1101		9.765625
1102		-5.859375
1103		5.859375
1104		-11.718750
1105		-1.953125
1106		-15.625000
1107		-5.859375
1108		-19.531250
1109		-13.671875
1110		-25.390625
1111		-17.578125
1112		-31.250000
1113		-21.484375
1114		-37.109375
1115		-27.343750
1116		-42.968750
1117		-31.250000
1118		-46.875000
1119		-35.156250
1120		-50.781250
1121		-41.015625
1122		-54.687500
1123		-44.921875
1124		-56.640625
1125		-50.781250
1126		-62.500000
1127		-56.640625
1128		-68.359375
1129		-60.546875
1130		-72.265625
1131		-62.500000
1132		-76.171875
1133		-66.406250
1134		-78.125000
1135		-70.312500
1136		-82.031250
1137		-72.265625
1138		-83.984375
1139		-76.171875
1140		-85.937500
1141		-78.125000
1142		-87.890625
1143		-83.984375
1144		-91.796875
1145		-85.937500
1146		-93.750000
1147		-85.937500
1148		-95.703125
1149		-87.890625
1150		-97.656250
1151		-89.843750
1152		-99.609375
1153		-91.796875
1154		-99.609375
1155		-91.796875
1156		-99.609375
1157		-91.796875
1158		-97.656250
1159		-95.703125
1160		-97.656250
1161		-95.703125
1162		-99.609375
1163		-91.796875
1164		-99.609375
1165		-91.796875
1166		-99.609375
1167		-91.796875
1168		-97.656250
1169		-89.843750
1170		-95.703125
1171		-89.843750
1172		-95.703125
1173		-87.890625
1174		-93.750000
1175		-85.937500
1176		-89.843750
1177		-85.937500
1178		-85.937500
1179		-80.078125
1180		-85.937500
1181		-78.125000
1182		-83.984375
1183		-74.218750
1184		-80.078125
1185		-72.265625
1186		-76.171875
1187		-66.406250
1188		-74.218750
1189		-64.453125
1190		-70.312500
1191		-62.500000
1192		-64.453125
1193		-58.593750
1194		-60.546875
1195		-54.687500
1196		-56.640625
1197		-48.828125
1198		-52.734375
1199		-42.968750
1200		-48.828125
1201		-39.062500
1202		-44.921875
1203		-33.203125
1204		-39.062500
1205		-29.296875
1206		-33.203125
1207		-23.437500
1208		-27.343750
1209		-21.484375
1210		-23.437500
1211		-15.625000
1212		-17.578125
1213		-7.812500
1214		-15.625000
1215		-3.906250
1216		-9.765625
1217		1.953125
1218		-3.906250
1219		5.859375
1220		1.953125
1221		11.718750
1222		5.859375
1223		17.578125
1224		11.718750
1225		19.531250
1226		19.531250
1227		25.390625
1228		23.437500
1229		31.250000
1230		25.390625
1231		37.109375
1232		31.250000
1233		41.015625
1234		35.156250
1235		44.921875
1236		41.015625
1237		50.781250
1238		46.875000
1239		56.640625
1240		48.828125
1241		58.593750
1242		56.640625
1243		62.500000
1244		60.546875
1245		66.406250
1246		62.500000
1247		72.265625
1248		66.406250
1249		76.171875
1250		68.359375
1251		80.078125
1252		74.218750
1253		82.031250
1254		76.171875
1255		85.937500
1256		80.078125
1257		89.843750
1258		82.031250
1259		89.843750
1260		87.890625
1261		91.796875
1262		89.843750
