metingen laweit/2000Hz, 26.1cm/data_81_140.txt

Channel              :		CH1
Frequency            :		1.982kHz
Period               :		0.505ms
PK-PK                :		121.1mV
Probe attenuation    :		1X
Voltage per ADC value:		0.122070mV
Time interval        :		2.00000us

index		CH1_Voltage(mV)
1		56.640625
2		56.640625
3		60.546875
4		58.593750
5		62.500000
6		58.593750
7		62.500000
8		58.593750
9		62.500000
10		58.593750
11		62.500000
12		60.546875
13		62.500000
14		60.546875
15		62.500000
16		60.546875
17		62.500000
18		58.593750
19		62.500000
20		58.593750
21		62.500000
22		58.593750
23		62.500000
24		56.640625
25		60.546875
26		56.640625
27		60.546875
28		54.687500
29		60.546875
30		54.687500
31		58.593750
32		54.687500
33		56.640625
34		52.734375
35		56.640625
36		50.781250
37		54.687500
38		48.828125
39		52.734375
40		48.828125
41		52.734375
42		46.875000
43		50.781250
44		42.968750
45		48.828125
46		42.968750
47		46.875000
48		41.015625
49		44.921875
50		39.062500
51		42.968750
52		37.109375
53		41.015625
54		33.203125
55		39.062500
56		31.250000
57		35.156250
58		29.296875
59		33.203125
60		27.343750
61		31.250000
62		25.390625
63		29.296875
64		21.484375
65		25.390625
66		19.531250
67		23.437500
68		17.578125
69		21.484375
70		13.671875
71		19.531250
72		11.718750
73		15.625000
74		7.812500
75		13.671875
76		5.859375
77		9.765625
78		1.953125
79		7.812500
80		0.000000
81		3.906250
82		-1.953125
83		1.953125
84		-5.859375
85		0.000000
86		-7.812500
87		-1.953125
88		-11.718750
89		-5.859375
90		-13.671875
91		-9.765625
92		-15.625000
93		-11.718750
94		-19.531250
95		-13.671875
96		-21.484375
97		-15.625000
98		-23.437500
99		-19.531250
100		-25.390625
101		-21.484375
102		-27.343750
103		-23.437500
104		-29.296875
105		-25.390625
106		-33.203125
107		-27.343750
108		-35.156250
109		-29.296875
110		-35.156250
111		-31.250000
112		-37.109375
113		-33.203125
114		-39.062500
115		-35.156250
116		-42.968750
117		-37.109375
118		-42.968750
119		-39.062500
120		-44.921875
121		-41.015625
122		-44.921875
123		-41.015625
124		-46.875000
125		-42.968750
126		-46.875000
127		-42.968750
128		-48.828125
129		-44.921875
130		-48.828125
131		-44.921875
132		-48.828125
133		-46.875000
134		-50.781250
135		-44.921875
136		-50.781250
137		-46.875000
138		-50.781250
139		-46.875000
140		-48.828125
141		-46.875000
142		-50.781250
143		-46.875000
144		-48.828125
145		-46.875000
146		-50.781250
147		-44.921875
148		-48.828125
149		-44.921875
150		-46.875000
151		-42.968750
152		-46.875000
153		-42.968750
154		-46.875000
155		-41.015625
156		-44.921875
157		-41.015625
158		-42.968750
159		-39.062500
160		-42.968750
161		-39.062500
162		-41.015625
163		-37.109375
164		-39.062500
165		-35.156250
166		-37.109375
167		-33.203125
168		-35.156250
169		-31.250000
170		-35.156250
171		-29.296875
172		-31.250000
173		-27.343750
174		-29.296875
175		-25.390625
176		-27.343750
177		-21.484375
178		-25.390625
179		-19.531250
180		-23.437500
181		-17.578125
182		-19.531250
183		-15.625000
184		-17.578125
185		-13.671875
186		-15.625000
187		-9.765625
188		-11.718750
189		-7.812500
190		-9.765625
191		-5.859375
192		-7.812500
193		-1.953125
194		-3.906250
195		0.000000
196		-1.953125
197		3.906250
198		1.953125
199		5.859375
200		3.906250
201		9.765625
202		5.859375
203		11.718750
204		9.765625
205		13.671875
206		11.718750
207		17.578125
208		15.625000
209		19.531250
210		17.578125
211		21.484375
212		19.531250
213		25.390625
214		23.437500
215		27.343750
216		25.390625
217		29.296875
218		27.343750
219		33.203125
220		31.250000
221		35.156250
222		31.250000
223		37.109375
224		35.156250
225		39.062500
226		37.109375
227		41.015625
228		39.062500
229		44.921875
230		41.015625
231		44.921875
232		42.968750
233		46.875000
234		44.921875
235		48.828125
236		46.875000
237		50.781250
238		48.828125
239		52.734375
240		50.781250
241		54.687500
242		50.781250
243		54.687500
244		52.734375
245		56.640625
246		54.687500
247		58.593750
248		54.687500
249		58.593750
250		56.640625
251		60.546875
252		56.640625
253		60.546875
254		58.593750
255		62.500000
256		58.593750
257		62.500000
258		58.593750
259		62.500000
260		58.593750
261		62.500000
262		60.546875
263		62.500000
264		60.546875
265		62.500000
266		58.593750
267		62.500000
268		58.593750
269		64.453125
270		58.593750
271		62.500000
272		58.593750
273		62.500000
274		58.593750
275		62.500000
276		58.593750
277		62.500000
278		56.640625
279		60.546875
280		56.640625
281		60.546875
282		54.687500
283		58.593750
284		52.734375
285		58.593750
286		52.734375
287		56.640625
288		50.781250
289		54.687500
290		50.781250
291		54.687500
292		48.828125
293		52.734375
294		46.875000
295		50.781250
296		44.921875
297		48.828125
298		42.968750
299		46.875000
300		41.015625
301		44.921875
302		39.062500
303		42.968750
304		37.109375
305		41.015625
306		35.156250
307		39.062500
308		31.250000
309		37.109375
310		29.296875
311		35.156250
312		27.343750
313		33.203125
314		25.390625
315		31.250000
316		23.437500
317		27.343750
318		19.531250
319		23.437500
320		17.578125
321		21.484375
322		13.671875
323		19.531250
324		11.718750
325		17.578125
326		9.765625
327		13.671875
328		5.859375
329		11.718750
330		3.906250
331		7.812500
332		0.000000
333		5.859375
334		-1.953125
335		3.906250
336		-3.906250
337		0.000000
338		-7.812500
339		-1.953125
340		-9.765625
341		-5.859375
342		-11.718750
343		-7.812500
344		-15.625000
345		-11.718750
346		-17.578125
347		-11.718750
348		-19.531250
349		-15.625000
350		-21.484375
351		-17.578125
352		-25.390625
353		-21.484375
354		-27.343750
355		-23.437500
356		-29.296875
357		-25.390625
358		-31.250000
359		-27.343750
360		-33.203125
361		-29.296875
362		-35.156250
363		-31.250000
364		-37.109375
365		-33.203125
366		-39.062500
367		-35.156250
368		-41.015625
369		-37.109375
370		-42.968750
371		-39.062500
372		-42.968750
373		-39.062500
374		-44.921875
375		-41.015625
376		-46.875000
377		-42.968750
378		-46.875000
379		-42.968750
380		-48.828125
381		-44.921875
382		-48.828125
383		-44.921875
384		-48.828125
385		-46.875000
386		-50.781250
387		-46.875000
388		-50.781250
389		-46.875000
390		-50.781250
391		-46.875000
392		-50.781250
393		-46.875000
394		-50.781250
395		-46.875000
396		-48.828125
397		-46.875000
398		-48.828125
399		-46.875000
400		-48.828125
401		-44.921875
402		-48.828125
403		-44.921875
404		-46.875000
405		-42.968750
406		-46.875000
407		-42.968750
408		-46.875000
409		-41.015625
410		-44.921875
411		-39.062500
412		-42.968750
413		-37.109375
414		-41.015625
415		-37.109375
416		-39.062500
417		-35.156250
418		-37.109375
419		-33.203125
420		-37.109375
421		-31.250000
422		-33.203125
423		-29.296875
424		-31.250000
425		-27.343750
426		-29.296875
427		-25.390625
428		-27.343750
429		-23.437500
430		-25.390625
431		-19.531250
432		-23.437500
433		-17.578125
434		-19.531250
435		-15.625000
436		-17.578125
437		-13.671875
438		-15.625000
439		-9.765625
440		-11.718750
441		-7.812500
442		-9.765625
443		-3.906250
444		-7.812500
445		-1.953125
446		-5.859375
447		0.000000
448		-1.953125
449		3.906250
450		0.000000
451		5.859375
452		3.906250
453		9.765625
454		5.859375
455		11.718750
456		9.765625
457		13.671875
458		11.718750
459		15.625000
460		13.671875
461		19.531250
462		17.578125
463		21.484375
464		19.531250
465		25.390625
466		21.484375
467		27.343750
468		25.390625
469		29.296875
470		27.343750
471		31.250000
472		29.296875
473		33.203125
474		31.250000
475		37.109375
476		35.156250
477		39.062500
478		37.109375
479		41.015625
480		39.062500
481		42.968750
482		39.062500
483		44.921875
484		42.968750
485		46.875000
486		44.921875
487		48.828125
488		46.875000
489		50.781250
490		48.828125
491		52.734375
492		50.781250
493		52.734375
494		50.781250
495		54.687500
496		52.734375
497		56.640625
498		54.687500
499		58.593750
500		54.687500
501		58.593750
502		56.640625
503		58.593750
504		56.640625
505		60.546875
506		56.640625
507		62.500000
508		58.593750
509		62.500000
510		58.593750
511		62.500000
512		60.546875
513		62.500000
514		60.546875
515		62.500000
516		58.593750
517		62.500000
518		60.546875
519		62.500000
520		60.546875
521		62.500000
522		60.546875
523		62.500000
524		58.593750
525		62.500000
526		58.593750
527		62.500000
528		58.593750
529		62.500000
530		56.640625
531		60.546875
532		56.640625
533		60.546875
534		56.640625
535		58.593750
536		54.687500
537		58.593750
538		52.734375
539		56.640625
540		52.734375
541		56.640625
542		48.828125
543		54.687500
544		48.828125
545		52.734375
546		46.875000
547		50.781250
548		44.921875
549		48.828125
550		44.921875
551		46.875000
552		41.015625
553		44.921875
554		39.062500
555		44.921875
556		37.109375
557		42.968750
558		35.156250
559		41.015625
560		33.203125
561		37.109375
562		29.296875
563		35.156250
564		29.296875
565		33.203125
566		25.390625
567		31.250000
568		23.437500
569		27.343750
570		19.531250
571		25.390625
572		17.578125
573		23.437500
574		15.625000
575		19.531250
576		13.671875
577		17.578125
578		9.765625
579		15.625000
580		7.812500
581		11.718750
582		3.906250
583		9.765625
584		1.953125
585		5.859375
586		0.000000
587		3.906250
588		-3.906250
589		1.953125
590		-5.859375
591		-1.953125
592		-9.765625
593		-3.906250
594		-11.718750
595		-7.812500
596		-13.671875
597		-9.765625
598		-17.578125
599		-11.718750
600		-19.531250
601		-15.625000
602		-21.484375
603		-17.578125
604		-25.390625
605		-19.531250
606		-27.343750
607		-23.437500
608		-29.296875
609		-23.437500
610		-31.250000
611		-25.390625
612		-33.203125
613		-29.296875
614		-35.156250
615		-31.250000
616		-37.109375
617		-31.250000
618		-39.062500
619		-35.156250
620		-41.015625
621		-37.109375
622		-42.968750
623		-37.109375
624		-42.968750
625		-39.062500
626		-44.921875
627		-41.015625
628		-44.921875
629		-41.015625
630		-46.875000
631		-42.968750
632		-48.828125
633		-44.921875
634		-46.875000
635		-44.921875
636		-48.828125
637		-44.921875
638		-48.828125
639		-46.875000
640		-48.828125
641		-46.875000
642		-50.781250
643		-46.875000
644		-48.828125
645		-46.875000
646		-48.828125
647		-46.875000
648		-50.781250
649		-46.875000
650		-48.828125
651		-44.921875
652		-48.828125
653		-44.921875
654		-48.828125
655		-42.968750
656		-46.875000
657		-42.968750
658		-46.875000
659		-42.968750
660		-44.921875
661		-41.015625
662		-44.921875
663		-41.015625
664		-42.968750
665		-39.062500
666		-41.015625
667		-35.156250
668		-39.062500
669		-35.156250
670		-37.109375
671		-33.203125
672		-37.109375
673		-31.250000
674		-35.156250
675		-29.296875
676		-31.250000
677		-27.343750
678		-29.296875
679		-25.390625
680		-27.343750
681		-23.437500
682		-25.390625
683		-21.484375
684		-23.437500
685		-19.531250
686		-21.484375
687		-15.625000
688		-17.578125
689		-13.671875
690		-15.625000
691		-11.718750
692		-13.671875
693		-7.812500
694		-11.718750
695		-5.859375
696		-7.812500
697		-3.906250
698		-5.859375
699		0.000000
700		-1.953125
701		1.953125
702		0.000000
703		5.859375
704		3.906250
705		7.812500
706		5.859375
707		9.765625
708		7.812500
709		13.671875
710		11.718750
711		15.625000
712		13.671875
713		19.531250
714		17.578125
715		21.484375
716		19.531250
717		25.390625
718		21.484375
719		25.390625
720		25.390625
721		29.296875
722		27.343750
723		31.250000
724		29.296875
725		33.203125
726		31.250000
727		37.109375
728		33.203125
729		39.062500
730		37.109375
731		41.015625
732		39.062500
733		42.968750
734		41.015625
735		44.921875
736		42.968750
737		46.875000
738		44.921875
739		48.828125
740		44.921875
741		50.781250
742		48.828125
743		52.734375
744		48.828125
745		52.734375
746		50.781250
747		54.687500
748		52.734375
749		56.640625
750		54.687500
751		58.593750
752		54.687500
753		58.593750
754		56.640625
755		60.546875
756		56.640625
757		60.546875
758		58.593750
759		60.546875
760		58.593750
761		62.500000
762		58.593750
763		62.500000
764		60.546875
765		62.500000
766		60.546875
767		64.453125
768		60.546875
769		64.453125
770		60.546875
771		62.500000
772		60.546875
773		64.453125
774		60.546875
775		62.500000
776		60.546875
777		62.500000
778		58.593750
779		62.500000
780		58.593750
781		62.500000
782		58.593750
783		62.500000
784		56.640625
785		60.546875
786		56.640625
787		58.593750
788		56.640625
789		58.593750
790		54.687500
791		58.593750
792		52.734375
793		56.640625
794		50.781250
795		54.687500
796		48.828125
797		52.734375
798		48.828125
799		52.734375
800		46.875000
801		50.781250
802		44.921875
803		50.781250
804		42.968750
805		46.875000
806		41.015625
807		44.921875
808		37.109375
809		42.968750
810		37.109375
811		41.015625
812		35.156250
813		39.062500
814		31.250000
815		37.109375
816		29.296875
817		33.203125
818		27.343750
819		31.250000
820		25.390625
821		29.296875
822		21.484375
823		25.390625
824		19.531250
825		25.390625
826		17.578125
827		21.484375
828		13.671875
829		19.531250
830		11.718750
831		15.625000
832		7.812500
833		13.671875
834		5.859375
835		9.765625
836		1.953125
837		7.812500
838		0.000000
839		3.906250
840		-1.953125
841		1.953125
842		-5.859375
843		0.000000
844		-7.812500
845		-1.953125
846		-9.765625
847		-5.859375
848		-13.671875
849		-7.812500
850		-17.578125
851		-11.718750
852		-17.578125
853		-13.671875
854		-21.484375
855		-17.578125
856		-23.437500
857		-19.531250
858		-25.390625
859		-21.484375
860		-29.296875
861		-23.437500
862		-29.296875
863		-25.390625
864		-31.250000
865		-27.343750
866		-33.203125
867		-29.296875
868		-37.109375
869		-31.250000
870		-37.109375
871		-33.203125
872		-39.062500
873		-35.156250
874		-41.015625
875		-37.109375
876		-42.968750
877		-39.062500
878		-42.968750
879		-41.015625
880		-44.921875
881		-41.015625
882		-44.921875
883		-42.968750
884		-46.875000
885		-42.968750
886		-46.875000
887		-42.968750
888		-48.828125
889		-44.921875
890		-48.828125
891		-44.921875
892		-48.828125
893		-44.921875
894		-48.828125
895		-46.875000
896		-48.828125
897		-46.875000
898		-48.828125
899		-44.921875
900		-48.828125
901		-44.921875
902		-48.828125
903		-44.921875
904		-48.828125
905		-44.921875
906		-46.875000
907		-44.921875
908		-46.875000
909		-42.968750
910		-44.921875
911		-42.968750
912		-44.921875
913		-41.015625
914		-42.968750
915		-41.015625
916		-42.968750
917		-39.062500
918		-41.015625
919		-37.109375
920		-39.062500
921		-35.156250
922		-37.109375
923		-33.203125
924		-35.156250
925		-31.250000
926		-33.203125
927		-29.296875
928		-31.250000
929		-27.343750
930		-29.296875
931		-25.390625
932		-29.296875
933		-23.437500
934		-25.390625
935		-21.484375
936		-23.437500
937		-19.531250
938		-21.484375
939		-15.625000
940		-17.578125
941		-13.671875
942		-15.625000
943		-11.718750
944		-13.671875
945		-7.812500
946		-9.765625
947		-5.859375
948		-7.812500
949		-3.906250
950		-5.859375
951		0.000000
952		-3.906250
953		1.953125
954		0.000000
955		3.906250
956		3.906250
957		7.812500
958		3.906250
959		9.765625
960		7.812500
961		13.671875
962		11.718750
963		15.625000
964		13.671875
965		19.531250
966		15.625000
967		21.484375
968		19.531250
969		23.437500
970		21.484375
971		25.390625
972		25.390625
973		29.296875
974		27.343750
975		31.250000
976		29.296875
977		33.203125
978		31.250000
979		35.156250
980		33.203125
981		39.062500
982		37.109375
983		41.015625
984		37.109375
985		42.968750
986		41.015625
987		44.921875
988		42.968750
989		46.875000
990		44.921875
991		48.828125
992		46.875000
993		50.781250
994		48.828125
995		52.734375
996		50.781250
997		52.734375
998		50.781250
999		54.687500
1000		52.734375
1001		56.640625
1002		52.734375
1003		58.593750
1004		56.640625
1005		58.593750
1006		56.640625
1007		58.593750
1008		56.640625
1009		60.546875
1010		58.593750
1011		60.546875
1012		58.593750
1013		62.500000
1014		58.593750
1015		62.500000
1016		60.546875
1017		62.500000
1018		60.546875
1019		64.453125
1020		60.546875
1021		64.453125
1022		60.546875
1023		64.453125
1024		60.546875
1025		64.453125
1026		60.546875
1027		64.453125
1028		60.546875
1029		64.453125
1030		60.546875
1031		62.500000
1032		58.593750
1033		62.500000
1034		58.593750
1035		62.500000
1036		56.640625
1037		60.546875
1038		56.640625
1039		60.546875
1040		56.640625
1041		58.593750
1042		54.687500
1043		58.593750
1044		52.734375
1045		56.640625
1046		52.734375
1047		56.640625
1048		50.781250
1049		54.687500
1050		48.828125
1051		52.734375
1052		46.875000
1053		50.781250
1054		44.921875
1055		50.781250
1056		44.921875
1057		46.875000
1058		41.015625
1059		44.921875
1060		39.062500
1061		42.968750
1062		37.109375
1063		41.015625
1064		35.156250
1065		39.062500
1066		33.203125
1067		37.109375
1068		31.250000
1069		35.156250
1070		27.343750
1071		33.203125
1072		25.390625
1073		29.296875
1074		21.484375
1075		27.343750
1076		19.531250
1077		25.390625
1078		17.578125
1079		21.484375
1080		15.625000
1081		19.531250
1082		11.718750
1083		15.625000
1084		7.812500
1085		13.671875
1086		5.859375
1087		11.718750
1088		3.906250
1089		7.812500
1090		1.953125
1091		5.859375
1092		-1.953125
1093		1.953125
1094		-3.906250
1095		0.000000
1096		-7.812500
1097		-1.953125
1098		-9.765625
1099		-5.859375
1100		-11.718750
1101		-7.812500
1102		-15.625000
1103		-9.765625
1104		-17.578125
1105		-11.718750
1106		-19.531250
1107		-15.625000
1108		-23.437500
1109		-17.578125
1110		-25.390625
1111		-19.531250
1112		-27.343750
1113		-23.437500
1114		-29.296875
1115		-25.390625
1116		-33.203125
1117		-27.343750
1118		-33.203125
1119		-29.296875
1120		-37.109375
1121		-31.250000
1122		-37.109375
1123		-33.203125
1124		-39.062500
1125		-35.156250
1126		-41.015625
1127		-35.156250
1128		-42.968750
1129		-37.109375
1130		-42.968750
1131		-39.062500
1132		-44.921875
1133		-41.015625
1134		-44.921875
1135		-42.968750
1136		-46.875000
1137		-42.968750
1138		-46.875000
1139		-42.968750
1140		-46.875000
1141		-44.921875
1142		-48.828125
1143		-44.921875
1144		-48.828125
1145		-44.921875
1146		-48.828125
1147		-46.875000
1148		-48.828125
1149		-44.921875
1150		-48.828125
1151		-46.875000
1152		-48.828125
1153		-44.921875
1154		-48.828125
1155		-44.921875
1156		-46.875000
1157		-44.921875
1158		-48.828125
1159		-42.968750
1160		-46.875000
1161		-42.968750
1162		-44.921875
1163		-42.968750
1164		-44.921875
1165		-41.015625
1166		-42.968750
1167		-41.015625
1168		-42.968750
1169		-39.062500
1170		-41.015625
1171		-37.109375
1172		-39.062500
1173		-35.156250
1174		-37.109375
1175		-33.203125
1176		-37.109375
1177		-31.250000
1178		-35.156250
1179		-29.296875
1180		-31.250000
1181		-27.343750
1182		-31.250000
1183		-27.343750
1184		-27.343750
1185		-23.437500
1186		-25.390625
1187		-21.484375
1188		-23.437500
1189		-19.531250
1190		-21.484375
1191		-17.578125
1192		-17.578125
1193		-13.671875
1194		-17.578125
1195		-11.718750
1196		-13.671875
1197		-7.812500
1198		-11.718750
1199		-5.859375
1200		-7.812500
1201		-3.906250
1202		-5.859375
1203		-1.953125
1204		-3.906250
1205		1.953125
1206		0.000000
1207		3.906250
1208		1.953125
1209		5.859375
1210		3.906250
1211		9.765625
1212		7.812500
1213		11.718750
1214		9.765625
1215		15.625000
1216		13.671875
1217		17.578125
1218		15.625000
1219		19.531250
1220		17.578125
1221		23.437500
1222		19.531250
1223		25.390625
1224		23.437500
1225		29.296875
1226		25.390625
1227		31.250000
1228		29.296875
1229		33.203125
1230		31.250000
1231		35.156250
1232		33.203125
1233		39.062500
1234		35.156250
1235		41.015625
1236		39.062500
1237		42.968750
1238		41.015625
1239		44.921875
1240		42.968750
1241		46.875000
1242		44.921875
1243		48.828125
1244		44.921875
1245		50.781250
1246		48.828125
1247		52.734375
1248		48.828125
1249		52.734375
1250		50.781250
1251		54.687500
1252		52.734375
1253		56.640625
1254		54.687500
1255		58.593750
1256		54.687500
1257		58.593750
1258		56.640625
1259		58.593750
1260		56.640625
1261		60.546875
1262		58.593750
1263		62.500000
1264		58.593750
1265		62.500000
1266		60.546875
1267		62.500000
1268		60.546875
1269		62.500000
1270		60.546875
1271		64.453125
1272		60.546875
1273		64.453125
1274		60.546875
1275		64.453125
1276		60.546875
1277		64.453125
1278		60.546875
