metingen laweit/2000Hz, 26.1cm/data_81_134.txt

Channel              :		CH1
Frequency            :		1.984kHz
Period               :		0.504ms
PK-PK                :		121.1mV
Probe attenuation    :		1X
Voltage per ADC value:		0.122070mV
Time interval        :		2.00000us

index		CH1_Voltage(mV)
1		56.640625
2		56.640625
3		54.687500
4		58.593750
5		54.687500
6		58.593750
7		54.687500
8		58.593750
9		56.640625
10		58.593750
11		56.640625
12		60.546875
13		56.640625
14		60.546875
15		58.593750
16		60.546875
17		58.593750
18		60.546875
19		58.593750
20		60.546875
21		58.593750
22		62.500000
23		58.593750
24		62.500000
25		58.593750
26		60.546875
27		56.640625
28		60.546875
29		56.640625
30		60.546875
31		56.640625
32		60.546875
33		54.687500
34		58.593750
35		54.687500
36		56.640625
37		52.734375
38		56.640625
39		52.734375
40		56.640625
41		50.781250
42		54.687500
43		48.828125
44		52.734375
45		48.828125
46		50.781250
47		46.875000
48		50.781250
49		44.921875
50		48.828125
51		42.968750
52		46.875000
53		41.015625
54		44.921875
55		39.062500
56		42.968750
57		37.109375
58		41.015625
59		35.156250
60		39.062500
61		31.250000
62		37.109375
63		31.250000
64		35.156250
65		27.343750
66		31.250000
67		25.390625
68		29.296875
69		23.437500
70		27.343750
71		21.484375
72		25.390625
73		17.578125
74		21.484375
75		15.625000
76		19.531250
77		13.671875
78		17.578125
79		9.765625
80		13.671875
81		7.812500
82		11.718750
83		3.906250
84		9.765625
85		1.953125
86		5.859375
87		-1.953125
88		3.906250
89		-3.906250
90		0.000000
91		-5.859375
92		-1.953125
93		-9.765625
94		-5.859375
95		-11.718750
96		-7.812500
97		-15.625000
98		-9.765625
99		-17.578125
100		-11.718750
101		-19.531250
102		-15.625000
103		-21.484375
104		-17.578125
105		-25.390625
106		-19.531250
107		-27.343750
108		-21.484375
109		-29.296875
110		-25.390625
111		-31.250000
112		-27.343750
113		-33.203125
114		-29.296875
115		-35.156250
116		-31.250000
117		-37.109375
118		-33.203125
119		-39.062500
120		-35.156250
121		-41.015625
122		-37.109375
123		-42.968750
124		-39.062500
125		-42.968750
126		-39.062500
127		-44.921875
128		-41.015625
129		-46.875000
130		-42.968750
131		-46.875000
132		-42.968750
133		-48.828125
134		-44.921875
135		-48.828125
136		-44.921875
137		-48.828125
138		-44.921875
139		-50.781250
140		-46.875000
141		-50.781250
142		-46.875000
143		-50.781250
144		-46.875000
145		-50.781250
146		-46.875000
147		-50.781250
148		-46.875000
149		-50.781250
150		-46.875000
151		-50.781250
152		-46.875000
153		-50.781250
154		-46.875000
155		-48.828125
156		-44.921875
157		-48.828125
158		-44.921875
159		-46.875000
160		-42.968750
161		-46.875000
162		-42.968750
163		-46.875000
164		-41.015625
165		-42.968750
166		-39.062500
167		-42.968750
168		-39.062500
169		-41.015625
170		-37.109375
171		-39.062500
172		-35.156250
173		-37.109375
174		-33.203125
175		-35.156250
176		-31.250000
177		-33.203125
178		-29.296875
179		-31.250000
180		-27.343750
181		-29.296875
182		-25.390625
183		-27.343750
184		-23.437500
185		-25.390625
186		-21.484375
187		-21.484375
188		-17.578125
189		-19.531250
190		-15.625000
191		-17.578125
192		-11.718750
193		-13.671875
194		-9.765625
195		-11.718750
196		-7.812500
197		-9.765625
198		-5.859375
199		-5.859375
200		-1.953125
201		-3.906250
202		0.000000
203		-1.953125
204		3.906250
205		1.953125
206		5.859375
207		3.906250
208		9.765625
209		5.859375
210		11.718750
211		9.765625
212		13.671875
213		11.718750
214		17.578125
215		13.671875
216		19.531250
217		17.578125
218		21.484375
219		21.484375
220		25.390625
221		23.437500
222		27.343750
223		25.390625
224		29.296875
225		27.343750
226		33.203125
227		31.250000
228		33.203125
229		33.203125
230		37.109375
231		35.156250
232		39.062500
233		37.109375
234		41.015625
235		39.062500
236		42.968750
237		41.015625
238		44.921875
239		42.968750
240		46.875000
241		44.921875
242		48.828125
243		46.875000
244		48.828125
245		48.828125
246		50.781250
247		48.828125
248		52.734375
249		50.781250
250		54.687500
251		52.734375
252		56.640625
253		52.734375
254		56.640625
255		54.687500
256		58.593750
257		54.687500
258		58.593750
259		56.640625
260		60.546875
261		56.640625
262		60.546875
263		56.640625
264		60.546875
265		56.640625
266		60.546875
267		58.593750
268		60.546875
269		58.593750
270		60.546875
271		58.593750
272		60.546875
273		58.593750
274		60.546875
275		56.640625
276		60.546875
277		58.593750
278		60.546875
279		56.640625
280		60.546875
281		56.640625
282		60.546875
283		56.640625
284		58.593750
285		56.640625
286		58.593750
287		54.687500
288		58.593750
289		52.734375
290		56.640625
291		52.734375
292		56.640625
293		50.781250
294		54.687500
295		50.781250
296		52.734375
297		48.828125
298		50.781250
299		46.875000
300		50.781250
301		44.921875
302		48.828125
303		42.968750
304		46.875000
305		41.015625
306		44.921875
307		39.062500
308		42.968750
309		37.109375
310		41.015625
311		35.156250
312		39.062500
313		31.250000
314		37.109375
315		29.296875
316		35.156250
317		27.343750
318		33.203125
319		23.437500
320		29.296875
321		23.437500
322		27.343750
323		19.531250
324		25.390625
325		17.578125
326		21.484375
327		15.625000
328		19.531250
329		13.671875
330		17.578125
331		9.765625
332		15.625000
333		7.812500
334		11.718750
335		3.906250
336		9.765625
337		1.953125
338		5.859375
339		-1.953125
340		3.906250
341		-3.906250
342		0.000000
343		-5.859375
344		-1.953125
345		-7.812500
346		-3.906250
347		-11.718750
348		-7.812500
349		-13.671875
350		-9.765625
351		-17.578125
352		-11.718750
353		-19.531250
354		-15.625000
355		-21.484375
356		-17.578125
357		-23.437500
358		-19.531250
359		-29.296875
360		-23.437500
361		-29.296875
362		-25.390625
363		-31.250000
364		-27.343750
365		-33.203125
366		-29.296875
367		-35.156250
368		-31.250000
369		-37.109375
370		-33.203125
371		-39.062500
372		-35.156250
373		-41.015625
374		-37.109375
375		-42.968750
376		-39.062500
377		-42.968750
378		-39.062500
379		-44.921875
380		-41.015625
381		-46.875000
382		-42.968750
383		-46.875000
384		-44.921875
385		-48.828125
386		-44.921875
387		-48.828125
388		-44.921875
389		-48.828125
390		-46.875000
391		-50.781250
392		-46.875000
393		-48.828125
394		-46.875000
395		-50.781250
396		-48.828125
397		-50.781250
398		-46.875000
399		-50.781250
400		-46.875000
401		-50.781250
402		-46.875000
403		-50.781250
404		-46.875000
405		-48.828125
406		-46.875000
407		-48.828125
408		-44.921875
409		-48.828125
410		-44.921875
411		-46.875000
412		-44.921875
413		-46.875000
414		-42.968750
415		-44.921875
416		-41.015625
417		-42.968750
418		-39.062500
419		-42.968750
420		-39.062500
421		-41.015625
422		-37.109375
423		-39.062500
424		-35.156250
425		-37.109375
426		-33.203125
427		-35.156250
428		-31.250000
429		-33.203125
430		-29.296875
431		-31.250000
432		-27.343750
433		-29.296875
434		-25.390625
435		-27.343750
436		-23.437500
437		-25.390625
438		-21.484375
439		-21.484375
440		-17.578125
441		-19.531250
442		-15.625000
443		-17.578125
444		-13.671875
445		-13.671875
446		-9.765625
447		-11.718750
448		-7.812500
449		-9.765625
450		-3.906250
451		-5.859375
452		-1.953125
453		-3.906250
454		0.000000
455		-1.953125
456		3.906250
457		1.953125
458		5.859375
459		3.906250
460		7.812500
461		5.859375
462		11.718750
463		9.765625
464		13.671875
465		11.718750
466		17.578125
467		15.625000
468		19.531250
469		17.578125
470		21.484375
471		19.531250
472		25.390625
473		23.437500
474		27.343750
475		25.390625
476		29.296875
477		27.343750
478		31.250000
479		29.296875
480		35.156250
481		33.203125
482		35.156250
483		33.203125
484		39.062500
485		37.109375
486		41.015625
487		39.062500
488		42.968750
489		41.015625
490		44.921875
491		42.968750
492		46.875000
493		44.921875
494		48.828125
495		46.875000
496		48.828125
497		48.828125
498		50.781250
499		48.828125
500		52.734375
501		50.781250
502		54.687500
503		52.734375
504		54.687500
505		52.734375
506		56.640625
507		54.687500
508		58.593750
509		54.687500
510		58.593750
511		54.687500
512		58.593750
513		56.640625
514		58.593750
515		56.640625
516		60.546875
517		58.593750
518		60.546875
519		58.593750
520		60.546875
521		58.593750
522		60.546875
523		58.593750
524		60.546875
525		58.593750
526		62.500000
527		58.593750
528		62.500000
529		58.593750
530		60.546875
531		56.640625
532		60.546875
533		56.640625
534		60.546875
535		56.640625
536		60.546875
537		54.687500
538		58.593750
539		54.687500
540		56.640625
541		52.734375
542		56.640625
543		50.781250
544		54.687500
545		50.781250
546		54.687500
547		48.828125
548		52.734375
549		46.875000
550		50.781250
551		46.875000
552		50.781250
553		44.921875
554		48.828125
555		42.968750
556		46.875000
557		41.015625
558		44.921875
559		39.062500
560		42.968750
561		37.109375
562		41.015625
563		35.156250
564		39.062500
565		33.203125
566		37.109375
567		31.250000
568		35.156250
569		27.343750
570		33.203125
571		25.390625
572		29.296875
573		23.437500
574		27.343750
575		19.531250
576		25.390625
577		17.578125
578		21.484375
579		15.625000
580		19.531250
581		13.671875
582		17.578125
583		9.765625
584		13.671875
585		5.859375
586		11.718750
587		3.906250
588		9.765625
589		1.953125
590		5.859375
591		0.000000
592		3.906250
593		-3.906250
594		0.000000
595		-5.859375
596		-1.953125
597		-9.765625
598		-5.859375
599		-13.671875
600		-7.812500
601		-13.671875
602		-9.765625
603		-17.578125
604		-11.718750
605		-19.531250
606		-15.625000
607		-21.484375
608		-17.578125
609		-23.437500
610		-19.531250
611		-27.343750
612		-21.484375
613		-29.296875
614		-25.390625
615		-31.250000
616		-27.343750
617		-33.203125
618		-29.296875
619		-35.156250
620		-31.250000
621		-37.109375
622		-33.203125
623		-39.062500
624		-35.156250
625		-41.015625
626		-37.109375
627		-42.968750
628		-39.062500
629		-44.921875
630		-39.062500
631		-44.921875
632		-41.015625
633		-46.875000
634		-42.968750
635		-46.875000
636		-42.968750
637		-48.828125
638		-44.921875
639		-48.828125
640		-46.875000
641		-48.828125
642		-46.875000
643		-50.781250
644		-46.875000
645		-50.781250
646		-46.875000
647		-50.781250
648		-48.828125
649		-50.781250
650		-48.828125
651		-50.781250
652		-46.875000
653		-50.781250
654		-46.875000
655		-50.781250
656		-46.875000
657		-50.781250
658		-46.875000
659		-48.828125
660		-44.921875
661		-48.828125
662		-44.921875
663		-46.875000
664		-44.921875
665		-46.875000
666		-42.968750
667		-44.921875
668		-41.015625
669		-42.968750
670		-41.015625
671		-42.968750
672		-39.062500
673		-41.015625
674		-37.109375
675		-39.062500
676		-35.156250
677		-39.062500
678		-33.203125
679		-35.156250
680		-31.250000
681		-33.203125
682		-29.296875
683		-31.250000
684		-27.343750
685		-29.296875
686		-25.390625
687		-27.343750
688		-21.484375
689		-25.390625
690		-21.484375
691		-21.484375
692		-17.578125
693		-19.531250
694		-15.625000
695		-17.578125
696		-11.718750
697		-13.671875
698		-9.765625
699		-11.718750
700		-7.812500
701		-9.765625
702		-3.906250
703		-5.859375
704		-1.953125
705		-5.859375
706		0.000000
707		-1.953125
708		3.906250
709		0.000000
710		5.859375
711		3.906250
712		7.812500
713		5.859375
714		11.718750
715		9.765625
716		13.671875
717		11.718750
718		17.578125
719		15.625000
720		19.531250
721		17.578125
722		21.484375
723		19.531250
724		25.390625
725		21.484375
726		27.343750
727		25.390625
728		29.296875
729		27.343750
730		31.250000
731		29.296875
732		33.203125
733		31.250000
734		37.109375
735		33.203125
736		39.062500
737		37.109375
738		41.015625
739		39.062500
740		42.968750
741		41.015625
742		44.921875
743		42.968750
744		46.875000
745		44.921875
746		48.828125
747		44.921875
748		48.828125
749		48.828125
750		50.781250
751		48.828125
752		52.734375
753		50.781250
754		54.687500
755		50.781250
756		54.687500
757		52.734375
758		56.640625
759		54.687500
760		56.640625
761		54.687500
762		58.593750
763		54.687500
764		58.593750
765		56.640625
766		58.593750
767		56.640625
768		60.546875
769		56.640625
770		60.546875
771		58.593750
772		60.546875
773		58.593750
774		60.546875
775		58.593750
776		60.546875
777		58.593750
778		62.500000
779		56.640625
780		60.546875
781		58.593750
782		60.546875
783		58.593750
784		60.546875
785		56.640625
786		60.546875
787		56.640625
788		60.546875
789		54.687500
790		58.593750
791		54.687500
792		58.593750
793		52.734375
794		56.640625
795		52.734375
796		56.640625
797		50.781250
798		54.687500
799		48.828125
800		52.734375
801		46.875000
802		50.781250
803		46.875000
804		50.781250
805		44.921875
806		48.828125
807		42.968750
808		46.875000
809		41.015625
810		44.921875
811		39.062500
812		42.968750
813		37.109375
814		41.015625
815		35.156250
816		39.062500
817		33.203125
818		37.109375
819		31.250000
820		35.156250
821		29.296875
822		31.250000
823		25.390625
824		29.296875
825		23.437500
826		27.343750
827		19.531250
828		25.390625
829		17.578125
830		21.484375
831		15.625000
832		21.484375
833		11.718750
834		17.578125
835		9.765625
836		13.671875
837		7.812500
838		11.718750
839		3.906250
840		9.765625
841		1.953125
842		5.859375
843		0.000000
844		3.906250
845		-3.906250
846		1.953125
847		-5.859375
848		-1.953125
849		-9.765625
850		-3.906250
851		-13.671875
852		-7.812500
853		-15.625000
854		-9.765625
855		-17.578125
856		-13.671875
857		-19.531250
858		-15.625000
859		-21.484375
860		-17.578125
861		-25.390625
862		-19.531250
863		-27.343750
864		-23.437500
865		-29.296875
866		-25.390625
867		-31.250000
868		-27.343750
869		-33.203125
870		-29.296875
871		-35.156250
872		-31.250000
873		-37.109375
874		-33.203125
875		-39.062500
876		-35.156250
877		-41.015625
878		-37.109375
879		-42.968750
880		-37.109375
881		-42.968750
882		-39.062500
883		-44.921875
884		-41.015625
885		-46.875000
886		-42.968750
887		-46.875000
888		-42.968750
889		-48.828125
890		-44.921875
891		-48.828125
892		-44.921875
893		-48.828125
894		-46.875000
895		-50.781250
896		-46.875000
897		-50.781250
898		-46.875000
899		-50.781250
900		-46.875000
901		-50.781250
902		-48.828125
903		-50.781250
904		-46.875000
905		-50.781250
906		-46.875000
907		-50.781250
908		-46.875000
909		-50.781250
910		-44.921875
911		-48.828125
912		-44.921875
913		-48.828125
914		-44.921875
915		-48.828125
916		-44.921875
917		-46.875000
918		-42.968750
919		-44.921875
920		-41.015625
921		-44.921875
922		-39.062500
923		-42.968750
924		-39.062500
925		-41.015625
926		-37.109375
927		-39.062500
928		-35.156250
929		-39.062500
930		-33.203125
931		-35.156250
932		-31.250000
933		-33.203125
934		-29.296875
935		-31.250000
936		-27.343750
937		-29.296875
938		-25.390625
939		-27.343750
940		-23.437500
941		-25.390625
942		-21.484375
943		-21.484375
944		-17.578125
945		-21.484375
946		-15.625000
947		-17.578125
948		-11.718750
949		-15.625000
950		-9.765625
951		-11.718750
952		-7.812500
953		-9.765625
954		-5.859375
955		-7.812500
956		-1.953125
957		-3.906250
958		0.000000
959		-1.953125
960		1.953125
961		0.000000
962		5.859375
963		3.906250
964		7.812500
965		5.859375
966		11.718750
967		9.765625
968		13.671875
969		11.718750
970		17.578125
971		13.671875
972		19.531250
973		17.578125
974		23.437500
975		19.531250
976		23.437500
977		21.484375
978		27.343750
979		25.390625
980		29.296875
981		27.343750
982		33.203125
983		29.296875
984		35.156250
985		33.203125
986		35.156250
987		33.203125
988		39.062500
989		37.109375
990		41.015625
991		37.109375
992		42.968750
993		41.015625
994		44.921875
995		42.968750
996		46.875000
997		42.968750
998		48.828125
999		44.921875
1000		48.828125
1001		48.828125
1002		50.781250
1003		48.828125
1004		52.734375
1005		50.781250
1006		54.687500
1007		50.781250
1008		54.687500
1009		52.734375
1010		56.640625
1011		54.687500
1012		56.640625
1013		54.687500
1014		58.593750
1015		56.640625
1016		60.546875
1017		56.640625
1018		58.593750
1019		56.640625
1020		60.546875
1021		56.640625
1022		60.546875
1023		56.640625
1024		62.500000
1025		58.593750
1026		60.546875
1027		58.593750
1028		60.546875
1029		58.593750
1030		60.546875
1031		56.640625
1032		60.546875
1033		58.593750
1034		60.546875
1035		56.640625
1036		60.546875
1037		56.640625
1038		60.546875
1039		56.640625
1040		58.593750
1041		54.687500
1042		58.593750
1043		54.687500
1044		58.593750
1045		52.734375
1046		56.640625
1047		52.734375
1048		56.640625
1049		50.781250
1050		54.687500
1051		48.828125
1052		52.734375
1053		46.875000
1054		50.781250
1055		44.921875
1056		50.781250
1057		44.921875
1058		48.828125
1059		42.968750
1060		46.875000
1061		41.015625
1062		44.921875
1063		39.062500
1064		42.968750
1065		35.156250
1066		41.015625
1067		35.156250
1068		39.062500
1069		33.203125
1070		37.109375
1071		31.250000
1072		35.156250
1073		27.343750
1074		31.250000
1075		25.390625
1076		29.296875
1077		21.484375
1078		27.343750
1079		21.484375
1080		25.390625
1081		17.578125
1082		23.437500
1083		15.625000
1084		19.531250
1085		13.671875
1086		17.578125
1087		9.765625
1088		13.671875
1089		7.812500
1090		11.718750
1091		3.906250
1092		9.765625
1093		1.953125
1094		5.859375
1095		-1.953125
1096		3.906250
1097		-3.906250
1098		0.000000
1099		-7.812500
1100		-1.953125
1101		-9.765625
1102		-5.859375
1103		-11.718750
1104		-7.812500
1105		-13.671875
1106		-9.765625
1107		-17.578125
1108		-13.671875
1109		-19.531250
1110		-15.625000
1111		-21.484375
1112		-17.578125
1113		-25.390625
1114		-19.531250
1115		-29.296875
1116		-23.437500
1117		-29.296875
1118		-25.390625
1119		-31.250000
1120		-27.343750
1121		-33.203125
1122		-29.296875
1123		-35.156250
1124		-31.250000
1125		-37.109375
1126		-33.203125
1127		-39.062500
1128		-35.156250
1129		-41.015625
1130		-37.109375
1131		-42.968750
1132		-39.062500
1133		-44.921875
1134		-39.062500
1135		-44.921875
1136		-41.015625
1137		-46.875000
1138		-42.968750
1139		-48.828125
1140		-42.968750
1141		-48.828125
1142		-44.921875
1143		-48.828125
1144		-44.921875
1145		-50.781250
1146		-46.875000
1147		-50.781250
1148		-46.875000
1149		-50.781250
1150		-46.875000
1151		-50.781250
1152		-48.828125
1153		-50.781250
1154		-48.828125
1155		-50.781250
1156		-46.875000
1157		-50.781250
1158		-46.875000
1159		-50.781250
1160		-46.875000
1161		-50.781250
1162		-46.875000
1163		-48.828125
1164		-46.875000
1165		-48.828125
1166		-44.921875
1167		-48.828125
1168		-42.968750
1169		-46.875000
1170		-42.968750
1171		-44.921875
1172		-41.015625
1173		-44.921875
1174		-41.015625
1175		-42.968750
1176		-39.062500
1177		-41.015625
1178		-37.109375
1179		-41.015625
1180		-35.156250
1181		-39.062500
1182		-33.203125
1183		-35.156250
1184		-31.250000
1185		-33.203125
1186		-29.296875
1187		-31.250000
1188		-27.343750
1189		-29.296875
1190		-25.390625
1191		-27.343750
1192		-23.437500
1193		-25.390625
1194		-21.484375
1195		-23.437500
1196		-17.578125
1197		-19.531250
1198		-15.625000
1199		-17.578125
1200		-13.671875
1201		-15.625000
1202		-9.765625
1203		-11.718750
1204		-7.812500
1205		-9.765625
1206		-5.859375
1207		-7.812500
1208		-1.953125
1209		-3.906250
1210		0.000000
1211		-1.953125
1212		1.953125
1213		0.000000
1214		5.859375
1215		3.906250
1216		7.812500
1217		5.859375
1218		11.718750
1219		9.765625
1220		13.671875
1221		11.718750
1222		17.578125
1223		13.671875
1224		19.531250
1225		17.578125
1226		21.484375
1227		19.531250
1228		23.437500
1229		23.437500
1230		25.390625
1231		23.437500
1232		29.296875
1233		27.343750
1234		31.250000
1235		29.296875
1236		33.203125
1237		31.250000
1238		35.156250
1239		33.203125
1240		39.062500
1241		37.109375
1242		41.015625
1243		37.109375
1244		42.968750
1245		41.015625
1246		44.921875
1247		42.968750
1248		46.875000
1249		42.968750
1250		48.828125
1251		44.921875
1252		48.828125
1253		46.875000
1254		50.781250
1255		48.828125
1256		52.734375
1257		50.781250
1258		52.734375
1259		50.781250
1260		54.687500
1261		52.734375
1262		56.640625
1263		52.734375
1264		56.640625
1265		54.687500
1266		58.593750
1267		54.687500
1268		58.593750
1269		56.640625
1270		58.593750
1271		56.640625
1272		60.546875
1273		56.640625
1274		60.546875
1275		58.593750
1276		60.546875
1277		58.593750
1278		60.546875
