metingen laweit/2000Hz, 26.1cm/data_81_117.txt

Channel              :		CH1
Frequency            :		1.975kHz
Period               :		0.506ms
PK-PK                :		210.9mV
Probe attenuation    :		1X
Voltage per ADC value:		0.122070mV
Time interval        :		2.00000us

index		CH1_Voltage(mV)
1		101.562500
2		101.562500
3		105.468750
4		99.609375
5		105.468750
6		101.562500
7		103.515625
8		99.609375
9		103.515625
10		99.609375
11		103.515625
12		97.656250
13		101.562500
14		95.703125
15		99.609375
16		95.703125
17		99.609375
18		93.750000
19		97.656250
20		89.843750
21		95.703125
22		89.843750
23		93.750000
24		87.890625
25		91.796875
26		83.984375
27		87.890625
28		82.031250
29		85.937500
30		78.125000
31		83.984375
32		74.218750
33		80.078125
34		72.265625
35		78.125000
36		68.359375
37		74.218750
38		64.453125
39		70.312500
40		60.546875
41		66.406250
42		56.640625
43		62.500000
44		52.734375
45		58.593750
46		48.828125
47		54.687500
48		44.921875
49		50.781250
50		39.062500
51		46.875000
52		35.156250
53		41.015625
54		31.250000
55		37.109375
56		25.390625
57		31.250000
58		19.531250
59		27.343750
60		15.625000
61		21.484375
62		9.765625
63		17.578125
64		5.859375
65		11.718750
66		0.000000
67		7.812500
68		-3.906250
69		1.953125
70		-9.765625
71		-3.906250
72		-13.671875
73		-7.812500
74		-19.531250
75		-13.671875
76		-23.437500
77		-17.578125
78		-29.296875
79		-23.437500
80		-33.203125
81		-27.343750
82		-39.062500
83		-33.203125
84		-42.968750
85		-37.109375
86		-48.828125
87		-42.968750
88		-52.734375
89		-46.875000
90		-56.640625
91		-50.781250
92		-60.546875
93		-54.687500
94		-64.453125
95		-58.593750
96		-68.359375
97		-64.453125
98		-72.265625
99		-66.406250
100		-76.171875
101		-70.312500
102		-78.125000
103		-74.218750
104		-82.031250
105		-78.125000
106		-83.984375
107		-78.125000
108		-87.890625
109		-82.031250
110		-89.843750
111		-83.984375
112		-91.796875
113		-87.890625
114		-93.750000
115		-89.843750
116		-95.703125
117		-91.796875
118		-95.703125
119		-91.796875
120		-95.703125
121		-93.750000
122		-97.656250
123		-93.750000
124		-97.656250
125		-93.750000
126		-97.656250
127		-95.703125
128		-97.656250
129		-95.703125
130		-97.656250
131		-93.750000
132		-97.656250
133		-93.750000
134		-97.656250
135		-93.750000
136		-95.703125
137		-91.796875
138		-93.750000
139		-89.843750
140		-93.750000
141		-87.890625
142		-89.843750
143		-87.890625
144		-89.843750
145		-83.984375
146		-85.937500
147		-82.031250
148		-83.984375
149		-78.125000
150		-82.031250
151		-76.171875
152		-78.125000
153		-72.265625
154		-74.218750
155		-70.312500
156		-72.265625
157		-66.406250
158		-66.406250
159		-60.546875
160		-64.453125
161		-58.593750
162		-58.593750
163		-52.734375
164		-54.687500
165		-48.828125
166		-50.781250
167		-44.921875
168		-46.875000
169		-41.015625
170		-41.015625
171		-35.156250
172		-37.109375
173		-31.250000
174		-33.203125
175		-27.343750
176		-27.343750
177		-21.484375
178		-23.437500
179		-15.625000
180		-17.578125
181		-11.718750
182		-13.671875
183		-5.859375
184		-7.812500
185		-1.953125
186		-1.953125
187		3.906250
188		1.953125
189		7.812500
190		5.859375
191		13.671875
192		11.718750
193		19.531250
194		17.578125
195		23.437500
196		23.437500
197		27.343750
198		27.343750
199		33.203125
200		31.250000
201		39.062500
202		37.109375
203		42.968750
204		41.015625
205		46.875000
206		44.921875
207		50.781250
208		50.781250
209		54.687500
210		54.687500
211		58.593750
212		56.640625
213		62.500000
214		62.500000
215		68.359375
216		66.406250
217		70.312500
218		68.359375
219		74.218750
220		72.265625
221		78.125000
222		76.171875
223		82.031250
224		78.125000
225		83.984375
226		82.031250
227		85.937500
228		83.984375
229		89.843750
230		87.890625
231		91.796875
232		89.843750
233		93.750000
234		91.796875
235		95.703125
236		93.750000
237		97.656250
238		95.703125
239		99.609375
240		95.703125
241		101.562500
242		99.609375
243		101.562500
244		99.609375
245		103.515625
246		101.562500
247		103.515625
248		101.562500
249		105.468750
250		101.562500
251		105.468750
252		101.562500
253		105.468750
254		103.515625
255		105.468750
256		101.562500
257		105.468750
258		101.562500
259		105.468750
260		101.562500
261		103.515625
262		99.609375
263		103.515625
264		99.609375
265		103.515625
266		97.656250
267		101.562500
268		95.703125
269		99.609375
270		95.703125
271		97.656250
272		93.750000
273		97.656250
274		91.796875
275		95.703125
276		87.890625
277		93.750000
278		85.937500
279		91.796875
280		83.984375
281		87.890625
282		80.078125
283		85.937500
284		78.125000
285		83.984375
286		74.218750
287		80.078125
288		72.265625
289		76.171875
290		68.359375
291		72.265625
292		62.500000
293		68.359375
294		60.546875
295		64.453125
296		56.640625
297		62.500000
298		52.734375
299		56.640625
300		46.875000
301		54.687500
302		42.968750
303		48.828125
304		39.062500
305		44.921875
306		33.203125
307		39.062500
308		29.296875
309		35.156250
310		23.437500
311		31.250000
312		19.531250
313		25.390625
314		13.671875
315		21.484375
316		9.765625
317		15.625000
318		3.906250
319		9.765625
320		0.000000
321		5.859375
322		-5.859375
323		0.000000
324		-11.718750
325		-3.906250
326		-15.625000
327		-9.765625
328		-21.484375
329		-13.671875
330		-25.390625
331		-19.531250
332		-31.250000
333		-25.390625
334		-37.109375
335		-29.296875
336		-41.015625
337		-33.203125
338		-44.921875
339		-39.062500
340		-48.828125
341		-42.968750
342		-52.734375
343		-48.828125
344		-58.593750
345		-52.734375
346		-62.500000
347		-56.640625
348		-66.406250
349		-60.546875
350		-70.312500
351		-64.453125
352		-72.265625
353		-68.359375
354		-76.171875
355		-72.265625
356		-80.078125
357		-74.218750
358		-82.031250
359		-78.125000
360		-85.937500
361		-80.078125
362		-87.890625
363		-83.984375
364		-89.843750
365		-85.937500
366		-91.796875
367		-87.890625
368		-93.750000
369		-89.843750
370		-93.750000
371		-89.843750
372		-95.703125
373		-93.750000
374		-97.656250
375		-93.750000
376		-97.656250
377		-93.750000
378		-97.656250
379		-93.750000
380		-97.656250
381		-95.703125
382		-97.656250
383		-95.703125
384		-97.656250
385		-93.750000
386		-97.656250
387		-93.750000
388		-95.703125
389		-91.796875
390		-93.750000
391		-91.796875
392		-93.750000
393		-89.843750
394		-91.796875
395		-87.890625
396		-89.843750
397		-85.937500
398		-87.890625
399		-83.984375
400		-85.937500
401		-80.078125
402		-82.031250
403		-78.125000
404		-80.078125
405		-76.171875
406		-76.171875
407		-72.265625
408		-74.218750
409		-68.359375
410		-70.312500
411		-64.453125
412		-66.406250
413		-60.546875
414		-62.500000
415		-56.640625
416		-58.593750
417		-52.734375
418		-54.687500
419		-48.828125
420		-50.781250
421		-42.968750
422		-44.921875
423		-39.062500
424		-41.015625
425		-33.203125
426		-35.156250
427		-29.296875
428		-31.250000
429		-23.437500
430		-25.390625
431		-19.531250
432		-21.484375
433		-15.625000
434		-15.625000
435		-9.765625
436		-11.718750
437		-5.859375
438		-5.859375
439		0.000000
440		-1.953125
441		5.859375
442		3.906250
443		9.765625
444		9.765625
445		15.625000
446		13.671875
447		19.531250
448		19.531250
449		25.390625
450		23.437500
451		29.296875
452		29.296875
453		35.156250
454		33.203125
455		39.062500
456		37.109375
457		44.921875
458		42.968750
459		48.828125
460		46.875000
461		52.734375
462		50.781250
463		56.640625
464		54.687500
465		60.546875
466		58.593750
467		64.453125
468		62.500000
469		68.359375
470		66.406250
471		72.265625
472		70.312500
473		76.171875
474		74.218750
475		80.078125
476		76.171875
477		82.031250
478		80.078125
479		83.984375
480		82.031250
481		87.890625
482		85.937500
483		89.843750
484		87.890625
485		91.796875
486		89.843750
487		95.703125
488		91.796875
489		95.703125
490		93.750000
491		97.656250
492		95.703125
493		99.609375
494		97.656250
495		101.562500
496		99.609375
497		103.515625
498		99.609375
499		103.515625
500		99.609375
501		105.468750
502		101.562500
503		105.468750
504		101.562500
505		105.468750
506		101.562500
507		105.468750
508		101.562500
509		105.468750
510		101.562500
511		105.468750
512		101.562500
513		105.468750
514		101.562500
515		103.515625
516		99.609375
517		103.515625
518		99.609375
519		103.515625
520		97.656250
521		101.562500
522		95.703125
523		99.609375
524		93.750000
525		97.656250
526		91.796875
527		97.656250
528		89.843750
529		93.750000
530		87.890625
531		91.796875
532		85.937500
533		89.843750
534		82.031250
535		85.937500
536		80.078125
537		83.984375
538		76.171875
539		82.031250
540		74.218750
541		78.125000
542		70.312500
543		74.218750
544		66.406250
545		72.265625
546		62.500000
547		68.359375
548		58.593750
549		64.453125
550		54.687500
551		60.546875
552		50.781250
553		56.640625
554		46.875000
555		50.781250
556		41.015625
557		46.875000
558		35.156250
559		42.968750
560		31.250000
561		37.109375
562		27.343750
563		33.203125
564		21.484375
565		29.296875
566		17.578125
567		23.437500
568		11.718750
569		19.531250
570		7.812500
571		13.671875
572		1.953125
573		7.812500
574		-1.953125
575		3.906250
576		-7.812500
577		-1.953125
578		-13.671875
579		-5.859375
580		-17.578125
581		-11.718750
582		-23.437500
583		-15.625000
584		-27.343750
585		-21.484375
586		-33.203125
587		-25.390625
588		-37.109375
589		-31.250000
590		-42.968750
591		-35.156250
592		-46.875000
593		-41.015625
594		-50.781250
595		-44.921875
596		-54.687500
597		-50.781250
598		-60.546875
599		-54.687500
600		-64.453125
601		-58.593750
602		-68.359375
603		-62.500000
604		-72.265625
605		-64.453125
606		-74.218750
607		-70.312500
608		-78.125000
609		-72.265625
610		-80.078125
611		-76.171875
612		-83.984375
613		-80.078125
614		-85.937500
615		-82.031250
616		-87.890625
617		-83.984375
618		-89.843750
619		-87.890625
620		-91.796875
621		-87.890625
622		-93.750000
623		-89.843750
624		-95.703125
625		-91.796875
626		-97.656250
627		-93.750000
628		-97.656250
629		-93.750000
630		-97.656250
631		-93.750000
632		-97.656250
633		-95.703125
634		-97.656250
635		-95.703125
636		-99.609375
637		-95.703125
638		-97.656250
639		-93.750000
640		-95.703125
641		-93.750000
642		-95.703125
643		-91.796875
644		-95.703125
645		-91.796875
646		-93.750000
647		-87.890625
648		-91.796875
649		-87.890625
650		-89.843750
651		-85.937500
652		-87.890625
653		-82.031250
654		-83.984375
655		-80.078125
656		-82.031250
657		-76.171875
658		-78.125000
659		-74.218750
660		-76.171875
661		-70.312500
662		-72.265625
663		-68.359375
664		-68.359375
665		-62.500000
666		-64.453125
667		-60.546875
668		-60.546875
669		-54.687500
670		-56.640625
671		-50.781250
672		-52.734375
673		-46.875000
674		-48.828125
675		-42.968750
676		-42.968750
677		-37.109375
678		-39.062500
679		-33.203125
680		-35.156250
681		-27.343750
682		-29.296875
683		-23.437500
684		-25.390625
685		-17.578125
686		-19.531250
687		-13.671875
688		-13.671875
689		-7.812500
690		-9.765625
691		-1.953125
692		-3.906250
693		1.953125
694		0.000000
695		7.812500
696		5.859375
697		11.718750
698		9.765625
699		17.578125
700		15.625000
701		21.484375
702		19.531250
703		27.343750
704		25.390625
705		31.250000
706		29.296875
707		35.156250
708		35.156250
709		41.015625
710		39.062500
711		44.921875
712		42.968750
713		50.781250
714		46.875000
715		52.734375
716		52.734375
717		58.593750
718		56.640625
719		62.500000
720		60.546875
721		66.406250
722		64.453125
723		68.359375
724		68.359375
725		72.265625
726		72.265625
727		76.171875
728		74.218750
729		80.078125
730		78.125000
731		82.031250
732		80.078125
733		85.937500
734		83.984375
735		87.890625
736		85.937500
737		89.843750
738		87.890625
739		93.750000
740		91.796875
741		93.750000
742		93.750000
743		95.703125
744		95.703125
745		97.656250
746		95.703125
747		99.609375
748		97.656250
749		101.562500
750		99.609375
751		101.562500
752		99.609375
753		103.515625
754		101.562500
755		103.515625
756		101.562500
757		105.468750
758		101.562500
759		103.515625
760		101.562500
761		105.468750
762		101.562500
763		105.468750
764		99.609375
765		107.421875
766		99.609375
767		105.468750
768		99.609375
769		103.515625
770		99.609375
771		101.562500
772		97.656250
773		101.562500
774		97.656250
775		99.609375
776		95.703125
777		97.656250
778		93.750000
779		97.656250
780		89.843750
781		95.703125
782		87.890625
783		95.703125
784		85.937500
785		89.843750
786		83.984375
787		89.843750
788		80.078125
789		85.937500
790		78.125000
791		83.984375
792		76.171875
793		80.078125
794		70.312500
795		76.171875
796		66.406250
797		74.218750
798		62.500000
799		72.265625
800		58.593750
801		68.359375
802		56.640625
803		62.500000
804		50.781250
805		58.593750
806		48.828125
807		54.687500
808		42.968750
809		48.828125
810		39.062500
811		44.921875
812		33.203125
813		41.015625
814		29.296875
815		37.109375
816		23.437500
817		33.203125
818		19.531250
819		29.296875
820		15.625000
821		21.484375
822		7.812500
823		15.625000
824		5.859375
825		11.718750
826		0.000000
827		5.859375
828		-5.859375
829		1.953125
830		-11.718750
831		-1.953125
832		-17.578125
833		-5.859375
834		-21.484375
835		-11.718750
836		-27.343750
837		-17.578125
838		-31.250000
839		-21.484375
840		-35.156250
841		-27.343750
842		-39.062500
843		-33.203125
844		-44.921875
845		-39.062500
846		-50.781250
847		-41.015625
848		-54.687500
849		-44.921875
850		-58.593750
851		-48.828125
852		-64.453125
853		-54.687500
854		-68.359375
855		-58.593750
856		-70.312500
857		-62.500000
858		-72.265625
859		-68.359375
860		-76.171875
861		-72.265625
862		-82.031250
863		-74.218750
864		-85.937500
865		-76.171875
866		-87.890625
867		-78.125000
868		-89.843750
869		-80.078125
870		-91.796875
871		-83.984375
872		-93.750000
873		-85.937500
874		-95.703125
875		-89.843750
876		-95.703125
877		-91.796875
878		-97.656250
879		-91.796875
880		-99.609375
881		-93.750000
882		-99.609375
883		-93.750000
884		-101.562500
885		-93.750000
886		-99.609375
887		-93.750000
888		-101.562500
889		-93.750000
890		-101.562500
891		-93.750000
892		-97.656250
893		-95.703125
894		-97.656250
895		-93.750000
896		-97.656250
897		-91.796875
898		-97.656250
899		-89.843750
900		-95.703125
901		-87.890625
902		-93.750000
903		-85.937500
904		-91.796875
905		-83.984375
906		-89.843750
907		-82.031250
908		-85.937500
909		-80.078125
910		-82.031250
911		-78.125000
912		-78.125000
913		-72.265625
914		-76.171875
915		-68.359375
916		-74.218750
917		-64.453125
918		-70.312500
919		-62.500000
920		-66.406250
921		-56.640625
922		-60.546875
923		-52.734375
924		-58.593750
925		-50.781250
926		-52.734375
927		-46.875000
928		-46.875000
929		-41.015625
930		-42.968750
931		-35.156250
932		-39.062500
933		-31.250000
934		-35.156250
935		-25.390625
936		-29.296875
937		-21.484375
938		-25.390625
939		-17.578125
940		-19.531250
941		-11.718750
942		-13.671875
943		-7.812500
944		-7.812500
945		-1.953125
946		-3.906250
947		3.906250
948		0.000000
949		9.765625
950		3.906250
951		15.625000
952		9.765625
953		19.531250
954		13.671875
955		25.390625
956		19.531250
957		29.296875
958		23.437500
959		33.203125
960		31.250000
961		37.109375
962		35.156250
963		42.968750
964		39.062500
965		48.828125
966		42.968750
967		52.734375
968		46.875000
969		56.640625
970		50.781250
971		60.546875
972		54.687500
973		64.453125
974		58.593750
975		66.406250
976		64.453125
977		70.312500
978		68.359375
979		72.265625
980		70.312500
981		78.125000
982		74.218750
983		82.031250
984		76.171875
985		83.984375
986		78.125000
987		87.890625
988		82.031250
989		89.843750
990		83.984375
991		91.796875
992		87.890625
993		91.796875
994		91.796875
995		95.703125
996		91.796875
997		99.609375
998		91.796875
999		99.609375
1000		93.750000
1001		101.562500
1002		95.703125
1003		103.515625
1004		95.703125
1005		103.515625
1006		97.656250
1007		105.468750
1008		97.656250
1009		105.468750
1010		101.562500
1011		103.515625
1012		99.609375
1013		105.468750
1014		99.609375
1015		105.468750
1016		99.609375
1017		105.468750
1018		99.609375
1019		105.468750
1020		97.656250
1021		105.468750
1022		97.656250
1023		105.468750
1024		95.703125
1025		103.515625
1026		97.656250
1027		99.609375
1028		95.703125
1029		99.609375
1030		91.796875
1031		99.609375
1032		89.843750
1033		97.656250
1034		87.890625
1035		95.703125
1036		85.937500
1037		93.750000
1038		83.984375
1039		91.796875
1040		80.078125
1041		89.843750
1042		80.078125
1043		85.937500
1044		76.171875
1045		82.031250
1046		70.312500
1047		78.125000
1048		68.359375
1049		78.125000
1050		64.453125
1051		74.218750
1052		60.546875
1053		70.312500
1054		56.640625
1055		66.406250
1056		52.734375
1057		62.500000
1058		48.828125
1059		58.593750
1060		46.875000
1061		52.734375
1062		42.968750
1063		46.875000
1064		35.156250
1065		44.921875
1066		31.250000
1067		41.015625
1068		25.390625
1069		35.156250
1070		21.484375
1071		31.250000
1072		15.625000
1073		27.343750
1074		11.718750
1075		21.484375
1076		7.812500
1077		15.625000
1078		3.906250
1079		9.765625
1080		-3.906250
1081		3.906250
1082		-9.765625
1083		1.953125
1084		-13.671875
1085		-3.906250
1086		-19.531250
1087		-9.765625
1088		-23.437500
1089		-13.671875
1090		-29.296875
1091		-19.531250
1092		-31.250000
1093		-23.437500
1094		-37.109375
1095		-31.250000
1096		-42.968750
1097		-35.156250
1098		-48.828125
1099		-39.062500
1100		-52.734375
1101		-42.968750
1102		-56.640625
1103		-46.875000
1104		-62.500000
1105		-50.781250
1106		-64.453125
1107		-54.687500
1108		-68.359375
1109		-60.546875
1110		-70.312500
1111		-66.406250
1112		-74.218750
1113		-70.312500
1114		-80.078125
1115		-72.265625
1116		-83.984375
1117		-74.218750
1118		-85.937500
1119		-78.125000
1120		-89.843750
1121		-80.078125
1122		-91.796875
1123		-82.031250
1124		-93.750000
1125		-85.937500
1126		-93.750000
1127		-87.890625
1128		-93.750000
1129		-91.796875
1130		-99.609375
1131		-91.796875
1132		-99.609375
1133		-91.796875
1134		-99.609375
1135		-93.750000
1136		-101.562500
1137		-93.750000
1138		-101.562500
1139		-93.750000
1140		-101.562500
1141		-93.750000
1142		-101.562500
1143		-93.750000
1144		-97.656250
1145		-95.703125
1146		-97.656250
1147		-95.703125
1148		-99.609375
1149		-91.796875
1150		-97.656250
1151		-91.796875
1152		-97.656250
1153		-89.843750
1154		-95.703125
1155		-87.890625
1156		-93.750000
1157		-85.937500
1158		-91.796875
1159		-83.984375
1160		-87.890625
1161		-82.031250
1162		-83.984375
1163		-80.078125
1164		-82.031250
1165		-74.218750
1166		-80.078125
1167		-70.312500
1168		-78.125000
1169		-68.359375
1170		-74.218750
1171		-64.453125
1172		-70.312500
1173		-60.546875
1174		-64.453125
1175		-56.640625
1176		-60.546875
1177		-52.734375
1178		-54.687500
1179		-48.828125
1180		-50.781250
1181		-42.968750
1182		-48.828125
1183		-37.109375
1184		-44.921875
1185		-33.203125
1186		-39.062500
1187		-29.296875
1188		-33.203125
1189		-23.437500
1190		-29.296875
1191		-19.531250
1192		-25.390625
1193		-15.625000
1194		-17.578125
1195		-11.718750
1196		-11.718750
1197		-5.859375
1198		-7.812500
1199		0.000000
1200		-5.859375
1201		5.859375
1202		0.000000
1203		11.718750
1204		5.859375
1205		15.625000
1206		9.765625
1207		21.484375
1208		15.625000
1209		27.343750
1210		21.484375
1211		29.296875
1212		27.343750
1213		33.203125
1214		31.250000
1215		41.015625
1216		35.156250
1217		44.921875
1218		39.062500
1219		48.828125
1220		44.921875
1221		52.734375
1222		48.828125
1223		56.640625
1224		52.734375
1225		62.500000
1226		54.687500
1227		64.453125
1228		62.500000
1229		66.406250
1230		66.406250
1231		70.312500
1232		68.359375
1233		76.171875
1234		70.312500
1235		80.078125
1236		74.218750
1237		82.031250
1238		76.171875
1239		85.937500
1240		80.078125
1241		87.890625
1242		82.031250
1243		89.843750
1244		85.937500
1245		91.796875
1246		89.843750
1247		93.750000
1248		89.843750
1249		97.656250
1250		91.796875
1251		99.609375
1252		93.750000
1253		101.562500
1254		93.750000
1255		101.562500
1256		95.703125
1257		103.515625
1258		95.703125
1259		103.515625
1260		97.656250
1261		105.468750
1262		101.562500
1263		103.515625
1264		99.609375
1265		105.468750
1266		99.609375
