metingen laweit/1000Hz, 35.3cm/uitschieter/data_81_m106.txt

Channel              :		CH1
Frequency            :		1.059kHz
Period               :		0.944ms
PK-PK                :		48.83mV
Probe attenuation    :		1X
Voltage per ADC value:		0.122070mV
Time interval        :		2.00000us

index		CH1_Voltage(mV)
1		11.718750
2		11.718750
3		7.812500
4		11.718750
5		7.812500
6		9.765625
7		7.812500
8		9.765625
9		5.859375
10		9.765625
11		5.859375
12		9.765625
13		5.859375
14		7.812500
15		3.906250
16		7.812500
17		3.906250
18		7.812500
19		3.906250
20		7.812500
21		3.906250
22		5.859375
23		1.953125
24		5.859375
25		1.953125
26		5.859375
27		1.953125
28		5.859375
29		1.953125
30		3.906250
31		0.000000
32		3.906250
33		0.000000
34		3.906250
35		0.000000
36		1.953125
37		0.000000
38		1.953125
39		-1.953125
40		1.953125
41		-1.953125
42		1.953125
43		-1.953125
44		1.953125
45		-1.953125
46		0.000000
47		-1.953125
48		0.000000
49		-3.906250
50		0.000000
51		-3.906250
52		0.000000
53		-3.906250
54		-1.953125
55		-5.859375
56		-1.953125
57		-3.906250
58		-1.953125
59		-5.859375
60		-1.953125
61		-5.859375
62		-1.953125
63		-5.859375
64		-3.906250
65		-5.859375
66		-3.906250
67		-7.812500
68		-3.906250
69		-7.812500
70		-3.906250
71		-7.812500
72		-5.859375
73		-7.812500
74		-5.859375
75		-7.812500
76		-5.859375
77		-7.812500
78		-5.859375
79		-9.765625
80		-5.859375
81		-9.765625
82		-5.859375
83		-11.718750
84		-5.859375
85		-9.765625
86		-5.859375
87		-9.765625
88		-7.812500
89		-9.765625
90		-7.812500
91		-9.765625
92		-7.812500
93		-9.765625
94		-7.812500
95		-9.765625
96		-5.859375
97		-9.765625
98		-7.812500
99		-11.718750
100		-7.812500
101		-11.718750
102		-7.812500
103		-11.718750
104		-7.812500
105		-11.718750
106		-7.812500
107		-11.718750
108		-7.812500
109		-11.718750
110		-7.812500
111		-11.718750
112		-7.812500
113		-11.718750
114		-7.812500
115		-11.718750
116		-9.765625
117		-11.718750
118		-7.812500
119		-11.718750
120		-7.812500
121		-11.718750
122		-7.812500
123		-11.718750
124		-9.765625
125		-11.718750
126		-7.812500
127		-11.718750
128		-7.812500
129		-13.671875
130		-7.812500
131		-11.718750
132		-7.812500
133		-11.718750
134		-7.812500
135		-11.718750
136		-7.812500
137		-11.718750
138		-7.812500
139		-11.718750
140		-7.812500
141		-11.718750
142		-7.812500
143		-11.718750
144		-7.812500
145		-11.718750
146		-7.812500
147		-9.765625
148		-7.812500
149		-9.765625
150		-7.812500
151		-11.718750
152		-7.812500
153		-9.765625
154		-7.812500
155		-9.765625
156		-7.812500
157		-9.765625
158		-5.859375
159		-9.765625
160		-5.859375
161		-9.765625
162		-5.859375
163		-7.812500
164		-5.859375
165		-7.812500
166		-5.859375
167		-9.765625
168		-3.906250
169		-7.812500
170		-3.906250
171		-7.812500
172		-5.859375
173		-7.812500
174		-3.906250
175		-7.812500
176		-3.906250
177		-7.812500
178		-3.906250
179		-7.812500
180		-3.906250
181		-5.859375
182		-3.906250
183		-5.859375
184		-1.953125
185		-5.859375
186		-1.953125
187		-3.906250
188		-1.953125
189		-3.906250
190		-1.953125
191		-3.906250
192		-1.953125
193		-3.906250
194		0.000000
195		-3.906250
196		0.000000
197		-3.906250
198		0.000000
199		-1.953125
200		0.000000
201		-1.953125
202		1.953125
203		-1.953125
204		1.953125
205		-1.953125
206		1.953125
207		0.000000
208		1.953125
209		0.000000
210		1.953125
211		0.000000
212		1.953125
213		0.000000
214		3.906250
215		1.953125
216		3.906250
217		1.953125
218		3.906250
219		1.953125
220		3.906250
221		1.953125
222		5.859375
223		1.953125
224		5.859375
225		3.906250
226		5.859375
227		3.906250
228		7.812500
229		3.906250
230		7.812500
231		5.859375
232		7.812500
233		5.859375
234		7.812500
235		5.859375
236		9.765625
237		5.859375
238		9.765625
239		7.812500
240		9.765625
241		7.812500
242		9.765625
243		7.812500
244		11.718750
245		7.812500
246		11.718750
247		7.812500
248		11.718750
249		9.765625
250		11.718750
251		9.765625
252		13.671875
253		9.765625
254		13.671875
255		9.765625
256		13.671875
257		11.718750
258		13.671875
259		11.718750
260		13.671875
261		11.718750
262		15.625000
263		11.718750
264		15.625000
265		13.671875
266		15.625000
267		13.671875
268		17.578125
269		13.671875
270		17.578125
271		13.671875
272		17.578125
273		15.625000
274		17.578125
275		15.625000
276		17.578125
277		15.625000
278		19.531250
279		15.625000
280		19.531250
281		17.578125
282		19.531250
283		17.578125
284		19.531250
285		15.625000
286		19.531250
287		17.578125
288		21.484375
289		17.578125
290		21.484375
291		19.531250
292		21.484375
293		17.578125
294		21.484375
295		19.531250
296		23.437500
297		19.531250
298		23.437500
299		19.531250
300		23.437500
301		19.531250
302		23.437500
303		21.484375
304		23.437500
305		21.484375
306		23.437500
307		21.484375
308		23.437500
309		21.484375
310		25.390625
311		21.484375
312		25.390625
313		21.484375
314		25.390625
315		23.437500
316		25.390625
317		23.437500
318		25.390625
319		21.484375
320		25.390625
321		23.437500
322		27.343750
323		23.437500
324		27.343750
325		23.437500
326		27.343750
327		23.437500
328		27.343750
329		23.437500
330		27.343750
331		23.437500
332		27.343750
333		25.390625
334		27.343750
335		25.390625
336		29.296875
337		25.390625
338		27.343750
339		25.390625
340		29.296875
341		25.390625
342		29.296875
343		25.390625
344		29.296875
345		25.390625
346		29.296875
347		25.390625
348		29.296875
349		25.390625
350		29.296875
351		25.390625
352		29.296875
353		25.390625
354		29.296875
355		25.390625
356		29.296875
357		27.343750
358		29.296875
359		25.390625
360		29.296875
361		25.390625
362		29.296875
363		25.390625
364		29.296875
365		27.343750
366		29.296875
367		27.343750
368		29.296875
369		25.390625
370		29.296875
371		25.390625
372		29.296875
373		25.390625
374		29.296875
375		25.390625
376		29.296875
377		25.390625
378		29.296875
379		25.390625
380		29.296875
381		25.390625
382		29.296875
383		25.390625
384		29.296875
385		25.390625
386		29.296875
387		25.390625
388		27.343750
389		25.390625
390		27.343750
391		25.390625
392		27.343750
393		25.390625
394		27.343750
395		23.437500
396		27.343750
397		23.437500
398		27.343750
399		25.390625
400		27.343750
401		23.437500
402		27.343750
403		23.437500
404		27.343750
405		23.437500
406		25.390625
407		23.437500
408		25.390625
409		21.484375
410		25.390625
411		21.484375
412		25.390625
413		21.484375
414		25.390625
415		21.484375
416		25.390625
417		21.484375
418		25.390625
419		19.531250
420		23.437500
421		19.531250
422		23.437500
423		19.531250
424		23.437500
425		19.531250
426		23.437500
427		19.531250
428		23.437500
429		19.531250
430		23.437500
431		19.531250
432		21.484375
433		19.531250
434		21.484375
435		17.578125
436		21.484375
437		17.578125
438		19.531250
439		15.625000
440		19.531250
441		15.625000
442		19.531250
443		15.625000
444		19.531250
445		15.625000
446		19.531250
447		13.671875
448		17.578125
449		15.625000
450		17.578125
451		13.671875
452		17.578125
453		13.671875
454		17.578125
455		13.671875
456		15.625000
457		11.718750
458		15.625000
459		11.718750
460		15.625000
461		11.718750
462		15.625000
463		11.718750
464		13.671875
465		9.765625
466		13.671875
467		9.765625
468		11.718750
469		9.765625
470		11.718750
471		9.765625
472		11.718750
473		7.812500
474		11.718750
475		7.812500
476		9.765625
477		7.812500
478		11.718750
479		5.859375
480		9.765625
481		5.859375
482		9.765625
483		5.859375
484		7.812500
485		5.859375
486		7.812500
487		3.906250
488		7.812500
489		3.906250
490		7.812500
491		3.906250
492		5.859375
493		1.953125
494		5.859375
495		1.953125
496		5.859375
497		1.953125
498		5.859375
499		1.953125
500		5.859375
501		1.953125
502		3.906250
503		0.000000
504		3.906250
505		0.000000
506		1.953125
507		0.000000
508		1.953125
509		-1.953125
510		1.953125
511		-1.953125
512		1.953125
513		-1.953125
514		1.953125
515		-1.953125
516		0.000000
517		-1.953125
518		0.000000
519		-3.906250
520		0.000000
521		-3.906250
522		0.000000
523		-3.906250
524		-1.953125
525		-3.906250
526		-1.953125
527		-3.906250
528		-1.953125
529		-5.859375
530		-1.953125
531		-7.812500
532		-1.953125
533		-5.859375
534		-3.906250
535		-5.859375
536		-3.906250
537		-7.812500
538		-3.906250
539		-7.812500
540		-3.906250
541		-7.812500
542		-3.906250
543		-7.812500
544		-5.859375
545		-7.812500
546		-5.859375
547		-9.765625
548		-5.859375
549		-9.765625
550		-5.859375
551		-9.765625
552		-5.859375
553		-9.765625
554		-5.859375
555		-9.765625
556		-5.859375
557		-9.765625
558		-5.859375
559		-9.765625
560		-7.812500
561		-9.765625
562		-7.812500
563		-11.718750
564		-7.812500
565		-11.718750
566		-7.812500
567		-9.765625
568		-7.812500
569		-11.718750
570		-7.812500
571		-11.718750
572		-7.812500
573		-11.718750
574		-7.812500
575		-11.718750
576		-7.812500
577		-11.718750
578		-7.812500
579		-11.718750
580		-7.812500
581		-11.718750
582		-7.812500
583		-11.718750
584		-7.812500
585		-11.718750
586		-9.765625
587		-13.671875
588		-7.812500
589		-11.718750
590		-9.765625
591		-11.718750
592		-9.765625
593		-11.718750
594		-7.812500
595		-11.718750
596		-9.765625
597		-11.718750
598		-9.765625
599		-13.671875
600		-9.765625
601		-11.718750
602		-9.765625
603		-11.718750
604		-9.765625
605		-11.718750
606		-7.812500
607		-11.718750
608		-7.812500
609		-11.718750
610		-9.765625
611		-11.718750
612		-7.812500
613		-11.718750
614		-7.812500
615		-11.718750
616		-7.812500
617		-9.765625
618		-7.812500
619		-9.765625
620		-7.812500
621		-11.718750
622		-7.812500
623		-9.765625
624		-7.812500
625		-9.765625
626		-7.812500
627		-9.765625
628		-5.859375
629		-9.765625
630		-5.859375
631		-9.765625
632		-5.859375
633		-9.765625
634		-5.859375
635		-7.812500
636		-5.859375
637		-9.765625
638		-5.859375
639		-9.765625
640		-5.859375
641		-7.812500
642		-5.859375
643		-7.812500
644		-5.859375
645		-7.812500
646		-3.906250
647		-7.812500
648		-3.906250
649		-7.812500
650		-3.906250
651		-5.859375
652		-3.906250
653		-5.859375
654		-3.906250
655		-5.859375
656		-1.953125
657		-5.859375
658		-1.953125
659		-5.859375
660		-1.953125
661		-3.906250
662		-1.953125
663		-3.906250
664		-1.953125
665		-3.906250
666		0.000000
667		-3.906250
668		0.000000
669		-1.953125
670		0.000000
671		-3.906250
672		1.953125
673		-1.953125
674		0.000000
675		-1.953125
676		1.953125
677		0.000000
678		1.953125
679		-1.953125
680		1.953125
681		0.000000
682		1.953125
683		0.000000
684		3.906250
685		1.953125
686		3.906250
687		1.953125
688		3.906250
689		1.953125
690		3.906250
691		1.953125
692		3.906250
693		1.953125
694		5.859375
695		1.953125
696		5.859375
697		3.906250
698		5.859375
699		3.906250
700		5.859375
701		3.906250
702		7.812500
703		5.859375
704		7.812500
705		3.906250
706		7.812500
707		5.859375
708		9.765625
709		5.859375
710		9.765625
711		5.859375
712		9.765625
713		5.859375
714		9.765625
715		7.812500
716		9.765625
717		7.812500
718		11.718750
719		7.812500
720		11.718750
721		7.812500
722		11.718750
723		9.765625
724		11.718750
725		9.765625
726		13.671875
727		11.718750
728		13.671875
729		9.765625
730		13.671875
731		11.718750
732		13.671875
733		11.718750
734		15.625000
735		11.718750
736		15.625000
737		13.671875
738		15.625000
739		13.671875
740		17.578125
741		13.671875
742		17.578125
743		13.671875
744		17.578125
745		13.671875
746		17.578125
747		15.625000
748		17.578125
749		15.625000
750		19.531250
751		15.625000
752		19.531250
753		17.578125
754		19.531250
755		17.578125
756		19.531250
757		17.578125
758		19.531250
759		17.578125
760		21.484375
761		17.578125
762		21.484375
763		19.531250
764		21.484375
765		17.578125
766		21.484375
767		19.531250
768		23.437500
769		19.531250
770		21.484375
771		19.531250
772		21.484375
773		19.531250
774		23.437500
775		21.484375
776		23.437500
777		21.484375
778		23.437500
779		21.484375
780		23.437500
781		21.484375
782		25.390625
783		21.484375
784		25.390625
785		21.484375
786		25.390625
787		23.437500
788		25.390625
789		21.484375
790		27.343750
791		23.437500
792		25.390625
793		23.437500
794		25.390625
795		23.437500
796		27.343750
797		23.437500
798		27.343750
799		23.437500
800		27.343750
801		23.437500
802		27.343750
803		25.390625
804		27.343750
805		23.437500
806		27.343750
807		25.390625
808		27.343750
809		25.390625
810		27.343750
811		25.390625
812		27.343750
813		25.390625
814		27.343750
815		25.390625
816		29.296875
817		25.390625
818		29.296875
819		25.390625
820		27.343750
821		25.390625
822		27.343750
823		25.390625
824		29.296875
825		25.390625
826		29.296875
827		25.390625
828		29.296875
829		25.390625
830		29.296875
831		25.390625
832		29.296875
833		25.390625
834		29.296875
835		25.390625
836		29.296875
837		27.343750
838		29.296875
839		25.390625
840		29.296875
841		25.390625
842		29.296875
843		25.390625
844		29.296875
845		25.390625
846		29.296875
847		25.390625
848		29.296875
849		25.390625
850		29.296875
851		25.390625
852		29.296875
853		25.390625
854		27.343750
855		25.390625
856		27.343750
857		23.437500
858		29.296875
859		25.390625
860		27.343750
861		25.390625
862		27.343750
863		25.390625
864		27.343750
865		25.390625
866		27.343750
867		23.437500
868		27.343750
869		23.437500
870		27.343750
871		23.437500
872		27.343750
873		23.437500
874		27.343750
875		23.437500
876		25.390625
877		23.437500
878		25.390625
879		23.437500
880		25.390625
881		21.484375
882		25.390625
883		21.484375
884		25.390625
885		21.484375
886		25.390625
887		21.484375
888		23.437500
889		21.484375
890		23.437500
891		19.531250
892		23.437500
893		19.531250
894		23.437500
895		19.531250
896		23.437500
897		19.531250
898		23.437500
899		19.531250
900		21.484375
901		17.578125
902		21.484375
903		17.578125
904		21.484375
905		17.578125
906		21.484375
907		17.578125
908		19.531250
909		17.578125
910		19.531250
911		15.625000
912		19.531250
913		15.625000
914		19.531250
915		15.625000
916		19.531250
917		15.625000
918		17.578125
919		15.625000
920		17.578125
921		13.671875
922		17.578125
923		11.718750
924		17.578125
925		13.671875
926		15.625000
927		11.718750
928		15.625000
929		11.718750
930		15.625000
931		11.718750
932		15.625000
933		11.718750
934		13.671875
935		9.765625
936		13.671875
937		9.765625
938		13.671875
939		9.765625
940		11.718750
941		7.812500
942		13.671875
943		7.812500
944		11.718750
945		7.812500
946		11.718750
947		7.812500
948		11.718750
949		5.859375
950		9.765625
951		5.859375
952		9.765625
953		5.859375
954		9.765625
955		5.859375
956		7.812500
957		3.906250
958		7.812500
959		3.906250
960		7.812500
961		3.906250
962		5.859375
963		1.953125
964		5.859375
965		1.953125
966		5.859375
967		1.953125
968		5.859375
969		0.000000
970		5.859375
971		1.953125
972		3.906250
973		0.000000
974		3.906250
975		0.000000
976		3.906250
977		0.000000
978		1.953125
979		0.000000
980		1.953125
981		-1.953125
982		1.953125
983		-1.953125
984		1.953125
985		-1.953125
986		0.000000
987		-1.953125
988		0.000000
989		-1.953125
990		0.000000
991		-3.906250
992		0.000000
993		-3.906250
994		-1.953125
995		-3.906250
996		-1.953125
997		-3.906250
998		-1.953125
999		-5.859375
1000		-1.953125
1001		-5.859375
1002		-3.906250
1003		-5.859375
1004		-3.906250
1005		-5.859375
1006		-3.906250
1007		-7.812500
1008		-3.906250
1009		-7.812500
1010		-3.906250
1011		-7.812500
1012		-3.906250
1013		-7.812500
1014		-5.859375
1015		-7.812500
1016		-5.859375
1017		-7.812500
1018		-5.859375
1019		-9.765625
1020		-5.859375
1021		-7.812500
1022		-5.859375
1023		-9.765625
1024		-5.859375
1025		-9.765625
1026		-5.859375
1027		-9.765625
1028		-7.812500
1029		-9.765625
1030		-7.812500
1031		-9.765625
1032		-7.812500
1033		-9.765625
1034		-7.812500
1035		-11.718750
1036		-7.812500
1037		-11.718750
1038		-7.812500
1039		-11.718750
1040		-7.812500
1041		-11.718750
1042		-7.812500
1043		-11.718750
1044		-7.812500
1045		-11.718750
1046		-9.765625
1047		-11.718750
1048		-7.812500
1049		-11.718750
1050		-9.765625
1051		-11.718750
1052		-9.765625
1053		-11.718750
1054		-7.812500
1055		-11.718750
1056		-9.765625
1057		-13.671875
1058		-9.765625
1059		-11.718750
1060		-9.765625
1061		-11.718750
1062		-9.765625
1063		-11.718750
1064		-9.765625
1065		-11.718750
1066		-7.812500
1067		-11.718750
1068		-9.765625
1069		-11.718750
1070		-9.765625
1071		-11.718750
1072		-9.765625
1073		-11.718750
1074		-9.765625
1075		-11.718750
1076		-7.812500
1077		-11.718750
1078		-7.812500
1079		-11.718750
1080		-7.812500
1081		-11.718750
1082		-9.765625
1083		-11.718750
1084		-7.812500
1085		-11.718750
1086		-7.812500
1087		-11.718750
1088		-7.812500
1089		-11.718750
1090		-7.812500
1091		-11.718750
1092		-7.812500
1093		-11.718750
1094		-7.812500
1095		-9.765625
1096		-7.812500
1097		-9.765625
1098		-7.812500
1099		-9.765625
1100		-5.859375
1101		-9.765625
1102		-7.812500
1103		-9.765625
1104		-5.859375
1105		-9.765625
1106		-7.812500
1107		-7.812500
1108		-5.859375
1109		-9.765625
1110		-5.859375
1111		-7.812500
1112		-5.859375
1113		-7.812500
1114		-5.859375
1115		-7.812500
1116		-3.906250
1117		-7.812500
1118		-3.906250
1119		-7.812500
1120		-3.906250
1121		-7.812500
1122		-3.906250
1123		-5.859375
1124		-3.906250
1125		-7.812500
1126		-3.906250
1127		-5.859375
1128		-1.953125
1129		-5.859375
1130		-1.953125
1131		-5.859375
1132		-1.953125
1133		-3.906250
1134		-1.953125
1135		-3.906250
1136		-1.953125
1137		-3.906250
1138		0.000000
1139		-3.906250
1140		-1.953125
1141		-3.906250
1142		0.000000
1143		-3.906250
1144		0.000000
1145		-1.953125
1146		0.000000
1147		-1.953125
1148		1.953125
1149		-1.953125
1150		1.953125
1151		-1.953125
1152		1.953125
1153		-1.953125
1154		1.953125
1155		0.000000
1156		1.953125
1157		0.000000
1158		1.953125
1159		0.000000
1160		3.906250
1161		1.953125
1162		3.906250
1163		1.953125
1164		5.859375
1165		1.953125
1166		5.859375
1167		1.953125
1168		5.859375
1169		3.906250
1170		5.859375
1171		1.953125
1172		5.859375
1173		3.906250
1174		5.859375
1175		3.906250
1176		7.812500
1177		5.859375
1178		7.812500
1179		5.859375
1180		7.812500
1181		5.859375
1182		7.812500
1183		5.859375
1184		9.765625
1185		5.859375
1186		9.765625
1187		7.812500
1188		11.718750
1189		7.812500
1190		9.765625
1191		7.812500
1192		11.718750
1193		7.812500
1194		11.718750
1195		9.765625
1196		11.718750
1197		9.765625
1198		13.671875
1199		9.765625
1200		13.671875
1201		9.765625
1202		13.671875
1203		11.718750
1204		13.671875
1205		11.718750
1206		15.625000
1207		11.718750
1208		15.625000
1209		11.718750
1210		15.625000
1211		13.671875
1212		15.625000
1213		13.671875
1214		15.625000
1215		13.671875
1216		17.578125
1217		13.671875
1218		17.578125
1219		15.625000
1220		17.578125
1221		15.625000
1222		17.578125
1223		15.625000
1224		17.578125
1225		15.625000
1226		19.531250
1227		15.625000
1228		19.531250
1229		17.578125
1230		19.531250
1231		17.578125
1232		19.531250
1233		17.578125
1234		21.484375
1235		17.578125
1236		21.484375
1237		17.578125
1238		21.484375
1239		17.578125
1240		21.484375
1241		19.531250
1242		21.484375
1243		19.531250
1244		23.437500
1245		19.531250
1246		23.437500
1247		19.531250
1248		23.437500
1249		21.484375
1250		23.437500
1251		21.484375
1252		25.390625
1253		21.484375
1254		25.390625
1255		21.484375
1256		25.390625
1257		21.484375
1258		25.390625
1259		21.484375
1260		25.390625
1261		23.437500
1262		25.390625
1263		23.437500
1264		25.390625
1265		23.437500
1266		25.390625
1267		23.437500
1268		27.343750
1269		23.437500
1270		27.343750
1271		23.437500
1272		27.343750
1273		23.437500
1274		27.343750
1275		25.390625
1276		27.343750
1277		23.437500
1278		27.343750
1279		25.390625
1280		27.343750
1281		25.390625
1282		27.343750
1283		23.437500
1284		29.296875
1285		25.390625
1286		27.343750
1287		25.390625
1288		29.296875
1289		25.390625
1290		29.296875
1291		25.390625
1292		27.343750
1293		25.390625
1294		29.296875
1295		25.390625
1296		29.296875
1297		25.390625
1298		29.296875
1299		25.390625
1300		29.296875
1301		25.390625
1302		29.296875
1303		25.390625
1304		29.296875
1305		25.390625
1306		29.296875
1307		25.390625
1308		27.343750
1309		25.390625
1310		29.296875
1311		25.390625
1312		29.296875
1313		25.390625
1314		29.296875
1315		25.390625
1316		29.296875
