Old_data/metingen laweit/1000Hz, 35.3cm/data_81_m184.txt

Channel              :		CH1
Frequency            :		1.061kHz
Period               :		0.942ms
PK-PK                :		337.9mV
Probe attenuation    :		1X
Voltage per ADC value:		0.122070mV
Time interval        :		2.00000us

index		CH1_Voltage(mV)
1		109.375000
2		109.375000
3		101.562500
4		105.468750
5		97.656250
6		103.515625
7		93.750000
8		99.609375
9		89.843750
10		97.656250
11		85.937500
12		95.703125
13		83.984375
14		91.796875
15		80.078125
16		89.843750
17		76.171875
18		85.937500
19		74.218750
20		80.078125
21		70.312500
22		76.171875
23		66.406250
24		72.265625
25		62.500000
26		70.312500
27		58.593750
28		66.406250
29		54.687500
30		64.453125
31		50.781250
32		60.546875
33		46.875000
34		56.640625
35		44.921875
36		50.781250
37		41.015625
38		46.875000
39		35.156250
40		42.968750
41		29.296875
42		39.062500
43		25.390625
44		35.156250
45		23.437500
46		31.250000
47		17.578125
48		27.343750
49		11.718750
50		21.484375
51		9.765625
52		17.578125
53		5.859375
54		13.671875
55		1.953125
56		7.812500
57		-3.906250
58		3.906250
59		-7.812500
60		0.000000
61		-11.718750
62		-3.906250
63		-17.578125
64		-7.812500
65		-23.437500
66		-13.671875
67		-25.390625
68		-15.625000
69		-29.296875
70		-21.484375
71		-33.203125
72		-27.343750
73		-39.062500
74		-31.250000
75		-42.968750
76		-35.156250
77		-48.828125
78		-39.062500
79		-52.734375
80		-42.968750
81		-56.640625
82		-48.828125
83		-60.546875
84		-50.781250
85		-64.453125
86		-56.640625
87		-68.359375
88		-62.500000
89		-72.265625
90		-66.406250
91		-78.125000
92		-70.312500
93		-83.984375
94		-74.218750
95		-85.937500
96		-78.125000
97		-89.843750
98		-82.031250
99		-93.750000
100		-85.937500
101		-99.609375
102		-89.843750
103		-101.562500
104		-95.703125
105		-105.468750
106		-99.609375
107		-111.328125
108		-103.515625
109		-115.234375
110		-105.468750
111		-117.187500
112		-109.375000
113		-121.093750
114		-113.281250
115		-125.000000
116		-115.234375
117		-128.906250
118		-119.140625
119		-130.859375
120		-123.046875
121		-132.812500
122		-126.953125
123		-136.718750
124		-130.859375
125		-140.625000
126		-132.812500
127		-142.578125
128		-136.718750
129		-146.484375
130		-138.671875
131		-150.390625
132		-140.625000
133		-152.343750
134		-144.531250
135		-154.296875
136		-146.484375
137		-154.296875
138		-148.437500
139		-158.203125
140		-152.343750
141		-162.109375
142		-154.296875
143		-162.109375
144		-156.250000
145		-166.015625
146		-158.203125
147		-167.968750
148		-160.156250
149		-167.968750
150		-162.109375
151		-169.921875
152		-162.109375
153		-171.875000
154		-166.015625
155		-171.875000
156		-167.968750
157		-173.828125
158		-167.968750
159		-175.781250
160		-167.968750
161		-175.781250
162		-169.921875
163		-177.734375
164		-169.921875
165		-177.734375
166		-169.921875
167		-179.687500
168		-171.875000
169		-179.687500
170		-171.875000
171		-177.734375
172		-173.828125
173		-177.734375
174		-173.828125
175		-179.687500
176		-171.875000
177		-179.687500
178		-171.875000
179		-179.687500
180		-171.875000
181		-179.687500
182		-171.875000
183		-177.734375
184		-171.875000
185		-177.734375
186		-171.875000
187		-175.781250
188		-171.875000
189		-173.828125
190		-171.875000
191		-175.781250
192		-167.968750
193		-173.828125
194		-166.015625
195		-171.875000
196		-166.015625
197		-171.875000
198		-164.062500
199		-169.921875
200		-164.062500
201		-167.968750
202		-160.156250
203		-166.015625
204		-160.156250
205		-162.109375
206		-158.203125
207		-160.156250
208		-156.250000
209		-160.156250
210		-152.343750
211		-158.203125
212		-150.390625
213		-156.250000
214		-148.437500
215		-152.343750
216		-144.531250
217		-150.390625
218		-142.578125
219		-146.484375
220		-138.671875
221		-144.531250
222		-138.671875
223		-140.625000
224		-134.765625
225		-136.718750
226		-130.859375
227		-134.765625
228		-126.953125
229		-132.812500
230		-123.046875
231		-128.906250
232		-119.140625
233		-125.000000
234		-117.187500
235		-121.093750
236		-113.281250
237		-117.187500
238		-111.328125
239		-111.328125
240		-107.421875
241		-109.375000
242		-101.562500
243		-107.421875
244		-97.656250
245		-101.562500
246		-93.750000
247		-97.656250
248		-89.843750
249		-95.703125
250		-85.937500
251		-89.843750
252		-82.031250
253		-85.937500
254		-78.125000
255		-80.078125
256		-74.218750
257		-76.171875
258		-70.312500
259		-72.265625
260		-64.453125
261		-68.359375
262		-58.593750
263		-64.453125
264		-54.687500
265		-60.546875
266		-50.781250
267		-54.687500
268		-46.875000
269		-50.781250
270		-41.015625
271		-44.921875
272		-39.062500
273		-39.062500
274		-33.203125
275		-35.156250
276		-27.343750
277		-31.250000
278		-23.437500
279		-27.343750
280		-19.531250
281		-25.390625
282		-15.625000
283		-19.531250
284		-9.765625
285		-13.671875
286		-3.906250
287		-9.765625
288		-1.953125
289		-3.906250
290		1.953125
291		0.000000
292		5.859375
293		3.906250
294		11.718750
295		5.859375
296		15.625000
297		13.671875
298		21.484375
299		15.625000
300		25.390625
301		19.531250
302		29.296875
303		23.437500
304		33.203125
305		29.296875
306		37.109375
307		35.156250
308		41.015625
309		39.062500
310		44.921875
311		41.015625
312		50.781250
313		44.921875
314		54.687500
315		50.781250
316		58.593750
317		52.734375
318		60.546875
319		56.640625
320		64.453125
321		60.546875
322		68.359375
323		66.406250
324		70.312500
325		70.312500
326		76.171875
327		70.312500
328		80.078125
329		74.218750
330		83.984375
331		80.078125
332		85.937500
333		82.031250
334		89.843750
335		85.937500
336		93.750000
337		87.890625
338		95.703125
339		93.750000
340		97.656250
341		95.703125
342		101.562500
343		97.656250
344		105.468750
345		99.609375
346		107.421875
347		103.515625
348		111.328125
349		105.468750
350		113.281250
351		109.375000
352		117.187500
353		111.328125
354		119.140625
355		113.281250
356		119.140625
357		117.187500
358		121.093750
359		119.140625
360		125.000000
361		119.140625
362		126.953125
363		123.046875
364		130.859375
365		123.046875
366		130.859375
367		126.953125
368		134.765625
369		128.906250
370		134.765625
371		130.859375
372		136.718750
373		132.812500
374		136.718750
375		134.765625
376		138.671875
377		134.765625
378		142.578125
379		136.718750
380		144.531250
381		136.718750
382		144.531250
383		138.671875
384		146.484375
385		140.625000
386		146.484375
387		140.625000
388		148.437500
389		142.578125
390		146.484375
391		144.531250
392		148.437500
393		144.531250
394		150.390625
395		144.531250
396		150.390625
397		144.531250
398		152.343750
399		144.531250
400		152.343750
401		146.484375
402		152.343750
403		146.484375
404		154.296875
405		146.484375
406		154.296875
407		148.437500
408		150.390625
409		146.484375
410		152.343750
411		146.484375
412		154.296875
413		146.484375
414		154.296875
415		146.484375
416		152.343750
417		146.484375
418		152.343750
419		146.484375
420		152.343750
421		146.484375
422		152.343750
423		146.484375
424		150.390625
425		146.484375
426		150.390625
427		142.578125
428		150.390625
429		142.578125
430		150.390625
431		142.578125
432		148.437500
433		140.625000
434		148.437500
435		140.625000
436		146.484375
437		138.671875
438		146.484375
439		138.671875
440		144.531250
441		138.671875
442		142.578125
443		134.765625
444		140.625000
445		132.812500
446		140.625000
447		130.859375
448		138.671875
449		130.859375
450		136.718750
451		128.906250
452		134.765625
453		126.953125
454		134.765625
455		125.000000
456		132.812500
457		125.000000
458		128.906250
459		121.093750
460		125.000000
461		117.187500
462		125.000000
463		117.187500
464		123.046875
465		113.281250
466		121.093750
467		109.375000
468		117.187500
469		107.421875
470		115.234375
471		105.468750
472		113.281250
473		103.515625
474		109.375000
475		101.562500
476		105.468750
477		97.656250
478		103.515625
479		93.750000
480		103.515625
481		89.843750
482		99.609375
483		87.890625
484		95.703125
485		83.984375
486		93.750000
487		80.078125
488		89.843750
489		78.125000
490		85.937500
491		76.171875
492		80.078125
493		72.265625
494		76.171875
495		66.406250
496		74.218750
497		62.500000
498		72.265625
499		58.593750
500		68.359375
501		56.640625
502		64.453125
503		50.781250
504		60.546875
505		46.875000
506		56.640625
507		44.921875
508		50.781250
509		41.015625
510		46.875000
511		33.203125
512		42.968750
513		29.296875
514		39.062500
515		27.343750
516		35.156250
517		23.437500
518		31.250000
519		17.578125
520		27.343750
521		15.625000
522		23.437500
523		11.718750
524		19.531250
525		7.812500
526		11.718750
527		0.000000
528		7.812500
529		-3.906250
530		5.859375
531		-7.812500
532		1.953125
533		-13.671875
534		-3.906250
535		-15.625000
536		-7.812500
537		-19.531250
538		-11.718750
539		-23.437500
540		-15.625000
541		-27.343750
542		-23.437500
543		-33.203125
544		-27.343750
545		-37.109375
546		-31.250000
547		-42.968750
548		-33.203125
549		-48.828125
550		-39.062500
551		-52.734375
552		-44.921875
553		-54.687500
554		-48.828125
555		-60.546875
556		-50.781250
557		-62.500000
558		-56.640625
559		-68.359375
560		-62.500000
561		-74.218750
562		-66.406250
563		-76.171875
564		-68.359375
565		-82.031250
566		-72.265625
567		-85.937500
568		-76.171875
569		-89.843750
570		-80.078125
571		-93.750000
572		-85.937500
573		-95.703125
574		-89.843750
575		-99.609375
576		-93.750000
577		-103.515625
578		-97.656250
579		-109.375000
580		-101.562500
581		-113.281250
582		-105.468750
583		-115.234375
584		-107.421875
585		-119.140625
586		-111.328125
587		-125.000000
588		-115.234375
589		-126.953125
590		-119.140625
591		-126.953125
592		-123.046875
593		-130.859375
594		-126.953125
595		-136.718750
596		-128.906250
597		-138.671875
598		-130.859375
599		-142.578125
600		-132.812500
601		-144.531250
602		-136.718750
603		-148.437500
604		-138.671875
605		-148.437500
606		-140.625000
607		-150.390625
608		-144.531250
609		-152.343750
610		-148.437500
611		-156.250000
612		-150.390625
613		-160.156250
614		-150.390625
615		-162.109375
616		-154.296875
617		-164.062500
618		-156.250000
619		-166.015625
620		-158.203125
621		-166.015625
622		-160.156250
623		-167.968750
624		-162.109375
625		-167.968750
626		-164.062500
627		-169.921875
628		-166.015625
629		-171.875000
630		-166.015625
631		-173.828125
632		-166.015625
633		-175.781250
634		-167.968750
635		-175.781250
636		-167.968750
637		-175.781250
638		-169.921875
639		-175.781250
640		-169.921875
641		-175.781250
642		-171.875000
643		-175.781250
644		-171.875000
645		-177.734375
646		-171.875000
647		-177.734375
648		-169.921875
649		-177.734375
650		-169.921875
651		-177.734375
652		-169.921875
653		-177.734375
654		-169.921875
655		-175.781250
656		-167.968750
657		-173.828125
658		-167.968750
659		-171.875000
660		-167.968750
661		-171.875000
662		-167.968750
663		-171.875000
664		-166.015625
665		-169.921875
666		-164.062500
667		-169.921875
668		-162.109375
669		-167.968750
670		-160.156250
671		-166.015625
672		-160.156250
673		-164.062500
674		-158.203125
675		-162.109375
676		-158.203125
677		-158.203125
678		-154.296875
679		-158.203125
680		-150.390625
681		-156.250000
682		-148.437500
683		-154.296875
684		-146.484375
685		-152.343750
686		-144.531250
687		-150.390625
688		-140.625000
689		-146.484375
690		-138.671875
691		-144.531250
692		-136.718750
693		-138.671875
694		-134.765625
695		-136.718750
696		-130.859375
697		-134.765625
698		-126.953125
699		-130.859375
700		-123.046875
701		-126.953125
702		-119.140625
703		-123.046875
704		-117.187500
705		-121.093750
706		-113.281250
707		-117.187500
708		-109.375000
709		-111.328125
710		-107.421875
711		-109.375000
712		-103.515625
713		-105.468750
714		-97.656250
715		-103.515625
716		-93.750000
717		-97.656250
718		-89.843750
719		-93.750000
720		-85.937500
721		-89.843750
722		-82.031250
723		-85.937500
724		-76.171875
725		-82.031250
726		-74.218750
727		-76.171875
728		-70.312500
729		-72.265625
730		-64.453125
731		-70.312500
732		-58.593750
733		-64.453125
734		-54.687500
735		-60.546875
736		-50.781250
737		-56.640625
738		-46.875000
739		-50.781250
740		-42.968750
741		-46.875000
742		-39.062500
743		-41.015625
744		-35.156250
745		-35.156250
746		-29.296875
747		-33.203125
748		-23.437500
749		-31.250000
750		-19.531250
751		-25.390625
752		-15.625000
753		-19.531250
754		-9.765625
755		-13.671875
756		-5.859375
757		-11.718750
758		-1.953125
759		-5.859375
760		1.953125
761		0.000000
762		5.859375
763		3.906250
764		11.718750
765		5.859375
766		15.625000
767		11.718750
768		19.531250
769		15.625000
770		25.390625
771		21.484375
772		29.296875
773		25.390625
774		33.203125
775		27.343750
776		35.156250
777		33.203125
778		39.062500
779		39.062500
780		44.921875
781		41.015625
782		48.828125
783		44.921875
784		52.734375
785		48.828125
786		56.640625
787		50.781250
788		60.546875
789		54.687500
790		64.453125
791		60.546875
792		68.359375
793		64.453125
794		70.312500
795		68.359375
796		74.218750
797		72.265625
798		80.078125
799		74.218750
800		82.031250
801		78.125000
802		85.937500
803		82.031250
804		89.843750
805		83.984375
806		91.796875
807		87.890625
808		95.703125
809		91.796875
810		97.656250
811		95.703125
812		101.562500
813		99.609375
814		105.468750
815		99.609375
816		109.375000
817		103.515625
818		111.328125
819		105.468750
820		113.281250
821		107.421875
822		115.234375
823		111.328125
824		119.140625
825		113.281250
826		119.140625
827		117.187500
828		121.093750
829		119.140625
830		123.046875
831		119.140625
832		126.953125
833		121.093750
834		128.906250
835		125.000000
836		132.812500
837		126.953125
838		134.765625
839		128.906250
840		136.718750
841		128.906250
842		136.718750
843		132.812500
844		136.718750
845		134.765625
846		138.671875
847		136.718750
848		142.578125
849		136.718750
850		144.531250
851		136.718750
852		144.531250
853		138.671875
854		146.484375
855		140.625000
856		148.437500
857		142.578125
858		148.437500
859		142.578125
860		148.437500
861		144.531250
862		148.437500
863		144.531250
864		150.390625
865		144.531250
866		152.343750
867		144.531250
868		152.343750
869		146.484375
870		152.343750
871		146.484375
872		152.343750
873		146.484375
874		154.296875
875		148.437500
876		154.296875
877		150.390625
878		152.343750
879		150.390625
880		152.343750
881		148.437500
882		154.296875
883		148.437500
884		154.296875
885		146.484375
886		154.296875
887		148.437500
888		154.296875
889		146.484375
890		154.296875
891		146.484375
892		152.343750
893		148.437500
894		152.343750
895		148.437500
896		150.390625
897		144.531250
898		150.390625
899		144.531250
900		150.390625
901		144.531250
902		150.390625
903		142.578125
904		150.390625
905		142.578125
906		148.437500
907		140.625000
908		146.484375
909		140.625000
910		146.484375
911		140.625000
912		142.578125
913		138.671875
914		142.578125
915		134.765625
916		142.578125
917		132.812500
918		140.625000
919		132.812500
920		138.671875
921		130.859375
922		136.718750
923		128.906250
924		136.718750
925		126.953125
926		134.765625
927		126.953125
928		130.859375
929		125.000000
930		128.906250
931		119.140625
932		126.953125
933		117.187500
934		125.000000
935		115.234375
936		123.046875
937		113.281250
938		121.093750
939		111.328125
940		119.140625
941		107.421875
942		115.234375
943		105.468750
944		113.281250
945		103.515625
946		109.375000
947		99.609375
948		105.468750
949		97.656250
950		105.468750
951		91.796875
952		101.562500
953		89.843750
954		97.656250
955		87.890625
956		95.703125
957		83.984375
958		91.796875
959		80.078125
960		87.890625
961		78.125000
962		83.984375
963		74.218750
964		80.078125
965		70.312500
966		76.171875
967		66.406250
968		74.218750
969		62.500000
970		72.265625
971		58.593750
972		68.359375
973		52.734375
974		64.453125
975		50.781250
976		58.593750
977		48.828125
978		54.687500
979		44.921875
980		50.781250
981		39.062500
982		46.875000
983		35.156250
984		42.968750
985		31.250000
986		39.062500
987		25.390625
988		35.156250
989		21.484375
990		31.250000
991		17.578125
992		27.343750
993		15.625000
994		21.484375
995		9.765625
996		17.578125
997		5.859375
998		13.671875
999		0.000000
1000		7.812500
1001		-3.906250
1002		5.859375
1003		-7.812500
1004		1.953125
1005		-11.718750
1006		-3.906250
1007		-17.578125
1008		-7.812500
1009		-21.484375
1010		-11.718750
1011		-25.390625
1012		-17.578125
1013		-29.296875
1014		-23.437500
1015		-35.156250
1016		-27.343750
1017		-39.062500
1018		-29.296875
1019		-42.968750
1020		-35.156250
1021		-46.875000
1022		-41.015625
1023		-52.734375
1024		-42.968750
1025		-56.640625
1026		-48.828125
1027		-60.546875
1028		-52.734375
1029		-64.453125
1030		-58.593750
1031		-68.359375
1032		-62.500000
1033		-74.218750
1034		-64.453125
1035		-78.125000
1036		-70.312500
1037		-82.031250
1038		-72.265625
1039		-85.937500
1040		-78.125000
1041		-89.843750
1042		-80.078125
1043		-93.750000
1044		-85.937500
1045		-95.703125
1046		-91.796875
1047		-99.609375
1048		-95.703125
1049		-105.468750
1050		-97.656250
1051		-109.375000
1052		-101.562500
1053		-113.281250
1054		-103.515625
1055		-117.187500
1056		-107.421875
1057		-121.093750
1058		-111.328125
1059		-123.046875
1060		-115.234375
1061		-125.000000
1062		-119.140625
1063		-128.906250
1064		-123.046875
1065		-132.812500
1066		-126.953125
1067		-136.718750
1068		-128.906250
1069		-138.671875
1070		-130.859375
1071		-142.578125
1072		-132.812500
1073		-144.531250
1074		-136.718750
1075		-146.484375
1076		-138.671875
1077		-148.437500
1078		-142.578125
1079		-150.390625
1080		-146.484375
1081		-152.343750
1082		-148.437500
1083		-156.250000
1084		-150.390625
1085		-158.203125
1086		-152.343750
1087		-162.109375
1088		-154.296875
1089		-162.109375
1090		-154.296875
1091		-164.062500
1092		-158.203125
1093		-166.015625
1094		-158.203125
1095		-166.015625
1096		-162.109375
1097		-167.968750
1098		-164.062500
1099		-169.921875
1100		-164.062500
1101		-171.875000
1102		-164.062500
1103		-171.875000
1104		-166.015625
1105		-173.828125
1106		-166.015625
1107		-173.828125
1108		-166.015625
1109		-173.828125
1110		-167.968750
1111		-173.828125
1112		-167.968750
1113		-173.828125
1114		-171.875000
1115		-173.828125
1116		-171.875000
1117		-175.781250
1118		-169.921875
1119		-175.781250
1120		-167.968750
1121		-175.781250
1122		-169.921875
1123		-175.781250
1124		-167.968750
1125		-175.781250
1126		-167.968750
1127		-173.828125
1128		-167.968750
1129		-171.875000
1130		-167.968750
1131		-169.921875
1132		-167.968750
1133		-171.875000
1134		-164.062500
1135		-169.921875
1136		-164.062500
1137		-169.921875
1138		-162.109375
1139		-167.968750
1140		-160.156250
1141		-166.015625
1142		-160.156250
1143		-166.015625
1144		-156.250000
1145		-164.062500
1146		-158.203125
1147		-160.156250
1148		-156.250000
1149		-158.203125
1150		-152.343750
1151		-158.203125
1152		-150.390625
1153		-154.296875
1154		-148.437500
1155		-152.343750
1156		-144.531250
1157		-150.390625
1158		-142.578125
1159		-148.437500
1160		-138.671875
1161		-144.531250
1162		-136.718750
1163		-140.625000
1164		-136.718750
1165		-136.718750
1166		-132.812500
1167		-134.765625
1168		-128.906250
1169		-132.812500
1170		-125.000000
1171		-130.859375
1172		-121.093750
1173		-125.000000
1174		-117.187500
1175		-123.046875
1176		-115.234375
1177		-119.140625
1178		-111.328125
1179		-115.234375
1180		-109.375000
1181		-111.328125
1182		-105.468750
1183		-107.421875
1184		-99.609375
1185		-103.515625
1186		-95.703125
1187		-99.609375
1188		-91.796875
1189		-97.656250
1190		-87.890625
1191		-93.750000
1192		-83.984375
1193		-87.890625
1194		-80.078125
1195		-83.984375
1196		-76.171875
1197		-78.125000
1198		-72.265625
1199		-74.218750
1200		-68.359375
1201		-72.265625
1202		-62.500000
1203		-66.406250
1204		-58.593750
1205		-62.500000
1206		-54.687500
1207		-58.593750
1208		-48.828125
1209		-54.687500
1210		-44.921875
1211		-48.828125
1212		-41.015625
1213		-44.921875
1214		-37.109375
1215		-39.062500
1216		-33.203125
1217		-35.156250
1218		-27.343750
1219		-31.250000
1220		-21.484375
1221		-25.390625
