Old_data/metingen laweit/1000Hz, 35.3cm/data_81_m246.txt

Channel              :		CH1
Frequency            :		1.061kHz
Period               :		0.942ms
PK-PK                :		195.3mV
Probe attenuation    :		1X
Voltage per ADC value:		0.122070mV
Time interval        :		2.00000us

index		CH1_Voltage(mV)
1		80.078125
2		80.078125
3		74.218750
4		78.125000
5		72.265625
6		76.171875
7		70.312500
8		74.218750
9		68.359375
10		72.265625
11		66.406250
12		70.312500
13		64.453125
14		68.359375
15		64.453125
16		66.406250
17		60.546875
18		66.406250
19		58.593750
20		62.500000
21		56.640625
22		60.546875
23		54.687500
24		58.593750
25		52.734375
26		56.640625
27		50.781250
28		54.687500
29		48.828125
30		52.734375
31		46.875000
32		50.781250
33		44.921875
34		48.828125
35		41.015625
36		44.921875
37		39.062500
38		42.968750
39		37.109375
40		41.015625
41		35.156250
42		39.062500
43		33.203125
44		37.109375
45		31.250000
46		35.156250
47		27.343750
48		31.250000
49		25.390625
50		29.296875
51		21.484375
52		27.343750
53		21.484375
54		25.390625
55		17.578125
56		21.484375
57		15.625000
58		19.531250
59		11.718750
60		17.578125
61		9.765625
62		15.625000
63		7.812500
64		13.671875
65		5.859375
66		9.765625
67		1.953125
68		7.812500
69		0.000000
70		5.859375
71		-1.953125
72		1.953125
73		-5.859375
74		0.000000
75		-7.812500
76		-1.953125
77		-9.765625
78		-3.906250
79		-11.718750
80		-7.812500
81		-13.671875
82		-9.765625
83		-17.578125
84		-11.718750
85		-19.531250
86		-13.671875
87		-21.484375
88		-17.578125
89		-23.437500
90		-19.531250
91		-27.343750
92		-21.484375
93		-29.296875
94		-25.390625
95		-31.250000
96		-27.343750
97		-33.203125
98		-29.296875
99		-35.156250
100		-29.296875
101		-37.109375
102		-33.203125
103		-39.062500
104		-35.156250
105		-41.015625
106		-37.109375
107		-44.921875
108		-39.062500
109		-46.875000
110		-42.968750
111		-46.875000
112		-44.921875
113		-50.781250
114		-46.875000
115		-52.734375
116		-48.828125
117		-54.687500
118		-48.828125
119		-54.687500
120		-50.781250
121		-58.593750
122		-52.734375
123		-60.546875
124		-54.687500
125		-60.546875
126		-56.640625
127		-62.500000
128		-58.593750
129		-64.453125
130		-60.546875
131		-66.406250
132		-62.500000
133		-66.406250
134		-62.500000
135		-68.359375
136		-64.453125
137		-70.312500
138		-66.406250
139		-70.312500
140		-68.359375
141		-72.265625
142		-68.359375
143		-74.218750
144		-68.359375
145		-74.218750
146		-70.312500
147		-74.218750
148		-72.265625
149		-76.171875
150		-72.265625
151		-78.125000
152		-74.218750
153		-78.125000
154		-74.218750
155		-78.125000
156		-76.171875
157		-80.078125
158		-76.171875
159		-80.078125
160		-76.171875
161		-80.078125
162		-76.171875
163		-80.078125
164		-78.125000
165		-82.031250
166		-78.125000
167		-82.031250
168		-78.125000
169		-82.031250
170		-78.125000
171		-82.031250
172		-78.125000
173		-82.031250
174		-78.125000
175		-82.031250
176		-78.125000
177		-82.031250
178		-78.125000
179		-82.031250
180		-80.078125
181		-82.031250
182		-80.078125
183		-82.031250
184		-78.125000
185		-82.031250
186		-78.125000
187		-82.031250
188		-78.125000
189		-80.078125
190		-78.125000
191		-80.078125
192		-76.171875
193		-80.078125
194		-76.171875
195		-80.078125
196		-76.171875
197		-78.125000
198		-74.218750
199		-78.125000
200		-72.265625
201		-76.171875
202		-72.265625
203		-76.171875
204		-72.265625
205		-74.218750
206		-70.312500
207		-74.218750
208		-68.359375
209		-72.265625
210		-68.359375
211		-70.312500
212		-68.359375
213		-68.359375
214		-66.406250
215		-68.359375
216		-64.453125
217		-68.359375
218		-62.500000
219		-66.406250
220		-62.500000
221		-64.453125
222		-60.546875
223		-62.500000
224		-58.593750
225		-60.546875
226		-56.640625
227		-58.593750
228		-54.687500
229		-56.640625
230		-52.734375
231		-54.687500
232		-50.781250
233		-54.687500
234		-48.828125
235		-52.734375
236		-46.875000
237		-50.781250
238		-44.921875
239		-46.875000
240		-42.968750
241		-46.875000
242		-41.015625
243		-42.968750
244		-39.062500
245		-41.015625
246		-37.109375
247		-39.062500
248		-35.156250
249		-37.109375
250		-31.250000
251		-35.156250
252		-31.250000
253		-33.203125
254		-27.343750
255		-29.296875
256		-25.390625
257		-27.343750
258		-23.437500
259		-25.390625
260		-21.484375
261		-23.437500
262		-19.531250
263		-21.484375
264		-15.625000
265		-17.578125
266		-13.671875
267		-17.578125
268		-11.718750
269		-13.671875
270		-9.765625
271		-11.718750
272		-7.812500
273		-7.812500
274		-3.906250
275		-5.859375
276		-1.953125
277		-3.906250
278		0.000000
279		-3.906250
280		3.906250
281		1.953125
282		5.859375
283		3.906250
284		7.812500
285		5.859375
286		11.718750
287		7.812500
288		13.671875
289		11.718750
290		15.625000
291		13.671875
292		17.578125
293		15.625000
294		19.531250
295		17.578125
296		23.437500
297		21.484375
298		25.390625
299		23.437500
300		27.343750
301		25.390625
302		31.250000
303		27.343750
304		33.203125
305		31.250000
306		35.156250
307		33.203125
308		37.109375
309		35.156250
310		39.062500
311		37.109375
312		42.968750
313		41.015625
314		44.921875
315		41.015625
316		46.875000
317		42.968750
318		48.828125
319		46.875000
320		50.781250
321		48.828125
322		52.734375
323		50.781250
324		54.687500
325		52.734375
326		56.640625
327		54.687500
328		60.546875
329		56.640625
330		62.500000
331		58.593750
332		64.453125
333		62.500000
334		64.453125
335		62.500000
336		66.406250
337		64.453125
338		70.312500
339		66.406250
340		70.312500
341		68.359375
342		72.265625
343		70.312500
344		74.218750
345		72.265625
346		76.171875
347		74.218750
348		78.125000
349		76.171875
350		80.078125
351		78.125000
352		80.078125
353		78.125000
354		82.031250
355		80.078125
356		83.984375
357		82.031250
358		85.937500
359		83.984375
360		85.937500
361		83.984375
362		87.890625
363		83.984375
364		89.843750
365		87.890625
366		91.796875
367		87.890625
368		91.796875
369		89.843750
370		93.750000
371		91.796875
372		93.750000
373		91.796875
374		95.703125
375		93.750000
376		95.703125
377		93.750000
378		97.656250
379		95.703125
380		97.656250
381		95.703125
382		99.609375
383		95.703125
384		99.609375
385		97.656250
386		101.562500
387		97.656250
388		101.562500
389		99.609375
390		101.562500
391		99.609375
392		101.562500
393		99.609375
394		103.515625
395		99.609375
396		103.515625
397		101.562500
398		103.515625
399		101.562500
400		103.515625
401		101.562500
402		105.468750
403		101.562500
404		105.468750
405		101.562500
406		105.468750
407		101.562500
408		105.468750
409		101.562500
410		105.468750
411		101.562500
412		105.468750
413		101.562500
414		105.468750
415		103.515625
416		105.468750
417		101.562500
418		105.468750
419		101.562500
420		105.468750
421		101.562500
422		105.468750
423		101.562500
424		103.515625
425		101.562500
426		103.515625
427		99.609375
428		103.515625
429		99.609375
430		103.515625
431		99.609375
432		103.515625
433		99.609375
434		101.562500
435		97.656250
436		101.562500
437		97.656250
438		101.562500
439		97.656250
440		101.562500
441		95.703125
442		99.609375
443		95.703125
444		97.656250
445		93.750000
446		97.656250
447		93.750000
448		97.656250
449		91.796875
450		95.703125
451		89.843750
452		95.703125
453		89.843750
454		93.750000
455		89.843750
456		91.796875
457		87.890625
458		91.796875
459		85.937500
460		89.843750
461		83.984375
462		87.890625
463		82.031250
464		87.890625
465		82.031250
466		85.937500
467		80.078125
468		83.984375
469		78.125000
470		83.984375
471		78.125000
472		82.031250
473		76.171875
474		80.078125
475		74.218750
476		78.125000
477		72.265625
478		76.171875
479		70.312500
480		74.218750
481		68.359375
482		72.265625
483		66.406250
484		70.312500
485		64.453125
486		68.359375
487		62.500000
488		66.406250
489		60.546875
490		64.453125
491		58.593750
492		62.500000
493		56.640625
494		60.546875
495		54.687500
496		58.593750
497		52.734375
498		56.640625
499		50.781250
500		54.687500
501		48.828125
502		52.734375
503		46.875000
504		50.781250
505		42.968750
506		48.828125
507		41.015625
508		44.921875
509		39.062500
510		42.968750
511		37.109375
512		41.015625
513		35.156250
514		39.062500
515		33.203125
516		37.109375
517		29.296875
518		33.203125
519		27.343750
520		31.250000
521		25.390625
522		29.296875
523		21.484375
524		27.343750
525		19.531250
526		25.390625
527		17.578125
528		21.484375
529		15.625000
530		19.531250
531		11.718750
532		17.578125
533		9.765625
534		13.671875
535		7.812500
536		11.718750
537		3.906250
538		9.765625
539		1.953125
540		7.812500
541		0.000000
542		3.906250
543		-1.953125
544		1.953125
545		-5.859375
546		0.000000
547		-7.812500
548		-3.906250
549		-9.765625
550		-5.859375
551		-11.718750
552		-7.812500
553		-15.625000
554		-9.765625
555		-17.578125
556		-13.671875
557		-19.531250
558		-15.625000
559		-21.484375
560		-17.578125
561		-25.390625
562		-19.531250
563		-27.343750
564		-21.484375
565		-29.296875
566		-25.390625
567		-31.250000
568		-27.343750
569		-33.203125
570		-29.296875
571		-35.156250
572		-31.250000
573		-39.062500
574		-33.203125
575		-41.015625
576		-35.156250
577		-41.015625
578		-37.109375
579		-44.921875
580		-41.015625
581		-46.875000
582		-41.015625
583		-48.828125
584		-44.921875
585		-50.781250
586		-46.875000
587		-52.734375
588		-46.875000
589		-54.687500
590		-48.828125
591		-54.687500
592		-50.781250
593		-58.593750
594		-54.687500
595		-58.593750
596		-54.687500
597		-60.546875
598		-56.640625
599		-62.500000
600		-58.593750
601		-64.453125
602		-60.546875
603		-64.453125
604		-60.546875
605		-66.406250
606		-62.500000
607		-68.359375
608		-64.453125
609		-70.312500
610		-66.406250
611		-70.312500
612		-66.406250
613		-72.265625
614		-68.359375
615		-74.218750
616		-68.359375
617		-74.218750
618		-70.312500
619		-74.218750
620		-70.312500
621		-76.171875
622		-72.265625
623		-76.171875
624		-74.218750
625		-78.125000
626		-74.218750
627		-78.125000
628		-76.171875
629		-80.078125
630		-76.171875
631		-80.078125
632		-76.171875
633		-80.078125
634		-78.125000
635		-80.078125
636		-78.125000
637		-82.031250
638		-78.125000
639		-82.031250
640		-78.125000
641		-82.031250
642		-78.125000
643		-82.031250
644		-78.125000
645		-82.031250
646		-78.125000
647		-82.031250
648		-78.125000
649		-82.031250
650		-78.125000
651		-82.031250
652		-78.125000
653		-82.031250
654		-78.125000
655		-82.031250
656		-78.125000
657		-80.078125
658		-78.125000
659		-80.078125
660		-78.125000
661		-80.078125
662		-76.171875
663		-80.078125
664		-76.171875
665		-80.078125
666		-76.171875
667		-78.125000
668		-74.218750
669		-78.125000
670		-72.265625
671		-76.171875
672		-72.265625
673		-76.171875
674		-72.265625
675		-74.218750
676		-70.312500
677		-74.218750
678		-70.312500
679		-72.265625
680		-68.359375
681		-70.312500
682		-68.359375
683		-70.312500
684		-66.406250
685		-68.359375
686		-64.453125
687		-68.359375
688		-62.500000
689		-66.406250
690		-62.500000
691		-64.453125
692		-60.546875
693		-62.500000
694		-58.593750
695		-62.500000
696		-56.640625
697		-58.593750
698		-54.687500
699		-58.593750
700		-54.687500
701		-56.640625
702		-52.734375
703		-54.687500
704		-50.781250
705		-52.734375
706		-48.828125
707		-50.781250
708		-46.875000
709		-48.828125
710		-44.921875
711		-46.875000
712		-42.968750
713		-44.921875
714		-39.062500
715		-42.968750
716		-39.062500
717		-41.015625
718		-37.109375
719		-37.109375
720		-33.203125
721		-37.109375
722		-31.250000
723		-33.203125
724		-29.296875
725		-31.250000
726		-27.343750
727		-29.296875
728		-25.390625
729		-27.343750
730		-21.484375
731		-25.390625
732		-19.531250
733		-21.484375
734		-17.578125
735		-19.531250
736		-15.625000
737		-17.578125
738		-11.718750
739		-15.625000
740		-9.765625
741		-11.718750
742		-7.812500
743		-9.765625
744		-5.859375
745		-7.812500
746		-1.953125
747		-5.859375
748		0.000000
749		-5.859375
750		1.953125
751		0.000000
752		3.906250
753		1.953125
754		9.765625
755		3.906250
756		9.765625
757		7.812500
758		11.718750
759		9.765625
760		13.671875
761		11.718750
762		17.578125
763		13.671875
764		19.531250
765		15.625000
766		21.484375
767		19.531250
768		23.437500
769		21.484375
770		27.343750
771		23.437500
772		29.296875
773		25.390625
774		33.203125
775		27.343750
776		33.203125
777		31.250000
778		37.109375
779		33.203125
780		39.062500
781		35.156250
782		42.968750
783		39.062500
784		42.968750
785		41.015625
786		44.921875
787		42.968750
788		48.828125
789		44.921875
790		50.781250
791		46.875000
792		52.734375
793		50.781250
794		54.687500
795		50.781250
796		56.640625
797		52.734375
798		60.546875
799		54.687500
800		60.546875
801		58.593750
802		62.500000
803		60.546875
804		64.453125
805		60.546875
806		68.359375
807		62.500000
808		70.312500
809		64.453125
810		72.265625
811		66.406250
812		72.265625
813		68.359375
814		76.171875
815		70.312500
816		76.171875
817		72.265625
818		78.125000
819		74.218750
820		78.125000
821		76.171875
822		82.031250
823		76.171875
824		82.031250
825		78.125000
826		85.937500
827		80.078125
828		85.937500
829		80.078125
830		87.890625
831		82.031250
832		87.890625
833		83.984375
834		89.843750
835		85.937500
836		89.843750
837		87.890625
838		91.796875
839		87.890625
840		93.750000
841		87.890625
842		95.703125
843		89.843750
844		97.656250
845		91.796875
846		97.656250
847		91.796875
848		97.656250
849		93.750000
850		99.609375
851		95.703125
852		97.656250
853		95.703125
854		99.609375
855		95.703125
856		101.562500
857		95.703125
858		103.515625
859		97.656250
860		103.515625
861		97.656250
862		105.468750
863		97.656250
864		105.468750
865		97.656250
866		105.468750
867		101.562500
868		103.515625
869		101.562500
870		103.515625
871		99.609375
872		105.468750
873		101.562500
874		105.468750
875		101.562500
876		105.468750
877		101.562500
878		105.468750
879		101.562500
880		105.468750
881		101.562500
882		107.421875
883		101.562500
884		105.468750
885		103.515625
886		105.468750
887		103.515625
888		105.468750
889		99.609375
890		107.421875
891		101.562500
892		107.421875
893		99.609375
894		105.468750
895		99.609375
896		105.468750
897		99.609375
898		105.468750
899		97.656250
900		105.468750
901		99.609375
902		103.515625
903		99.609375
904		101.562500
905		97.656250
906		103.515625
907		97.656250
908		103.515625
909		95.703125
910		103.515625
911		95.703125
912		101.562500
913		93.750000
914		101.562500
915		93.750000
916		99.609375
917		91.796875
918		99.609375
919		93.750000
920		95.703125
921		89.843750
922		95.703125
923		89.843750
924		95.703125
925		87.890625
926		95.703125
927		85.937500
928		93.750000
929		85.937500
930		91.796875
931		83.984375
932		91.796875
933		83.984375
934		89.843750
935		83.984375
936		85.937500
937		82.031250
938		85.937500
939		78.125000
940		85.937500
941		76.171875
942		83.984375
943		74.218750
944		82.031250
945		74.218750
946		82.031250
947		72.265625
948		80.078125
949		68.359375
950		78.125000
951		70.312500
952		76.171875
953		68.359375
954		72.265625
955		64.453125
956		70.312500
957		62.500000
958		70.312500
959		60.546875
960		68.359375
961		58.593750
962		66.406250
963		56.640625
964		64.453125
965		54.687500
966		62.500000
967		52.734375
968		60.546875
969		52.734375
970		56.640625
971		50.781250
972		54.687500
973		44.921875
974		52.734375
975		44.921875
976		50.781250
977		41.015625
978		48.828125
979		39.062500
980		46.875000
981		37.109375
982		44.921875
983		35.156250
984		42.968750
985		33.203125
986		39.062500
987		31.250000
988		35.156250
989		27.343750
990		33.203125
991		25.390625
992		33.203125
993		21.484375
994		31.250000
995		19.531250
996		27.343750
997		17.578125
998		25.390625
999		15.625000
1000		23.437500
1001		13.671875
1002		21.484375
1003		11.718750
1004		15.625000
1005		7.812500
1006		13.671875
1007		5.859375
1008		11.718750
1009		1.953125
1010		9.765625
1011		0.000000
1012		7.812500
1013		-1.953125
1014		5.859375
1015		-5.859375
1016		1.953125
1017		-5.859375
1018		0.000000
1019		-7.812500
1020		-3.906250
1021		-9.765625
1022		-5.859375
1023		-13.671875
1024		-7.812500
1025		-17.578125
1026		-9.765625
1027		-19.531250
1028		-11.718750
1029		-23.437500
1030		-13.671875
1031		-23.437500
1032		-17.578125
1033		-27.343750
1034		-19.531250
1035		-27.343750
1036		-21.484375
1037		-29.296875
1038		-25.390625
1039		-33.203125
1040		-27.343750
1041		-35.156250
1042		-27.343750
1043		-37.109375
1044		-31.250000
1045		-41.015625
1046		-33.203125
1047		-42.968750
1048		-35.156250
1049		-44.921875
1050		-37.109375
1051		-46.875000
1052		-39.062500
1053		-46.875000
1054		-42.968750
1055		-48.828125
1056		-44.921875
1057		-52.734375
1058		-44.921875
1059		-54.687500
1060		-46.875000
1061		-56.640625
1062		-48.828125
1063		-58.593750
1064		-50.781250
1065		-58.593750
1066		-52.734375
1067		-60.546875
1068		-54.687500
1069		-60.546875
1070		-56.640625
1071		-62.500000
1072		-58.593750
1073		-66.406250
1074		-58.593750
1075		-68.359375
1076		-60.546875
1077		-68.359375
1078		-60.546875
1079		-70.312500
1080		-62.500000
1081		-72.265625
1082		-64.453125
1083		-74.218750
1084		-66.406250
1085		-72.265625
1086		-66.406250
1087		-72.265625
1088		-70.312500
1089		-74.218750
1090		-70.312500
1091		-76.171875
1092		-70.312500
1093		-78.125000
1094		-70.312500
1095		-78.125000
1096		-72.265625
1097		-80.078125
1098		-72.265625
1099		-80.078125
1100		-72.265625
1101		-80.078125
1102		-74.218750
1103		-78.125000
1104		-76.171875
1105		-80.078125
1106		-76.171875
1107		-82.031250
1108		-76.171875
1109		-82.031250
1110		-76.171875
1111		-82.031250
1112		-76.171875
1113		-82.031250
1114		-76.171875
1115		-82.031250
1116		-76.171875
1117		-83.984375
1118		-76.171875
1119		-82.031250
1120		-76.171875
1121		-80.078125
1122		-78.125000
1123		-82.031250
1124		-76.171875
1125		-82.031250
1126		-76.171875
1127		-82.031250
1128		-76.171875
1129		-82.031250
1130		-74.218750
1131		-80.078125
1132		-74.218750
1133		-80.078125
1134		-74.218750
1135		-80.078125
1136		-74.218750
1137		-76.171875
1138		-74.218750
1139		-76.171875
1140		-74.218750
1141		-78.125000
1142		-70.312500
1143		-76.171875
1144		-70.312500
1145		-76.171875
1146		-68.359375
1147		-74.218750
1148		-66.406250
1149		-74.218750
1150		-66.406250
1151		-72.265625
1152		-64.453125
1153		-70.312500
1154		-66.406250
1155		-68.359375
1156		-64.453125
1157		-68.359375
1158		-62.500000
1159		-68.359375
1160		-60.546875
1161		-66.406250
1162		-58.593750
1163		-64.453125
1164		-56.640625
1165		-62.500000
1166		-56.640625
1167		-60.546875
1168		-52.734375
1169		-58.593750
1170		-52.734375
1171		-54.687500
1172		-52.734375
1173		-54.687500
1174		-48.828125
1175		-54.687500
1176		-46.875000
1177		-50.781250
1178		-44.921875
1179		-50.781250
1180		-42.968750
1181		-48.828125
1182		-41.015625
1183		-46.875000
1184		-37.109375
1185		-42.968750
1186		-37.109375
1187		-39.062500
1188		-37.109375
1189		-37.109375
1190		-33.203125
1191		-37.109375
1192		-29.296875
1193		-35.156250
1194		-27.343750
1195		-33.203125
1196		-25.390625
1197		-31.250000
1198		-23.437500
1199		-29.296875
1200		-21.484375
1201		-25.390625
1202		-17.578125
1203		-23.437500
1204		-17.578125
1205		-19.531250
1206		-15.625000
1207		-17.578125
1208		-9.765625
1209		-15.625000
1210		-7.812500
1211		-13.671875
1212		-5.859375
1213		-11.718750
1214		-3.906250
1215		-9.765625
1216		-1.953125
1217		-7.812500
1218		0.000000
1219		-3.906250
1220		1.953125
1221		0.000000
1222		3.906250
1223		1.953125
1224		5.859375
1225		1.953125
1226		9.765625
1227		5.859375
1228		13.671875
1229		7.812500
1230		15.625000
1231		11.718750
1232		17.578125
1233		13.671875
1234		19.531250
1235		15.625000
1236		23.437500
1237		17.578125
1238		23.437500
1239		21.484375
1240		25.390625
1241		23.437500
1242		31.250000
1243		25.390625
1244		33.203125
1245		27.343750
1246		35.156250
1247		29.296875
1248		39.062500
1249		33.203125
1250		39.062500
1251		35.156250
1252		42.968750
1253		37.109375
1254		42.968750
1255		41.015625
1256		44.921875
1257		42.968750
1258		46.875000
1259		42.968750
1260		50.781250
1261		44.921875
1262		52.734375
1263		46.875000
1264		54.687500
1265		48.828125
1266		56.640625
