Old_data/metingen laweit/1000Hz, 35.3cm/data_81_m75.txt

Channel              :		CH1
Frequency            :		1.061kHz
Period               :		0.942ms
PK-PK                :		228.5mV
Probe attenuation    :		1X
Voltage per ADC value:		0.122070mV
Time interval        :		2.00000us

index		CH1_Voltage(mV)
1		80.078125
2		80.078125
3		74.218750
4		78.125000
5		72.265625
6		76.171875
7		68.359375
8		74.218750
9		66.406250
10		70.312500
11		64.453125
12		68.359375
13		62.500000
14		66.406250
15		60.546875
16		64.453125
17		58.593750
18		62.500000
19		54.687500
20		58.593750
21		52.734375
22		56.640625
23		48.828125
24		54.687500
25		46.875000
26		50.781250
27		44.921875
28		48.828125
29		42.968750
30		46.875000
31		39.062500
32		42.968750
33		37.109375
34		41.015625
35		33.203125
36		37.109375
37		31.250000
38		35.156250
39		27.343750
40		33.203125
41		25.390625
42		29.296875
43		21.484375
44		27.343750
45		19.531250
46		23.437500
47		15.625000
48		21.484375
49		13.671875
50		17.578125
51		9.765625
52		15.625000
53		7.812500
54		11.718750
55		3.906250
56		9.765625
57		1.953125
58		5.859375
59		-1.953125
60		3.906250
61		-3.906250
62		0.000000
63		-7.812500
64		-3.906250
65		-9.765625
66		-5.859375
67		-13.671875
68		-9.765625
69		-15.625000
70		-11.718750
71		-19.531250
72		-15.625000
73		-21.484375
74		-17.578125
75		-25.390625
76		-19.531250
77		-27.343750
78		-23.437500
79		-31.250000
80		-25.390625
81		-33.203125
82		-29.296875
83		-37.109375
84		-31.250000
85		-41.015625
86		-35.156250
87		-42.968750
88		-37.109375
89		-44.921875
90		-41.015625
91		-46.875000
92		-42.968750
93		-50.781250
94		-44.921875
95		-52.734375
96		-48.828125
97		-56.640625
98		-50.781250
99		-58.593750
100		-54.687500
101		-60.546875
102		-54.687500
103		-62.500000
104		-58.593750
105		-64.453125
106		-60.546875
107		-68.359375
108		-64.453125
109		-70.312500
110		-64.453125
111		-72.265625
112		-68.359375
113		-74.218750
114		-70.312500
115		-76.171875
116		-72.265625
117		-78.125000
118		-74.218750
119		-82.031250
120		-76.171875
121		-82.031250
122		-78.125000
123		-83.984375
124		-80.078125
125		-85.937500
126		-82.031250
127		-87.890625
128		-83.984375
129		-89.843750
130		-85.937500
131		-91.796875
132		-87.890625
133		-93.750000
134		-89.843750
135		-93.750000
136		-91.796875
137		-95.703125
138		-91.796875
139		-97.656250
140		-93.750000
141		-97.656250
142		-93.750000
143		-99.609375
144		-95.703125
145		-99.609375
146		-95.703125
147		-101.562500
148		-97.656250
149		-101.562500
150		-99.609375
151		-101.562500
152		-99.609375
153		-103.515625
154		-99.609375
155		-103.515625
156		-101.562500
157		-105.468750
158		-101.562500
159		-105.468750
160		-101.562500
161		-105.468750
162		-103.515625
163		-105.468750
164		-103.515625
165		-107.421875
166		-103.515625
167		-107.421875
168		-103.515625
169		-105.468750
170		-103.515625
171		-107.421875
172		-103.515625
173		-105.468750
174		-103.515625
175		-105.468750
176		-103.515625
177		-105.468750
178		-103.515625
179		-105.468750
180		-101.562500
181		-105.468750
182		-101.562500
183		-103.515625
184		-101.562500
185		-103.515625
186		-101.562500
187		-103.515625
188		-99.609375
189		-103.515625
190		-99.609375
191		-101.562500
192		-97.656250
193		-99.609375
194		-97.656250
195		-99.609375
196		-95.703125
197		-97.656250
198		-93.750000
199		-97.656250
200		-93.750000
201		-95.703125
202		-91.796875
203		-95.703125
204		-89.843750
205		-93.750000
206		-87.890625
207		-91.796875
208		-87.890625
209		-89.843750
210		-85.937500
211		-87.890625
212		-83.984375
213		-85.937500
214		-82.031250
215		-83.984375
216		-80.078125
217		-82.031250
218		-78.125000
219		-80.078125
220		-76.171875
221		-78.125000
222		-74.218750
223		-76.171875
224		-72.265625
225		-74.218750
226		-70.312500
227		-72.265625
228		-68.359375
229		-70.312500
230		-64.453125
231		-66.406250
232		-62.500000
233		-64.453125
234		-60.546875
235		-62.500000
236		-56.640625
237		-58.593750
238		-54.687500
239		-56.640625
240		-52.734375
241		-54.687500
242		-48.828125
243		-50.781250
244		-46.875000
245		-48.828125
246		-44.921875
247		-46.875000
248		-41.015625
249		-42.968750
250		-39.062500
251		-41.015625
252		-37.109375
253		-37.109375
254		-33.203125
255		-35.156250
256		-29.296875
257		-33.203125
258		-27.343750
259		-29.296875
260		-23.437500
261		-25.390625
262		-21.484375
263		-23.437500
264		-17.578125
265		-21.484375
266		-15.625000
267		-17.578125
268		-13.671875
269		-13.671875
270		-9.765625
271		-11.718750
272		-7.812500
273		-7.812500
274		-3.906250
275		-5.859375
276		-1.953125
277		-3.906250
278		1.953125
279		0.000000
280		3.906250
281		1.953125
282		7.812500
283		5.859375
284		9.765625
285		9.765625
286		13.671875
287		11.718750
288		17.578125
289		15.625000
290		19.531250
291		17.578125
292		21.484375
293		21.484375
294		25.390625
295		23.437500
296		27.343750
297		25.390625
298		31.250000
299		29.296875
300		35.156250
301		33.203125
302		37.109375
303		35.156250
304		39.062500
305		37.109375
306		42.968750
307		41.015625
308		44.921875
309		42.968750
310		46.875000
311		46.875000
312		48.828125
313		46.875000
314		52.734375
315		50.781250
316		54.687500
317		52.734375
318		56.640625
319		56.640625
320		60.546875
321		58.593750
322		62.500000
323		60.546875
324		64.453125
325		62.500000
326		68.359375
327		64.453125
328		70.312500
329		66.406250
330		72.265625
331		70.312500
332		74.218750
333		72.265625
334		76.171875
335		74.218750
336		78.125000
337		76.171875
338		80.078125
339		76.171875
340		82.031250
341		80.078125
342		83.984375
343		82.031250
344		85.937500
345		83.984375
346		87.890625
347		85.937500
348		89.843750
349		87.890625
350		91.796875
351		89.843750
352		91.796875
353		91.796875
354		93.750000
355		91.796875
356		95.703125
357		93.750000
358		97.656250
359		95.703125
360		99.609375
361		95.703125
362		101.562500
363		97.656250
364		101.562500
365		99.609375
366		103.515625
367		99.609375
368		103.515625
369		101.562500
370		105.468750
371		103.515625
372		107.421875
373		103.515625
374		107.421875
375		105.468750
376		107.421875
377		105.468750
378		109.375000
379		107.421875
380		109.375000
381		107.421875
382		111.328125
383		107.421875
384		111.328125
385		109.375000
386		111.328125
387		109.375000
388		113.281250
389		109.375000
390		113.281250
391		111.328125
392		113.281250
393		111.328125
394		113.281250
395		111.328125
396		115.234375
397		111.328125
398		115.234375
399		113.281250
400		115.234375
401		111.328125
402		115.234375
403		113.281250
404		115.234375
405		111.328125
406		115.234375
407		111.328125
408		115.234375
409		113.281250
410		115.234375
411		111.328125
412		115.234375
413		111.328125
414		115.234375
415		111.328125
416		115.234375
417		111.328125
418		115.234375
419		111.328125
420		113.281250
421		111.328125
422		113.281250
423		109.375000
424		113.281250
425		109.375000
426		113.281250
427		109.375000
428		111.328125
429		107.421875
430		111.328125
431		107.421875
432		111.328125
433		105.468750
434		109.375000
435		105.468750
436		109.375000
437		105.468750
438		107.421875
439		103.515625
440		107.421875
441		101.562500
442		105.468750
443		101.562500
444		105.468750
445		99.609375
446		103.515625
447		99.609375
448		101.562500
449		97.656250
450		101.562500
451		95.703125
452		99.609375
453		93.750000
454		97.656250
455		91.796875
456		95.703125
457		89.843750
458		93.750000
459		89.843750
460		93.750000
461		87.890625
462		91.796875
463		85.937500
464		89.843750
465		83.984375
466		87.890625
467		82.031250
468		85.937500
469		80.078125
470		83.984375
471		78.125000
472		82.031250
473		76.171875
474		80.078125
475		74.218750
476		78.125000
477		70.312500
478		76.171875
479		70.312500
480		72.265625
481		68.359375
482		70.312500
483		64.453125
484		68.359375
485		62.500000
486		66.406250
487		60.546875
488		64.453125
489		56.640625
490		62.500000
491		54.687500
492		58.593750
493		52.734375
494		56.640625
495		50.781250
496		54.687500
497		46.875000
498		52.734375
499		44.921875
500		48.828125
501		41.015625
502		46.875000
503		39.062500
504		42.968750
505		37.109375
506		41.015625
507		33.203125
508		39.062500
509		29.296875
510		35.156250
511		27.343750
512		31.250000
513		25.390625
514		29.296875
515		21.484375
516		27.343750
517		19.531250
518		23.437500
519		15.625000
520		21.484375
521		13.671875
522		17.578125
523		9.765625
524		15.625000
525		7.812500
526		11.718750
527		3.906250
528		9.765625
529		1.953125
530		5.859375
531		-1.953125
532		3.906250
533		-3.906250
534		0.000000
535		-7.812500
536		-1.953125
537		-9.765625
538		-5.859375
539		-13.671875
540		-7.812500
541		-17.578125
542		-11.718750
543		-19.531250
544		-13.671875
545		-21.484375
546		-17.578125
547		-25.390625
548		-19.531250
549		-27.343750
550		-23.437500
551		-31.250000
552		-25.390625
553		-33.203125
554		-29.296875
555		-37.109375
556		-31.250000
557		-39.062500
558		-35.156250
559		-42.968750
560		-37.109375
561		-44.921875
562		-39.062500
563		-46.875000
564		-42.968750
565		-50.781250
566		-42.968750
567		-52.734375
568		-48.828125
569		-54.687500
570		-50.781250
571		-58.593750
572		-52.734375
573		-60.546875
574		-56.640625
575		-62.500000
576		-58.593750
577		-64.453125
578		-60.546875
579		-66.406250
580		-62.500000
581		-70.312500
582		-64.453125
583		-72.265625
584		-66.406250
585		-74.218750
586		-68.359375
587		-76.171875
588		-72.265625
589		-78.125000
590		-74.218750
591		-80.078125
592		-74.218750
593		-82.031250
594		-76.171875
595		-83.984375
596		-78.125000
597		-87.890625
598		-80.078125
599		-87.890625
600		-82.031250
601		-89.843750
602		-83.984375
603		-89.843750
604		-85.937500
605		-91.796875
606		-87.890625
607		-95.703125
608		-87.890625
609		-95.703125
610		-87.890625
611		-95.703125
612		-89.843750
613		-97.656250
614		-93.750000
615		-99.609375
616		-91.796875
617		-101.562500
618		-95.703125
619		-101.562500
620		-95.703125
621		-101.562500
622		-97.656250
623		-101.562500
624		-99.609375
625		-103.515625
626		-97.656250
627		-103.515625
628		-97.656250
629		-105.468750
630		-99.609375
631		-105.468750
632		-99.609375
633		-105.468750
634		-99.609375
635		-105.468750
636		-99.609375
637		-103.515625
638		-101.562500
639		-103.515625
640		-101.562500
641		-105.468750
642		-99.609375
643		-107.421875
644		-99.609375
645		-105.468750
646		-99.609375
647		-105.468750
648		-99.609375
649		-105.468750
650		-99.609375
651		-105.468750
652		-99.609375
653		-105.468750
654		-97.656250
655		-101.562500
656		-99.609375
657		-103.515625
658		-97.656250
659		-103.515625
660		-97.656250
661		-101.562500
662		-95.703125
663		-99.609375
664		-93.750000
665		-99.609375
666		-91.796875
667		-99.609375
668		-91.796875
669		-97.656250
670		-91.796875
671		-93.750000
672		-91.796875
673		-93.750000
674		-89.843750
675		-93.750000
676		-85.937500
677		-91.796875
678		-83.984375
679		-89.843750
680		-83.984375
681		-87.890625
682		-80.078125
683		-87.890625
684		-80.078125
685		-83.984375
686		-78.125000
687		-82.031250
688		-78.125000
689		-80.078125
690		-76.171875
691		-78.125000
692		-72.265625
693		-76.171875
694		-70.312500
695		-76.171875
696		-68.359375
697		-72.265625
698		-64.453125
699		-72.265625
700		-62.500000
701		-68.359375
702		-60.546875
703		-66.406250
704		-60.546875
705		-62.500000
706		-58.593750
707		-58.593750
708		-54.687500
709		-58.593750
710		-50.781250
711		-54.687500
712		-48.828125
713		-52.734375
714		-46.875000
715		-50.781250
716		-42.968750
717		-46.875000
718		-41.015625
719		-44.921875
720		-39.062500
721		-41.015625
722		-37.109375
723		-37.109375
724		-33.203125
725		-35.156250
726		-29.296875
727		-33.203125
728		-25.390625
729		-31.250000
730		-23.437500
731		-29.296875
732		-21.484375
733		-25.390625
734		-17.578125
735		-21.484375
736		-15.625000
737		-19.531250
738		-13.671875
739		-15.625000
740		-9.765625
741		-11.718750
742		-5.859375
743		-9.765625
744		-3.906250
745		-7.812500
746		0.000000
747		-5.859375
748		3.906250
749		-1.953125
750		5.859375
751		0.000000
752		9.765625
753		3.906250
754		11.718750
755		9.765625
756		13.671875
757		11.718750
758		15.625000
759		13.671875
760		19.531250
761		15.625000
762		23.437500
763		17.578125
764		27.343750
765		21.484375
766		29.296875
767		23.437500
768		31.250000
769		27.343750
770		35.156250
771		31.250000
772		35.156250
773		35.156250
774		39.062500
775		37.109375
776		42.968750
777		39.062500
778		44.921875
779		41.015625
780		48.828125
781		42.968750
782		50.781250
783		44.921875
784		52.734375
785		48.828125
786		56.640625
787		50.781250
788		56.640625
789		54.687500
790		58.593750
791		58.593750
792		62.500000
793		58.593750
794		66.406250
795		60.546875
796		68.359375
797		62.500000
798		70.312500
799		64.453125
800		74.218750
801		68.359375
802		76.171875
803		70.312500
804		76.171875
805		74.218750
806		78.125000
807		76.171875
808		80.078125
809		76.171875
810		83.984375
811		78.125000
812		83.984375
813		80.078125
814		87.890625
815		82.031250
816		89.843750
817		83.984375
818		91.796875
819		85.937500
820		91.796875
821		87.890625
822		93.750000
823		91.796875
824		93.750000
825		91.796875
826		97.656250
827		91.796875
828		99.609375
829		93.750000
830		101.562500
831		95.703125
832		103.515625
833		97.656250
834		103.515625
835		97.656250
836		105.468750
837		99.609375
838		105.468750
839		103.515625
840		105.468750
841		103.515625
842		105.468750
843		103.515625
844		109.375000
845		103.515625
846		109.375000
847		103.515625
848		111.328125
849		105.468750
850		111.328125
851		105.468750
852		113.281250
853		107.421875
854		113.281250
855		109.375000
856		113.281250
857		111.328125
858		113.281250
859		109.375000
860		115.234375
861		109.375000
862		115.234375
863		109.375000
864		117.187500
865		111.328125
866		117.187500
867		109.375000
868		117.187500
869		111.328125
870		117.187500
871		111.328125
872		117.187500
873		113.281250
874		115.234375
875		113.281250
876		115.234375
877		111.328125
878		117.187500
879		111.328125
880		117.187500
881		111.328125
882		117.187500
883		111.328125
884		117.187500
885		111.328125
886		117.187500
887		111.328125
888		117.187500
889		111.328125
890		115.234375
891		111.328125
892		113.281250
893		109.375000
894		115.234375
895		109.375000
896		113.281250
897		109.375000
898		113.281250
899		107.421875
900		113.281250
901		107.421875
902		113.281250
903		107.421875
904		111.328125
905		105.468750
906		111.328125
907		105.468750
908		109.375000
909		103.515625
910		109.375000
911		101.562500
912		107.421875
913		99.609375
914		107.421875
915		99.609375
916		107.421875
917		97.656250
918		105.468750
919		97.656250
920		103.515625
921		95.703125
922		103.515625
923		95.703125
924		99.609375
925		93.750000
926		97.656250
927		91.796875
928		97.656250
929		89.843750
930		95.703125
931		87.890625
932		95.703125
933		85.937500
934		91.796875
935		83.984375
936		91.796875
937		82.031250
938		87.890625
939		82.031250
940		85.937500
941		80.078125
942		83.984375
943		76.171875
944		82.031250
945		74.218750
946		80.078125
947		70.312500
948		78.125000
949		70.312500
950		78.125000
951		66.406250
952		74.218750
953		64.453125
954		72.265625
955		64.453125
956		70.312500
957		62.500000
958		66.406250
959		58.593750
960		62.500000
961		56.640625
962		62.500000
963		52.734375
964		60.546875
965		50.781250
966		58.593750
967		46.875000
968		54.687500
969		44.921875
970		52.734375
971		42.968750
972		48.828125
973		41.015625
974		46.875000
975		39.062500
976		42.968750
977		33.203125
978		41.015625
979		31.250000
980		39.062500
981		29.296875
982		37.109375
983		25.390625
984		33.203125
985		21.484375
986		31.250000
987		19.531250
988		27.343750
989		19.531250
990		25.390625
991		15.625000
992		19.531250
993		9.765625
994		17.578125
995		7.812500
996		15.625000
997		5.859375
998		13.671875
999		1.953125
1000		9.765625
1001		0.000000
1002		7.812500
1003		-3.906250
1004		3.906250
1005		-5.859375
1006		1.953125
1007		-7.812500
1008		-3.906250
1009		-11.718750
1010		-5.859375
1011		-15.625000
1012		-7.812500
1013		-19.531250
1014		-9.765625
1015		-21.484375
1016		-13.671875
1017		-23.437500
1018		-15.625000
1019		-27.343750
1020		-17.578125
1021		-31.250000
1022		-21.484375
1023		-31.250000
1024		-25.390625
1025		-33.203125
1026		-29.296875
1027		-37.109375
1028		-31.250000
1029		-41.015625
1030		-33.203125
1031		-44.921875
1032		-37.109375
1033		-46.875000
1034		-39.062500
1035		-48.828125
1036		-41.015625
1037		-52.734375
1038		-44.921875
1039		-54.687500
1040		-46.875000
1041		-54.687500
1042		-50.781250
1043		-58.593750
1044		-54.687500
1045		-62.500000
1046		-54.687500
1047		-64.453125
1048		-56.640625
1049		-66.406250
1050		-58.593750
1051		-70.312500
1052		-62.500000
1053		-72.265625
1054		-64.453125
1055		-72.265625
1056		-66.406250
1057		-74.218750
1058		-68.359375
1059		-76.171875
1060		-72.265625
1061		-80.078125
1062		-74.218750
1063		-82.031250
1064		-74.218750
1065		-83.984375
1066		-76.171875
1067		-85.937500
1068		-78.125000
1069		-87.890625
1070		-80.078125
1071		-89.843750
1072		-82.031250
1073		-89.843750
1074		-83.984375
1075		-89.843750
1076		-87.890625
1077		-91.796875
1078		-87.890625
1079		-95.703125
1080		-87.890625
1081		-97.656250
1082		-89.843750
1083		-97.656250
1084		-91.796875
1085		-99.609375
1086		-91.796875
1087		-99.609375
1088		-93.750000
1089		-101.562500
1090		-95.703125
1091		-99.609375
1092		-97.656250
1093		-101.562500
1094		-97.656250
1095		-103.515625
1096		-97.656250
1097		-103.515625
1098		-97.656250
1099		-105.468750
1100		-99.609375
1101		-105.468750
1102		-99.609375
1103		-107.421875
1104		-99.609375
1105		-107.421875
1106		-99.609375
1107		-105.468750
1108		-99.609375
1109		-103.515625
1110		-101.562500
1111		-107.421875
1112		-101.562500
1113		-107.421875
1114		-99.609375
1115		-107.421875
1116		-99.609375
1117		-107.421875
1118		-99.609375
1119		-107.421875
1120		-99.609375
1121		-105.468750
1122		-99.609375
1123		-105.468750
1124		-99.609375
1125		-103.515625
1126		-99.609375
1127		-103.515625
1128		-99.609375
1129		-103.515625
1130		-97.656250
1131		-103.515625
1132		-95.703125
1133		-101.562500
1134		-95.703125
1135		-101.562500
1136		-93.750000
1137		-99.609375
1138		-93.750000
1139		-99.609375
1140		-91.796875
1141		-97.656250
1142		-91.796875
1143		-93.750000
1144		-91.796875
1145		-93.750000
1146		-87.890625
1147		-93.750000
1148		-85.937500
1149		-91.796875
1150		-85.937500
1151		-89.843750
1152		-83.984375
1153		-89.843750
1154		-82.031250
1155		-87.890625
1156		-80.078125
1157		-85.937500
1158		-80.078125
1159		-82.031250
1160		-78.125000
1161		-80.078125
1162		-74.218750
1163		-80.078125
1164		-72.265625
1165		-78.125000
1166		-70.312500
1167		-76.171875
1168		-68.359375
1169		-74.218750
1170		-64.453125
1171		-70.312500
1172		-62.500000
1173		-68.359375
1174		-60.546875
1175		-64.453125
1176		-60.546875
1177		-62.500000
1178		-58.593750
1179		-60.546875
1180		-52.734375
1181		-58.593750
1182		-50.781250
1183		-56.640625
1184		-48.828125
1185		-52.734375
1186		-44.921875
1187		-50.781250
1188		-42.968750
1189		-46.875000
1190		-39.062500
1191		-44.921875
1192		-39.062500
1193		-41.015625
1194		-37.109375
1195		-37.109375
1196		-31.250000
1197		-37.109375
1198		-29.296875
1199		-33.203125
1200		-25.390625
1201		-31.250000
1202		-23.437500
1203		-29.296875
1204		-19.531250
1205		-25.390625
1206		-17.578125
1207		-23.437500
1208		-15.625000
1209		-17.578125
1210		-13.671875
1211		-15.625000
1212		-9.765625
1213		-13.671875
1214		-5.859375
1215		-11.718750
1216		-1.953125
1217		-7.812500
1218		0.000000
1219		-3.906250
1220		3.906250
1221		-1.953125
1222		5.859375
1223		0.000000
1224		9.765625
1225		5.859375
1226		9.765625
1227		7.812500
1228		13.671875
1229		11.718750
1230		17.578125
1231		11.718750
1232		21.484375
1233		15.625000
1234		23.437500
1235		19.531250
1236		25.390625
1237		21.484375
1238		29.296875
1239		23.437500
1240		31.250000
1241		27.343750
1242		33.203125
1243		31.250000
1244		37.109375
1245		35.156250
1246		39.062500
1247		35.156250
1248		42.968750
1249		37.109375
1250		44.921875
1251		41.015625
1252		48.828125
1253		42.968750
