Old_data/metingen laweit/1000Hz, 35.3cm/data_81_m118.txt

Channel              :		CH1
Frequency            :		1.059kHz
Period               :		0.944ms
PK-PK                :		58.59mV
Probe attenuation    :		1X
Voltage per ADC value:		0.122070mV
Time interval        :		2.00000us

index		CH1_Voltage(mV)
1		9.765625
2		9.765625
3		7.812500
4		9.765625
5		5.859375
6		9.765625
7		5.859375
8		7.812500
9		5.859375
10		7.812500
11		3.906250
12		7.812500
13		3.906250
14		7.812500
15		3.906250
16		5.859375
17		1.953125
18		5.859375
19		1.953125
20		3.906250
21		0.000000
22		3.906250
23		0.000000
24		3.906250
25		0.000000
26		3.906250
27		0.000000
28		1.953125
29		-1.953125
30		1.953125
31		-1.953125
32		1.953125
33		-1.953125
34		0.000000
35		-1.953125
36		0.000000
37		-3.906250
38		-1.953125
39		-5.859375
40		0.000000
41		-5.859375
42		-1.953125
43		-5.859375
44		-1.953125
45		-5.859375
46		-3.906250
47		-5.859375
48		-3.906250
49		-7.812500
50		-3.906250
51		-7.812500
52		-3.906250
53		-7.812500
54		-5.859375
55		-7.812500
56		-5.859375
57		-9.765625
58		-5.859375
59		-9.765625
60		-5.859375
61		-9.765625
62		-7.812500
63		-9.765625
64		-7.812500
65		-11.718750
66		-7.812500
67		-11.718750
68		-7.812500
69		-11.718750
70		-9.765625
71		-13.671875
72		-9.765625
73		-11.718750
74		-9.765625
75		-13.671875
76		-9.765625
77		-13.671875
78		-9.765625
79		-13.671875
80		-9.765625
81		-13.671875
82		-11.718750
83		-15.625000
84		-11.718750
85		-13.671875
86		-11.718750
87		-15.625000
88		-11.718750
89		-15.625000
90		-11.718750
91		-15.625000
92		-11.718750
93		-15.625000
94		-13.671875
95		-15.625000
96		-13.671875
97		-17.578125
98		-13.671875
99		-15.625000
100		-13.671875
101		-17.578125
102		-13.671875
103		-17.578125
104		-13.671875
105		-17.578125
106		-13.671875
107		-17.578125
108		-13.671875
109		-17.578125
110		-13.671875
111		-17.578125
112		-13.671875
113		-17.578125
114		-13.671875
115		-17.578125
116		-13.671875
117		-17.578125
118		-13.671875
119		-17.578125
120		-15.625000
121		-17.578125
122		-13.671875
123		-17.578125
124		-13.671875
125		-17.578125
126		-13.671875
127		-17.578125
128		-13.671875
129		-17.578125
130		-13.671875
131		-17.578125
132		-13.671875
133		-17.578125
134		-13.671875
135		-17.578125
136		-13.671875
137		-15.625000
138		-13.671875
139		-17.578125
140		-13.671875
141		-15.625000
142		-13.671875
143		-15.625000
144		-11.718750
145		-15.625000
146		-11.718750
147		-15.625000
148		-11.718750
149		-15.625000
150		-11.718750
151		-13.671875
152		-11.718750
153		-13.671875
154		-11.718750
155		-13.671875
156		-11.718750
157		-13.671875
158		-11.718750
159		-13.671875
160		-9.765625
161		-13.671875
162		-9.765625
163		-11.718750
164		-9.765625
165		-11.718750
166		-9.765625
167		-11.718750
168		-7.812500
169		-11.718750
170		-9.765625
171		-11.718750
172		-7.812500
173		-11.718750
174		-7.812500
175		-9.765625
176		-7.812500
177		-9.765625
178		-5.859375
179		-9.765625
180		-5.859375
181		-7.812500
182		-5.859375
183		-7.812500
184		-5.859375
185		-7.812500
186		-3.906250
187		-5.859375
188		-3.906250
189		-5.859375
190		-3.906250
191		-5.859375
192		-3.906250
193		-5.859375
194		-1.953125
195		-5.859375
196		-1.953125
197		-3.906250
198		-1.953125
199		-3.906250
200		0.000000
201		-3.906250
202		0.000000
203		-1.953125
204		0.000000
205		-1.953125
206		0.000000
207		-1.953125
208		1.953125
209		0.000000
210		1.953125
211		0.000000
212		1.953125
213		0.000000
214		3.906250
215		0.000000
216		3.906250
217		1.953125
218		3.906250
219		1.953125
220		5.859375
221		3.906250
222		5.859375
223		1.953125
224		5.859375
225		3.906250
226		7.812500
227		3.906250
228		7.812500
229		5.859375
230		7.812500
231		5.859375
232		9.765625
233		7.812500
234		9.765625
235		7.812500
236		9.765625
237		7.812500
238		11.718750
239		9.765625
240		11.718750
241		7.812500
242		13.671875
243		9.765625
244		13.671875
245		9.765625
246		13.671875
247		11.718750
248		13.671875
249		11.718750
250		15.625000
251		11.718750
252		15.625000
253		11.718750
254		15.625000
255		13.671875
256		15.625000
257		13.671875
258		17.578125
259		13.671875
260		17.578125
261		15.625000
262		17.578125
263		15.625000
264		19.531250
265		15.625000
266		19.531250
267		17.578125
268		19.531250
269		17.578125
270		21.484375
271		17.578125
272		21.484375
273		19.531250
274		21.484375
275		19.531250
276		21.484375
277		19.531250
278		23.437500
279		19.531250
280		23.437500
281		19.531250
282		23.437500
283		21.484375
284		23.437500
285		21.484375
286		25.390625
287		23.437500
288		25.390625
289		23.437500
290		25.390625
291		21.484375
292		27.343750
293		23.437500
294		25.390625
295		23.437500
296		27.343750
297		23.437500
298		27.343750
299		25.390625
300		27.343750
301		25.390625
302		29.296875
303		25.390625
304		27.343750
305		25.390625
306		27.343750
307		25.390625
308		29.296875
309		25.390625
310		29.296875
311		27.343750
312		29.296875
313		27.343750
314		29.296875
315		27.343750
316		31.250000
317		27.343750
318		31.250000
319		27.343750
320		31.250000
321		29.296875
322		31.250000
323		29.296875
324		31.250000
325		29.296875
326		33.203125
327		29.296875
328		31.250000
329		29.296875
330		31.250000
331		29.296875
332		33.203125
333		29.296875
334		33.203125
335		29.296875
336		33.203125
337		29.296875
338		33.203125
339		31.250000
340		33.203125
341		31.250000
342		33.203125
343		29.296875
344		33.203125
345		31.250000
346		33.203125
347		31.250000
348		33.203125
349		31.250000
350		33.203125
351		29.296875
352		33.203125
353		29.296875
354		33.203125
355		31.250000
356		33.203125
357		29.296875
358		33.203125
359		31.250000
360		33.203125
361		29.296875
362		33.203125
363		29.296875
364		33.203125
365		31.250000
366		33.203125
367		31.250000
368		33.203125
369		29.296875
370		33.203125
371		31.250000
372		33.203125
373		29.296875
374		31.250000
375		29.296875
376		33.203125
377		29.296875
378		33.203125
379		29.296875
380		33.203125
381		29.296875
382		31.250000
383		29.296875
384		31.250000
385		29.296875
386		31.250000
387		27.343750
388		31.250000
389		29.296875
390		31.250000
391		27.343750
392		31.250000
393		27.343750
394		31.250000
395		27.343750
396		31.250000
397		27.343750
398		29.296875
399		27.343750
400		29.296875
401		27.343750
402		29.296875
403		25.390625
404		29.296875
405		25.390625
406		29.296875
407		25.390625
408		27.343750
409		25.390625
410		27.343750
411		25.390625
412		27.343750
413		23.437500
414		27.343750
415		23.437500
416		27.343750
417		23.437500
418		27.343750
419		23.437500
420		25.390625
421		23.437500
422		25.390625
423		23.437500
424		23.437500
425		21.484375
426		25.390625
427		21.484375
428		23.437500
429		21.484375
430		23.437500
431		19.531250
432		23.437500
433		19.531250
434		23.437500
435		19.531250
436		21.484375
437		17.578125
438		21.484375
439		17.578125
440		19.531250
441		15.625000
442		21.484375
443		17.578125
444		19.531250
445		15.625000
446		19.531250
447		15.625000
448		17.578125
449		15.625000
450		17.578125
451		13.671875
452		17.578125
453		13.671875
454		15.625000
455		13.671875
456		15.625000
457		13.671875
458		15.625000
459		11.718750
460		15.625000
461		11.718750
462		13.671875
463		11.718750
464		13.671875
465		9.765625
466		13.671875
467		9.765625
468		11.718750
469		7.812500
470		11.718750
471		7.812500
472		11.718750
473		7.812500
474		9.765625
475		7.812500
476		9.765625
477		5.859375
478		9.765625
479		5.859375
480		7.812500
481		5.859375
482		7.812500
483		3.906250
484		7.812500
485		3.906250
486		5.859375
487		1.953125
488		5.859375
489		1.953125
490		3.906250
491		1.953125
492		3.906250
493		0.000000
494		3.906250
495		0.000000
496		3.906250
497		0.000000
498		1.953125
499		-1.953125
500		1.953125
501		-1.953125
502		1.953125
503		-1.953125
504		0.000000
505		-1.953125
506		0.000000
507		-3.906250
508		0.000000
509		-3.906250
510		0.000000
511		-5.859375
512		-1.953125
513		-5.859375
514		-1.953125
515		-5.859375
516		-3.906250
517		-5.859375
518		-3.906250
519		-7.812500
520		-3.906250
521		-7.812500
522		-3.906250
523		-7.812500
524		-5.859375
525		-9.765625
526		-5.859375
527		-9.765625
528		-5.859375
529		-9.765625
530		-5.859375
531		-9.765625
532		-7.812500
533		-11.718750
534		-7.812500
535		-11.718750
536		-7.812500
537		-11.718750
538		-7.812500
539		-11.718750
540		-9.765625
541		-11.718750
542		-9.765625
543		-13.671875
544		-9.765625
545		-13.671875
546		-9.765625
547		-13.671875
548		-9.765625
549		-13.671875
550		-11.718750
551		-13.671875
552		-11.718750
553		-13.671875
554		-11.718750
555		-15.625000
556		-11.718750
557		-15.625000
558		-13.671875
559		-17.578125
560		-11.718750
561		-15.625000
562		-13.671875
563		-15.625000
564		-13.671875
565		-15.625000
566		-13.671875
567		-17.578125
568		-13.671875
569		-17.578125
570		-13.671875
571		-17.578125
572		-13.671875
573		-17.578125
574		-15.625000
575		-17.578125
576		-13.671875
577		-17.578125
578		-13.671875
579		-17.578125
580		-13.671875
581		-17.578125
582		-15.625000
583		-17.578125
584		-15.625000
585		-17.578125
586		-15.625000
587		-17.578125
588		-13.671875
589		-17.578125
590		-15.625000
591		-17.578125
592		-15.625000
593		-17.578125
594		-15.625000
595		-17.578125
596		-13.671875
597		-17.578125
598		-13.671875
599		-17.578125
600		-13.671875
601		-17.578125
602		-15.625000
603		-17.578125
604		-13.671875
605		-17.578125
606		-13.671875
607		-17.578125
608		-13.671875
609		-15.625000
610		-13.671875
611		-17.578125
612		-13.671875
613		-15.625000
614		-13.671875
615		-17.578125
616		-13.671875
617		-15.625000
618		-13.671875
619		-15.625000
620		-11.718750
621		-15.625000
622		-11.718750
623		-15.625000
624		-11.718750
625		-13.671875
626		-11.718750
627		-15.625000
628		-11.718750
629		-13.671875
630		-11.718750
631		-13.671875
632		-11.718750
633		-13.671875
634		-9.765625
635		-13.671875
636		-9.765625
637		-11.718750
638		-9.765625
639		-11.718750
640		-9.765625
641		-11.718750
642		-9.765625
643		-11.718750
644		-7.812500
645		-11.718750
646		-7.812500
647		-9.765625
648		-7.812500
649		-9.765625
650		-7.812500
651		-9.765625
652		-5.859375
653		-9.765625
654		-5.859375
655		-7.812500
656		-5.859375
657		-7.812500
658		-5.859375
659		-7.812500
660		-5.859375
661		-7.812500
662		-3.906250
663		-5.859375
664		-3.906250
665		-5.859375
666		-1.953125
667		-5.859375
668		-1.953125
669		-5.859375
670		-1.953125
671		-3.906250
672		0.000000
673		-3.906250
674		0.000000
675		-1.953125
676		0.000000
677		-1.953125
678		0.000000
679		-1.953125
680		1.953125
681		-1.953125
682		1.953125
683		0.000000
684		1.953125
685		0.000000
686		1.953125
687		0.000000
688		3.906250
689		0.000000
690		3.906250
691		1.953125
692		3.906250
693		1.953125
694		5.859375
695		1.953125
696		5.859375
697		3.906250
698		5.859375
699		3.906250
700		7.812500
701		5.859375
702		7.812500
703		5.859375
704		9.765625
705		5.859375
706		9.765625
707		7.812500
708		9.765625
709		7.812500
710		9.765625
711		7.812500
712		11.718750
713		7.812500
714		11.718750
715		9.765625
716		13.671875
717		9.765625
718		13.671875
719		11.718750
720		13.671875
721		11.718750
722		13.671875
723		11.718750
724		15.625000
725		13.671875
726		15.625000
727		11.718750
728		17.578125
729		13.671875
730		15.625000
731		13.671875
732		17.578125
733		15.625000
734		17.578125
735		15.625000
736		17.578125
737		15.625000
738		19.531250
739		15.625000
740		19.531250
741		17.578125
742		19.531250
743		17.578125
744		19.531250
745		17.578125
746		21.484375
747		19.531250
748		21.484375
749		19.531250
750		23.437500
751		19.531250
752		23.437500
753		21.484375
754		23.437500
755		21.484375
756		23.437500
757		21.484375
758		23.437500
759		21.484375
760		23.437500
761		21.484375
762		25.390625
763		23.437500
764		25.390625
765		23.437500
766		25.390625
767		23.437500
768		27.343750
769		23.437500
770		27.343750
771		25.390625
772		27.343750
773		25.390625
774		27.343750
775		25.390625
776		27.343750
777		25.390625
778		27.343750
779		25.390625
780		29.296875
781		25.390625
782		29.296875
783		27.343750
784		29.296875
785		27.343750
786		29.296875
787		27.343750
788		29.296875
789		27.343750
790		31.250000
791		27.343750
792		31.250000
793		27.343750
794		31.250000
795		27.343750
796		31.250000
797		29.296875
798		31.250000
799		29.296875
800		31.250000
801		29.296875
802		31.250000
803		29.296875
804		31.250000
805		29.296875
806		31.250000
807		29.296875
808		33.203125
809		29.296875
810		31.250000
811		29.296875
812		33.203125
813		29.296875
814		33.203125
815		29.296875
816		33.203125
817		29.296875
818		33.203125
819		29.296875
820		33.203125
821		29.296875
822		33.203125
823		29.296875
824		33.203125
825		29.296875
826		33.203125
827		31.250000
828		33.203125
829		29.296875
830		33.203125
831		29.296875
832		33.203125
833		29.296875
834		33.203125
835		29.296875
836		33.203125
837		29.296875
838		33.203125
839		29.296875
840		33.203125
841		29.296875
842		33.203125
843		29.296875
844		31.250000
845		27.343750
846		31.250000
847		29.296875
848		33.203125
849		29.296875
850		33.203125
851		29.296875
852		31.250000
853		29.296875
854		31.250000
855		29.296875
856		31.250000
857		29.296875
858		31.250000
859		29.296875
860		31.250000
861		27.343750
862		31.250000
863		25.390625
864		31.250000
865		27.343750
866		29.296875
867		27.343750
868		29.296875
869		27.343750
870		29.296875
871		25.390625
872		29.296875
873		25.390625
874		29.296875
875		25.390625
876		29.296875
877		25.390625
878		27.343750
879		23.437500
880		27.343750
881		23.437500
882		27.343750
883		23.437500
884		27.343750
885		23.437500
886		27.343750
887		23.437500
888		25.390625
889		23.437500
890		25.390625
891		21.484375
892		25.390625
893		21.484375
894		23.437500
895		21.484375
896		23.437500
897		19.531250
898		23.437500
899		19.531250
900		23.437500
901		19.531250
902		23.437500
903		19.531250
904		23.437500
905		17.578125
906		21.484375
907		17.578125
908		21.484375
909		17.578125
910		19.531250
911		17.578125
912		19.531250
913		15.625000
914		19.531250
915		15.625000
916		19.531250
917		15.625000
918		19.531250
919		15.625000
920		17.578125
921		13.671875
922		17.578125
923		13.671875
924		17.578125
925		13.671875
926		15.625000
927		11.718750
928		15.625000
929		11.718750
930		15.625000
931		11.718750
932		13.671875
933		9.765625
934		13.671875
935		9.765625
936		13.671875
937		9.765625
938		11.718750
939		7.812500
940		11.718750
941		7.812500
942		11.718750
943		7.812500
944		9.765625
945		7.812500
946		9.765625
947		5.859375
948		9.765625
949		5.859375
950		7.812500
951		5.859375
952		7.812500
953		3.906250
954		5.859375
955		3.906250
956		5.859375
957		1.953125
958		5.859375
959		1.953125
960		5.859375
961		1.953125
962		3.906250
963		0.000000
964		3.906250
965		0.000000
966		3.906250
967		0.000000
968		1.953125
969		-1.953125
970		1.953125
971		-1.953125
972		1.953125
973		-1.953125
974		0.000000
975		-3.906250
976		0.000000
977		-3.906250
978		0.000000
979		-3.906250
980		-1.953125
981		-5.859375
982		-1.953125
983		-5.859375
984		-1.953125
985		-5.859375
986		-1.953125
987		-5.859375
988		-3.906250
989		-7.812500
990		-3.906250
991		-7.812500
992		-3.906250
993		-7.812500
994		-5.859375
995		-7.812500
996		-5.859375
997		-9.765625
998		-5.859375
999		-9.765625
1000		-7.812500
1001		-9.765625
1002		-7.812500
1003		-9.765625
1004		-7.812500
1005		-11.718750
1006		-7.812500
1007		-11.718750
1008		-9.765625
1009		-11.718750
1010		-9.765625
1011		-11.718750
1012		-9.765625
1013		-13.671875
1014		-9.765625
1015		-13.671875
1016		-9.765625
1017		-13.671875
1018		-11.718750
1019		-13.671875
1020		-11.718750
1021		-13.671875
1022		-11.718750
1023		-15.625000
1024		-11.718750
1025		-15.625000
1026		-11.718750
1027		-15.625000
1028		-13.671875
1029		-15.625000
1030		-13.671875
1031		-15.625000
1032		-11.718750
1033		-17.578125
1034		-13.671875
1035		-17.578125
1036		-13.671875
1037		-17.578125
1038		-13.671875
1039		-17.578125
1040		-13.671875
1041		-17.578125
1042		-13.671875
1043		-17.578125
1044		-13.671875
1045		-17.578125
1046		-15.625000
1047		-19.531250
1048		-13.671875
1049		-17.578125
1050		-15.625000
1051		-17.578125
1052		-15.625000
1053		-17.578125
1054		-15.625000
1055		-17.578125
1056		-15.625000
1057		-17.578125
1058		-15.625000
1059		-17.578125
1060		-15.625000
1061		-17.578125
1062		-15.625000
1063		-19.531250
1064		-15.625000
1065		-17.578125
1066		-15.625000
1067		-19.531250
1068		-15.625000
1069		-17.578125
1070		-15.625000
1071		-17.578125
1072		-15.625000
1073		-17.578125
1074		-15.625000
1075		-17.578125
1076		-15.625000
1077		-17.578125
1078		-15.625000
1079		-17.578125
1080		-15.625000
1081		-17.578125
1082		-13.671875
1083		-17.578125
1084		-13.671875
1085		-17.578125
1086		-13.671875
1087		-15.625000
1088		-13.671875
1089		-15.625000
1090		-13.671875
1091		-15.625000
1092		-13.671875
1093		-17.578125
1094		-11.718750
1095		-15.625000
1096		-13.671875
1097		-15.625000
1098		-11.718750
1099		-15.625000
1100		-11.718750
1101		-13.671875
1102		-11.718750
1103		-13.671875
1104		-11.718750
1105		-13.671875
1106		-11.718750
1107		-13.671875
1108		-9.765625
1109		-13.671875
1110		-9.765625
1111		-11.718750
1112		-9.765625
1113		-11.718750
1114		-9.765625
1115		-11.718750
1116		-9.765625
1117		-11.718750
1118		-7.812500
1119		-11.718750
1120		-7.812500
1121		-9.765625
1122		-7.812500
1123		-9.765625
1124		-7.812500
1125		-9.765625
1126		-5.859375
1127		-9.765625
1128		-5.859375
1129		-7.812500
1130		-5.859375
1131		-7.812500
1132		-3.906250
1133		-7.812500
1134		-3.906250
1135		-7.812500
1136		-3.906250
1137		-7.812500
1138		-1.953125
1139		-5.859375
1140		-1.953125
1141		-5.859375
1142		-1.953125
1143		-3.906250
1144		-1.953125
1145		-3.906250
1146		-1.953125
1147		-3.906250
1148		0.000000
1149		-1.953125
1150		0.000000
1151		-1.953125
1152		1.953125
1153		-1.953125
1154		1.953125
1155		-1.953125
1156		1.953125
1157		0.000000
1158		1.953125
1159		0.000000
1160		3.906250
1161		1.953125
1162		3.906250
1163		1.953125
1164		3.906250
1165		1.953125
1166		5.859375
1167		1.953125
1168		5.859375
1169		3.906250
1170		5.859375
1171		3.906250
1172		7.812500
1173		3.906250
1174		7.812500
1175		5.859375
1176		7.812500
1177		5.859375
1178		9.765625
1179		7.812500
1180		9.765625
1181		5.859375
1182		9.765625
1183		7.812500
1184		11.718750
1185		7.812500
1186		11.718750
1187		9.765625
1188		11.718750
1189		9.765625
1190		13.671875
1191		9.765625
1192		13.671875
1193		9.765625
1194		13.671875
1195		11.718750
1196		13.671875
1197		11.718750
1198		15.625000
1199		11.718750
1200		15.625000
1201		13.671875
1202		15.625000
1203		13.671875
1204		17.578125
1205		15.625000
1206		17.578125
1207		15.625000
1208		17.578125
1209		15.625000
1210		19.531250
1211		15.625000
1212		19.531250
1213		17.578125
1214		19.531250
1215		17.578125
1216		21.484375
1217		17.578125
1218		21.484375
1219		17.578125
1220		21.484375
1221		19.531250
1222		21.484375
1223		19.531250
1224		23.437500
1225		19.531250
1226		23.437500
1227		19.531250
1228		25.390625
1229		21.484375
1230		23.437500
1231		21.484375
1232		25.390625
1233		21.484375
1234		25.390625
1235		21.484375
1236		25.390625
1237		21.484375
1238		25.390625
1239		23.437500
1240		25.390625
1241		23.437500
1242		27.343750
1243		23.437500
1244		27.343750
1245		25.390625
1246		27.343750
1247		25.390625
1248		27.343750
1249		25.390625
1250		27.343750
1251		25.390625
1252		29.296875
1253		25.390625
1254		29.296875
1255		27.343750
1256		29.296875
1257		27.343750
1258		29.296875
1259		27.343750
1260		29.296875
1261		27.343750
1262		31.250000
1263		27.343750
1264		29.296875
1265		27.343750
1266		31.250000
1267		27.343750
1268		31.250000
1269		27.343750
1270		31.250000
1271		27.343750
1272		31.250000
1273		29.296875
1274		31.250000
1275		29.296875
1276		31.250000
1277		29.296875
1278		31.250000
1279		29.296875
1280		31.250000
1281		29.296875
1282		31.250000
1283		29.296875
1284		33.203125
1285		29.296875
1286		33.203125
1287		29.296875
1288		33.203125
1289		29.296875
1290		33.203125
1291		29.296875
1292		33.203125
1293		29.296875
1294		33.203125
1295		29.296875
1296		33.203125
1297		29.296875
1298		33.203125
1299		29.296875
