Old_data/metingen laweit/1000Hz, 35.3cm/data_81_m45.txt

Channel              :		CH1
Frequency            :		1.061kHz
Period               :		0.942ms
PK-PK                :		314.5mV
Probe attenuation    :		1X
Voltage per ADC value:		0.122070mV
Time interval        :		2.00000us

index		CH1_Voltage(mV)
1		109.375000
2		109.375000
3		99.609375
4		107.421875
5		97.656250
6		105.468750
7		95.703125
8		101.562500
9		93.750000
10		97.656250
11		89.843750
12		95.703125
13		85.937500
14		91.796875
15		83.984375
16		89.843750
17		80.078125
18		85.937500
19		74.218750
20		83.984375
21		72.265625
22		80.078125
23		70.312500
24		76.171875
25		66.406250
26		74.218750
27		64.453125
28		68.359375
29		58.593750
30		64.453125
31		54.687500
32		64.453125
33		50.781250
34		58.593750
35		46.875000
36		54.687500
37		42.968750
38		50.781250
39		39.062500
40		48.828125
41		37.109375
42		44.921875
43		33.203125
44		39.062500
45		29.296875
46		35.156250
47		23.437500
48		31.250000
49		19.531250
50		29.296875
51		13.671875
52		23.437500
53		11.718750
54		19.531250
55		5.859375
56		15.625000
57		1.953125
58		11.718750
59		0.000000
60		5.859375
61		-3.906250
62		1.953125
63		-9.765625
64		-1.953125
65		-13.671875
66		-5.859375
67		-17.578125
68		-9.765625
69		-21.484375
70		-13.671875
71		-27.343750
72		-17.578125
73		-31.250000
74		-21.484375
75		-33.203125
76		-25.390625
77		-37.109375
78		-31.250000
79		-41.015625
80		-35.156250
81		-48.828125
82		-39.062500
83		-50.781250
84		-42.968750
85		-54.687500
86		-46.875000
87		-60.546875
88		-50.781250
89		-64.453125
90		-54.687500
91		-68.359375
92		-58.593750
93		-68.359375
94		-62.500000
95		-74.218750
96		-68.359375
97		-80.078125
98		-72.265625
99		-82.031250
100		-74.218750
101		-85.937500
102		-78.125000
103		-89.843750
104		-82.031250
105		-91.796875
106		-85.937500
107		-95.703125
108		-87.890625
109		-99.609375
110		-91.796875
111		-101.562500
112		-97.656250
113		-107.421875
114		-99.609375
115		-109.375000
116		-101.562500
117		-113.281250
118		-105.468750
119		-117.187500
120		-109.375000
121		-119.140625
122		-111.328125
123		-123.046875
124		-115.234375
125		-125.000000
126		-117.187500
127		-126.953125
128		-121.093750
129		-128.906250
130		-125.000000
131		-132.812500
132		-125.000000
133		-136.718750
134		-128.906250
135		-138.671875
136		-130.859375
137		-140.625000
138		-132.812500
139		-142.578125
140		-134.765625
141		-144.531250
142		-136.718750
143		-144.531250
144		-140.625000
145		-146.484375
146		-142.578125
147		-148.437500
148		-144.531250
149		-152.343750
150		-144.531250
151		-152.343750
152		-144.531250
153		-154.296875
154		-146.484375
155		-156.250000
156		-148.437500
157		-156.250000
158		-148.437500
159		-156.250000
160		-150.390625
161		-156.250000
162		-152.343750
163		-156.250000
164		-154.296875
165		-160.156250
166		-152.343750
167		-160.156250
168		-154.296875
169		-160.156250
170		-152.343750
171		-160.156250
172		-154.296875
173		-160.156250
174		-154.296875
175		-160.156250
176		-154.296875
177		-160.156250
178		-154.296875
179		-158.203125
180		-156.250000
181		-160.156250
182		-152.343750
183		-160.156250
184		-152.343750
185		-158.203125
186		-152.343750
187		-158.203125
188		-150.390625
189		-156.250000
190		-150.390625
191		-156.250000
192		-148.437500
193		-154.296875
194		-148.437500
195		-150.390625
196		-148.437500
197		-150.390625
198		-146.484375
199		-150.390625
200		-142.578125
201		-148.437500
202		-142.578125
203		-146.484375
204		-140.625000
205		-144.531250
206		-138.671875
207		-144.531250
208		-134.765625
209		-140.625000
210		-134.765625
211		-136.718750
212		-132.812500
213		-134.765625
214		-130.859375
215		-134.765625
216		-126.953125
217		-130.859375
218		-123.046875
219		-128.906250
220		-121.093750
221		-125.000000
222		-119.140625
223		-123.046875
224		-115.234375
225		-119.140625
226		-111.328125
227		-115.234375
228		-111.328125
229		-111.328125
230		-107.421875
231		-109.375000
232		-101.562500
233		-105.468750
234		-97.656250
235		-103.515625
236		-95.703125
237		-101.562500
238		-91.796875
239		-97.656250
240		-87.890625
241		-91.796875
242		-83.984375
243		-89.843750
244		-82.031250
245		-83.984375
246		-78.125000
247		-80.078125
248		-74.218750
249		-78.125000
250		-68.359375
251		-74.218750
252		-66.406250
253		-70.312500
254		-60.546875
255		-66.406250
256		-56.640625
257		-62.500000
258		-52.734375
259		-58.593750
260		-48.828125
261		-52.734375
262		-46.875000
263		-48.828125
264		-42.968750
265		-42.968750
266		-35.156250
267		-41.015625
268		-33.203125
269		-37.109375
270		-27.343750
271		-31.250000
272		-23.437500
273		-27.343750
274		-19.531250
275		-25.390625
276		-15.625000
277		-19.531250
278		-13.671875
279		-13.671875
280		-7.812500
281		-9.765625
282		-3.906250
283		-7.812500
284		0.000000
285		-3.906250
286		5.859375
287		1.953125
288		11.718750
289		3.906250
290		13.671875
291		9.765625
292		17.578125
293		13.671875
294		21.484375
295		19.531250
296		25.390625
297		23.437500
298		29.296875
299		27.343750
300		33.203125
301		29.296875
302		39.062500
303		33.203125
304		42.968750
305		37.109375
306		44.921875
307		42.968750
308		50.781250
309		44.921875
310		52.734375
311		50.781250
312		56.640625
313		54.687500
314		58.593750
315		58.593750
316		64.453125
317		60.546875
318		68.359375
319		64.453125
320		70.312500
321		66.406250
322		74.218750
323		70.312500
324		78.125000
325		74.218750
326		82.031250
327		76.171875
328		83.984375
329		82.031250
330		85.937500
331		83.984375
332		89.843750
333		87.890625
334		93.750000
335		89.843750
336		97.656250
337		91.796875
338		99.609375
339		95.703125
340		103.515625
341		97.656250
342		105.468750
343		101.562500
344		109.375000
345		103.515625
346		109.375000
347		107.421875
348		111.328125
349		109.375000
350		115.234375
351		111.328125
352		119.140625
353		113.281250
354		121.093750
355		115.234375
356		123.046875
357		117.187500
358		125.000000
359		119.140625
360		126.953125
361		121.093750
362		128.906250
363		125.000000
364		128.906250
365		126.953125
366		130.859375
367		126.953125
368		134.765625
369		128.906250
370		136.718750
371		130.859375
372		136.718750
373		132.812500
374		138.671875
375		132.812500
376		140.625000
377		134.765625
378		142.578125
379		138.671875
380		140.625000
381		138.671875
382		142.578125
383		138.671875
384		144.531250
385		138.671875
386		146.484375
387		140.625000
388		146.484375
389		140.625000
390		148.437500
391		142.578125
392		148.437500
393		142.578125
394		150.390625
395		142.578125
396		148.437500
397		146.484375
398		148.437500
399		144.531250
400		150.390625
401		144.531250
402		150.390625
403		144.531250
404		150.390625
405		144.531250
406		152.343750
407		144.531250
408		152.343750
409		144.531250
410		152.343750
411		144.531250
412		152.343750
413		146.484375
414		150.390625
415		146.484375
416		150.390625
417		144.531250
418		150.390625
419		144.531250
420		150.390625
421		144.531250
422		150.390625
423		142.578125
424		150.390625
425		142.578125
426		148.437500
427		140.625000
428		148.437500
429		142.578125
430		146.484375
431		142.578125
432		144.531250
433		138.671875
434		144.531250
435		138.671875
436		144.531250
437		136.718750
438		144.531250
439		134.765625
440		142.578125
441		134.765625
442		140.625000
443		132.812500
444		140.625000
445		132.812500
446		138.671875
447		130.859375
448		134.765625
449		128.906250
450		132.812500
451		126.953125
452		134.765625
453		125.000000
454		132.812500
455		123.046875
456		128.906250
457		121.093750
458		128.906250
459		119.140625
460		125.000000
461		117.187500
462		123.046875
463		115.234375
464		119.140625
465		113.281250
466		117.187500
467		109.375000
468		117.187500
469		107.421875
470		113.281250
471		103.515625
472		113.281250
473		101.562500
474		109.375000
475		97.656250
476		107.421875
477		95.703125
478		103.515625
479		95.703125
480		101.562500
481		91.796875
482		95.703125
483		85.937500
484		93.750000
485		83.984375
486		91.796875
487		80.078125
488		87.890625
489		76.171875
490		85.937500
491		74.218750
492		82.031250
493		70.312500
494		80.078125
495		68.359375
496		76.171875
497		64.453125
498		70.312500
499		62.500000
500		66.406250
501		56.640625
502		64.453125
503		52.734375
504		60.546875
505		48.828125
506		56.640625
507		44.921875
508		52.734375
509		41.015625
510		50.781250
511		39.062500
512		44.921875
513		35.156250
514		41.015625
515		31.250000
516		37.109375
517		25.390625
518		33.203125
519		21.484375
520		29.296875
521		15.625000
522		25.390625
523		13.671875
524		21.484375
525		9.765625
526		17.578125
527		5.859375
528		13.671875
529		1.953125
530		9.765625
531		-1.953125
532		3.906250
533		-5.859375
534		0.000000
535		-11.718750
536		-3.906250
537		-15.625000
538		-7.812500
539		-19.531250
540		-11.718750
541		-23.437500
542		-15.625000
543		-29.296875
544		-19.531250
545		-31.250000
546		-23.437500
547		-35.156250
548		-29.296875
549		-39.062500
550		-33.203125
551		-44.921875
552		-37.109375
553		-48.828125
554		-41.015625
555		-52.734375
556		-44.921875
557		-56.640625
558		-46.875000
559		-62.500000
560		-52.734375
561		-64.453125
562		-56.640625
563		-66.406250
564		-60.546875
565		-70.312500
566		-66.406250
567		-78.125000
568		-70.312500
569		-80.078125
570		-72.265625
571		-83.984375
572		-74.218750
573		-87.890625
574		-78.125000
575		-91.796875
576		-83.984375
577		-93.750000
578		-85.937500
579		-97.656250
580		-89.843750
581		-99.609375
582		-95.703125
583		-103.515625
584		-97.656250
585		-107.421875
586		-101.562500
587		-111.328125
588		-103.515625
589		-115.234375
590		-107.421875
591		-117.187500
592		-109.375000
593		-121.093750
594		-113.281250
595		-123.046875
596		-115.234375
597		-125.000000
598		-119.140625
599		-126.953125
600		-123.046875
601		-132.812500
602		-125.000000
603		-134.765625
604		-126.953125
605		-136.718750
606		-128.906250
607		-138.671875
608		-130.859375
609		-140.625000
610		-132.812500
611		-142.578125
612		-136.718750
613		-144.531250
614		-138.671875
615		-144.531250
616		-140.625000
617		-146.484375
618		-142.578125
619		-150.390625
620		-142.578125
621		-152.343750
622		-144.531250
623		-152.343750
624		-146.484375
625		-154.296875
626		-148.437500
627		-156.250000
628		-148.437500
629		-156.250000
630		-150.390625
631		-156.250000
632		-152.343750
633		-156.250000
634		-154.296875
635		-158.203125
636		-152.343750
637		-160.156250
638		-152.343750
639		-160.156250
640		-152.343750
641		-160.156250
642		-154.296875
643		-160.156250
644		-152.343750
645		-160.156250
646		-154.296875
647		-160.156250
648		-154.296875
649		-158.203125
650		-156.250000
651		-160.156250
652		-154.296875
653		-160.156250
654		-152.343750
655		-158.203125
656		-152.343750
657		-158.203125
658		-152.343750
659		-158.203125
660		-150.390625
661		-156.250000
662		-150.390625
663		-156.250000
664		-148.437500
665		-152.343750
666		-148.437500
667		-150.390625
668		-148.437500
669		-150.390625
670		-144.531250
671		-150.390625
672		-142.578125
673		-148.437500
674		-140.625000
675		-146.484375
676		-138.671875
677		-144.531250
678		-136.718750
679		-142.578125
680		-134.765625
681		-138.671875
682		-134.765625
683		-136.718750
684		-132.812500
685		-132.812500
686		-128.906250
687		-132.812500
688		-125.000000
689		-130.859375
690		-121.093750
691		-128.906250
692		-119.140625
693		-125.000000
694		-117.187500
695		-123.046875
696		-113.281250
697		-119.140625
698		-113.281250
699		-115.234375
700		-109.375000
701		-111.328125
702		-105.468750
703		-109.375000
704		-101.562500
705		-105.468750
706		-97.656250
707		-103.515625
708		-93.750000
709		-99.609375
710		-89.843750
711		-93.750000
712		-87.890625
713		-91.796875
714		-83.984375
715		-87.890625
716		-82.031250
717		-83.984375
718		-78.125000
719		-80.078125
720		-72.265625
721		-76.171875
722		-68.359375
723		-74.218750
724		-64.453125
725		-68.359375
726		-60.546875
727		-64.453125
728		-56.640625
729		-60.546875
730		-52.734375
731		-56.640625
732		-48.828125
733		-50.781250
734		-44.921875
735		-46.875000
736		-39.062500
737		-44.921875
738		-35.156250
739		-39.062500
740		-31.250000
741		-35.156250
742		-27.343750
743		-33.203125
744		-21.484375
745		-27.343750
746		-17.578125
747		-23.437500
748		-15.625000
749		-17.578125
750		-11.718750
751		-13.671875
752		-7.812500
753		-7.812500
754		-1.953125
755		-5.859375
756		1.953125
757		-1.953125
758		7.812500
759		1.953125
760		9.765625
761		5.859375
762		15.625000
763		9.765625
764		19.531250
765		15.625000
766		21.484375
767		19.531250
768		25.390625
769		23.437500
770		31.250000
771		27.343750
772		35.156250
773		31.250000
774		39.062500
775		35.156250
776		42.968750
777		39.062500
778		46.875000
779		42.968750
780		50.781250
781		46.875000
782		52.734375
783		50.781250
784		56.640625
785		54.687500
786		60.546875
787		58.593750
788		64.453125
789		60.546875
790		68.359375
791		64.453125
792		72.265625
793		68.359375
794		76.171875
795		72.265625
796		78.125000
797		76.171875
798		82.031250
799		78.125000
800		83.984375
801		82.031250
802		87.890625
803		85.937500
804		91.796875
805		85.937500
806		95.703125
807		89.843750
808		97.656250
809		91.796875
810		101.562500
811		95.703125
812		103.515625
813		99.609375
814		105.468750
815		101.562500
816		107.421875
817		105.468750
818		109.375000
819		109.375000
820		115.234375
821		109.375000
822		117.187500
823		111.328125
824		119.140625
825		113.281250
826		121.093750
827		115.234375
828		123.046875
829		117.187500
830		125.000000
831		121.093750
832		126.953125
833		125.000000
834		126.953125
835		125.000000
836		128.906250
837		126.953125
838		132.812500
839		126.953125
840		134.765625
841		128.906250
842		136.718750
843		130.859375
844		136.718750
845		132.812500
846		140.625000
847		132.812500
848		140.625000
849		136.718750
850		140.625000
851		138.671875
852		140.625000
853		138.671875
854		144.531250
855		138.671875
856		144.531250
857		140.625000
858		146.484375
859		140.625000
860		148.437500
861		142.578125
862		148.437500
863		142.578125
864		148.437500
865		142.578125
866		148.437500
867		146.484375
868		148.437500
869		146.484375
870		148.437500
871		144.531250
872		150.390625
873		144.531250
874		152.343750
875		144.531250
876		152.343750
877		144.531250
878		152.343750
879		144.531250
880		152.343750
881		144.531250
882		152.343750
883		146.484375
884		150.390625
885		146.484375
886		150.390625
887		144.531250
888		150.390625
889		144.531250
890		152.343750
891		144.531250
892		150.390625
893		144.531250
894		150.390625
895		142.578125
896		150.390625
897		142.578125
898		148.437500
899		142.578125
900		148.437500
901		142.578125
902		146.484375
903		140.625000
904		144.531250
905		138.671875
906		146.484375
907		136.718750
908		144.531250
909		136.718750
910		142.578125
911		134.765625
912		142.578125
913		134.765625
914		140.625000
915		132.812500
916		140.625000
917		132.812500
918		136.718750
919		130.859375
920		134.765625
921		126.953125
922		134.765625
923		125.000000
924		132.812500
925		123.046875
926		130.859375
927		123.046875
928		128.906250
929		121.093750
930		126.953125
931		117.187500
932		125.000000
933		117.187500
934		123.046875
935		115.234375
936		119.140625
937		111.328125
938		117.187500
939		109.375000
940		117.187500
941		107.421875
942		113.281250
943		103.515625
944		111.328125
945		101.562500
946		109.375000
947		97.656250
948		105.468750
949		95.703125
950		103.515625
951		93.750000
952		99.609375
953		91.796875
954		95.703125
955		85.937500
956		93.750000
957		83.984375
958		91.796875
959		80.078125
960		87.890625
961		78.125000
962		85.937500
963		74.218750
964		82.031250
965		70.312500
966		80.078125
967		68.359375
968		74.218750
969		64.453125
970		70.312500
971		60.546875
972		66.406250
973		54.687500
974		64.453125
975		52.734375
976		60.546875
977		48.828125
978		56.640625
979		44.921875
980		52.734375
981		41.015625
982		48.828125
983		39.062500
984		44.921875
985		35.156250
986		39.062500
987		29.296875
988		37.109375
989		25.390625
990		33.203125
991		19.531250
992		29.296875
993		15.625000
994		25.390625
995		13.671875
996		21.484375
997		9.765625
998		17.578125
999		5.859375
1000		11.718750
1001		1.953125
1002		7.812500
1003		-1.953125
1004		3.906250
1005		-7.812500
1006		0.000000
1007		-11.718750
1008		-1.953125
1009		-15.625000
1010		-7.812500
1011		-21.484375
1012		-11.718750
1013		-25.390625
1014		-15.625000
1015		-27.343750
1016		-19.531250
1017		-31.250000
1018		-23.437500
1019		-35.156250
1020		-29.296875
1021		-41.015625
1022		-33.203125
1023		-44.921875
1024		-37.109375
1025		-48.828125
1026		-41.015625
1027		-52.734375
1028		-44.921875
1029		-56.640625
1030		-48.828125
1031		-60.546875
1032		-52.734375
1033		-64.453125
1034		-56.640625
1035		-66.406250
1036		-62.500000
1037		-70.312500
1038		-66.406250
1039		-78.125000
1040		-68.359375
1041		-80.078125
1042		-72.265625
1043		-83.984375
1044		-76.171875
1045		-87.890625
1046		-80.078125
1047		-91.796875
1048		-82.031250
1049		-95.703125
1050		-85.937500
1051		-97.656250
1052		-91.796875
1053		-99.609375
1054		-95.703125
1055		-105.468750
1056		-99.609375
1057		-109.375000
1058		-101.562500
1059		-111.328125
1060		-103.515625
1061		-113.281250
1062		-107.421875
1063		-117.187500
1064		-109.375000
1065		-121.093750
1066		-113.281250
1067		-123.046875
1068		-115.234375
1069		-125.000000
1070		-121.093750
1071		-128.906250
1072		-123.046875
1073		-132.812500
1074		-123.046875
1075		-134.765625
1076		-126.953125
1077		-136.718750
1078		-128.906250
1079		-138.671875
1080		-132.812500
1081		-140.625000
1082		-132.812500
1083		-142.578125
1084		-136.718750
1085		-142.578125
1086		-138.671875
1087		-144.531250
1088		-142.578125
1089		-148.437500
1090		-142.578125
1091		-150.390625
1092		-142.578125
1093		-152.343750
1094		-144.531250
1095		-152.343750
1096		-146.484375
1097		-154.296875
1098		-148.437500
1099		-156.250000
1100		-148.437500
1101		-156.250000
1102		-150.390625
1103		-156.250000
1104		-152.343750
1105		-158.203125
1106		-152.343750
1107		-158.203125
1108		-152.343750
1109		-160.156250
1110		-152.343750
1111		-160.156250
1112		-152.343750
1113		-160.156250
1114		-154.296875
1115		-160.156250
1116		-154.296875
1117		-160.156250
1118		-154.296875
1119		-158.203125
1120		-156.250000
1121		-158.203125
1122		-156.250000
1123		-160.156250
1124		-152.343750
1125		-160.156250
1126		-152.343750
1127		-158.203125
1128		-152.343750
1129		-158.203125
1130		-152.343750
1131		-156.250000
1132		-150.390625
1133		-156.250000
1134		-150.390625
1135		-154.296875
1136		-150.390625
1137		-152.343750
1138		-148.437500
1139		-152.343750
1140		-146.484375
1141		-152.343750
1142		-144.531250
1143		-150.390625
1144		-142.578125
1145		-148.437500
1146		-140.625000
1147		-146.484375
1148		-138.671875
1149		-144.531250
1150		-136.718750
1151		-142.578125
1152		-136.718750
1153		-138.671875
1154		-134.765625
1155		-136.718750
1156		-132.812500
1157		-134.765625
1158		-126.953125
1159		-132.812500
1160		-125.000000
1161		-130.859375
1162		-123.046875
1163		-126.953125
1164		-121.093750
1165		-125.000000
1166		-117.187500
1167		-123.046875
1168		-113.281250
1169		-117.187500
1170		-113.281250
1171		-113.281250
1172		-109.375000
1173		-111.328125
1174		-103.515625
1175		-109.375000
1176		-101.562500
1177		-105.468750
1178		-97.656250
1179		-103.515625
1180		-93.750000
1181		-97.656250
1182		-91.796875
1183		-95.703125
1184		-87.890625
1185		-91.796875
1186		-85.937500
1187		-85.937500
1188		-82.031250
1189		-82.031250
1190		-76.171875
1191		-80.078125
1192		-72.265625
1193		-76.171875
1194		-68.359375
1195		-72.265625
1196		-64.453125
1197		-68.359375
1198		-60.546875
1199		-64.453125
1200		-56.640625
1201		-60.546875
1202		-52.734375
1203		-54.687500
1204		-48.828125
1205		-50.781250
1206		-44.921875
1207		-46.875000
1208		-39.062500
1209		-44.921875
1210		-35.156250
1211		-41.015625
1212		-31.250000
1213		-35.156250
1214		-25.390625
1215		-31.250000
1216		-23.437500
1217		-27.343750
1218		-17.578125
1219		-21.484375
1220		-15.625000
1221		-17.578125
1222		-11.718750
1223		-11.718750
1224		-5.859375
