Old_data/metingen laweit/1000Hz, 35.3cm/data_81_m0.txt

Channel              :		CH1
Frequency            :		1.060kHz
Period               :		0.944ms
PK-PK                :		322.3mV
Probe attenuation    :		1X
Voltage per ADC value:		0.122070mV
Time interval        :		2.00000us

index		CH1_Voltage(mV)
1		85.937500
2		85.937500
3		93.750000
4		82.031250
5		91.796875
6		80.078125
7		87.890625
8		76.171875
9		83.984375
10		74.218750
11		82.031250
12		68.359375
13		78.125000
14		68.359375
15		74.218750
16		64.453125
17		70.312500
18		58.593750
19		66.406250
20		54.687500
21		64.453125
22		52.734375
23		60.546875
24		46.875000
25		56.640625
26		44.921875
27		52.734375
28		39.062500
29		48.828125
30		37.109375
31		44.921875
32		33.203125
33		39.062500
34		29.296875
35		35.156250
36		23.437500
37		33.203125
38		19.531250
39		29.296875
40		15.625000
41		23.437500
42		11.718750
43		21.484375
44		7.812500
45		15.625000
46		3.906250
47		11.718750
48		1.953125
49		7.812500
50		-3.906250
51		1.953125
52		-7.812500
53		-1.953125
54		-11.718750
55		-5.859375
56		-15.625000
57		-9.765625
58		-21.484375
59		-13.671875
60		-25.390625
61		-17.578125
62		-29.296875
63		-21.484375
64		-33.203125
65		-25.390625
66		-37.109375
67		-31.250000
68		-42.968750
69		-35.156250
70		-46.875000
71		-39.062500
72		-50.781250
73		-42.968750
74		-56.640625
75		-46.875000
76		-60.546875
77		-50.781250
78		-64.453125
79		-54.687500
80		-68.359375
81		-58.593750
82		-70.312500
83		-64.453125
84		-74.218750
85		-68.359375
86		-80.078125
87		-72.265625
88		-83.984375
89		-76.171875
90		-87.890625
91		-80.078125
92		-89.843750
93		-83.984375
94		-95.703125
95		-85.937500
96		-99.609375
97		-89.843750
98		-101.562500
99		-93.750000
100		-103.515625
101		-99.609375
102		-109.375000
103		-103.515625
104		-113.281250
105		-103.515625
106		-115.234375
107		-107.421875
108		-119.140625
109		-111.328125
110		-123.046875
111		-115.234375
112		-126.953125
113		-117.187500
114		-128.906250
115		-121.093750
116		-128.906250
117		-125.000000
118		-132.812500
119		-128.906250
120		-138.671875
121		-128.906250
122		-138.671875
123		-132.812500
124		-142.578125
125		-134.765625
126		-144.531250
127		-136.718750
128		-146.484375
129		-138.671875
130		-148.437500
131		-140.625000
132		-148.437500
133		-144.531250
134		-150.390625
135		-148.437500
136		-154.296875
137		-148.437500
138		-156.250000
139		-150.390625
140		-158.203125
141		-150.390625
142		-160.156250
143		-154.296875
144		-162.109375
145		-154.296875
146		-162.109375
147		-156.250000
148		-162.109375
149		-156.250000
150		-162.109375
151		-160.156250
152		-164.062500
153		-160.156250
154		-166.015625
155		-160.156250
156		-167.968750
157		-160.156250
158		-167.968750
159		-160.156250
160		-167.968750
161		-162.109375
162		-167.968750
163		-162.109375
164		-167.968750
165		-162.109375
166		-166.015625
167		-164.062500
168		-166.015625
169		-164.062500
170		-167.968750
171		-162.109375
172		-167.968750
173		-162.109375
174		-167.968750
175		-162.109375
176		-167.968750
177		-160.156250
178		-166.015625
179		-160.156250
180		-164.062500
181		-158.203125
182		-164.062500
183		-160.156250
184		-160.156250
185		-158.203125
186		-162.109375
187		-154.296875
188		-160.156250
189		-154.296875
190		-160.156250
191		-152.343750
192		-158.203125
193		-150.390625
194		-156.250000
195		-148.437500
196		-154.296875
197		-146.484375
198		-152.343750
199		-144.531250
200		-148.437500
201		-144.531250
202		-146.484375
203		-142.578125
204		-144.531250
205		-138.671875
206		-142.578125
207		-136.718750
208		-140.625000
209		-132.812500
210		-138.671875
211		-130.859375
212		-136.718750
213		-126.953125
214		-132.812500
215		-125.000000
216		-128.906250
217		-123.046875
218		-125.000000
219		-121.093750
220		-121.093750
221		-115.234375
222		-121.093750
223		-113.281250
224		-117.187500
225		-109.375000
226		-113.281250
227		-105.468750
228		-109.375000
229		-101.562500
230		-107.421875
231		-99.609375
232		-103.515625
233		-97.656250
234		-97.656250
235		-93.750000
236		-93.750000
237		-87.890625
238		-93.750000
239		-83.984375
240		-87.890625
241		-80.078125
242		-85.937500
243		-76.171875
244		-80.078125
245		-72.265625
246		-76.171875
247		-68.359375
248		-72.265625
249		-64.453125
250		-66.406250
251		-60.546875
252		-62.500000
253		-56.640625
254		-58.593750
255		-50.781250
256		-56.640625
257		-46.875000
258		-50.781250
259		-42.968750
260		-48.828125
261		-39.062500
262		-42.968750
263		-33.203125
264		-39.062500
265		-29.296875
266		-33.203125
267		-27.343750
268		-29.296875
269		-23.437500
270		-25.390625
271		-17.578125
272		-21.484375
273		-13.671875
274		-17.578125
275		-9.765625
276		-13.671875
277		-5.859375
278		-9.765625
279		0.000000
280		-5.859375
281		3.906250
282		0.000000
283		7.812500
284		5.859375
285		11.718750
286		9.765625
287		15.625000
288		13.671875
289		21.484375
290		15.625000
291		25.390625
292		21.484375
293		29.296875
294		23.437500
295		31.250000
296		27.343750
297		37.109375
298		31.250000
299		41.015625
300		37.109375
301		42.968750
302		41.015625
303		46.875000
304		44.921875
305		52.734375
306		46.875000
307		56.640625
308		52.734375
309		60.546875
310		54.687500
311		62.500000
312		58.593750
313		66.406250
314		60.546875
315		70.312500
316		66.406250
317		72.265625
318		70.312500
319		74.218750
320		74.218750
321		78.125000
322		74.218750
323		82.031250
324		78.125000
325		85.937500
326		82.031250
327		89.843750
328		85.937500
329		91.796875
330		85.937500
331		95.703125
332		89.843750
333		99.609375
334		95.703125
335		99.609375
336		97.656250
337		101.562500
338		99.609375
339		105.468750
340		101.562500
341		109.375000
342		103.515625
343		111.328125
344		105.468750
345		113.281250
346		109.375000
347		115.234375
348		109.375000
349		117.187500
350		113.281250
351		119.140625
352		117.187500
353		121.093750
354		119.140625
355		123.046875
356		119.140625
357		126.953125
358		121.093750
359		126.953125
360		123.046875
361		130.859375
362		125.000000
363		130.859375
364		126.953125
365		132.812500
366		126.953125
367		134.765625
368		130.859375
369		134.765625
370		132.812500
371		134.765625
372		132.812500
373		138.671875
374		132.812500
375		140.625000
376		132.812500
377		140.625000
378		134.765625
379		142.578125
380		136.718750
381		142.578125
382		136.718750
383		142.578125
384		138.671875
385		142.578125
386		140.625000
387		142.578125
388		140.625000
389		146.484375
390		140.625000
391		146.484375
392		140.625000
393		146.484375
394		140.625000
395		146.484375
396		140.625000
397		146.484375
398		140.625000
399		146.484375
400		142.578125
401		146.484375
402		142.578125
403		144.531250
404		142.578125
405		146.484375
406		140.625000
407		146.484375
408		140.625000
409		146.484375
410		140.625000
411		146.484375
412		140.625000
413		146.484375
414		138.671875
415		146.484375
416		138.671875
417		146.484375
418		140.625000
419		144.531250
420		140.625000
421		142.578125
422		136.718750
423		142.578125
424		136.718750
425		142.578125
426		134.765625
427		140.625000
428		134.765625
429		140.625000
430		132.812500
431		140.625000
432		130.859375
433		138.671875
434		130.859375
435		136.718750
436		130.859375
437		132.812500
438		126.953125
439		132.812500
440		125.000000
441		132.812500
442		123.046875
443		130.859375
444		121.093750
445		128.906250
446		119.140625
447		126.953125
448		119.140625
449		125.000000
450		117.187500
451		123.046875
452		115.234375
453		119.140625
454		113.281250
455		117.187500
456		109.375000
457		117.187500
458		107.421875
459		115.234375
460		105.468750
461		111.328125
462		101.562500
463		109.375000
464		99.609375
465		107.421875
466		97.656250
467		105.468750
468		95.703125
469		101.562500
470		93.750000
471		97.656250
472		87.890625
473		93.750000
474		85.937500
475		93.750000
476		82.031250
477		89.843750
478		78.125000
479		87.890625
480		76.171875
481		83.984375
482		72.265625
483		80.078125
484		70.312500
485		78.125000
486		68.359375
487		72.265625
488		64.453125
489		68.359375
490		58.593750
491		66.406250
492		54.687500
493		62.500000
494		52.734375
495		58.593750
496		46.875000
497		56.640625
498		42.968750
499		52.734375
500		39.062500
501		48.828125
502		37.109375
503		42.968750
504		33.203125
505		39.062500
506		27.343750
507		35.156250
508		23.437500
509		31.250000
510		19.531250
511		27.343750
512		15.625000
513		23.437500
514		9.765625
515		19.531250
516		7.812500
517		15.625000
518		3.906250
519		11.718750
520		0.000000
521		5.859375
522		-5.859375
523		1.953125
524		-9.765625
525		0.000000
526		-15.625000
527		-5.859375
528		-17.578125
529		-9.765625
530		-21.484375
531		-13.671875
532		-25.390625
533		-17.578125
534		-31.250000
535		-21.484375
536		-33.203125
537		-29.296875
538		-37.109375
539		-33.203125
540		-42.968750
541		-37.109375
542		-48.828125
543		-39.062500
544		-52.734375
545		-42.968750
546		-56.640625
547		-46.875000
548		-60.546875
549		-52.734375
550		-64.453125
551		-54.687500
552		-66.406250
553		-60.546875
554		-72.265625
555		-66.406250
556		-78.125000
557		-70.312500
558		-80.078125
559		-72.265625
560		-85.937500
561		-76.171875
562		-89.843750
563		-80.078125
564		-91.796875
565		-83.984375
566		-95.703125
567		-87.890625
568		-97.656250
569		-91.796875
570		-101.562500
571		-95.703125
572		-105.468750
573		-99.609375
574		-109.375000
575		-103.515625
576		-113.281250
577		-105.468750
578		-115.234375
579		-109.375000
580		-121.093750
581		-111.328125
582		-123.046875
583		-115.234375
584		-126.953125
585		-119.140625
586		-126.953125
587		-121.093750
588		-130.859375
589		-126.953125
590		-134.765625
591		-128.906250
592		-138.671875
593		-130.859375
594		-138.671875
595		-132.812500
596		-142.578125
597		-134.765625
598		-146.484375
599		-136.718750
600		-148.437500
601		-140.625000
602		-148.437500
603		-142.578125
604		-150.390625
605		-146.484375
606		-154.296875
607		-148.437500
608		-156.250000
609		-148.437500
610		-156.250000
611		-150.390625
612		-158.203125
613		-152.343750
614		-160.156250
615		-154.296875
616		-162.109375
617		-154.296875
618		-164.062500
619		-156.250000
620		-162.109375
621		-160.156250
622		-164.062500
623		-160.156250
624		-166.015625
625		-160.156250
626		-167.968750
627		-160.156250
628		-167.968750
629		-162.109375
630		-169.921875
631		-162.109375
632		-169.921875
633		-162.109375
634		-169.921875
635		-162.109375
636		-167.968750
637		-164.062500
638		-166.015625
639		-164.062500
640		-167.968750
641		-162.109375
642		-169.921875
643		-162.109375
644		-167.968750
645		-162.109375
646		-167.968750
647		-162.109375
648		-167.968750
649		-160.156250
650		-166.015625
651		-160.156250
652		-166.015625
653		-160.156250
654		-164.062500
655		-160.156250
656		-162.109375
657		-158.203125
658		-162.109375
659		-156.250000
660		-162.109375
661		-154.296875
662		-160.156250
663		-152.343750
664		-158.203125
665		-150.390625
666		-156.250000
667		-148.437500
668		-154.296875
669		-148.437500
670		-152.343750
671		-146.484375
672		-148.437500
673		-144.531250
674		-148.437500
675		-140.625000
676		-146.484375
677		-138.671875
678		-144.531250
679		-136.718750
680		-140.625000
681		-134.765625
682		-138.671875
683		-130.859375
684		-134.765625
685		-128.906250
686		-132.812500
687		-126.953125
688		-128.906250
689		-123.046875
690		-125.000000
691		-119.140625
692		-123.046875
693		-115.234375
694		-119.140625
695		-113.281250
696		-117.187500
697		-109.375000
698		-113.281250
699		-105.468750
700		-111.328125
701		-101.562500
702		-107.421875
703		-99.609375
704		-101.562500
705		-97.656250
706		-97.656250
707		-93.750000
708		-93.750000
709		-87.890625
710		-91.796875
711		-83.984375
712		-87.890625
713		-78.125000
714		-83.984375
715		-76.171875
716		-80.078125
717		-72.265625
718		-76.171875
719		-68.359375
720		-72.265625
721		-66.406250
722		-66.406250
723		-60.546875
724		-62.500000
725		-54.687500
726		-60.546875
727		-50.781250
728		-56.640625
729		-46.875000
730		-50.781250
731		-42.968750
732		-46.875000
733		-39.062500
734		-42.968750
735		-35.156250
736		-39.062500
737		-31.250000
738		-33.203125
739		-27.343750
740		-29.296875
741		-23.437500
742		-25.390625
743		-17.578125
744		-21.484375
745		-13.671875
746		-17.578125
747		-7.812500
748		-11.718750
749		-3.906250
750		-7.812500
751		0.000000
752		-3.906250
753		3.906250
754		-1.953125
755		5.859375
756		5.859375
757		11.718750
758		9.765625
759		15.625000
760		11.718750
761		19.531250
762		15.625000
763		25.390625
764		19.531250
765		29.296875
766		25.390625
767		33.203125
768		29.296875
769		37.109375
770		31.250000
771		39.062500
772		37.109375
773		42.968750
774		41.015625
775		48.828125
776		44.921875
777		52.734375
778		46.875000
779		54.687500
780		50.781250
781		60.546875
782		54.687500
783		62.500000
784		58.593750
785		66.406250
786		62.500000
787		70.312500
788		66.406250
789		72.265625
790		70.312500
791		76.171875
792		72.265625
793		80.078125
794		76.171875
795		83.984375
796		78.125000
797		87.890625
798		82.031250
799		87.890625
800		83.984375
801		91.796875
802		87.890625
803		95.703125
804		89.843750
805		97.656250
806		95.703125
807		99.609375
808		97.656250
809		103.515625
810		99.609375
811		105.468750
812		101.562500
813		109.375000
814		103.515625
815		111.328125
816		105.468750
817		113.281250
818		107.421875
819		117.187500
820		111.328125
821		117.187500
822		115.234375
823		117.187500
824		117.187500
825		121.093750
826		117.187500
827		125.000000
828		119.140625
829		126.953125
830		121.093750
831		128.906250
832		123.046875
833		128.906250
834		125.000000
835		130.859375
836		125.000000
837		132.812500
838		126.953125
839		132.812500
840		130.859375
841		132.812500
842		130.859375
843		136.718750
844		130.859375
845		138.671875
846		132.812500
847		138.671875
848		134.765625
849		140.625000
850		134.765625
851		140.625000
852		136.718750
853		142.578125
854		136.718750
855		144.531250
856		138.671875
857		142.578125
858		140.625000
859		144.531250
860		138.671875
861		144.531250
862		140.625000
863		146.484375
864		140.625000
865		146.484375
866		140.625000
867		146.484375
868		140.625000
869		146.484375
870		140.625000
871		146.484375
872		142.578125
873		144.531250
874		142.578125
875		144.531250
876		140.625000
877		146.484375
878		140.625000
879		146.484375
880		140.625000
881		146.484375
882		140.625000
883		146.484375
884		140.625000
885		146.484375
886		138.671875
887		146.484375
888		138.671875
889		144.531250
890		140.625000
891		142.578125
892		138.671875
893		142.578125
894		136.718750
895		142.578125
896		136.718750
897		142.578125
898		132.812500
899		140.625000
900		132.812500
901		140.625000
902		130.859375
903		138.671875
904		130.859375
905		136.718750
906		130.859375
907		134.765625
908		130.859375
909		132.812500
910		126.953125
911		134.765625
912		125.000000
913		132.812500
914		123.046875
915		130.859375
916		123.046875
917		128.906250
918		119.140625
919		126.953125
920		117.187500
921		125.000000
922		117.187500
923		123.046875
924		115.234375
925		119.140625
926		111.328125
927		117.187500
928		109.375000
929		117.187500
930		107.421875
931		113.281250
932		103.515625
933		111.328125
934		101.562500
935		109.375000
936		97.656250
937		107.421875
938		97.656250
939		103.515625
940		95.703125
941		99.609375
942		91.796875
943		95.703125
944		85.937500
945		95.703125
946		83.984375
947		93.750000
948		82.031250
949		89.843750
950		78.125000
951		85.937500
952		76.171875
953		82.031250
954		70.312500
955		80.078125
956		70.312500
957		74.218750
958		66.406250
959		72.265625
960		60.546875
961		68.359375
962		58.593750
963		66.406250
964		54.687500
965		62.500000
966		48.828125
967		58.593750
968		46.875000
969		54.687500
970		42.968750
971		50.781250
972		41.015625
973		46.875000
974		37.109375
975		41.015625
976		31.250000
977		37.109375
978		27.343750
979		35.156250
980		23.437500
981		31.250000
982		17.578125
983		27.343750
984		13.671875
985		23.437500
986		11.718750
987		19.531250
988		5.859375
989		13.671875
990		3.906250
991		9.765625
992		0.000000
993		3.906250
994		-5.859375
995		1.953125
996		-9.765625
997		-3.906250
998		-13.671875
999		-5.859375
1000		-19.531250
1001		-9.765625
1002		-23.437500
1003		-13.671875
1004		-27.343750
1005		-17.578125
1006		-31.250000
1007		-23.437500
1008		-35.156250
1009		-29.296875
1010		-41.015625
1011		-33.203125
1012		-44.921875
1013		-35.156250
1014		-48.828125
1015		-41.015625
1016		-52.734375
1017		-44.921875
1018		-56.640625
1019		-48.828125
1020		-62.500000
1021		-52.734375
1022		-64.453125
1023		-56.640625
1024		-68.359375
1025		-62.500000
1026		-72.265625
1027		-66.406250
1028		-78.125000
1029		-68.359375
1030		-82.031250
1031		-74.218750
1032		-85.937500
1033		-78.125000
1034		-89.843750
1035		-80.078125
1036		-91.796875
1037		-83.984375
1038		-97.656250
1039		-87.890625
1040		-97.656250
1041		-93.750000
1042		-101.562500
1043		-97.656250
1044		-107.421875
1045		-99.609375
1046		-111.328125
1047		-101.562500
1048		-113.281250
1049		-105.468750
1050		-117.187500
1051		-109.375000
1052		-119.140625
1053		-113.281250
1054		-123.046875
1055		-115.234375
1056		-125.000000
1057		-119.140625
1058		-128.906250
1059		-123.046875
1060		-132.812500
1061		-126.953125
1062		-134.765625
1063		-128.906250
1064		-138.671875
1065		-130.859375
1066		-140.625000
1067		-132.812500
1068		-144.531250
1069		-136.718750
1070		-144.531250
1071		-138.671875
1072		-146.484375
1073		-140.625000
1074		-148.437500
1075		-144.531250
1076		-150.390625
1077		-146.484375
1078		-154.296875
1079		-146.484375
1080		-156.250000
1081		-148.437500
1082		-156.250000
1083		-150.390625
1084		-160.156250
1085		-152.343750
1086		-160.156250
1087		-154.296875
1088		-162.109375
1089		-154.296875
1090		-162.109375
1091		-156.250000
1092		-162.109375
1093		-160.156250
1094		-166.015625
1095		-160.156250
1096		-167.968750
1097		-160.156250
1098		-167.968750
1099		-160.156250
1100		-167.968750
1101		-162.109375
1102		-167.968750
1103		-162.109375
1104		-167.968750
1105		-162.109375
1106		-169.921875
1107		-162.109375
1108		-166.015625
1109		-164.062500
1110		-166.015625
1111		-164.062500
1112		-169.921875
1113		-162.109375
1114		-169.921875
1115		-162.109375
1116		-167.968750
1117		-162.109375
1118		-167.968750
1119		-162.109375
1120		-167.968750
1121		-160.156250
1122		-166.015625
1123		-160.156250
1124		-164.062500
1125		-160.156250
1126		-162.109375
1127		-160.156250
1128		-162.109375
1129		-156.250000
1130		-162.109375
1131		-154.296875
1132		-160.156250
1133		-154.296875
1134		-160.156250
1135		-152.343750
1136		-158.203125
1137		-150.390625
1138		-156.250000
1139		-148.437500
1140		-154.296875
1141		-148.437500
1142		-150.390625
1143		-146.484375
1144		-148.437500
1145		-142.578125
1146		-148.437500
1147		-140.625000
1148		-146.484375
1149		-138.671875
1150		-142.578125
1151		-136.718750
1152		-140.625000
1153		-132.812500
1154		-138.671875
1155		-130.859375
1156		-134.765625
1157		-128.906250
1158		-130.859375
1159		-126.953125
1160		-126.953125
1161		-123.046875
1162		-126.953125
1163		-119.140625
1164		-123.046875
1165		-115.234375
1166		-119.140625
1167		-111.328125
1168		-115.234375
1169		-109.375000
1170		-111.328125
1171		-105.468750
1172		-109.375000
1173		-101.562500
1174		-107.421875
1175		-99.609375
1176		-101.562500
1177		-95.703125
1178		-97.656250
1179		-89.843750
1180		-95.703125
1181		-87.890625
1182		-91.796875
1183		-83.984375
1184		-87.890625
1185		-78.125000
1186		-83.984375
1187		-74.218750
1188		-80.078125
1189		-70.312500
1190		-74.218750
1191		-68.359375
1192		-70.312500
1193		-64.453125
1194		-64.453125
1195		-60.546875
1196		-62.500000
1197		-54.687500
1198		-58.593750
1199		-50.781250
1200		-54.687500
1201		-46.875000
1202		-50.781250
1203		-41.015625
1204		-46.875000
1205		-37.109375
1206		-41.015625
1207		-33.203125
1208		-37.109375
1209		-31.250000
1210		-31.250000
1211		-25.390625
1212		-27.343750
1213		-19.531250
1214		-23.437500
1215		-15.625000
1216		-19.531250
1217		-11.718750
1218		-15.625000
1219		-7.812500
1220		-11.718750
1221		-3.906250
1222		-7.812500
1223		1.953125
