Old_data/metingen laweit/1000Hz, 35.3cm/data_81_m55.txt

Channel              :		CH1
Frequency            :		1.061kHz
Period               :		0.942ms
PK-PK                :		300.8mV
Probe attenuation    :		1X
Voltage per ADC value:		0.122070mV
Time interval        :		2.00000us

index		CH1_Voltage(mV)
1		105.468750
2		105.468750
3		99.609375
4		103.515625
5		95.703125
6		99.609375
7		91.796875
8		97.656250
9		89.843750
10		95.703125
11		87.890625
12		91.796875
13		83.984375
14		89.843750
15		82.031250
16		85.937500
17		78.125000
18		82.031250
19		74.218750
20		80.078125
21		72.265625
22		76.171875
23		68.359375
24		74.218750
25		64.453125
26		70.312500
27		60.546875
28		66.406250
29		56.640625
30		62.500000
31		54.687500
32		58.593750
33		50.781250
34		56.640625
35		46.875000
36		52.734375
37		42.968750
38		50.781250
39		39.062500
40		44.921875
41		37.109375
42		41.015625
43		33.203125
44		37.109375
45		29.296875
46		33.203125
47		23.437500
48		29.296875
49		21.484375
50		27.343750
51		17.578125
52		21.484375
53		13.671875
54		19.531250
55		9.765625
56		15.625000
57		5.859375
58		11.718750
59		1.953125
60		7.812500
61		-3.906250
62		3.906250
63		-5.859375
64		0.000000
65		-9.765625
66		-3.906250
67		-13.671875
68		-7.812500
69		-17.578125
70		-11.718750
71		-21.484375
72		-15.625000
73		-25.390625
74		-19.531250
75		-29.296875
76		-25.390625
77		-33.203125
78		-27.343750
79		-37.109375
80		-31.250000
81		-41.015625
82		-35.156250
83		-44.921875
84		-39.062500
85		-48.828125
86		-42.968750
87		-52.734375
88		-46.875000
89		-56.640625
90		-50.781250
91		-60.546875
92		-54.687500
93		-62.500000
94		-58.593750
95		-66.406250
96		-58.593750
97		-70.312500
98		-64.453125
99		-74.218750
100		-68.359375
101		-76.171875
102		-72.265625
103		-80.078125
104		-76.171875
105		-83.984375
106		-78.125000
107		-87.890625
108		-82.031250
109		-89.843750
110		-83.984375
111		-93.750000
112		-87.890625
113		-97.656250
114		-91.796875
115		-99.609375
116		-93.750000
117		-101.562500
118		-97.656250
119		-105.468750
120		-99.609375
121		-107.421875
122		-101.562500
123		-111.328125
124		-105.468750
125		-113.281250
126		-105.468750
127		-117.187500
128		-109.375000
129		-119.140625
130		-111.328125
131		-119.140625
132		-115.234375
133		-121.093750
134		-117.187500
135		-123.046875
136		-119.140625
137		-126.953125
138		-121.093750
139		-128.906250
140		-123.046875
141		-130.859375
142		-125.000000
143		-132.812500
144		-126.953125
145		-134.765625
146		-126.953125
147		-136.718750
148		-130.859375
149		-136.718750
150		-130.859375
151		-136.718750
152		-132.812500
153		-138.671875
154		-132.812500
155		-140.625000
156		-132.812500
157		-140.625000
158		-134.765625
159		-142.578125
160		-134.765625
161		-142.578125
162		-134.765625
163		-142.578125
164		-136.718750
165		-142.578125
166		-136.718750
167		-140.625000
168		-138.671875
169		-142.578125
170		-138.671875
171		-144.531250
172		-136.718750
173		-144.531250
174		-136.718750
175		-142.578125
176		-136.718750
177		-144.531250
178		-136.718750
179		-142.578125
180		-136.718750
181		-142.578125
182		-136.718750
183		-140.625000
184		-136.718750
185		-138.671875
186		-136.718750
187		-138.671875
188		-132.812500
189		-138.671875
190		-132.812500
191		-136.718750
192		-130.859375
193		-136.718750
194		-130.859375
195		-134.765625
196		-128.906250
197		-132.812500
198		-126.953125
199		-130.859375
200		-125.000000
201		-128.906250
202		-125.000000
203		-126.953125
204		-123.046875
205		-126.953125
206		-119.140625
207		-125.000000
208		-117.187500
209		-123.046875
210		-115.234375
211		-121.093750
212		-113.281250
213		-119.140625
214		-111.328125
215		-115.234375
216		-107.421875
217		-111.328125
218		-107.421875
219		-109.375000
220		-105.468750
221		-107.421875
222		-99.609375
223		-105.468750
224		-97.656250
225		-101.562500
226		-95.703125
227		-99.609375
228		-89.843750
229		-95.703125
230		-87.890625
231		-93.750000
232		-85.937500
233		-89.843750
234		-83.984375
235		-83.984375
236		-80.078125
237		-82.031250
238		-76.171875
239		-80.078125
240		-72.265625
241		-76.171875
242		-66.406250
243		-72.265625
244		-64.453125
245		-68.359375
246		-60.546875
247		-66.406250
248		-56.640625
249		-60.546875
250		-54.687500
251		-56.640625
252		-50.781250
253		-52.734375
254		-46.875000
255		-48.828125
256		-42.968750
257		-46.875000
258		-37.109375
259		-42.968750
260		-35.156250
261		-39.062500
262		-31.250000
263		-35.156250
264		-27.343750
265		-31.250000
266		-21.484375
267		-25.390625
268		-19.531250
269		-21.484375
270		-15.625000
271		-17.578125
272		-9.765625
273		-15.625000
274		-5.859375
275		-9.765625
276		-3.906250
277		-7.812500
278		0.000000
279		-3.906250
280		5.859375
281		1.953125
282		9.765625
283		3.906250
284		11.718750
285		9.765625
286		15.625000
287		13.671875
288		19.531250
289		15.625000
290		25.390625
291		21.484375
292		29.296875
293		23.437500
294		33.203125
295		27.343750
296		37.109375
297		31.250000
298		39.062500
299		35.156250
300		42.968750
301		41.015625
302		44.921875
303		44.921875
304		48.828125
305		46.875000
306		52.734375
307		48.828125
308		58.593750
309		52.734375
310		62.500000
311		56.640625
312		64.453125
313		60.546875
314		68.359375
315		62.500000
316		70.312500
317		66.406250
318		72.265625
319		72.265625
320		76.171875
321		74.218750
322		80.078125
323		76.171875
324		83.984375
325		78.125000
326		85.937500
327		82.031250
328		89.843750
329		85.937500
330		91.796875
331		87.890625
332		95.703125
333		89.843750
334		97.656250
335		95.703125
336		99.609375
337		97.656250
338		101.562500
339		99.609375
340		105.468750
341		101.562500
342		109.375000
343		103.515625
344		111.328125
345		105.468750
346		113.281250
347		107.421875
348		115.234375
349		111.328125
350		119.140625
351		111.328125
352		119.140625
353		117.187500
354		121.093750
355		117.187500
356		123.046875
357		119.140625
358		126.953125
359		121.093750
360		128.906250
361		123.046875
362		128.906250
363		123.046875
364		132.812500
365		126.953125
366		132.812500
367		126.953125
368		134.765625
369		130.859375
370		134.765625
371		132.812500
372		136.718750
373		130.859375
374		138.671875
375		132.812500
376		138.671875
377		134.765625
378		140.625000
379		134.765625
380		142.578125
381		136.718750
382		144.531250
383		136.718750
384		144.531250
385		138.671875
386		142.578125
387		140.625000
388		144.531250
389		140.625000
390		146.484375
391		140.625000
392		148.437500
393		140.625000
394		148.437500
395		142.578125
396		148.437500
397		142.578125
398		148.437500
399		142.578125
400		148.437500
401		142.578125
402		148.437500
403		144.531250
404		146.484375
405		144.531250
406		148.437500
407		142.578125
408		150.390625
409		142.578125
410		148.437500
411		142.578125
412		148.437500
413		142.578125
414		150.390625
415		142.578125
416		148.437500
417		142.578125
418		148.437500
419		144.531250
420		146.484375
421		142.578125
422		144.531250
423		140.625000
424		146.484375
425		140.625000
426		146.484375
427		138.671875
428		144.531250
429		138.671875
430		144.531250
431		136.718750
432		144.531250
433		136.718750
434		142.578125
435		136.718750
436		142.578125
437		136.718750
438		138.671875
439		132.812500
440		138.671875
441		130.859375
442		138.671875
443		128.906250
444		136.718750
445		128.906250
446		134.765625
447		126.953125
448		134.765625
449		125.000000
450		132.812500
451		125.000000
452		130.859375
453		123.046875
454		126.953125
455		121.093750
456		125.000000
457		117.187500
458		125.000000
459		115.234375
460		123.046875
461		113.281250
462		121.093750
463		111.328125
464		119.140625
465		109.375000
466		117.187500
467		105.468750
468		115.234375
469		105.468750
470		111.328125
471		103.515625
472		107.421875
473		99.609375
474		105.468750
475		95.703125
476		103.515625
477		93.750000
478		101.562500
479		91.796875
480		99.609375
481		87.890625
482		97.656250
483		85.937500
484		93.750000
485		83.984375
486		89.843750
487		80.078125
488		85.937500
489		76.171875
490		82.031250
491		72.265625
492		80.078125
493		68.359375
494		76.171875
495		66.406250
496		74.218750
497		62.500000
498		72.265625
499		58.593750
500		66.406250
501		56.640625
502		64.453125
503		54.687500
504		58.593750
505		50.781250
506		54.687500
507		44.921875
508		52.734375
509		41.015625
510		48.828125
511		39.062500
512		46.875000
513		33.203125
514		42.968750
515		29.296875
516		39.062500
517		27.343750
518		33.203125
519		23.437500
520		31.250000
521		19.531250
522		25.390625
523		13.671875
524		21.484375
525		11.718750
526		19.531250
527		7.812500
528		15.625000
529		3.906250
530		11.718750
531		0.000000
532		7.812500
533		-3.906250
534		3.906250
535		-7.812500
536		0.000000
537		-11.718750
538		-5.859375
539		-13.671875
540		-9.765625
541		-19.531250
542		-11.718750
543		-23.437500
544		-15.625000
545		-27.343750
546		-19.531250
547		-33.203125
548		-23.437500
549		-35.156250
550		-27.343750
551		-41.015625
552		-31.250000
553		-41.015625
554		-37.109375
555		-44.921875
556		-41.015625
557		-50.781250
558		-44.921875
559		-54.687500
560		-44.921875
561		-58.593750
562		-48.828125
563		-62.500000
564		-54.687500
565		-64.453125
566		-56.640625
567		-70.312500
568		-60.546875
569		-70.312500
570		-64.453125
571		-74.218750
572		-70.312500
573		-78.125000
574		-72.265625
575		-83.984375
576		-74.218750
577		-85.937500
578		-78.125000
579		-89.843750
580		-80.078125
581		-91.796875
582		-83.984375
583		-93.750000
584		-87.890625
585		-97.656250
586		-91.796875
587		-99.609375
588		-95.703125
589		-101.562500
590		-97.656250
591		-107.421875
592		-99.609375
593		-111.328125
594		-101.562500
595		-111.328125
596		-105.468750
597		-115.234375
598		-107.421875
599		-117.187500
600		-109.375000
601		-119.140625
602		-113.281250
603		-119.140625
604		-113.281250
605		-121.093750
606		-117.187500
607		-126.953125
608		-121.093750
609		-128.906250
610		-121.093750
611		-128.906250
612		-123.046875
613		-132.812500
614		-125.000000
615		-132.812500
616		-126.953125
617		-134.765625
618		-126.953125
619		-136.718750
620		-128.906250
621		-134.765625
622		-132.812500
623		-136.718750
624		-132.812500
625		-140.625000
626		-132.812500
627		-140.625000
628		-132.812500
629		-142.578125
630		-134.765625
631		-142.578125
632		-134.765625
633		-142.578125
634		-136.718750
635		-144.531250
636		-136.718750
637		-142.578125
638		-138.671875
639		-142.578125
640		-138.671875
641		-144.531250
642		-138.671875
643		-144.531250
644		-136.718750
645		-144.531250
646		-136.718750
647		-144.531250
648		-138.671875
649		-144.531250
650		-136.718750
651		-142.578125
652		-136.718750
653		-140.625000
654		-136.718750
655		-140.625000
656		-136.718750
657		-140.625000
658		-136.718750
659		-140.625000
660		-132.812500
661		-138.671875
662		-132.812500
663		-138.671875
664		-130.859375
665		-136.718750
666		-130.859375
667		-136.718750
668		-128.906250
669		-134.765625
670		-126.953125
671		-132.812500
672		-126.953125
673		-128.906250
674		-125.000000
675		-128.906250
676		-121.093750
677		-126.953125
678		-119.140625
679		-125.000000
680		-117.187500
681		-123.046875
682		-115.234375
683		-121.093750
684		-113.281250
685		-117.187500
686		-111.328125
687		-115.234375
688		-109.375000
689		-111.328125
690		-107.421875
691		-109.375000
692		-103.515625
693		-107.421875
694		-101.562500
695		-105.468750
696		-97.656250
697		-101.562500
698		-93.750000
699		-97.656250
700		-91.796875
701		-95.703125
702		-87.890625
703		-93.750000
704		-85.937500
705		-87.890625
706		-83.984375
707		-83.984375
708		-80.078125
709		-82.031250
710		-74.218750
711		-80.078125
712		-72.265625
713		-76.171875
714		-68.359375
715		-72.265625
716		-64.453125
717		-70.312500
718		-60.546875
719		-64.453125
720		-56.640625
721		-60.546875
722		-54.687500
723		-56.640625
724		-50.781250
725		-52.734375
726		-46.875000
727		-50.781250
728		-41.015625
729		-46.875000
730		-37.109375
731		-42.968750
732		-35.156250
733		-39.062500
734		-31.250000
735		-35.156250
736		-25.390625
737		-29.296875
738		-23.437500
739		-25.390625
740		-19.531250
741		-21.484375
742		-15.625000
743		-19.531250
744		-9.765625
745		-13.671875
746		-5.859375
747		-11.718750
748		-3.906250
749		-7.812500
750		1.953125
751		-3.906250
752		3.906250
753		0.000000
754		7.812500
755		3.906250
756		11.718750
757		9.765625
758		15.625000
759		13.671875
760		21.484375
761		15.625000
762		23.437500
763		19.531250
764		27.343750
765		23.437500
766		31.250000
767		27.343750
768		37.109375
769		31.250000
770		39.062500
771		33.203125
772		41.015625
773		41.015625
774		44.921875
775		42.968750
776		50.781250
777		44.921875
778		54.687500
779		48.828125
780		58.593750
781		54.687500
782		60.546875
783		56.640625
784		64.453125
785		60.546875
786		68.359375
787		62.500000
788		70.312500
789		68.359375
790		72.265625
791		72.265625
792		76.171875
793		72.265625
794		80.078125
795		76.171875
796		83.984375
797		78.125000
798		87.890625
799		82.031250
800		89.843750
801		83.984375
802		91.796875
803		87.890625
804		95.703125
805		91.796875
806		95.703125
807		95.703125
808		99.609375
809		97.656250
810		103.515625
811		99.609375
812		105.468750
813		101.562500
814		109.375000
815		103.515625
816		111.328125
817		105.468750
818		113.281250
819		109.375000
820		117.187500
821		109.375000
822		117.187500
823		115.234375
824		117.187500
825		117.187500
826		119.140625
827		117.187500
828		125.000000
829		119.140625
830		126.953125
831		121.093750
832		126.953125
833		123.046875
834		130.859375
835		125.000000
836		130.859375
837		126.953125
838		132.812500
839		128.906250
840		132.812500
841		130.859375
842		134.765625
843		130.859375
844		136.718750
845		130.859375
846		138.671875
847		132.812500
848		140.625000
849		134.765625
850		140.625000
851		134.765625
852		142.578125
853		134.765625
854		142.578125
855		136.718750
856		144.531250
857		138.671875
858		142.578125
859		140.625000
860		144.531250
861		138.671875
862		146.484375
863		140.625000
864		146.484375
865		140.625000
866		148.437500
867		140.625000
868		148.437500
869		142.578125
870		148.437500
871		142.578125
872		148.437500
873		144.531250
874		146.484375
875		144.531250
876		146.484375
877		142.578125
878		150.390625
879		142.578125
880		150.390625
881		142.578125
882		148.437500
883		142.578125
884		148.437500
885		142.578125
886		148.437500
887		142.578125
888		148.437500
889		140.625000
890		148.437500
891		142.578125
892		146.484375
893		142.578125
894		146.484375
895		140.625000
896		146.484375
897		138.671875
898		146.484375
899		136.718750
900		146.484375
901		136.718750
902		142.578125
903		136.718750
904		142.578125
905		136.718750
906		142.578125
907		136.718750
908		138.671875
909		134.765625
910		138.671875
911		132.812500
912		138.671875
913		132.812500
914		136.718750
915		128.906250
916		136.718750
917		128.906250
918		132.812500
919		126.953125
920		132.812500
921		125.000000
922		130.859375
923		125.000000
924		128.906250
925		123.046875
926		126.953125
927		119.140625
928		125.000000
929		117.187500
930		123.046875
931		115.234375
932		121.093750
933		113.281250
934		119.140625
935		111.328125
936		117.187500
937		107.421875
938		115.234375
939		107.421875
940		113.281250
941		105.468750
942		109.375000
943		101.562500
944		107.421875
945		97.656250
946		105.468750
947		95.703125
948		103.515625
949		93.750000
950		99.609375
951		89.843750
952		97.656250
953		85.937500
954		95.703125
955		83.984375
956		91.796875
957		82.031250
958		87.890625
959		80.078125
960		83.984375
961		74.218750
962		82.031250
963		70.312500
964		80.078125
965		68.359375
966		76.171875
967		66.406250
968		72.265625
969		60.546875
970		70.312500
971		56.640625
972		66.406250
973		56.640625
974		62.500000
975		52.734375
976		58.593750
977		46.875000
978		54.687500
979		42.968750
980		52.734375
981		41.015625
982		48.828125
983		35.156250
984		44.921875
985		33.203125
986		41.015625
987		29.296875
988		37.109375
989		27.343750
990		33.203125
991		23.437500
992		27.343750
993		19.531250
994		23.437500
995		13.671875
996		21.484375
997		9.765625
998		17.578125
999		5.859375
1000		13.671875
1001		1.953125
1002		9.765625
1003		-1.953125
1004		5.859375
1005		-5.859375
1006		1.953125
1007		-7.812500
1008		-1.953125
1009		-11.718750
1010		-7.812500
1011		-17.578125
1012		-11.718750
1013		-21.484375
1014		-13.671875
1015		-27.343750
1016		-17.578125
1017		-29.296875
1018		-21.484375
1019		-33.203125
1020		-25.390625
1021		-37.109375
1022		-29.296875
1023		-39.062500
1024		-33.203125
1025		-42.968750
1026		-37.109375
1027		-46.875000
1028		-42.968750
1029		-52.734375
1030		-42.968750
1031		-56.640625
1032		-46.875000
1033		-60.546875
1034		-52.734375
1035		-64.453125
1036		-54.687500
1037		-66.406250
1038		-58.593750
1039		-70.312500
1040		-62.500000
1041		-72.265625
1042		-68.359375
1043		-76.171875
1044		-70.312500
1045		-82.031250
1046		-74.218750
1047		-83.984375
1048		-76.171875
1049		-87.890625
1050		-80.078125
1051		-91.796875
1052		-82.031250
1053		-95.703125
1054		-85.937500
1055		-97.656250
1056		-89.843750
1057		-97.656250
1058		-91.796875
1059		-101.562500
1060		-97.656250
1061		-105.468750
1062		-99.609375
1063		-107.421875
1064		-101.562500
1065		-111.328125
1066		-103.515625
1067		-113.281250
1068		-105.468750
1069		-115.234375
1070		-109.375000
1071		-119.140625
1072		-111.328125
1073		-121.093750
1074		-113.281250
1075		-121.093750
1076		-117.187500
1077		-123.046875
1078		-119.140625
1079		-128.906250
1080		-121.093750
1081		-128.906250
1082		-121.093750
1083		-132.812500
1084		-125.000000
1085		-132.812500
1086		-126.953125
1087		-134.765625
1088		-128.906250
1089		-136.718750
1090		-128.906250
1091		-136.718750
1092		-130.859375
1093		-136.718750
1094		-132.812500
1095		-138.671875
1096		-134.765625
1097		-140.625000
1098		-134.765625
1099		-142.578125
1100		-134.765625
1101		-142.578125
1102		-136.718750
1103		-142.578125
1104		-136.718750
1105		-144.531250
1106		-136.718750
1107		-144.531250
1108		-138.671875
1109		-142.578125
1110		-140.625000
1111		-142.578125
1112		-140.625000
1113		-144.531250
1114		-138.671875
1115		-146.484375
1116		-138.671875
1117		-146.484375
1118		-138.671875
1119		-144.531250
1120		-138.671875
1121		-144.531250
1122		-138.671875
1123		-144.531250
1124		-138.671875
1125		-142.578125
1126		-138.671875
1127		-140.625000
1128		-138.671875
1129		-142.578125
1130		-136.718750
1131		-140.625000
1132		-134.765625
1133		-140.625000
1134		-132.812500
1135		-138.671875
1136		-130.859375
1137		-138.671875
1138		-130.859375
1139		-136.718750
1140		-128.906250
1141		-134.765625
1142		-128.906250
1143		-130.859375
1144		-126.953125
1145		-130.859375
1146		-125.000000
1147		-128.906250
1148		-123.046875
1149		-126.953125
1150		-121.093750
1151		-125.000000
1152		-117.187500
1153		-123.046875
1154		-115.234375
1155		-121.093750
1156		-113.281250
1157		-119.140625
1158		-111.328125
1159		-113.281250
1160		-111.328125
1161		-111.328125
1162		-107.421875
1163		-111.328125
1164		-103.515625
1165		-109.375000
1166		-99.609375
1167		-105.468750
1168		-97.656250
1169		-101.562500
1170		-93.750000
1171		-99.609375
1172		-91.796875
1173		-95.703125
1174		-87.890625
1175		-91.796875
1176		-85.937500
1177		-87.890625
1178		-83.984375
1179		-83.984375
1180		-78.125000
1181		-83.984375
1182		-74.218750
1183		-80.078125
1184		-70.312500
1185		-76.171875
1186		-68.359375
1187		-74.218750
1188		-64.453125
1189		-68.359375
1190		-60.546875
1191		-66.406250
1192		-58.593750
1193		-60.546875
1194		-54.687500
1195		-56.640625
1196		-50.781250
1197		-54.687500
1198		-44.921875
1199		-50.781250
1200		-41.015625
1201		-46.875000
1202		-37.109375
1203		-42.968750
1204		-33.203125
1205		-39.062500
1206		-29.296875
1207		-33.203125
1208		-27.343750
1209		-29.296875
1210		-23.437500
1211		-25.390625
1212		-19.531250
1213		-21.484375
1214		-13.671875
1215		-19.531250
1216		-9.765625
1217		-15.625000
1218		-7.812500
1219		-11.718750
1220		-1.953125
1221		-7.812500
1222		1.953125
1223		-1.953125
1224		3.906250
1225		0.000000
1226		7.812500
1227		5.859375
1228		11.718750
1229		9.765625
1230		17.578125
