Old_data/metingen laweit/1000Hz, 35.3cm/data_81_m37.txt

Channel              :		CH1
Frequency            :		1.061kHz
Period               :		0.942ms
PK-PK                :		322.3mV
Probe attenuation    :		1X
Voltage per ADC value:		0.122070mV
Time interval        :		2.00000us

index		CH1_Voltage(mV)
1		99.609375
2		99.609375
3		105.468750
4		95.703125
5		103.515625
6		93.750000
7		101.562500
8		91.796875
9		97.656250
10		87.890625
11		93.750000
12		83.984375
13		89.843750
14		80.078125
15		89.843750
16		78.125000
17		85.937500
18		74.218750
19		82.031250
20		70.312500
21		80.078125
22		66.406250
23		76.171875
24		64.453125
25		72.265625
26		60.546875
27		66.406250
28		56.640625
29		62.500000
30		50.781250
31		60.546875
32		46.875000
33		56.640625
34		44.921875
35		52.734375
36		39.062500
37		48.828125
38		37.109375
39		44.921875
40		31.250000
41		41.015625
42		29.296875
43		35.156250
44		25.390625
45		31.250000
46		19.531250
47		27.343750
48		15.625000
49		25.390625
50		11.718750
51		19.531250
52		7.812500
53		17.578125
54		3.906250
55		11.718750
56		0.000000
57		7.812500
58		-3.906250
59		3.906250
60		-7.812500
61		-1.953125
62		-11.718750
63		-5.859375
64		-17.578125
65		-7.812500
66		-21.484375
67		-11.718750
68		-25.390625
69		-15.625000
70		-29.296875
71		-19.531250
72		-33.203125
73		-25.390625
74		-39.062500
75		-29.296875
76		-41.015625
77		-35.156250
78		-44.921875
79		-39.062500
80		-50.781250
81		-42.968750
82		-56.640625
83		-46.875000
84		-58.593750
85		-50.781250
86		-64.453125
87		-54.687500
88		-66.406250
89		-58.593750
90		-70.312500
91		-62.500000
92		-74.218750
93		-66.406250
94		-76.171875
95		-72.265625
96		-82.031250
97		-76.171875
98		-85.937500
99		-78.125000
100		-89.843750
101		-80.078125
102		-93.750000
103		-85.937500
104		-97.656250
105		-89.843750
106		-101.562500
107		-91.796875
108		-103.515625
109		-95.703125
110		-105.468750
111		-101.562500
112		-109.375000
113		-105.468750
114		-113.281250
115		-107.421875
116		-117.187500
117		-109.375000
118		-121.093750
119		-113.281250
120		-123.046875
121		-115.234375
122		-126.953125
123		-117.187500
124		-128.906250
125		-121.093750
126		-130.859375
127		-125.000000
128		-132.812500
129		-128.906250
130		-136.718750
131		-130.859375
132		-138.671875
133		-132.812500
134		-142.578125
135		-134.765625
136		-142.578125
137		-136.718750
138		-146.484375
139		-138.671875
140		-148.437500
141		-140.625000
142		-150.390625
143		-142.578125
144		-150.390625
145		-146.484375
146		-152.343750
147		-148.437500
148		-156.250000
149		-148.437500
150		-156.250000
151		-148.437500
152		-158.203125
153		-150.390625
154		-158.203125
155		-152.343750
156		-160.156250
157		-154.296875
158		-160.156250
159		-154.296875
160		-162.109375
161		-154.296875
162		-160.156250
163		-158.203125
164		-162.109375
165		-156.250000
166		-164.062500
167		-156.250000
168		-164.062500
169		-156.250000
170		-164.062500
171		-158.203125
172		-164.062500
173		-158.203125
174		-164.062500
175		-158.203125
176		-164.062500
177		-158.203125
178		-162.109375
179		-158.203125
180		-162.109375
181		-156.250000
182		-162.109375
183		-156.250000
184		-162.109375
185		-154.296875
186		-160.156250
187		-154.296875
188		-160.156250
189		-152.343750
190		-158.203125
191		-150.390625
192		-156.250000
193		-150.390625
194		-154.296875
195		-150.390625
196		-152.343750
197		-148.437500
198		-152.343750
199		-144.531250
200		-150.390625
201		-142.578125
202		-150.390625
203		-142.578125
204		-146.484375
205		-140.625000
206		-144.531250
207		-136.718750
208		-142.578125
209		-134.765625
210		-140.625000
211		-134.765625
212		-136.718750
213		-132.812500
214		-134.765625
215		-126.953125
216		-130.859375
217		-125.000000
218		-128.906250
219		-121.093750
220		-126.953125
221		-119.140625
222		-123.046875
223		-115.234375
224		-121.093750
225		-111.328125
226		-117.187500
227		-109.375000
228		-113.281250
229		-107.421875
230		-109.375000
231		-101.562500
232		-107.421875
233		-99.609375
234		-103.515625
235		-95.703125
236		-99.609375
237		-91.796875
238		-97.656250
239		-87.890625
240		-93.750000
241		-83.984375
242		-89.843750
243		-80.078125
244		-83.984375
245		-78.125000
246		-80.078125
247		-74.218750
248		-76.171875
249		-68.359375
250		-72.265625
251		-64.453125
252		-68.359375
253		-60.546875
254		-64.453125
255		-56.640625
256		-60.546875
257		-50.781250
258		-56.640625
259		-48.828125
260		-52.734375
261		-44.921875
262		-46.875000
263		-41.015625
264		-42.968750
265		-35.156250
266		-41.015625
267		-31.250000
268		-35.156250
269		-25.390625
270		-29.296875
271		-21.484375
272		-25.390625
273		-17.578125
274		-21.484375
275		-13.671875
276		-17.578125
277		-9.765625
278		-11.718750
279		-5.859375
280		-7.812500
281		-1.953125
282		-3.906250
283		3.906250
284		-1.953125
285		7.812500
286		1.953125
287		13.671875
288		7.812500
289		15.625000
290		11.718750
291		21.484375
292		15.625000
293		25.390625
294		21.484375
295		27.343750
296		25.390625
297		31.250000
298		29.296875
299		37.109375
300		33.203125
301		41.015625
302		37.109375
303		44.921875
304		39.062500
305		48.828125
306		44.921875
307		52.734375
308		46.875000
309		56.640625
310		52.734375
311		60.546875
312		56.640625
313		62.500000
314		60.546875
315		66.406250
316		62.500000
317		70.312500
318		66.406250
319		74.218750
320		70.312500
321		78.125000
322		72.265625
323		82.031250
324		76.171875
325		83.984375
326		80.078125
327		87.890625
328		83.984375
329		89.843750
330		87.890625
331		91.796875
332		89.843750
333		97.656250
334		91.796875
335		99.609375
336		95.703125
337		103.515625
338		97.656250
339		105.468750
340		101.562500
341		107.421875
342		103.515625
343		111.328125
344		105.468750
345		113.281250
346		109.375000
347		115.234375
348		113.281250
349		119.140625
350		113.281250
351		121.093750
352		115.234375
353		123.046875
354		117.187500
355		125.000000
356		121.093750
357		126.953125
358		121.093750
359		128.906250
360		123.046875
361		130.859375
362		126.953125
363		130.859375
364		128.906250
365		132.812500
366		130.859375
367		136.718750
368		130.859375
369		138.671875
370		132.812500
371		140.625000
372		134.765625
373		142.578125
374		134.765625
375		142.578125
376		136.718750
377		144.531250
378		138.671875
379		144.531250
380		140.625000
381		144.531250
382		140.625000
383		146.484375
384		142.578125
385		148.437500
386		142.578125
387		148.437500
388		142.578125
389		148.437500
390		144.531250
391		150.390625
392		144.531250
393		152.343750
394		144.531250
395		150.390625
396		148.437500
397		150.390625
398		148.437500
399		150.390625
400		146.484375
401		152.343750
402		146.484375
403		152.343750
404		146.484375
405		154.296875
406		146.484375
407		154.296875
408		146.484375
409		154.296875
410		146.484375
411		154.296875
412		146.484375
413		152.343750
414		148.437500
415		150.390625
416		146.484375
417		152.343750
418		144.531250
419		152.343750
420		144.531250
421		152.343750
422		144.531250
423		150.390625
424		144.531250
425		150.390625
426		142.578125
427		150.390625
428		142.578125
429		148.437500
430		142.578125
431		146.484375
432		140.625000
433		144.531250
434		138.671875
435		146.484375
436		138.671875
437		144.531250
438		136.718750
439		142.578125
440		134.765625
441		140.625000
442		132.812500
443		140.625000
444		130.859375
445		138.671875
446		132.812500
447		134.765625
448		130.859375
449		132.812500
450		125.000000
451		132.812500
452		125.000000
453		132.812500
454		123.046875
455		130.859375
456		121.093750
457		128.906250
458		119.140625
459		125.000000
460		115.234375
461		123.046875
462		115.234375
463		121.093750
464		113.281250
465		117.187500
466		109.375000
467		115.234375
468		105.468750
469		113.281250
470		103.515625
471		111.328125
472		101.562500
473		109.375000
474		99.609375
475		105.468750
476		93.750000
477		101.562500
478		91.796875
479		99.609375
480		89.843750
481		95.703125
482		87.890625
483		91.796875
484		82.031250
485		89.843750
486		78.125000
487		87.890625
488		76.171875
489		83.984375
490		72.265625
491		80.078125
492		70.312500
493		78.125000
494		66.406250
495		74.218750
496		62.500000
497		70.312500
498		58.593750
499		64.453125
500		54.687500
501		60.546875
502		50.781250
503		60.546875
504		46.875000
505		54.687500
506		42.968750
507		52.734375
508		39.062500
509		46.875000
510		35.156250
511		42.968750
512		33.203125
513		39.062500
514		29.296875
515		35.156250
516		25.390625
517		31.250000
518		19.531250
519		27.343750
520		15.625000
521		23.437500
522		9.765625
523		19.531250
524		5.859375
525		15.625000
526		1.953125
527		11.718750
528		-1.953125
529		7.812500
530		-5.859375
531		1.953125
532		-9.765625
533		-1.953125
534		-13.671875
535		-7.812500
536		-19.531250
537		-9.765625
538		-23.437500
539		-13.671875
540		-27.343750
541		-17.578125
542		-31.250000
543		-23.437500
544		-37.109375
545		-27.343750
546		-39.062500
547		-31.250000
548		-42.968750
549		-37.109375
550		-48.828125
551		-41.015625
552		-52.734375
553		-42.968750
554		-56.640625
555		-46.875000
556		-60.546875
557		-50.781250
558		-64.453125
559		-54.687500
560		-68.359375
561		-58.593750
562		-70.312500
563		-64.453125
564		-74.218750
565		-68.359375
566		-78.125000
567		-72.265625
568		-83.984375
569		-76.171875
570		-87.890625
571		-78.125000
572		-91.796875
573		-82.031250
574		-93.750000
575		-85.937500
576		-97.656250
577		-89.843750
578		-101.562500
579		-93.750000
580		-103.515625
581		-97.656250
582		-107.421875
583		-101.562500
584		-111.328125
585		-105.468750
586		-115.234375
587		-107.421875
588		-119.140625
589		-111.328125
590		-121.093750
591		-113.281250
592		-123.046875
593		-115.234375
594		-126.953125
595		-119.140625
596		-128.906250
597		-121.093750
598		-130.859375
599		-126.953125
600		-132.812500
601		-128.906250
602		-138.671875
603		-130.859375
604		-140.625000
605		-132.812500
606		-142.578125
607		-134.765625
608		-144.531250
609		-136.718750
610		-146.484375
611		-138.671875
612		-148.437500
613		-140.625000
614		-148.437500
615		-144.531250
616		-150.390625
617		-146.484375
618		-154.296875
619		-146.484375
620		-154.296875
621		-148.437500
622		-156.250000
623		-148.437500
624		-158.203125
625		-150.390625
626		-158.203125
627		-152.343750
628		-158.203125
629		-152.343750
630		-160.156250
631		-154.296875
632		-160.156250
633		-156.250000
634		-162.109375
635		-154.296875
636		-162.109375
637		-156.250000
638		-162.109375
639		-156.250000
640		-164.062500
641		-156.250000
642		-162.109375
643		-156.250000
644		-164.062500
645		-156.250000
646		-162.109375
647		-156.250000
648		-160.156250
649		-158.203125
650		-160.156250
651		-158.203125
652		-162.109375
653		-154.296875
654		-160.156250
655		-154.296875
656		-160.156250
657		-152.343750
658		-158.203125
659		-152.343750
660		-158.203125
661		-150.390625
662		-156.250000
663		-150.390625
664		-156.250000
665		-148.437500
666		-152.343750
667		-148.437500
668		-152.343750
669		-144.531250
670		-150.390625
671		-142.578125
672		-148.437500
673		-142.578125
674		-146.484375
675		-140.625000
676		-144.531250
677		-136.718750
678		-142.578125
679		-136.718750
680		-140.625000
681		-132.812500
682		-136.718750
683		-132.812500
684		-134.765625
685		-128.906250
686		-132.812500
687		-125.000000
688		-130.859375
689		-123.046875
690		-126.953125
691		-119.140625
692		-125.000000
693		-115.234375
694		-121.093750
695		-113.281250
696		-119.140625
697		-111.328125
698		-115.234375
699		-109.375000
700		-109.375000
701		-105.468750
702		-107.421875
703		-99.609375
704		-103.515625
705		-95.703125
706		-101.562500
707		-93.750000
708		-97.656250
709		-89.843750
710		-93.750000
711		-85.937500
712		-89.843750
713		-82.031250
714		-85.937500
715		-80.078125
716		-80.078125
717		-76.171875
718		-76.171875
719		-70.312500
720		-74.218750
721		-66.406250
722		-70.312500
723		-60.546875
724		-66.406250
725		-58.593750
726		-62.500000
727		-52.734375
728		-58.593750
729		-50.781250
730		-54.687500
731		-44.921875
732		-48.828125
733		-42.968750
734		-42.968750
735		-39.062500
736		-39.062500
737		-31.250000
738		-37.109375
739		-27.343750
740		-31.250000
741		-23.437500
742		-29.296875
743		-19.531250
744		-25.390625
745		-15.625000
746		-19.531250
747		-11.718750
748		-15.625000
749		-7.812500
750		-9.765625
751		-3.906250
752		-5.859375
753		1.953125
754		-3.906250
755		5.859375
756		1.953125
757		11.718750
758		5.859375
759		13.671875
760		9.765625
761		19.531250
762		13.671875
763		23.437500
764		17.578125
765		25.390625
766		23.437500
767		29.296875
768		29.296875
769		33.203125
770		31.250000
771		39.062500
772		35.156250
773		42.968750
774		39.062500
775		48.828125
776		42.968750
777		50.781250
778		46.875000
779		54.687500
780		50.781250
781		58.593750
782		52.734375
783		60.546875
784		58.593750
785		64.453125
786		62.500000
787		70.312500
788		64.453125
789		74.218750
790		68.359375
791		76.171875
792		72.265625
793		80.078125
794		76.171875
795		83.984375
796		78.125000
797		85.937500
798		82.031250
799		87.890625
800		85.937500
801		91.796875
802		89.843750
803		95.703125
804		91.796875
805		99.609375
806		93.750000
807		101.562500
808		97.656250
809		105.468750
810		99.609375
811		107.421875
812		103.515625
813		111.328125
814		105.468750
815		113.281250
816		109.375000
817		113.281250
818		113.281250
819		115.234375
820		113.281250
821		119.140625
822		115.234375
823		123.046875
824		117.187500
825		125.000000
826		119.140625
827		126.953125
828		121.093750
829		128.906250
830		123.046875
831		130.859375
832		125.000000
833		130.859375
834		128.906250
835		132.812500
836		128.906250
837		136.718750
838		130.859375
839		138.671875
840		132.812500
841		138.671875
842		132.812500
843		140.625000
844		134.765625
845		142.578125
846		136.718750
847		144.531250
848		138.671875
849		144.531250
850		142.578125
851		144.531250
852		142.578125
853		146.484375
854		140.625000
855		148.437500
856		142.578125
857		150.390625
858		144.531250
859		150.390625
860		144.531250
861		150.390625
862		144.531250
863		152.343750
864		144.531250
865		152.343750
866		146.484375
867		152.343750
868		148.437500
869		150.390625
870		146.484375
871		154.296875
872		148.437500
873		154.296875
874		146.484375
875		154.296875
876		148.437500
877		154.296875
878		146.484375
879		154.296875
880		148.437500
881		154.296875
882		148.437500
883		154.296875
884		148.437500
885		152.343750
886		146.484375
887		152.343750
888		146.484375
889		154.296875
890		146.484375
891		152.343750
892		146.484375
893		152.343750
894		144.531250
895		150.390625
896		142.578125
897		150.390625
898		144.531250
899		150.390625
900		144.531250
901		148.437500
902		142.578125
903		146.484375
904		140.625000
905		146.484375
906		138.671875
907		146.484375
908		138.671875
909		144.531250
910		136.718750
911		144.531250
912		134.765625
913		142.578125
914		134.765625
915		140.625000
916		132.812500
917		138.671875
918		132.812500
919		136.718750
920		128.906250
921		134.765625
922		126.953125
923		134.765625
924		125.000000
925		132.812500
926		123.046875
927		130.859375
928		121.093750
929		128.906250
930		117.187500
931		126.953125
932		117.187500
933		123.046875
934		115.234375
935		119.140625
936		113.281250
937		117.187500
938		109.375000
939		117.187500
940		107.421875
941		113.281250
942		103.515625
943		111.328125
944		101.562500
945		107.421875
946		97.656250
947		105.468750
948		95.703125
949		103.515625
950		93.750000
951		99.609375
952		89.843750
953		95.703125
954		85.937500
955		91.796875
956		82.031250
957		89.843750
958		80.078125
959		87.890625
960		76.171875
961		83.984375
962		72.265625
963		82.031250
964		68.359375
965		78.125000
966		66.406250
967		74.218750
968		64.453125
969		68.359375
970		56.640625
971		64.453125
972		54.687500
973		62.500000
974		50.781250
975		60.546875
976		46.875000
977		54.687500
978		42.968750
979		50.781250
980		37.109375
981		46.875000
982		35.156250
983		42.968750
984		33.203125
985		37.109375
986		27.343750
987		33.203125
988		21.484375
989		29.296875
990		19.531250
991		27.343750
992		13.671875
993		23.437500
994		9.765625
995		19.531250
996		7.812500
997		15.625000
998		1.953125
999		11.718750
1000		0.000000
1001		5.859375
1002		-3.906250
1003		0.000000
1004		-11.718750
1005		-3.906250
1006		-15.625000
1007		-5.859375
1008		-19.531250
1009		-9.765625
1010		-23.437500
1011		-15.625000
1012		-27.343750
1013		-17.578125
1014		-31.250000
1015		-21.484375
1016		-35.156250
1017		-27.343750
1018		-39.062500
1019		-33.203125
1020		-42.968750
1021		-37.109375
1022		-48.828125
1023		-39.062500
1024		-52.734375
1025		-42.968750
1026		-56.640625
1027		-46.875000
1028		-60.546875
1029		-52.734375
1030		-64.453125
1031		-54.687500
1032		-68.359375
1033		-60.546875
1034		-70.312500
1035		-64.453125
1036		-74.218750
1037		-68.359375
1038		-80.078125
1039		-72.265625
1040		-83.984375
1041		-76.171875
1042		-85.937500
1043		-78.125000
1044		-89.843750
1045		-82.031250
1046		-93.750000
1047		-85.937500
1048		-97.656250
1049		-89.843750
1050		-99.609375
1051		-93.750000
1052		-103.515625
1053		-97.656250
1054		-107.421875
1055		-101.562500
1056		-111.328125
1057		-103.515625
1058		-115.234375
1059		-107.421875
1060		-117.187500
1061		-109.375000
1062		-121.093750
1063		-113.281250
1064		-123.046875
1065		-115.234375
1066		-126.953125
1067		-119.140625
1068		-126.953125
1069		-123.046875
1070		-130.859375
1071		-126.953125
1072		-134.765625
1073		-126.953125
1074		-138.671875
1075		-128.906250
1076		-138.671875
1077		-130.859375
1078		-142.578125
1079		-134.765625
1080		-144.531250
1081		-136.718750
1082		-146.484375
1083		-138.671875
1084		-146.484375
1085		-140.625000
1086		-148.437500
1087		-144.531250
1088		-150.390625
1089		-146.484375
1090		-152.343750
1091		-146.484375
1092		-154.296875
1093		-146.484375
1094		-156.250000
1095		-148.437500
1096		-156.250000
1097		-150.390625
1098		-158.203125
1099		-150.390625
1100		-158.203125
1101		-152.343750
1102		-158.203125
1103		-154.296875
1104		-158.203125
1105		-156.250000
1106		-160.156250
1107		-154.296875
1108		-162.109375
1109		-156.250000
1110		-162.109375
1111		-154.296875
1112		-162.109375
1113		-156.250000
1114		-162.109375
1115		-156.250000
1116		-162.109375
1117		-156.250000
1118		-162.109375
1119		-156.250000
1120		-160.156250
1121		-156.250000
1122		-162.109375
1123		-154.296875
1124		-160.156250
1125		-154.296875
1126		-160.156250
1127		-152.343750
1128		-160.156250
1129		-152.343750
1130		-158.203125
1131		-152.343750
1132		-158.203125
1133		-150.390625
1134		-156.250000
1135		-148.437500
1136		-152.343750
1137		-150.390625
1138		-150.390625
1139		-148.437500
1140		-152.343750
1141		-144.531250
1142		-150.390625
1143		-142.578125
1144		-148.437500
1145		-140.625000
1146		-146.484375
1147		-138.671875
1148		-144.531250
1149		-136.718750
1150		-142.578125
1151		-134.765625
1152		-138.671875
1153		-132.812500
1154		-134.765625
1155		-130.859375
1156		-132.812500
1157		-126.953125
1158		-132.812500
1159		-125.000000
1160		-128.906250
1161		-121.093750
1162		-126.953125
1163		-117.187500
1164		-123.046875
1165		-115.234375
1166		-121.093750
1167		-113.281250
1168		-115.234375
1169		-111.328125
1170		-113.281250
1171		-107.421875
1172		-109.375000
1173		-103.515625
1174		-107.421875
1175		-99.609375
1176		-103.515625
1177		-95.703125
1178		-99.609375
1179		-91.796875
1180		-97.656250
1181		-87.890625
1182		-93.750000
1183		-85.937500
1184		-89.843750
1185		-82.031250
1186		-83.984375
1187		-78.125000
1188		-80.078125
1189		-74.218750
1190		-76.171875
1191		-70.312500
1192		-74.218750
1193		-64.453125
1194		-70.312500
1195		-60.546875
1196		-64.453125
1197		-56.640625
1198		-62.500000
1199		-54.687500
1200		-56.640625
1201		-48.828125
1202		-52.734375
1203		-44.921875
1204		-46.875000
1205		-41.015625
1206		-42.968750
1207		-35.156250
1208		-39.062500
1209		-31.250000
1210		-37.109375
1211		-27.343750
1212		-31.250000
1213		-23.437500
1214		-27.343750
1215		-17.578125
1216		-23.437500
1217		-13.671875
1218		-19.531250
1219		-11.718750
1220		-13.671875
1221		-7.812500
1222		-7.812500
1223		-1.953125
1224		-5.859375
