Old_data/metingen laweit/1000Hz, 35.3cm/data_81_m322.txt

Channel              :		CH1
Frequency            :		1.061kHz
Period               :		0.942ms
PK-PK                :		267.6mV
Probe attenuation    :		1X
Voltage per ADC value:		0.122070mV
Time interval        :		2.00000us

index		CH1_Voltage(mV)
1		87.890625
2		87.890625
3		82.031250
4		85.937500
5		80.078125
6		83.984375
7		78.125000
8		82.031250
9		74.218750
10		80.078125
11		72.265625
12		76.171875
13		68.359375
14		74.218750
15		66.406250
16		72.265625
17		64.453125
18		68.359375
19		60.546875
20		64.453125
21		58.593750
22		62.500000
23		54.687500
24		58.593750
25		52.734375
26		56.640625
27		48.828125
28		54.687500
29		44.921875
30		50.781250
31		42.968750
32		46.875000
33		39.062500
34		42.968750
35		37.109375
36		41.015625
37		33.203125
38		37.109375
39		29.296875
40		33.203125
41		25.390625
42		31.250000
43		23.437500
44		27.343750
45		19.531250
46		23.437500
47		15.625000
48		21.484375
49		11.718750
50		17.578125
51		9.765625
52		13.671875
53		5.859375
54		9.765625
55		1.953125
56		7.812500
57		-1.953125
58		3.906250
59		-3.906250
60		0.000000
61		-7.812500
62		-1.953125
63		-11.718750
64		-5.859375
65		-15.625000
66		-9.765625
67		-19.531250
68		-13.671875
69		-21.484375
70		-17.578125
71		-25.390625
72		-19.531250
73		-29.296875
74		-23.437500
75		-31.250000
76		-27.343750
77		-35.156250
78		-31.250000
79		-39.062500
80		-33.203125
81		-42.968750
82		-37.109375
83		-44.921875
84		-39.062500
85		-48.828125
86		-42.968750
87		-50.781250
88		-46.875000
89		-54.687500
90		-48.828125
91		-58.593750
92		-52.734375
93		-60.546875
94		-56.640625
95		-64.453125
96		-60.546875
97		-68.359375
98		-62.500000
99		-70.312500
100		-66.406250
101		-74.218750
102		-68.359375
103		-76.171875
104		-72.265625
105		-78.125000
106		-74.218750
107		-82.031250
108		-78.125000
109		-83.984375
110		-80.078125
111		-85.937500
112		-82.031250
113		-89.843750
114		-83.984375
115		-91.796875
116		-87.890625
117		-93.750000
118		-89.843750
119		-95.703125
120		-93.750000
121		-99.609375
122		-93.750000
123		-101.562500
124		-97.656250
125		-103.515625
126		-97.656250
127		-105.468750
128		-101.562500
129		-107.421875
130		-103.515625
131		-109.375000
132		-105.468750
133		-111.328125
134		-107.421875
135		-111.328125
136		-109.375000
137		-113.281250
138		-111.328125
139		-115.234375
140		-113.281250
141		-117.187500
142		-113.281250
143		-119.140625
144		-115.234375
145		-119.140625
146		-117.187500
147		-121.093750
148		-117.187500
149		-123.046875
150		-119.140625
151		-123.046875
152		-121.093750
153		-123.046875
154		-121.093750
155		-125.000000
156		-121.093750
157		-125.000000
158		-121.093750
159		-126.953125
160		-123.046875
161		-126.953125
162		-123.046875
163		-126.953125
164		-123.046875
165		-126.953125
166		-123.046875
167		-126.953125
168		-123.046875
169		-126.953125
170		-125.000000
171		-126.953125
172		-123.046875
173		-126.953125
174		-123.046875
175		-126.953125
176		-123.046875
177		-126.953125
178		-123.046875
179		-126.953125
180		-123.046875
181		-125.000000
182		-121.093750
183		-125.000000
184		-121.093750
185		-123.046875
186		-121.093750
187		-123.046875
188		-119.140625
189		-123.046875
190		-119.140625
191		-121.093750
192		-117.187500
193		-121.093750
194		-117.187500
195		-119.140625
196		-115.234375
197		-117.187500
198		-113.281250
199		-115.234375
200		-111.328125
201		-113.281250
202		-111.328125
203		-113.281250
204		-109.375000
205		-111.328125
206		-107.421875
207		-109.375000
208		-105.468750
209		-107.421875
210		-103.515625
211		-105.468750
212		-101.562500
213		-103.515625
214		-99.609375
215		-101.562500
216		-97.656250
217		-99.609375
218		-93.750000
219		-95.703125
220		-91.796875
221		-93.750000
222		-89.843750
223		-91.796875
224		-87.890625
225		-89.843750
226		-83.984375
227		-85.937500
228		-82.031250
229		-83.984375
230		-80.078125
231		-82.031250
232		-76.171875
233		-78.125000
234		-74.218750
235		-74.218750
236		-70.312500
237		-72.265625
238		-68.359375
239		-70.312500
240		-64.453125
241		-66.406250
242		-60.546875
243		-62.500000
244		-58.593750
245		-60.546875
246		-54.687500
247		-56.640625
248		-52.734375
249		-52.734375
250		-48.828125
251		-50.781250
252		-44.921875
253		-46.875000
254		-41.015625
255		-42.968750
256		-39.062500
257		-41.015625
258		-35.156250
259		-37.109375
260		-31.250000
261		-33.203125
262		-27.343750
263		-29.296875
264		-25.390625
265		-27.343750
266		-21.484375
267		-23.437500
268		-17.578125
269		-19.531250
270		-15.625000
271		-15.625000
272		-9.765625
273		-11.718750
274		-7.812500
275		-9.765625
276		-3.906250
277		-5.859375
278		0.000000
279		-1.953125
280		3.906250
281		0.000000
282		5.859375
283		3.906250
284		9.765625
285		7.812500
286		13.671875
287		11.718750
288		15.625000
289		13.671875
290		19.531250
291		17.578125
292		23.437500
293		21.484375
294		27.343750
295		25.390625
296		29.296875
297		27.343750
298		33.203125
299		31.250000
300		37.109375
301		35.156250
302		39.062500
303		37.109375
304		42.968750
305		41.015625
306		46.875000
307		44.921875
308		48.828125
309		46.875000
310		52.734375
311		50.781250
312		56.640625
313		50.781250
314		58.593750
315		56.640625
316		60.546875
317		58.593750
318		64.453125
319		62.500000
320		66.406250
321		64.453125
322		68.359375
323		66.406250
324		72.265625
325		70.312500
326		76.171875
327		72.265625
328		78.125000
329		74.218750
330		82.031250
331		78.125000
332		82.031250
333		80.078125
334		85.937500
335		82.031250
336		85.937500
337		85.937500
338		89.843750
339		87.890625
340		91.796875
341		87.890625
342		93.750000
343		91.796875
344		97.656250
345		91.796875
346		99.609375
347		95.703125
348		101.562500
349		95.703125
350		103.515625
351		99.609375
352		103.515625
353		101.562500
354		105.468750
355		103.515625
356		107.421875
357		103.515625
358		111.328125
359		107.421875
360		111.328125
361		107.421875
362		113.281250
363		109.375000
364		115.234375
365		111.328125
366		117.187500
367		111.328125
368		117.187500
369		115.234375
370		117.187500
371		117.187500
372		119.140625
373		117.187500
374		123.046875
375		117.187500
376		123.046875
377		119.140625
378		125.000000
379		119.140625
380		125.000000
381		119.140625
382		126.953125
383		119.140625
384		126.953125
385		123.046875
386		126.953125
387		125.000000
388		126.953125
389		125.000000
390		128.906250
391		123.046875
392		130.859375
393		125.000000
394		130.859375
395		125.000000
396		130.859375
397		125.000000
398		130.859375
399		125.000000
400		130.859375
401		125.000000
402		130.859375
403		126.953125
404		128.906250
405		126.953125
406		128.906250
407		125.000000
408		130.859375
409		125.000000
410		132.812500
411		125.000000
412		130.859375
413		125.000000
414		130.859375
415		125.000000
416		130.859375
417		125.000000
418		130.859375
419		125.000000
420		128.906250
421		125.000000
422		126.953125
423		121.093750
424		128.906250
425		121.093750
426		128.906250
427		121.093750
428		126.953125
429		121.093750
430		126.953125
431		119.140625
432		126.953125
433		117.187500
434		125.000000
435		119.140625
436		123.046875
437		117.187500
438		121.093750
439		115.234375
440		119.140625
441		113.281250
442		119.140625
443		111.328125
444		119.140625
445		111.328125
446		117.187500
447		109.375000
448		115.234375
449		107.421875
450		115.234375
451		107.421875
452		113.281250
453		105.468750
454		109.375000
455		103.515625
456		107.421875
457		99.609375
458		107.421875
459		97.656250
460		105.468750
461		97.656250
462		103.515625
463		93.750000
464		101.562500
465		91.796875
466		99.609375
467		89.843750
468		97.656250
469		89.843750
470		95.703125
471		87.890625
472		91.796875
473		83.984375
474		89.843750
475		80.078125
476		87.890625
477		78.125000
478		85.937500
479		74.218750
480		83.984375
481		72.265625
482		82.031250
483		70.312500
484		78.125000
485		68.359375
486		76.171875
487		66.406250
488		70.312500
489		64.453125
490		68.359375
491		58.593750
492		66.406250
493		56.640625
494		64.453125
495		52.734375
496		60.546875
497		48.828125
498		56.640625
499		46.875000
500		54.687500
501		44.921875
502		52.734375
503		42.968750
504		46.875000
505		39.062500
506		44.921875
507		35.156250
508		41.015625
509		31.250000
510		39.062500
511		27.343750
512		35.156250
513		25.390625
514		31.250000
515		21.484375
516		29.296875
517		17.578125
518		25.390625
519		15.625000
520		23.437500
521		13.671875
522		17.578125
523		7.812500
524		13.671875
525		3.906250
526		11.718750
527		0.000000
528		7.812500
529		-1.953125
530		5.859375
531		-5.859375
532		1.953125
533		-9.765625
534		-1.953125
535		-13.671875
536		-5.859375
537		-15.625000
538		-9.765625
539		-19.531250
540		-13.671875
541		-23.437500
542		-15.625000
543		-27.343750
544		-19.531250
545		-29.296875
546		-21.484375
547		-33.203125
548		-25.390625
549		-37.109375
550		-29.296875
551		-41.015625
552		-33.203125
553		-42.968750
554		-35.156250
555		-44.921875
556		-41.015625
557		-50.781250
558		-44.921875
559		-52.734375
560		-46.875000
561		-56.640625
562		-48.828125
563		-60.546875
564		-52.734375
565		-62.500000
566		-56.640625
567		-66.406250
568		-58.593750
569		-68.359375
570		-60.546875
571		-70.312500
572		-66.406250
573		-74.218750
574		-68.359375
575		-78.125000
576		-70.312500
577		-80.078125
578		-72.265625
579		-83.984375
580		-76.171875
581		-87.890625
582		-78.125000
583		-89.843750
584		-82.031250
585		-91.796875
586		-83.984375
587		-93.750000
588		-87.890625
589		-95.703125
590		-91.796875
591		-99.609375
592		-93.750000
593		-101.562500
594		-93.750000
595		-105.468750
596		-95.703125
597		-105.468750
598		-99.609375
599		-107.421875
600		-99.609375
601		-109.375000
602		-103.515625
603		-111.328125
604		-105.468750
605		-111.328125
606		-107.421875
607		-113.281250
608		-109.375000
609		-117.187500
610		-109.375000
611		-119.140625
612		-111.328125
613		-119.140625
614		-113.281250
615		-121.093750
616		-115.234375
617		-123.046875
618		-115.234375
619		-125.000000
620		-117.187500
621		-123.046875
622		-119.140625
623		-123.046875
624		-121.093750
625		-126.953125
626		-121.093750
627		-126.953125
628		-121.093750
629		-128.906250
630		-121.093750
631		-128.906250
632		-123.046875
633		-128.906250
634		-123.046875
635		-128.906250
636		-123.046875
637		-130.859375
638		-123.046875
639		-128.906250
640		-125.000000
641		-130.859375
642		-125.000000
643		-128.906250
644		-123.046875
645		-130.859375
646		-123.046875
647		-130.859375
648		-123.046875
649		-128.906250
650		-123.046875
651		-128.906250
652		-123.046875
653		-128.906250
654		-121.093750
655		-126.953125
656		-123.046875
657		-125.000000
658		-123.046875
659		-126.953125
660		-121.093750
661		-125.000000
662		-119.140625
663		-125.000000
664		-117.187500
665		-123.046875
666		-117.187500
667		-123.046875
668		-115.234375
669		-121.093750
670		-113.281250
671		-117.187500
672		-115.234375
673		-115.234375
674		-113.281250
675		-115.234375
676		-109.375000
677		-115.234375
678		-107.421875
679		-111.328125
680		-105.468750
681		-111.328125
682		-103.515625
683		-109.375000
684		-101.562500
685		-107.421875
686		-99.609375
687		-103.515625
688		-99.609375
689		-99.609375
690		-95.703125
691		-97.656250
692		-93.750000
693		-97.656250
694		-89.843750
695		-93.750000
696		-87.890625
697		-91.796875
698		-83.984375
699		-89.843750
700		-82.031250
701		-85.937500
702		-78.125000
703		-83.984375
704		-76.171875
705		-82.031250
706		-76.171875
707		-76.171875
708		-72.265625
709		-74.218750
710		-66.406250
711		-72.265625
712		-64.453125
713		-68.359375
714		-60.546875
715		-66.406250
716		-56.640625
717		-62.500000
718		-54.687500
719		-60.546875
720		-52.734375
721		-56.640625
722		-50.781250
723		-50.781250
724		-46.875000
725		-48.828125
726		-41.015625
727		-46.875000
728		-39.062500
729		-42.968750
730		-35.156250
731		-39.062500
732		-31.250000
733		-37.109375
734		-29.296875
735		-33.203125
736		-25.390625
737		-29.296875
738		-21.484375
739		-23.437500
740		-19.531250
741		-21.484375
742		-15.625000
743		-17.578125
744		-11.718750
745		-15.625000
746		-7.812500
747		-11.718750
748		-3.906250
749		-9.765625
750		0.000000
751		-3.906250
752		3.906250
753		-1.953125
754		7.812500
755		1.953125
756		7.812500
757		7.812500
758		11.718750
759		9.765625
760		17.578125
761		11.718750
762		19.531250
763		15.625000
764		23.437500
765		17.578125
766		27.343750
767		21.484375
768		31.250000
769		25.390625
770		33.203125
771		29.296875
772		35.156250
773		33.203125
774		39.062500
775		37.109375
776		41.015625
777		39.062500
778		46.875000
779		41.015625
780		48.828125
781		42.968750
782		52.734375
783		46.875000
784		56.640625
785		50.781250
786		58.593750
787		52.734375
788		60.546875
789		56.640625
790		62.500000
791		60.546875
792		64.453125
793		62.500000
794		70.312500
795		64.453125
796		72.265625
797		68.359375
798		76.171875
799		70.312500
800		78.125000
801		72.265625
802		80.078125
803		74.218750
804		82.031250
805		78.125000
806		83.984375
807		82.031250
808		85.937500
809		83.984375
810		89.843750
811		83.984375
812		91.796875
813		87.890625
814		93.750000
815		89.843750
816		97.656250
817		91.796875
818		97.656250
819		93.750000
820		101.562500
821		95.703125
822		101.562500
823		99.609375
824		103.515625
825		99.609375
826		103.515625
827		103.515625
828		107.421875
829		103.515625
830		109.375000
831		105.468750
832		111.328125
833		105.468750
834		111.328125
835		107.421875
836		113.281250
837		109.375000
838		115.234375
839		111.328125
840		115.234375
841		113.281250
842		117.187500
843		113.281250
844		119.140625
845		113.281250
846		121.093750
847		115.234375
848		121.093750
849		115.234375
850		123.046875
851		117.187500
852		123.046875
853		117.187500
854		125.000000
855		119.140625
856		125.000000
857		121.093750
858		125.000000
859		123.046875
860		125.000000
861		121.093750
862		126.953125
863		121.093750
864		126.953125
865		121.093750
866		128.906250
867		121.093750
868		128.906250
869		121.093750
870		128.906250
871		123.046875
872		128.906250
873		123.046875
874		126.953125
875		125.000000
876		126.953125
877		123.046875
878		128.906250
879		123.046875
880		128.906250
881		123.046875
882		130.859375
883		123.046875
884		128.906250
885		123.046875
886		128.906250
887		123.046875
888		128.906250
889		123.046875
890		128.906250
891		123.046875
892		126.953125
893		121.093750
894		126.953125
895		121.093750
896		126.953125
897		119.140625
898		125.000000
899		119.140625
900		125.000000
901		117.187500
902		125.000000
903		115.234375
904		125.000000
905		115.234375
906		123.046875
907		117.187500
908		119.140625
909		115.234375
910		119.140625
911		111.328125
912		119.140625
913		111.328125
914		119.140625
915		109.375000
916		117.187500
917		109.375000
918		115.234375
919		107.421875
920		113.281250
921		105.468750
922		113.281250
923		105.468750
924		111.328125
925		103.515625
926		107.421875
927		99.609375
928		105.468750
929		97.656250
930		105.468750
931		95.703125
932		103.515625
933		93.750000
934		101.562500
935		91.796875
936		99.609375
937		89.843750
938		97.656250
939		89.843750
940		95.703125
941		87.890625
942		91.796875
943		85.937500
944		89.843750
945		80.078125
946		87.890625
947		78.125000
948		85.937500
949		76.171875
950		83.984375
951		72.265625
952		82.031250
953		70.312500
954		78.125000
955		68.359375
956		76.171875
957		66.406250
958		72.265625
959		64.453125
960		68.359375
961		58.593750
962		66.406250
963		56.640625
964		64.453125
965		52.734375
966		62.500000
967		48.828125
968		58.593750
969		46.875000
970		56.640625
971		44.921875
972		52.734375
973		42.968750
974		48.828125
975		39.062500
976		44.921875
977		37.109375
978		41.015625
979		31.250000
980		39.062500
981		27.343750
982		37.109375
983		23.437500
984		33.203125
985		21.484375
986		29.296875
987		17.578125
988		27.343750
989		15.625000
990		23.437500
991		13.671875
992		17.578125
993		9.765625
994		13.671875
995		3.906250
996		11.718750
997		0.000000
998		9.765625
999		-1.953125
1000		5.859375
1001		-5.859375
1002		1.953125
1003		-9.765625
1004		0.000000
1005		-13.671875
1006		-5.859375
1007		-13.671875
1008		-7.812500
1009		-17.578125
1010		-13.671875
1011		-23.437500
1012		-15.625000
1013		-27.343750
1014		-19.531250
1015		-29.296875
1016		-21.484375
1017		-33.203125
1018		-25.390625
1019		-37.109375
1020		-29.296875
1021		-41.015625
1022		-33.203125
1023		-42.968750
1024		-35.156250
1025		-44.921875
1026		-41.015625
1027		-48.828125
1028		-44.921875
1029		-54.687500
1030		-46.875000
1031		-56.640625
1032		-48.828125
1033		-60.546875
1034		-50.781250
1035		-62.500000
1036		-56.640625
1037		-66.406250
1038		-58.593750
1039		-70.312500
1040		-60.546875
1041		-70.312500
1042		-64.453125
1043		-74.218750
1044		-68.359375
1045		-78.125000
1046		-72.265625
1047		-80.078125
1048		-72.265625
1049		-83.984375
1050		-76.171875
1051		-87.890625
1052		-80.078125
1053		-89.843750
1054		-82.031250
1055		-91.796875
1056		-83.984375
1057		-93.750000
1058		-87.890625
1059		-95.703125
1060		-91.796875
1061		-99.609375
1062		-93.750000
1063		-101.562500
1064		-93.750000
1065		-105.468750
1066		-95.703125
1067		-107.421875
1068		-99.609375
1069		-107.421875
1070		-101.562500
1071		-111.328125
1072		-103.515625
1073		-111.328125
1074		-105.468750
1075		-113.281250
1076		-109.375000
1077		-115.234375
1078		-111.328125
1079		-119.140625
1080		-111.328125
1081		-119.140625
1082		-113.281250
1083		-121.093750
1084		-113.281250
1085		-123.046875
1086		-115.234375
1087		-125.000000
1088		-117.187500
1089		-125.000000
1090		-119.140625
1091		-125.000000
1092		-119.140625
1093		-125.000000
1094		-123.046875
1095		-128.906250
1096		-121.093750
1097		-128.906250
1098		-123.046875
1099		-130.859375
1100		-123.046875
1101		-130.859375
1102		-125.000000
1103		-130.859375
1104		-125.000000
1105		-130.859375
1106		-125.000000
1107		-130.859375
1108		-125.000000
1109		-128.906250
1110		-126.953125
1111		-130.859375
1112		-126.953125
1113		-132.812500
1114		-125.000000
1115		-132.812500
1116		-125.000000
1117		-132.812500
1118		-125.000000
1119		-132.812500
1120		-125.000000
1121		-130.859375
1122		-125.000000
1123		-130.859375
1124		-123.046875
1125		-128.906250
1126		-125.000000
1127		-126.953125
1128		-125.000000
1129		-128.906250
1130		-121.093750
1131		-128.906250
1132		-121.093750
1133		-126.953125
1134		-119.140625
1135		-125.000000
1136		-119.140625
1137		-125.000000
1138		-119.140625
1139		-123.046875
1140		-117.187500
1141		-121.093750
1142		-115.234375
1143		-119.140625
1144		-115.234375
1145		-117.187500
1146		-113.281250
1147		-117.187500
1148		-111.328125
1149		-115.234375
1150		-107.421875
1151		-113.281250
1152		-105.468750
1153		-111.328125
1154		-103.515625
1155		-109.375000
1156		-101.562500
1157		-107.421875
1158		-99.609375
1159		-103.515625
1160		-99.609375
1161		-101.562500
1162		-97.656250
1163		-99.609375
1164		-91.796875
1165		-97.656250
1166		-89.843750
1167		-95.703125
1168		-87.890625
1169		-93.750000
1170		-85.937500
1171		-89.843750
1172		-82.031250
1173		-87.890625
1174		-80.078125
1175		-85.937500
1176		-78.125000
1177		-80.078125
1178		-76.171875
1179		-78.125000
1180		-70.312500
1181		-76.171875
1182		-68.359375
1183		-74.218750
1184		-64.453125
1185		-70.312500
1186		-60.546875
1187		-66.406250
1188		-58.593750
1189		-62.500000
1190		-56.640625
1191		-60.546875
1192		-52.734375
1193		-54.687500
1194		-50.781250
1195		-52.734375
1196		-46.875000
1197		-50.781250
1198		-42.968750
1199		-46.875000
1200		-39.062500
1201		-42.968750
1202		-35.156250
1203		-41.015625
1204		-31.250000
1205		-37.109375
1206		-29.296875
1207		-33.203125
1208		-23.437500
1209		-27.343750
1210		-23.437500
1211		-23.437500
1212		-19.531250
1213		-21.484375
1214		-13.671875
1215		-19.531250
1216		-11.718750
1217		-15.625000
1218		-7.812500
1219		-11.718750
1220		-3.906250
1221		-9.765625
1222		0.000000
1223		-5.859375
1224		1.953125
1225		-1.953125
1226		3.906250
1227		3.906250
1228		7.812500
1229		5.859375
1230		11.718750
1231		7.812500
1232		17.578125
1233		11.718750
1234		19.531250
1235		15.625000
1236		23.437500
