Old_data/metingen laweit/1000Hz, 35.3cm/data_81_m151.txt

Channel              :		CH1
Frequency            :		1.061kHz
Period               :		0.942ms
PK-PK                :		234.4mV
Probe attenuation    :		1X
Voltage per ADC value:		0.122070mV
Time interval        :		2.00000us

index		CH1_Voltage(mV)
1		60.546875
2		60.546875
3		66.406250
4		56.640625
5		64.453125
6		56.640625
7		60.546875
8		52.734375
9		56.640625
10		48.828125
11		56.640625
12		46.875000
13		54.687500
14		42.968750
15		52.734375
16		41.015625
17		48.828125
18		37.109375
19		46.875000
20		37.109375
21		42.968750
22		35.156250
23		41.015625
24		33.203125
25		37.109375
26		27.343750
27		35.156250
28		25.390625
29		33.203125
30		21.484375
31		31.250000
32		19.531250
33		27.343750
34		17.578125
35		25.390625
36		13.671875
37		21.484375
38		11.718750
39		19.531250
40		9.765625
41		13.671875
42		5.859375
43		11.718750
44		1.953125
45		9.765625
46		-1.953125
47		5.859375
48		-3.906250
49		3.906250
50		-7.812500
51		0.000000
52		-11.718750
53		-3.906250
54		-13.671875
55		-5.859375
56		-15.625000
57		-11.718750
58		-17.578125
59		-13.671875
60		-23.437500
61		-15.625000
62		-27.343750
63		-17.578125
64		-29.296875
65		-21.484375
66		-31.250000
67		-23.437500
68		-35.156250
69		-27.343750
70		-37.109375
71		-29.296875
72		-39.062500
73		-33.203125
74		-42.968750
75		-37.109375
76		-48.828125
77		-41.015625
78		-48.828125
79		-42.968750
80		-52.734375
81		-44.921875
82		-54.687500
83		-46.875000
84		-58.593750
85		-50.781250
86		-60.546875
87		-52.734375
88		-62.500000
89		-56.640625
90		-64.453125
91		-60.546875
92		-68.359375
93		-62.500000
94		-72.265625
95		-64.453125
96		-74.218750
97		-66.406250
98		-76.171875
99		-68.359375
100		-80.078125
101		-72.265625
102		-82.031250
103		-74.218750
104		-85.937500
105		-76.171875
106		-83.984375
107		-80.078125
108		-87.890625
109		-83.984375
110		-91.796875
111		-83.984375
112		-93.750000
113		-85.937500
114		-95.703125
115		-87.890625
116		-97.656250
117		-89.843750
118		-99.609375
119		-91.796875
120		-101.562500
121		-93.750000
122		-101.562500
123		-95.703125
124		-103.515625
125		-99.609375
126		-105.468750
127		-101.562500
128		-107.421875
129		-101.562500
130		-109.375000
131		-101.562500
132		-111.328125
133		-103.515625
134		-113.281250
135		-105.468750
136		-113.281250
137		-105.468750
138		-115.234375
139		-107.421875
140		-113.281250
141		-111.328125
142		-115.234375
143		-113.281250
144		-117.187500
145		-111.328125
146		-119.140625
147		-111.328125
148		-119.140625
149		-113.281250
150		-119.140625
151		-113.281250
152		-121.093750
153		-113.281250
154		-121.093750
155		-115.234375
156		-121.093750
157		-115.234375
158		-119.140625
159		-117.187500
160		-123.046875
161		-117.187500
162		-123.046875
163		-115.234375
164		-121.093750
165		-115.234375
166		-123.046875
167		-115.234375
168		-123.046875
169		-115.234375
170		-123.046875
171		-115.234375
172		-123.046875
173		-115.234375
174		-119.140625
175		-117.187500
176		-119.140625
177		-117.187500
178		-121.093750
179		-113.281250
180		-119.140625
181		-113.281250
182		-119.140625
183		-113.281250
184		-117.187500
185		-111.328125
186		-117.187500
187		-111.328125
188		-117.187500
189		-109.375000
190		-113.281250
191		-109.375000
192		-111.328125
193		-109.375000
194		-111.328125
195		-105.468750
196		-111.328125
197		-105.468750
198		-109.375000
199		-103.515625
200		-109.375000
201		-101.562500
202		-107.421875
203		-99.609375
204		-105.468750
205		-97.656250
206		-103.515625
207		-97.656250
208		-99.609375
209		-95.703125
210		-97.656250
211		-93.750000
212		-99.609375
213		-89.843750
214		-95.703125
215		-87.890625
216		-93.750000
217		-85.937500
218		-91.796875
219		-83.984375
220		-89.843750
221		-82.031250
222		-85.937500
223		-80.078125
224		-82.031250
225		-78.125000
226		-80.078125
227		-76.171875
228		-78.125000
229		-72.265625
230		-76.171875
231		-70.312500
232		-74.218750
233		-66.406250
234		-72.265625
235		-64.453125
236		-70.312500
237		-60.546875
238		-66.406250
239		-58.593750
240		-64.453125
241		-58.593750
242		-58.593750
243		-54.687500
244		-56.640625
245		-50.781250
246		-54.687500
247		-46.875000
248		-52.734375
249		-44.921875
250		-48.828125
251		-41.015625
252		-46.875000
253		-37.109375
254		-42.968750
255		-35.156250
256		-41.015625
257		-33.203125
258		-37.109375
259		-31.250000
260		-33.203125
261		-29.296875
262		-31.250000
263		-23.437500
264		-29.296875
265		-21.484375
266		-25.390625
267		-17.578125
268		-21.484375
269		-13.671875
270		-19.531250
271		-11.718750
272		-15.625000
273		-7.812500
274		-13.671875
275		-7.812500
276		-7.812500
277		-3.906250
278		-5.859375
279		0.000000
280		-3.906250
281		3.906250
282		-1.953125
283		7.812500
284		1.953125
285		9.765625
286		3.906250
287		13.671875
288		7.812500
289		15.625000
290		11.718750
291		17.578125
292		15.625000
293		19.531250
294		17.578125
295		23.437500
296		19.531250
297		27.343750
298		23.437500
299		29.296875
300		25.390625
301		33.203125
302		27.343750
303		37.109375
304		29.296875
305		39.062500
306		33.203125
307		42.968750
308		37.109375
309		42.968750
310		41.015625
311		44.921875
312		42.968750
313		48.828125
314		42.968750
315		52.734375
316		46.875000
317		54.687500
318		48.828125
319		56.640625
320		50.781250
321		58.593750
322		54.687500
323		60.546875
324		54.687500
325		62.500000
326		60.546875
327		64.453125
328		62.500000
329		68.359375
330		62.500000
331		70.312500
332		64.453125
333		72.265625
334		68.359375
335		76.171875
336		70.312500
337		76.171875
338		72.265625
339		78.125000
340		72.265625
341		80.078125
342		76.171875
343		80.078125
344		78.125000
345		82.031250
346		78.125000
347		85.937500
348		80.078125
349		87.890625
350		82.031250
351		89.843750
352		83.984375
353		91.796875
354		83.984375
355		91.796875
356		85.937500
357		93.750000
358		87.890625
359		93.750000
360		91.796875
361		93.750000
362		91.796875
363		97.656250
364		91.796875
365		99.609375
366		93.750000
367		99.609375
368		93.750000
369		101.562500
370		95.703125
371		101.562500
372		95.703125
373		101.562500
374		97.656250
375		103.515625
376		99.609375
377		101.562500
378		99.609375
379		103.515625
380		99.609375
381		105.468750
382		99.609375
383		107.421875
384		99.609375
385		107.421875
386		101.562500
387		107.421875
388		101.562500
389		107.421875
390		101.562500
391		107.421875
392		103.515625
393		107.421875
394		103.515625
395		107.421875
396		101.562500
397		109.375000
398		103.515625
399		109.375000
400		101.562500
401		109.375000
402		103.515625
403		109.375000
404		101.562500
405		109.375000
406		101.562500
407		109.375000
408		101.562500
409		109.375000
410		103.515625
411		105.468750
412		101.562500
413		107.421875
414		101.562500
415		107.421875
416		99.609375
417		107.421875
418		99.609375
419		107.421875
420		99.609375
421		105.468750
422		97.656250
423		105.468750
424		97.656250
425		105.468750
426		99.609375
427		101.562500
428		97.656250
429		101.562500
430		95.703125
431		101.562500
432		93.750000
433		101.562500
434		91.796875
435		99.609375
436		91.796875
437		97.656250
438		91.796875
439		97.656250
440		89.843750
441		97.656250
442		87.890625
443		95.703125
444		87.890625
445		91.796875
446		85.937500
447		89.843750
448		83.984375
449		89.843750
450		82.031250
451		89.843750
452		80.078125
453		87.890625
454		78.125000
455		85.937500
456		76.171875
457		83.984375
458		76.171875
459		82.031250
460		74.218750
461		78.125000
462		72.265625
463		76.171875
464		68.359375
465		76.171875
466		66.406250
467		74.218750
468		64.453125
469		72.265625
470		62.500000
471		70.312500
472		60.546875
473		66.406250
474		58.593750
475		66.406250
476		56.640625
477		64.453125
478		54.687500
479		58.593750
480		50.781250
481		56.640625
482		46.875000
483		56.640625
484		46.875000
485		52.734375
486		42.968750
487		50.781250
488		39.062500
489		48.828125
490		37.109375
491		44.921875
492		35.156250
493		42.968750
494		33.203125
495		39.062500
496		29.296875
497		35.156250
498		25.390625
499		33.203125
500		23.437500
501		31.250000
502		19.531250
503		29.296875
504		17.578125
505		25.390625
506		13.671875
507		23.437500
508		13.671875
509		21.484375
510		9.765625
511		15.625000
512		7.812500
513		11.718750
514		3.906250
515		9.765625
516		0.000000
517		7.812500
518		-3.906250
519		3.906250
520		-5.859375
521		1.953125
522		-9.765625
523		-1.953125
524		-13.671875
525		-3.906250
526		-13.671875
527		-7.812500
528		-17.578125
529		-11.718750
530		-21.484375
531		-15.625000
532		-25.390625
533		-15.625000
534		-27.343750
535		-19.531250
536		-31.250000
537		-23.437500
538		-33.203125
539		-25.390625
540		-37.109375
541		-29.296875
542		-39.062500
543		-31.250000
544		-41.015625
545		-37.109375
546		-42.968750
547		-39.062500
548		-48.828125
549		-41.015625
550		-52.734375
551		-42.968750
552		-54.687500
553		-46.875000
554		-56.640625
555		-48.828125
556		-58.593750
557		-50.781250
558		-62.500000
559		-54.687500
560		-62.500000
561		-56.640625
562		-66.406250
563		-62.500000
564		-70.312500
565		-62.500000
566		-72.265625
567		-66.406250
568		-76.171875
569		-68.359375
570		-78.125000
571		-70.312500
572		-80.078125
573		-72.265625
574		-82.031250
575		-76.171875
576		-85.937500
577		-78.125000
578		-85.937500
579		-82.031250
580		-89.843750
581		-83.984375
582		-91.796875
583		-83.984375
584		-93.750000
585		-87.890625
586		-97.656250
587		-89.843750
588		-97.656250
589		-89.843750
590		-101.562500
591		-93.750000
592		-101.562500
593		-95.703125
594		-101.562500
595		-97.656250
596		-103.515625
597		-99.609375
598		-107.421875
599		-101.562500
600		-107.421875
601		-101.562500
602		-109.375000
603		-103.515625
604		-111.328125
605		-105.468750
606		-113.281250
607		-105.468750
608		-115.234375
609		-107.421875
610		-113.281250
611		-109.375000
612		-113.281250
613		-111.328125
614		-117.187500
615		-111.328125
616		-119.140625
617		-111.328125
618		-119.140625
619		-111.328125
620		-119.140625
621		-113.281250
622		-119.140625
623		-113.281250
624		-121.093750
625		-113.281250
626		-121.093750
627		-115.234375
628		-119.140625
629		-117.187500
630		-121.093750
631		-117.187500
632		-123.046875
633		-115.234375
634		-123.046875
635		-115.234375
636		-123.046875
637		-115.234375
638		-123.046875
639		-115.234375
640		-121.093750
641		-115.234375
642		-121.093750
643		-115.234375
644		-121.093750
645		-115.234375
646		-119.140625
647		-117.187500
648		-119.140625
649		-113.281250
650		-119.140625
651		-113.281250
652		-119.140625
653		-111.328125
654		-119.140625
655		-111.328125
656		-117.187500
657		-111.328125
658		-117.187500
659		-109.375000
660		-115.234375
661		-109.375000
662		-113.281250
663		-109.375000
664		-111.328125
665		-107.421875
666		-111.328125
667		-105.468750
668		-111.328125
669		-103.515625
670		-109.375000
671		-101.562500
672		-107.421875
673		-101.562500
674		-105.468750
675		-97.656250
676		-103.515625
677		-97.656250
678		-99.609375
679		-97.656250
680		-99.609375
681		-95.703125
682		-97.656250
683		-91.796875
684		-97.656250
685		-87.890625
686		-93.750000
687		-87.890625
688		-91.796875
689		-85.937500
690		-89.843750
691		-82.031250
692		-87.890625
693		-80.078125
694		-85.937500
695		-80.078125
696		-82.031250
697		-78.125000
698		-80.078125
699		-72.265625
700		-78.125000
701		-70.312500
702		-76.171875
703		-68.359375
704		-74.218750
705		-66.406250
706		-72.265625
707		-62.500000
708		-68.359375
709		-60.546875
710		-64.453125
711		-58.593750
712		-60.546875
713		-56.640625
714		-58.593750
715		-54.687500
716		-56.640625
717		-48.828125
718		-52.734375
719		-46.875000
720		-50.781250
721		-42.968750
722		-48.828125
723		-41.015625
724		-44.921875
725		-37.109375
726		-42.968750
727		-33.203125
728		-39.062500
729		-33.203125
730		-35.156250
731		-29.296875
732		-31.250000
733		-25.390625
734		-29.296875
735		-21.484375
736		-27.343750
737		-19.531250
738		-23.437500
739		-15.625000
740		-21.484375
741		-13.671875
742		-17.578125
743		-9.765625
744		-15.625000
745		-7.812500
746		-9.765625
747		-5.859375
748		-7.812500
749		0.000000
750		-5.859375
751		1.953125
752		-3.906250
753		5.859375
754		0.000000
755		7.812500
756		3.906250
757		11.718750
758		5.859375
759		13.671875
760		7.812500
761		17.578125
762		13.671875
763		17.578125
764		17.578125
765		21.484375
766		17.578125
767		25.390625
768		19.531250
769		29.296875
770		23.437500
771		31.250000
772		25.390625
773		35.156250
774		29.296875
775		37.109375
776		33.203125
777		39.062500
778		35.156250
779		41.015625
780		39.062500
781		42.968750
782		41.015625
783		48.828125
784		42.968750
785		50.781250
786		44.921875
787		52.734375
788		46.875000
789		56.640625
790		48.828125
791		56.640625
792		52.734375
793		60.546875
794		54.687500
795		62.500000
796		58.593750
797		62.500000
798		62.500000
799		66.406250
800		62.500000
801		70.312500
802		64.453125
803		72.265625
804		66.406250
805		74.218750
806		68.359375
807		76.171875
808		70.312500
809		76.171875
810		72.265625
811		80.078125
812		74.218750
813		80.078125
814		78.125000
815		82.031250
816		78.125000
817		85.937500
818		78.125000
819		85.937500
820		82.031250
821		87.890625
822		83.984375
823		89.843750
824		83.984375
825		91.796875
826		85.937500
827		93.750000
828		85.937500
829		93.750000
830		89.843750
831		93.750000
832		91.796875
833		95.703125
834		89.843750
835		97.656250
836		91.796875
837		99.609375
838		93.750000
839		99.609375
840		93.750000
841		101.562500
842		95.703125
843		101.562500
844		95.703125
845		103.515625
846		99.609375
847		101.562500
848		99.609375
849		103.515625
850		97.656250
851		105.468750
852		99.609375
853		107.421875
854		99.609375
855		107.421875
856		99.609375
857		107.421875
858		101.562500
859		107.421875
860		101.562500
861		107.421875
862		101.562500
863		107.421875
864		103.515625
865		105.468750
866		103.515625
867		109.375000
868		103.515625
869		109.375000
870		101.562500
871		109.375000
872		101.562500
873		109.375000
874		101.562500
875		109.375000
876		103.515625
877		109.375000
878		101.562500
879		107.421875
880		103.515625
881		105.468750
882		103.515625
883		105.468750
884		101.562500
885		107.421875
886		101.562500
887		107.421875
888		99.609375
889		107.421875
890		99.609375
891		105.468750
892		97.656250
893		105.468750
894		97.656250
895		105.468750
896		99.609375
897		103.515625
898		97.656250
899		101.562500
900		95.703125
901		101.562500
902		93.750000
903		101.562500
904		93.750000
905		99.609375
906		91.796875
907		97.656250
908		91.796875
909		97.656250
910		89.843750
911		95.703125
912		89.843750
913		95.703125
914		89.843750
915		91.796875
916		87.890625
917		89.843750
918		83.984375
919		91.796875
920		82.031250
921		89.843750
922		82.031250
923		87.890625
924		80.078125
925		85.937500
926		78.125000
927		83.984375
928		74.218750
929		83.984375
930		76.171875
931		80.078125
932		74.218750
933		78.125000
934		70.312500
935		76.171875
936		68.359375
937		76.171875
938		66.406250
939		72.265625
940		64.453125
941		70.312500
942		62.500000
943		68.359375
944		58.593750
945		66.406250
946		56.640625
947		64.453125
948		56.640625
949		60.546875
950		52.734375
951		56.640625
952		48.828125
953		56.640625
954		46.875000
955		54.687500
956		44.921875
957		52.734375
958		41.015625
959		48.828125
960		39.062500
961		46.875000
962		37.109375
963		44.921875
964		35.156250
965		39.062500
966		33.203125
967		37.109375
968		27.343750
969		35.156250
970		23.437500
971		33.203125
972		21.484375
973		29.296875
974		17.578125
975		27.343750
976		15.625000
977		23.437500
978		13.671875
979		21.484375
980		11.718750
981		17.578125
982		9.765625
983		13.671875
984		3.906250
985		9.765625
986		1.953125
987		9.765625
988		0.000000
989		5.859375
990		-5.859375
991		3.906250
992		-7.812500
993		0.000000
994		-11.718750
995		-1.953125
996		-13.671875
997		-5.859375
998		-15.625000
999		-9.765625
1000		-17.578125
1001		-13.671875
1002		-23.437500
1003		-15.625000
1004		-25.390625
1005		-17.578125
1006		-29.296875
1007		-21.484375
1008		-33.203125
1009		-23.437500
1010		-35.156250
1011		-27.343750
1012		-37.109375
1013		-29.296875
1014		-39.062500
1015		-33.203125
1016		-42.968750
1017		-37.109375
1018		-46.875000
1019		-39.062500
1020		-50.781250
1021		-41.015625
1022		-52.734375
1023		-44.921875
1024		-54.687500
1025		-46.875000
1026		-56.640625
1027		-50.781250
1028		-60.546875
1029		-52.734375
1030		-62.500000
1031		-56.640625
1032		-64.453125
1033		-60.546875
1034		-70.312500
1035		-62.500000
1036		-72.265625
1037		-64.453125
1038		-74.218750
1039		-66.406250
1040		-76.171875
1041		-68.359375
1042		-80.078125
1043		-72.265625
1044		-82.031250
1045		-74.218750
1046		-83.984375
1047		-76.171875
1048		-83.984375
1049		-80.078125
1050		-87.890625
1051		-83.984375
1052		-91.796875
1053		-83.984375
1054		-93.750000
1055		-85.937500
1056		-95.703125
1057		-87.890625
1058		-97.656250
1059		-89.843750
1060		-99.609375
1061		-91.796875
1062		-99.609375
1063		-93.750000
1064		-101.562500
1065		-95.703125
1066		-103.515625
1067		-99.609375
1068		-105.468750
1069		-101.562500
1070		-107.421875
1071		-99.609375
1072		-109.375000
1073		-101.562500
1074		-111.328125
1075		-103.515625
1076		-111.328125
1077		-105.468750
1078		-113.281250
1079		-107.421875
1080		-115.234375
1081		-107.421875
1082		-113.281250
1083		-111.328125
1084		-115.234375
1085		-111.328125
1086		-117.187500
1087		-111.328125
1088		-119.140625
1089		-111.328125
1090		-119.140625
1091		-113.281250
1092		-121.093750
1093		-113.281250
1094		-121.093750
1095		-115.234375
1096		-121.093750
1097		-115.234375
1098		-121.093750
1099		-115.234375
1100		-119.140625
1101		-117.187500
1102		-123.046875
1103		-115.234375
1104		-123.046875
1105		-117.187500
1106		-123.046875
1107		-117.187500
1108		-123.046875
1109		-115.234375
1110		-123.046875
1111		-117.187500
1112		-123.046875
1113		-117.187500
1114		-123.046875
1115		-117.187500
1116		-119.140625
1117		-117.187500
1118		-121.093750
1119		-115.234375
1120		-121.093750
1121		-115.234375
1122		-121.093750
1123		-113.281250
1124		-119.140625
1125		-113.281250
1126		-119.140625
1127		-113.281250
1128		-119.140625
1129		-111.328125
1130		-117.187500
1131		-109.375000
1132		-115.234375
1133		-111.328125
1134		-113.281250
1135		-109.375000
1136		-113.281250
1137		-107.421875
1138		-113.281250
1139		-105.468750
1140		-111.328125
1141		-103.515625
1142		-109.375000
1143		-101.562500
1144		-107.421875
1145		-101.562500
1146		-107.421875
1147		-99.609375
1148		-105.468750
1149		-97.656250
1150		-101.562500
1151		-97.656250
1152		-99.609375
1153		-93.750000
1154		-99.609375
1155		-91.796875
1156		-97.656250
1157		-87.890625
1158		-93.750000
1159		-87.890625
1160		-93.750000
1161		-85.937500
1162		-89.843750
1163		-83.984375
1164		-87.890625
1165		-82.031250
1166		-83.984375
1167		-80.078125
1168		-83.984375
1169		-78.125000
1170		-80.078125
1171		-74.218750
1172		-78.125000
1173		-70.312500
1174		-76.171875
1175		-68.359375
1176		-74.218750
1177		-66.406250
1178		-70.312500
1179		-62.500000
1180		-68.359375
1181		-60.546875
1182		-64.453125
1183		-58.593750
1184		-60.546875
1185		-56.640625
1186		-58.593750
1187		-50.781250
1188		-56.640625
1189		-48.828125
1190		-54.687500
1191		-44.921875
1192		-50.781250
1193		-42.968750
1194		-48.828125
1195		-41.015625
1196		-44.921875
1197		-37.109375
1198		-41.015625
1199		-35.156250
1200		-37.109375
1201		-33.203125
1202		-35.156250
1203		-29.296875
1204		-33.203125
1205		-25.390625
1206		-29.296875
1207		-21.484375
1208		-27.343750
1209		-17.578125
1210		-23.437500
1211		-15.625000
1212		-21.484375
1213		-11.718750
1214		-17.578125
1215		-9.765625
1216		-13.671875
1217		-7.812500
1218		-9.765625
1219		-5.859375
1220		-7.812500
1221		0.000000
1222		-5.859375
1223		1.953125
1224		-1.953125
1225		5.859375
1226		0.000000
1227		7.812500
1228		3.906250
1229		11.718750
1230		5.859375
1231		13.671875
1232		9.765625
1233		15.625000
1234		13.671875
1235		17.578125
1236		17.578125
1237		23.437500
1238		17.578125
1239		25.390625
1240		21.484375
1241		29.296875
1242		23.437500
1243		31.250000
1244		27.343750
