Old_data/metingen laweit/1000Hz, 35.3cm/data_81_m310.txt

Channel              :		CH1
Frequency            :		1.060kHz
Period               :		0.944ms
PK-PK                :		224.6mV
Probe attenuation    :		1X
Voltage per ADC value:		0.122070mV
Time interval        :		2.00000us

index		CH1_Voltage(mV)
1		66.406250
2		66.406250
3		60.546875
4		64.453125
5		58.593750
6		62.500000
7		56.640625
8		60.546875
9		54.687500
10		58.593750
11		50.781250
12		56.640625
13		48.828125
14		52.734375
15		46.875000
16		50.781250
17		44.921875
18		48.828125
19		41.015625
20		46.875000
21		39.062500
22		42.968750
23		37.109375
24		41.015625
25		33.203125
26		39.062500
27		31.250000
28		35.156250
29		27.343750
30		33.203125
31		25.390625
32		29.296875
33		23.437500
34		27.343750
35		19.531250
36		25.390625
37		17.578125
38		21.484375
39		13.671875
40		19.531250
41		11.718750
42		15.625000
43		7.812500
44		13.671875
45		5.859375
46		9.765625
47		3.906250
48		7.812500
49		0.000000
50		3.906250
51		-3.906250
52		1.953125
53		-5.859375
54		0.000000
55		-7.812500
56		-3.906250
57		-11.718750
58		-7.812500
59		-15.625000
60		-9.765625
61		-17.578125
62		-13.671875
63		-21.484375
64		-13.671875
65		-23.437500
66		-19.531250
67		-25.390625
68		-21.484375
69		-29.296875
70		-23.437500
71		-31.250000
72		-27.343750
73		-35.156250
74		-29.296875
75		-37.109375
76		-33.203125
77		-39.062500
78		-35.156250
79		-42.968750
80		-39.062500
81		-44.921875
82		-41.015625
83		-48.828125
84		-42.968750
85		-50.781250
86		-46.875000
87		-52.734375
88		-48.828125
89		-56.640625
90		-50.781250
91		-58.593750
92		-54.687500
93		-60.546875
94		-56.640625
95		-64.453125
96		-58.593750
97		-66.406250
98		-62.500000
99		-68.359375
100		-64.453125
101		-72.265625
102		-66.406250
103		-74.218750
104		-68.359375
105		-74.218750
106		-70.312500
107		-78.125000
108		-72.265625
109		-80.078125
110		-76.171875
111		-82.031250
112		-78.125000
113		-83.984375
114		-80.078125
115		-85.937500
116		-82.031250
117		-87.890625
118		-83.984375
119		-87.890625
120		-85.937500
121		-91.796875
122		-87.890625
123		-93.750000
124		-89.843750
125		-93.750000
126		-91.796875
127		-95.703125
128		-91.796875
129		-97.656250
130		-93.750000
131		-97.656250
132		-93.750000
133		-99.609375
134		-95.703125
135		-101.562500
136		-97.656250
137		-101.562500
138		-97.656250
139		-103.515625
140		-99.609375
141		-103.515625
142		-101.562500
143		-105.468750
144		-101.562500
145		-105.468750
146		-103.515625
147		-107.421875
148		-103.515625
149		-107.421875
150		-105.468750
151		-107.421875
152		-105.468750
153		-109.375000
154		-105.468750
155		-109.375000
156		-105.468750
157		-109.375000
158		-107.421875
159		-109.375000
160		-107.421875
161		-109.375000
162		-107.421875
163		-109.375000
164		-107.421875
165		-111.328125
166		-105.468750
167		-109.375000
168		-107.421875
169		-111.328125
170		-107.421875
171		-109.375000
172		-107.421875
173		-109.375000
174		-107.421875
175		-109.375000
176		-105.468750
177		-109.375000
178		-105.468750
179		-109.375000
180		-105.468750
181		-107.421875
182		-103.515625
183		-107.421875
184		-103.515625
185		-105.468750
186		-101.562500
187		-105.468750
188		-101.562500
189		-103.515625
190		-101.562500
191		-103.515625
192		-99.609375
193		-101.562500
194		-97.656250
195		-101.562500
196		-97.656250
197		-99.609375
198		-95.703125
199		-97.656250
200		-95.703125
201		-97.656250
202		-93.750000
203		-95.703125
204		-91.796875
205		-93.750000
206		-89.843750
207		-91.796875
208		-87.890625
209		-89.843750
210		-85.937500
211		-87.890625
212		-83.984375
213		-85.937500
214		-82.031250
215		-85.937500
216		-80.078125
217		-82.031250
218		-78.125000
219		-80.078125
220		-76.171875
221		-78.125000
222		-74.218750
223		-76.171875
224		-72.265625
225		-74.218750
226		-70.312500
227		-72.265625
228		-66.406250
229		-68.359375
230		-64.453125
231		-66.406250
232		-62.500000
233		-64.453125
234		-60.546875
235		-62.500000
236		-58.593750
237		-58.593750
238		-54.687500
239		-56.640625
240		-52.734375
241		-54.687500
242		-48.828125
243		-50.781250
244		-46.875000
245		-48.828125
246		-44.921875
247		-46.875000
248		-41.015625
249		-44.921875
250		-39.062500
251		-41.015625
252		-37.109375
253		-37.109375
254		-33.203125
255		-35.156250
256		-31.250000
257		-33.203125
258		-27.343750
259		-29.296875
260		-25.390625
261		-27.343750
262		-21.484375
263		-23.437500
264		-17.578125
265		-21.484375
266		-15.625000
267		-17.578125
268		-13.671875
269		-15.625000
270		-9.765625
271		-13.671875
272		-7.812500
273		-9.765625
274		-3.906250
275		-5.859375
276		-1.953125
277		-3.906250
278		1.953125
279		0.000000
280		3.906250
281		1.953125
282		7.812500
283		5.859375
284		9.765625
285		7.812500
286		11.718750
287		11.718750
288		15.625000
289		13.671875
290		17.578125
291		15.625000
292		21.484375
293		19.531250
294		23.437500
295		21.484375
296		27.343750
297		25.390625
298		29.296875
299		27.343750
300		31.250000
301		29.296875
302		35.156250
303		33.203125
304		37.109375
305		35.156250
306		39.062500
307		37.109375
308		42.968750
309		41.015625
310		44.921875
311		42.968750
312		46.875000
313		44.921875
314		48.828125
315		46.875000
316		52.734375
317		50.781250
318		54.687500
319		52.734375
320		56.640625
321		54.687500
322		58.593750
323		56.640625
324		60.546875
325		58.593750
326		64.453125
327		62.500000
328		66.406250
329		64.453125
330		68.359375
331		66.406250
332		70.312500
333		68.359375
334		72.265625
335		70.312500
336		74.218750
337		72.265625
338		76.171875
339		74.218750
340		78.125000
341		76.171875
342		80.078125
343		78.125000
344		80.078125
345		78.125000
346		82.031250
347		80.078125
348		83.984375
349		82.031250
350		85.937500
351		83.984375
352		87.890625
353		85.937500
354		87.890625
355		85.937500
356		89.843750
357		87.890625
358		91.796875
359		89.843750
360		93.750000
361		91.796875
362		93.750000
363		91.796875
364		95.703125
365		93.750000
366		97.656250
367		93.750000
368		97.656250
369		95.703125
370		99.609375
371		97.656250
372		99.609375
373		97.656250
374		99.609375
375		97.656250
376		101.562500
377		99.609375
378		101.562500
379		99.609375
380		103.515625
381		99.609375
382		103.515625
383		101.562500
384		105.468750
385		101.562500
386		103.515625
387		101.562500
388		105.468750
389		101.562500
390		105.468750
391		101.562500
392		105.468750
393		103.515625
394		105.468750
395		103.515625
396		105.468750
397		103.515625
398		107.421875
399		103.515625
400		107.421875
401		103.515625
402		105.468750
403		103.515625
404		107.421875
405		101.562500
406		107.421875
407		103.515625
408		105.468750
409		103.515625
410		107.421875
411		101.562500
412		105.468750
413		101.562500
414		105.468750
415		101.562500
416		105.468750
417		99.609375
418		105.468750
419		101.562500
420		103.515625
421		99.609375
422		103.515625
423		99.609375
424		103.515625
425		99.609375
426		103.515625
427		97.656250
428		101.562500
429		97.656250
430		101.562500
431		93.750000
432		99.609375
433		95.703125
434		99.609375
435		95.703125
436		97.656250
437		93.750000
438		97.656250
439		91.796875
440		95.703125
441		91.796875
442		95.703125
443		89.843750
444		93.750000
445		87.890625
446		91.796875
447		87.890625
448		91.796875
449		83.984375
450		89.843750
451		83.984375
452		89.843750
453		82.031250
454		85.937500
455		80.078125
456		83.984375
457		80.078125
458		82.031250
459		78.125000
460		82.031250
461		76.171875
462		80.078125
463		72.265625
464		78.125000
465		70.312500
466		76.171875
467		70.312500
468		74.218750
469		68.359375
470		72.265625
471		64.453125
472		70.312500
473		62.500000
474		68.359375
475		60.546875
476		64.453125
477		58.593750
478		64.453125
479		56.640625
480		60.546875
481		54.687500
482		60.546875
483		50.781250
484		58.593750
485		50.781250
486		54.687500
487		46.875000
488		50.781250
489		44.921875
490		50.781250
491		42.968750
492		46.875000
493		39.062500
494		44.921875
495		37.109375
496		42.968750
497		33.203125
498		41.015625
499		29.296875
500		37.109375
501		29.296875
502		35.156250
503		27.343750
504		31.250000
505		23.437500
506		27.343750
507		21.484375
508		25.390625
509		17.578125
510		23.437500
511		13.671875
512		21.484375
513		11.718750
514		19.531250
515		7.812500
516		15.625000
517		5.859375
518		11.718750
519		3.906250
520		9.765625
521		1.953125
522		5.859375
523		-3.906250
524		3.906250
525		-5.859375
526		1.953125
527		-9.765625
528		-1.953125
529		-11.718750
530		-3.906250
531		-13.671875
532		-7.812500
533		-17.578125
534		-9.765625
535		-19.531250
536		-13.671875
537		-21.484375
538		-15.625000
539		-27.343750
540		-19.531250
541		-29.296875
542		-21.484375
543		-31.250000
544		-23.437500
545		-35.156250
546		-27.343750
547		-37.109375
548		-31.250000
549		-41.015625
550		-33.203125
551		-41.015625
552		-35.156250
553		-42.968750
554		-39.062500
555		-48.828125
556		-42.968750
557		-50.781250
558		-42.968750
559		-54.687500
560		-46.875000
561		-56.640625
562		-48.828125
563		-58.593750
564		-50.781250
565		-62.500000
566		-52.734375
567		-62.500000
568		-56.640625
569		-64.453125
570		-60.546875
571		-66.406250
572		-62.500000
573		-70.312500
574		-64.453125
575		-74.218750
576		-66.406250
577		-74.218750
578		-68.359375
579		-78.125000
580		-70.312500
581		-80.078125
582		-72.265625
583		-82.031250
584		-74.218750
585		-82.031250
586		-78.125000
587		-83.984375
588		-80.078125
589		-87.890625
590		-82.031250
591		-87.890625
592		-83.984375
593		-89.843750
594		-85.937500
595		-91.796875
596		-85.937500
597		-93.750000
598		-87.890625
599		-95.703125
600		-89.843750
601		-95.703125
602		-91.796875
603		-97.656250
604		-93.750000
605		-97.656250
606		-95.703125
607		-101.562500
608		-95.703125
609		-101.562500
610		-95.703125
611		-103.515625
612		-97.656250
613		-105.468750
614		-97.656250
615		-105.468750
616		-99.609375
617		-107.421875
618		-99.609375
619		-105.468750
620		-101.562500
621		-105.468750
622		-103.515625
623		-107.421875
624		-101.562500
625		-109.375000
626		-103.515625
627		-109.375000
628		-103.515625
629		-109.375000
630		-103.515625
631		-109.375000
632		-103.515625
633		-111.328125
634		-103.515625
635		-109.375000
636		-103.515625
637		-107.421875
638		-105.468750
639		-107.421875
640		-105.468750
641		-109.375000
642		-103.515625
643		-111.328125
644		-103.515625
645		-109.375000
646		-103.515625
647		-109.375000
648		-101.562500
649		-109.375000
650		-101.562500
651		-107.421875
652		-101.562500
653		-105.468750
654		-103.515625
655		-103.515625
656		-101.562500
657		-105.468750
658		-99.609375
659		-105.468750
660		-97.656250
661		-103.515625
662		-97.656250
663		-103.515625
664		-95.703125
665		-101.562500
666		-95.703125
667		-99.609375
668		-93.750000
669		-99.609375
670		-93.750000
671		-95.703125
672		-93.750000
673		-95.703125
674		-89.843750
675		-95.703125
676		-87.890625
677		-93.750000
678		-85.937500
679		-91.796875
680		-83.984375
681		-89.843750
682		-82.031250
683		-87.890625
684		-82.031250
685		-87.890625
686		-80.078125
687		-82.031250
688		-78.125000
689		-80.078125
690		-76.171875
691		-80.078125
692		-72.265625
693		-78.125000
694		-70.312500
695		-76.171875
696		-68.359375
697		-74.218750
698		-66.406250
699		-70.312500
700		-62.500000
701		-70.312500
702		-62.500000
703		-66.406250
704		-60.546875
705		-62.500000
706		-58.593750
707		-60.546875
708		-54.687500
709		-58.593750
710		-50.781250
711		-56.640625
712		-48.828125
713		-52.734375
714		-44.921875
715		-50.781250
716		-42.968750
717		-48.828125
718		-41.015625
719		-44.921875
720		-39.062500
721		-41.015625
722		-37.109375
723		-37.109375
724		-33.203125
725		-37.109375
726		-29.296875
727		-35.156250
728		-25.390625
729		-31.250000
730		-23.437500
731		-29.296875
732		-21.484375
733		-25.390625
734		-17.578125
735		-21.484375
736		-15.625000
737		-17.578125
738		-13.671875
739		-15.625000
740		-11.718750
741		-13.671875
742		-5.859375
743		-11.718750
744		-1.953125
745		-7.812500
746		0.000000
747		-5.859375
748		1.953125
749		-3.906250
750		5.859375
751		0.000000
752		7.812500
753		1.953125
754		9.765625
755		7.812500
756		11.718750
757		9.765625
758		17.578125
759		11.718750
760		19.531250
761		13.671875
762		21.484375
763		15.625000
764		25.390625
765		19.531250
766		27.343750
767		23.437500
768		29.296875
769		25.390625
770		33.203125
771		29.296875
772		35.156250
773		31.250000
774		37.109375
775		33.203125
776		41.015625
777		35.156250
778		42.968750
779		39.062500
780		46.875000
781		41.015625
782		48.828125
783		42.968750
784		50.781250
785		44.921875
786		54.687500
787		48.828125
788		54.687500
789		52.734375
790		56.640625
791		54.687500
792		60.546875
793		54.687500
794		62.500000
795		56.640625
796		64.453125
797		60.546875
798		66.406250
799		62.500000
800		68.359375
801		62.500000
802		70.312500
803		66.406250
804		72.265625
805		70.312500
806		74.218750
807		72.265625
808		76.171875
809		72.265625
810		80.078125
811		74.218750
812		82.031250
813		76.171875
814		82.031250
815		76.171875
816		83.984375
817		80.078125
818		85.937500
819		80.078125
820		87.890625
821		83.984375
822		87.890625
823		85.937500
824		89.843750
825		85.937500
826		91.796875
827		85.937500
828		93.750000
829		87.890625
830		95.703125
831		89.843750
832		95.703125
833		91.796875
834		97.656250
835		91.796875
836		97.656250
837		93.750000
838		99.609375
839		95.703125
840		99.609375
841		95.703125
842		101.562500
843		95.703125
844		103.515625
845		97.656250
846		103.515625
847		97.656250
848		103.515625
849		99.609375
850		105.468750
851		99.609375
852		105.468750
853		99.609375
854		105.468750
855		103.515625
856		105.468750
857		103.515625
858		105.468750
859		101.562500
860		107.421875
861		101.562500
862		107.421875
863		101.562500
864		109.375000
865		103.515625
866		109.375000
867		103.515625
868		109.375000
869		101.562500
870		109.375000
871		103.515625
872		107.421875
873		105.468750
874		107.421875
875		103.515625
876		109.375000
877		103.515625
878		109.375000
879		101.562500
880		109.375000
881		101.562500
882		109.375000
883		101.562500
884		107.421875
885		101.562500
886		107.421875
887		101.562500
888		107.421875
889		103.515625
890		105.468750
891		101.562500
892		105.468750
893		99.609375
894		105.468750
895		99.609375
896		105.468750
897		97.656250
898		105.468750
899		97.656250
900		103.515625
901		97.656250
902		103.515625
903		95.703125
904		101.562500
905		95.703125
906		99.609375
907		95.703125
908		97.656250
909		91.796875
910		99.609375
911		89.843750
912		97.656250
913		89.843750
914		95.703125
915		87.890625
916		95.703125
917		87.890625
918		93.750000
919		85.937500
920		93.750000
921		85.937500
922		91.796875
923		83.984375
924		87.890625
925		82.031250
926		85.937500
927		80.078125
928		85.937500
929		78.125000
930		85.937500
931		76.171875
932		83.984375
933		74.218750
934		80.078125
935		72.265625
936		80.078125
937		70.312500
938		78.125000
939		70.312500
940		74.218750
941		68.359375
942		72.265625
943		64.453125
944		72.265625
945		62.500000
946		70.312500
947		58.593750
948		66.406250
949		56.640625
950		64.453125
951		54.687500
952		62.500000
953		52.734375
954		60.546875
955		52.734375
956		56.640625
957		50.781250
958		54.687500
959		44.921875
960		50.781250
961		42.968750
962		50.781250
963		41.015625
964		48.828125
965		39.062500
966		44.921875
967		35.156250
968		42.968750
969		33.203125
970		41.015625
971		31.250000
972		37.109375
973		29.296875
974		33.203125
975		25.390625
976		31.250000
977		21.484375
978		29.296875
979		19.531250
980		27.343750
981		15.625000
982		23.437500
983		13.671875
984		21.484375
985		9.765625
986		17.578125
987		7.812500
988		15.625000
989		7.812500
990		11.718750
991		3.906250
992		7.812500
993		-1.953125
994		5.859375
995		-1.953125
996		3.906250
997		-5.859375
998		1.953125
999		-9.765625
1000		-1.953125
1001		-11.718750
1002		-3.906250
1003		-13.671875
1004		-7.812500
1005		-15.625000
1006		-9.765625
1007		-19.531250
1008		-15.625000
1009		-23.437500
1010		-17.578125
1011		-25.390625
1012		-19.531250
1013		-29.296875
1014		-21.484375
1015		-33.203125
1016		-25.390625
1017		-35.156250
1018		-27.343750
1019		-37.109375
1020		-31.250000
1021		-39.062500
1022		-33.203125
1023		-41.015625
1024		-37.109375
1025		-44.921875
1026		-41.015625
1027		-48.828125
1028		-41.015625
1029		-50.781250
1030		-42.968750
1031		-54.687500
1032		-44.921875
1033		-56.640625
1034		-46.875000
1035		-58.593750
1036		-50.781250
1037		-60.546875
1038		-52.734375
1039		-62.500000
1040		-58.593750
1041		-64.453125
1042		-60.546875
1043		-68.359375
1044		-62.500000
1045		-70.312500
1046		-62.500000
1047		-72.265625
1048		-66.406250
1049		-74.218750
1050		-68.359375
1051		-78.125000
1052		-70.312500
1053		-80.078125
1054		-72.265625
1055		-80.078125
1056		-74.218750
1057		-82.031250
1058		-78.125000
1059		-83.984375
1060		-80.078125
1061		-87.890625
1062		-80.078125
1063		-87.890625
1064		-82.031250
1065		-89.843750
1066		-83.984375
1067		-91.796875
1068		-85.937500
1069		-93.750000
1070		-87.890625
1071		-95.703125
1072		-87.890625
1073		-95.703125
1074		-89.843750
1075		-95.703125
1076		-93.750000
1077		-99.609375
1078		-93.750000
1079		-101.562500
1080		-93.750000
1081		-101.562500
1082		-95.703125
1083		-103.515625
1084		-95.703125
1085		-103.515625
1086		-97.656250
1087		-103.515625
1088		-97.656250
1089		-105.468750
1090		-97.656250
1091		-103.515625
1092		-101.562500
1093		-105.468750
1094		-101.562500
1095		-107.421875
1096		-101.562500
1097		-109.375000
1098		-101.562500
1099		-107.421875
1100		-101.562500
1101		-107.421875
1102		-101.562500
1103		-107.421875
1104		-101.562500
1105		-109.375000
1106		-101.562500
1107		-107.421875
1108		-103.515625
1109		-105.468750
1110		-103.515625
1111		-107.421875
1112		-101.562500
1113		-107.421875
1114		-101.562500
1115		-107.421875
1116		-101.562500
1117		-107.421875
1118		-101.562500
1119		-107.421875
1120		-99.609375
1121		-105.468750
1122		-99.609375
1123		-105.468750
1124		-99.609375
1125		-103.515625
1126		-99.609375
1127		-103.515625
1128		-97.656250
1129		-103.515625
1130		-97.656250
1131		-101.562500
1132		-95.703125
1133		-101.562500
1134		-95.703125
1135		-99.609375
1136		-93.750000
1137		-99.609375
1138		-91.796875
1139		-97.656250
1140		-91.796875
1141		-93.750000
1142		-91.796875
1143		-93.750000
1144		-89.843750
1145		-93.750000
1146		-85.937500
1147		-91.796875
1148		-83.984375
1149		-89.843750
1150		-82.031250
1151		-87.890625
1152		-82.031250
1153		-87.890625
1154		-78.125000
1155		-85.937500
1156		-78.125000
1157		-82.031250
1158		-78.125000
1159		-80.078125
1160		-74.218750
1161		-78.125000
1162		-70.312500
1163		-76.171875
1164		-68.359375
1165		-74.218750
1166		-66.406250
1167		-72.265625
1168		-64.453125
1169		-70.312500
1170		-62.500000
1171		-68.359375
1172		-60.546875
1173		-66.406250
1174		-60.546875
1175		-60.546875
1176		-56.640625
1177		-58.593750
1178		-52.734375
1179		-58.593750
1180		-50.781250
1181		-54.687500
1182		-46.875000
1183		-52.734375
1184		-44.921875
1185		-50.781250
1186		-42.968750
1187		-48.828125
1188		-39.062500
1189		-44.921875
1190		-37.109375
1191		-41.015625
1192		-35.156250
1193		-37.109375
1194		-33.203125
1195		-37.109375
1196		-29.296875
1197		-35.156250
1198		-25.390625
1199		-31.250000
1200		-21.484375
1201		-27.343750
1202		-21.484375
1203		-25.390625
1204		-17.578125
1205		-23.437500
1206		-13.671875
1207		-19.531250
1208		-13.671875
1209		-15.625000
1210		-9.765625
1211		-11.718750
1212		-5.859375
1213		-11.718750
1214		-3.906250
1215		-9.765625
1216		0.000000
1217		-5.859375
1218		1.953125
1219		-1.953125
1220		5.859375
1221		0.000000
1222		7.812500
1223		1.953125
1224		9.765625
1225		7.812500
1226		11.718750
1227		9.765625
1228		15.625000
1229		11.718750
1230		19.531250
1231		13.671875
1232		21.484375
1233		15.625000
1234		25.390625
1235		19.531250
1236		27.343750
1237		23.437500
1238		31.250000
1239		25.390625
1240		33.203125
1241		29.296875
1242		33.203125
1243		33.203125
1244		37.109375
1245		33.203125
1246		41.015625
1247		37.109375
1248		42.968750
1249		39.062500
1250		44.921875
1251		41.015625
1252		48.828125
