Old_data/metingen laweit/1000Hz, 35.3cm/data_81_m176.txt

Channel              :		CH1
Frequency            :		1.061kHz
Period               :		0.942ms
PK-PK                :		318.4mV
Probe attenuation    :		1X
Voltage per ADC value:		0.122070mV
Time interval        :		2.00000us

index		CH1_Voltage(mV)
1		97.656250
2		97.656250
3		89.843750
4		93.750000
5		87.890625
6		91.796875
7		83.984375
8		89.843750
9		82.031250
10		85.937500
11		76.171875
12		82.031250
13		74.218750
14		80.078125
15		72.265625
16		78.125000
17		68.359375
18		72.265625
19		64.453125
20		70.312500
21		60.546875
22		66.406250
23		56.640625
24		62.500000
25		54.687500
26		58.593750
27		50.781250
28		56.640625
29		44.921875
30		52.734375
31		41.015625
32		48.828125
33		39.062500
34		44.921875
35		35.156250
36		42.968750
37		31.250000
38		37.109375
39		27.343750
40		33.203125
41		23.437500
42		29.296875
43		19.531250
44		25.390625
45		15.625000
46		21.484375
47		9.765625
48		17.578125
49		5.859375
50		15.625000
51		3.906250
52		9.765625
53		-1.953125
54		5.859375
55		-3.906250
56		0.000000
57		-7.812500
58		-3.906250
59		-13.671875
60		-7.812500
61		-17.578125
62		-11.718750
63		-21.484375
64		-13.671875
65		-27.343750
66		-17.578125
67		-31.250000
68		-23.437500
69		-35.156250
70		-27.343750
71		-39.062500
72		-29.296875
73		-44.921875
74		-35.156250
75		-46.875000
76		-41.015625
77		-50.781250
78		-44.921875
79		-54.687500
80		-48.828125
81		-60.546875
82		-50.781250
83		-64.453125
84		-54.687500
85		-68.359375
86		-60.546875
87		-70.312500
88		-62.500000
89		-76.171875
90		-68.359375
91		-78.125000
92		-72.265625
93		-82.031250
94		-76.171875
95		-85.937500
96		-80.078125
97		-91.796875
98		-82.031250
99		-95.703125
100		-87.890625
101		-97.656250
102		-89.843750
103		-101.562500
104		-93.750000
105		-105.468750
106		-97.656250
107		-109.375000
108		-101.562500
109		-111.328125
110		-105.468750
111		-113.281250
112		-109.375000
113		-119.140625
114		-111.328125
115		-121.093750
116		-115.234375
117		-125.000000
118		-115.234375
119		-128.906250
120		-121.093750
121		-130.859375
122		-123.046875
123		-132.812500
124		-126.953125
125		-134.765625
126		-128.906250
127		-136.718750
128		-132.812500
129		-142.578125
130		-136.718750
131		-144.531250
132		-136.718750
133		-146.484375
134		-138.671875
135		-148.437500
136		-142.578125
137		-150.390625
138		-142.578125
139		-152.343750
140		-146.484375
141		-154.296875
142		-146.484375
143		-154.296875
144		-150.390625
145		-156.250000
146		-152.343750
147		-160.156250
148		-152.343750
149		-162.109375
150		-154.296875
151		-162.109375
152		-156.250000
153		-162.109375
154		-158.203125
155		-164.062500
156		-158.203125
157		-166.015625
158		-158.203125
159		-166.015625
160		-160.156250
161		-166.015625
162		-162.109375
163		-167.968750
164		-162.109375
165		-167.968750
166		-162.109375
167		-167.968750
168		-162.109375
169		-169.921875
170		-162.109375
171		-169.921875
172		-162.109375
173		-169.921875
174		-162.109375
175		-169.921875
176		-164.062500
177		-166.015625
178		-164.062500
179		-166.015625
180		-162.109375
181		-167.968750
182		-162.109375
183		-167.968750
184		-160.156250
185		-166.015625
186		-160.156250
187		-166.015625
188		-158.203125
189		-164.062500
190		-158.203125
191		-164.062500
192		-156.250000
193		-160.156250
194		-156.250000
195		-158.203125
196		-156.250000
197		-158.203125
198		-152.343750
199		-158.203125
200		-150.390625
201		-156.250000
202		-148.437500
203		-154.296875
204		-146.484375
205		-150.390625
206		-144.531250
207		-150.390625
208		-142.578125
209		-148.437500
210		-140.625000
211		-144.531250
212		-140.625000
213		-140.625000
214		-134.765625
215		-140.625000
216		-132.812500
217		-138.671875
218		-130.859375
219		-134.765625
220		-126.953125
221		-132.812500
222		-125.000000
223		-130.859375
224		-121.093750
225		-126.953125
226		-119.140625
227		-121.093750
228		-117.187500
229		-119.140625
230		-113.281250
231		-115.234375
232		-109.375000
233		-113.281250
234		-105.468750
235		-109.375000
236		-99.609375
237		-105.468750
238		-97.656250
239		-103.515625
240		-93.750000
241		-99.609375
242		-89.843750
243		-95.703125
244		-87.890625
245		-89.843750
246		-83.984375
247		-85.937500
248		-80.078125
249		-83.984375
250		-74.218750
251		-80.078125
252		-70.312500
253		-76.171875
254		-68.359375
255		-70.312500
256		-62.500000
257		-68.359375
258		-58.593750
259		-64.453125
260		-56.640625
261		-56.640625
262		-52.734375
263		-54.687500
264		-48.828125
265		-50.781250
266		-41.015625
267		-46.875000
268		-37.109375
269		-42.968750
270		-35.156250
271		-39.062500
272		-29.296875
273		-33.203125
274		-23.437500
275		-29.296875
276		-21.484375
277		-25.390625
278		-17.578125
279		-19.531250
280		-13.671875
281		-15.625000
282		-7.812500
283		-11.718750
284		-3.906250
285		-9.765625
286		0.000000
287		-3.906250
288		3.906250
289		0.000000
290		9.765625
291		3.906250
292		11.718750
293		7.812500
294		15.625000
295		13.671875
296		19.531250
297		17.578125
298		25.390625
299		19.531250
300		29.296875
301		23.437500
302		31.250000
303		27.343750
304		37.109375
305		31.250000
306		39.062500
307		35.156250
308		42.968750
309		39.062500
310		46.875000
311		44.921875
312		50.781250
313		48.828125
314		52.734375
315		50.781250
316		58.593750
317		54.687500
318		62.500000
319		56.640625
320		66.406250
321		60.546875
322		68.359375
323		64.453125
324		72.265625
325		68.359375
326		76.171875
327		72.265625
328		78.125000
329		76.171875
330		80.078125
331		78.125000
332		85.937500
333		80.078125
334		87.890625
335		83.984375
336		89.843750
337		85.937500
338		93.750000
339		89.843750
340		95.703125
341		91.796875
342		99.609375
343		95.703125
344		99.609375
345		97.656250
346		103.515625
347		101.562500
348		105.468750
349		101.562500
350		109.375000
351		103.515625
352		111.328125
353		105.468750
354		113.281250
355		109.375000
356		115.234375
357		111.328125
358		117.187500
359		111.328125
360		119.140625
361		115.234375
362		119.140625
363		119.140625
364		121.093750
365		119.140625
366		125.000000
367		119.140625
368		126.953125
369		121.093750
370		128.906250
371		123.046875
372		130.859375
373		125.000000
374		130.859375
375		125.000000
376		132.812500
377		126.953125
378		132.812500
379		130.859375
380		132.812500
381		130.859375
382		134.765625
383		130.859375
384		136.718750
385		130.859375
386		138.671875
387		132.812500
388		138.671875
389		132.812500
390		140.625000
391		132.812500
392		140.625000
393		134.765625
394		140.625000
395		136.718750
396		140.625000
397		138.671875
398		140.625000
399		136.718750
400		142.578125
401		136.718750
402		142.578125
403		136.718750
404		142.578125
405		136.718750
406		142.578125
407		136.718750
408		142.578125
409		136.718750
410		142.578125
411		138.671875
412		142.578125
413		138.671875
414		140.625000
415		136.718750
416		142.578125
417		134.765625
418		142.578125
419		134.765625
420		140.625000
421		134.765625
422		140.625000
423		132.812500
424		140.625000
425		132.812500
426		140.625000
427		132.812500
428		138.671875
429		132.812500
430		136.718750
431		132.812500
432		134.765625
433		128.906250
434		134.765625
435		128.906250
436		134.765625
437		126.953125
438		134.765625
439		125.000000
440		132.812500
441		123.046875
442		130.859375
443		123.046875
444		128.906250
445		123.046875
446		126.953125
447		121.093750
448		125.000000
449		117.187500
450		125.000000
451		117.187500
452		123.046875
453		113.281250
454		121.093750
455		111.328125
456		119.140625
457		109.375000
458		117.187500
459		107.421875
460		115.234375
461		105.468750
462		113.281250
463		103.515625
464		107.421875
465		99.609375
466		105.468750
467		97.656250
468		105.468750
469		93.750000
470		103.515625
471		91.796875
472		99.609375
473		89.843750
474		97.656250
475		87.890625
476		93.750000
477		83.984375
478		91.796875
479		82.031250
480		85.937500
481		80.078125
482		83.984375
483		74.218750
484		82.031250
485		72.265625
486		78.125000
487		66.406250
488		76.171875
489		64.453125
490		72.265625
491		60.546875
492		70.312500
493		58.593750
494		66.406250
495		56.640625
496		62.500000
497		50.781250
498		56.640625
499		46.875000
500		52.734375
501		42.968750
502		50.781250
503		39.062500
504		46.875000
505		37.109375
506		44.921875
507		31.250000
508		41.015625
509		27.343750
510		35.156250
511		25.390625
512		33.203125
513		21.484375
514		27.343750
515		17.578125
516		23.437500
517		11.718750
518		19.531250
519		7.812500
520		17.578125
521		3.906250
522		13.671875
523		0.000000
524		7.812500
525		-3.906250
526		3.906250
527		-9.765625
528		0.000000
529		-11.718750
530		-5.859375
531		-15.625000
532		-9.765625
533		-21.484375
534		-13.671875
535		-25.390625
536		-15.625000
537		-29.296875
538		-21.484375
539		-33.203125
540		-25.390625
541		-37.109375
542		-29.296875
543		-41.015625
544		-33.203125
545		-44.921875
546		-37.109375
547		-48.828125
548		-42.968750
549		-54.687500
550		-46.875000
551		-58.593750
552		-48.828125
553		-64.453125
554		-54.687500
555		-66.406250
556		-58.593750
557		-70.312500
558		-62.500000
559		-74.218750
560		-66.406250
561		-78.125000
562		-70.312500
563		-80.078125
564		-76.171875
565		-83.984375
566		-78.125000
567		-89.843750
568		-82.031250
569		-93.750000
570		-85.937500
571		-97.656250
572		-87.890625
573		-101.562500
574		-91.796875
575		-103.515625
576		-95.703125
577		-107.421875
578		-99.609375
579		-109.375000
580		-101.562500
581		-111.328125
582		-107.421875
583		-117.187500
584		-111.328125
585		-121.093750
586		-111.328125
587		-123.046875
588		-115.234375
589		-126.953125
590		-119.140625
591		-130.859375
592		-121.093750
593		-132.812500
594		-125.000000
595		-134.765625
596		-126.953125
597		-136.718750
598		-130.859375
599		-138.671875
600		-134.765625
601		-142.578125
602		-134.765625
603		-144.531250
604		-138.671875
605		-146.484375
606		-140.625000
607		-150.390625
608		-142.578125
609		-152.343750
610		-144.531250
611		-154.296875
612		-146.484375
613		-154.296875
614		-148.437500
615		-156.250000
616		-152.343750
617		-158.203125
618		-152.343750
619		-160.156250
620		-152.343750
621		-162.109375
622		-154.296875
623		-162.109375
624		-156.250000
625		-164.062500
626		-156.250000
627		-166.015625
628		-158.203125
629		-166.015625
630		-160.156250
631		-166.015625
632		-162.109375
633		-166.015625
634		-162.109375
635		-167.968750
636		-162.109375
637		-169.921875
638		-162.109375
639		-169.921875
640		-162.109375
641		-169.921875
642		-162.109375
643		-169.921875
644		-162.109375
645		-169.921875
646		-162.109375
647		-166.015625
648		-164.062500
649		-167.968750
650		-164.062500
651		-167.968750
652		-162.109375
653		-167.968750
654		-162.109375
655		-167.968750
656		-160.156250
657		-166.015625
658		-160.156250
659		-166.015625
660		-158.203125
661		-164.062500
662		-158.203125
663		-164.062500
664		-158.203125
665		-160.156250
666		-156.250000
667		-158.203125
668		-152.343750
669		-158.203125
670		-152.343750
671		-158.203125
672		-150.390625
673		-156.250000
674		-148.437500
675		-152.343750
676		-146.484375
677		-152.343750
678		-144.531250
679		-150.390625
680		-142.578125
681		-146.484375
682		-140.625000
683		-142.578125
684		-138.671875
685		-142.578125
686		-134.765625
687		-138.671875
688		-132.812500
689		-136.718750
690		-128.906250
691		-134.765625
692		-126.953125
693		-132.812500
694		-123.046875
695		-128.906250
696		-121.093750
697		-123.046875
698		-119.140625
699		-121.093750
700		-115.234375
701		-117.187500
702		-111.328125
703		-115.234375
704		-107.421875
705		-111.328125
706		-103.515625
707		-109.375000
708		-101.562500
709		-107.421875
710		-97.656250
711		-101.562500
712		-93.750000
713		-95.703125
714		-91.796875
715		-91.796875
716		-87.890625
717		-87.890625
718		-83.984375
719		-85.937500
720		-78.125000
721		-82.031250
722		-74.218750
723		-78.125000
724		-70.312500
725		-74.218750
726		-66.406250
727		-70.312500
728		-60.546875
729		-64.453125
730		-58.593750
731		-60.546875
732		-54.687500
733		-56.640625
734		-50.781250
735		-52.734375
736		-44.921875
737		-48.828125
738		-39.062500
739		-46.875000
740		-37.109375
741		-41.015625
742		-33.203125
743		-37.109375
744		-27.343750
745		-33.203125
746		-25.390625
747		-29.296875
748		-21.484375
749		-23.437500
750		-17.578125
751		-19.531250
752		-9.765625
753		-15.625000
754		-7.812500
755		-13.671875
756		-1.953125
757		-7.812500
758		1.953125
759		-1.953125
760		5.859375
761		0.000000
762		9.765625
763		3.906250
764		11.718750
765		9.765625
766		15.625000
767		15.625000
768		21.484375
769		17.578125
770		25.390625
771		19.531250
772		29.296875
773		25.390625
774		35.156250
775		29.296875
776		37.109375
777		33.203125
778		41.015625
779		37.109375
780		44.921875
781		41.015625
782		46.875000
783		44.921875
784		50.781250
785		48.828125
786		54.687500
787		52.734375
788		60.546875
789		54.687500
790		64.453125
791		58.593750
792		66.406250
793		60.546875
794		70.312500
795		66.406250
796		74.218750
797		68.359375
798		74.218750
799		74.218750
800		78.125000
801		76.171875
802		82.031250
803		78.125000
804		85.937500
805		80.078125
806		89.843750
807		83.984375
808		91.796875
809		85.937500
810		95.703125
811		89.843750
812		97.656250
813		91.796875
814		99.609375
815		95.703125
816		101.562500
817		99.609375
818		103.515625
819		101.562500
820		107.421875
821		103.515625
822		109.375000
823		105.468750
824		111.328125
825		107.421875
826		115.234375
827		111.328125
828		117.187500
829		111.328125
830		117.187500
831		113.281250
832		119.140625
833		117.187500
834		121.093750
835		119.140625
836		125.000000
837		119.140625
838		126.953125
839		121.093750
840		128.906250
841		123.046875
842		128.906250
843		123.046875
844		130.859375
845		125.000000
846		132.812500
847		126.953125
848		132.812500
849		130.859375
850		132.812500
851		130.859375
852		134.765625
853		130.859375
854		136.718750
855		130.859375
856		138.671875
857		132.812500
858		138.671875
859		132.812500
860		140.625000
861		134.765625
862		140.625000
863		134.765625
864		140.625000
865		136.718750
866		140.625000
867		138.671875
868		140.625000
869		136.718750
870		142.578125
871		136.718750
872		142.578125
873		136.718750
874		144.531250
875		136.718750
876		144.531250
877		136.718750
878		144.531250
879		136.718750
880		144.531250
881		136.718750
882		144.531250
883		138.671875
884		142.578125
885		138.671875
886		140.625000
887		136.718750
888		142.578125
889		136.718750
890		142.578125
891		136.718750
892		142.578125
893		134.765625
894		142.578125
895		134.765625
896		140.625000
897		132.812500
898		140.625000
899		134.765625
900		138.671875
901		134.765625
902		136.718750
903		130.859375
904		136.718750
905		128.906250
906		136.718750
907		128.906250
908		134.765625
909		126.953125
910		134.765625
911		125.000000
912		132.812500
913		125.000000
914		130.859375
915		125.000000
916		128.906250
917		123.046875
918		126.953125
919		119.140625
920		125.000000
921		117.187500
922		125.000000
923		115.234375
924		123.046875
925		113.281250
926		121.093750
927		111.328125
928		119.140625
929		109.375000
930		117.187500
931		107.421875
932		115.234375
933		107.421875
934		111.328125
935		103.515625
936		109.375000
937		99.609375
938		107.421875
939		97.656250
940		105.468750
941		95.703125
942		103.515625
943		93.750000
944		99.609375
945		89.843750
946		97.656250
947		85.937500
948		93.750000
949		85.937500
950		89.843750
951		82.031250
952		87.890625
953		78.125000
954		83.984375
955		74.218750
956		82.031250
957		70.312500
958		80.078125
959		68.359375
960		76.171875
961		64.453125
962		72.265625
963		60.546875
964		68.359375
965		58.593750
966		66.406250
967		54.687500
968		60.546875
969		50.781250
970		56.640625
971		46.875000
972		54.687500
973		42.968750
974		50.781250
975		39.062500
976		48.828125
977		35.156250
978		42.968750
979		33.203125
980		39.062500
981		29.296875
982		35.156250
983		25.390625
984		31.250000
985		21.484375
986		27.343750
987		15.625000
988		23.437500
989		11.718750
990		21.484375
991		7.812500
992		17.578125
993		1.953125
994		11.718750
995		-1.953125
996		7.812500
997		-3.906250
998		3.906250
999		-7.812500
1000		0.000000
1001		-11.718750
1002		-5.859375
1003		-17.578125
1004		-9.765625
1005		-21.484375
1006		-11.718750
1007		-25.390625
1008		-15.625000
1009		-29.296875
1010		-21.484375
1011		-33.203125
1012		-23.437500
1013		-37.109375
1014		-27.343750
1015		-41.015625
1016		-33.203125
1017		-44.921875
1018		-39.062500
1019		-48.828125
1020		-42.968750
1021		-54.687500
1022		-46.875000
1023		-58.593750
1024		-48.828125
1025		-62.500000
1026		-54.687500
1027		-66.406250
1028		-58.593750
1029		-70.312500
1030		-62.500000
1031		-74.218750
1032		-66.406250
1033		-76.171875
1034		-68.359375
1035		-80.078125
1036		-74.218750
1037		-85.937500
1038		-78.125000
1039		-89.843750
1040		-82.031250
1041		-93.750000
1042		-85.937500
1043		-95.703125
1044		-87.890625
1045		-101.562500
1046		-91.796875
1047		-103.515625
1048		-95.703125
1049		-105.468750
1050		-97.656250
1051		-109.375000
1052		-103.515625
1053		-111.328125
1054		-107.421875
1055		-117.187500
1056		-109.375000
1057		-121.093750
1058		-113.281250
1059		-123.046875
1060		-115.234375
1061		-126.953125
1062		-119.140625
1063		-128.906250
1064		-121.093750
1065		-130.859375
1066		-125.000000
1067		-132.812500
1068		-128.906250
1069		-136.718750
1070		-130.859375
1071		-140.625000
1072		-134.765625
1073		-142.578125
1074		-134.765625
1075		-144.531250
1076		-136.718750
1077		-146.484375
1078		-140.625000
1079		-148.437500
1080		-142.578125
1081		-152.343750
1082		-144.531250
1083		-152.343750
1084		-146.484375
1085		-154.296875
1086		-150.390625
1087		-156.250000
1088		-150.390625
1089		-158.203125
1090		-152.343750
1091		-160.156250
1092		-152.343750
1093		-162.109375
1094		-154.296875
1095		-164.062500
1096		-156.250000
1097		-164.062500
1098		-156.250000
1099		-164.062500
1100		-158.203125
1101		-164.062500
1102		-160.156250
1103		-164.062500
1104		-162.109375
1105		-167.968750
1106		-162.109375
1107		-167.968750
1108		-162.109375
1109		-167.968750
1110		-162.109375
1111		-169.921875
1112		-162.109375
1113		-167.968750
1114		-162.109375
1115		-169.921875
1116		-162.109375
1117		-166.015625
1118		-164.062500
1119		-166.015625
1120		-164.062500
1121		-167.968750
1122		-162.109375
1123		-167.968750
1124		-160.156250
1125		-167.968750
1126		-160.156250
1127		-166.015625
1128		-160.156250
1129		-166.015625
1130		-158.203125
1131		-164.062500
1132		-158.203125
1133		-162.109375
1134		-156.250000
1135		-160.156250
1136		-158.203125
1137		-160.156250
1138		-156.250000
1139		-160.156250
1140		-152.343750
1141		-158.203125
1142		-150.390625
1143		-156.250000
1144		-148.437500
1145		-154.296875
1146		-146.484375
1147		-152.343750
1148		-146.484375
1149		-150.390625
1150		-142.578125
1151		-148.437500
1152		-142.578125
1153		-144.531250
1154		-140.625000
1155		-142.578125
1156		-136.718750
1157		-142.578125
1158		-132.812500
1159		-138.671875
1160		-130.859375
1161		-134.765625
1162		-128.906250
1163		-134.765625
1164		-125.000000
1165		-130.859375
1166		-123.046875
1167		-126.953125
1168		-121.093750
1169		-123.046875
1170		-117.187500
1171		-119.140625
1172		-113.281250
1173		-119.140625
1174		-109.375000
1175		-115.234375
1176		-105.468750
1177		-111.328125
1178		-101.562500
1179		-105.468750
1180		-99.609375
1181		-103.515625
1182		-95.703125
1183		-99.609375
1184		-91.796875
1185		-95.703125
1186		-89.843750
1187		-91.796875
1188		-85.937500
1189		-87.890625
1190		-80.078125
1191		-83.984375
1192		-76.171875
1193		-82.031250
1194		-72.265625
1195		-78.125000
1196		-68.359375
1197		-72.265625
1198		-64.453125
1199		-68.359375
1200		-60.546875
1201		-66.406250
1202		-56.640625
1203		-58.593750
1204		-52.734375
1205		-54.687500
1206		-48.828125
1207		-50.781250
1208		-42.968750
1209		-48.828125
1210		-39.062500
1211		-44.921875
1212		-35.156250
1213		-39.062500
1214		-29.296875
1215		-35.156250
1216		-25.390625
1217		-31.250000
1218		-23.437500
1219		-25.390625
1220		-19.531250
1221		-21.484375
1222		-15.625000
1223		-17.578125
