Old_data/metingen laweit/1000Hz, 35.3cm/data_81_m98.txt

Channel              :		CH1
Frequency            :		1.061kHz
Period               :		0.942ms
PK-PK                :		95.70mV
Probe attenuation    :		1X
Voltage per ADC value:		0.122070mV
Time interval        :		2.00000us

index		CH1_Voltage(mV)
1		31.250000
2		31.250000
3		39.062500
4		31.250000
5		37.109375
6		29.296875
7		37.109375
8		27.343750
9		35.156250
10		27.343750
11		33.203125
12		27.343750
13		31.250000
14		27.343750
15		29.296875
16		23.437500
17		29.296875
18		23.437500
19		29.296875
20		21.484375
21		27.343750
22		19.531250
23		27.343750
24		19.531250
25		25.390625
26		17.578125
27		25.390625
28		17.578125
29		23.437500
30		17.578125
31		21.484375
32		15.625000
33		21.484375
34		13.671875
35		21.484375
36		13.671875
37		19.531250
38		11.718750
39		17.578125
40		9.765625
41		17.578125
42		9.765625
43		15.625000
44		7.812500
45		13.671875
46		7.812500
47		11.718750
48		7.812500
49		11.718750
50		3.906250
51		11.718750
52		1.953125
53		9.765625
54		1.953125
55		9.765625
56		0.000000
57		7.812500
58		0.000000
59		5.859375
60		-1.953125
61		5.859375
62		-1.953125
63		1.953125
64		-1.953125
65		1.953125
66		-3.906250
67		1.953125
68		-5.859375
69		0.000000
70		-7.812500
71		0.000000
72		-7.812500
73		-1.953125
74		-9.765625
75		-1.953125
76		-9.765625
77		-3.906250
78		-11.718750
79		-5.859375
80		-11.718750
81		-7.812500
82		-11.718750
83		-9.765625
84		-15.625000
85		-7.812500
86		-15.625000
87		-9.765625
88		-17.578125
89		-9.765625
90		-17.578125
91		-11.718750
92		-19.531250
93		-11.718750
94		-19.531250
95		-13.671875
96		-19.531250
97		-15.625000
98		-19.531250
99		-17.578125
100		-23.437500
101		-15.625000
102		-23.437500
103		-17.578125
104		-25.390625
105		-17.578125
106		-25.390625
107		-17.578125
108		-25.390625
109		-19.531250
110		-27.343750
111		-19.531250
112		-27.343750
113		-21.484375
114		-25.390625
115		-23.437500
116		-29.296875
117		-23.437500
118		-29.296875
119		-23.437500
120		-29.296875
121		-23.437500
122		-31.250000
123		-23.437500
124		-31.250000
125		-23.437500
126		-31.250000
127		-25.390625
128		-31.250000
129		-25.390625
130		-31.250000
131		-27.343750
132		-31.250000
133		-29.296875
134		-33.203125
135		-27.343750
136		-33.203125
137		-27.343750
138		-35.156250
139		-27.343750
140		-35.156250
141		-29.296875
142		-35.156250
143		-27.343750
144		-35.156250
145		-29.296875
146		-33.203125
147		-29.296875
148		-33.203125
149		-31.250000
150		-35.156250
151		-29.296875
152		-35.156250
153		-29.296875
154		-37.109375
155		-29.296875
156		-35.156250
157		-29.296875
158		-37.109375
159		-29.296875
160		-35.156250
161		-29.296875
162		-37.109375
163		-29.296875
164		-33.203125
165		-31.250000
166		-33.203125
167		-31.250000
168		-35.156250
169		-29.296875
170		-35.156250
171		-29.296875
172		-35.156250
173		-29.296875
174		-35.156250
175		-29.296875
176		-35.156250
177		-27.343750
178		-35.156250
179		-27.343750
180		-33.203125
181		-29.296875
182		-31.250000
183		-29.296875
184		-33.203125
185		-25.390625
186		-33.203125
187		-25.390625
188		-33.203125
189		-25.390625
190		-33.203125
191		-25.390625
192		-31.250000
193		-23.437500
194		-31.250000
195		-23.437500
196		-29.296875
197		-23.437500
198		-27.343750
199		-25.390625
200		-27.343750
201		-21.484375
202		-29.296875
203		-21.484375
204		-27.343750
205		-21.484375
206		-27.343750
207		-21.484375
208		-25.390625
209		-19.531250
210		-25.390625
211		-19.531250
212		-25.390625
213		-17.578125
214		-21.484375
215		-19.531250
216		-21.484375
217		-17.578125
218		-21.484375
219		-15.625000
220		-21.484375
221		-13.671875
222		-21.484375
223		-13.671875
224		-19.531250
225		-11.718750
226		-17.578125
227		-11.718750
228		-17.578125
229		-11.718750
230		-15.625000
231		-9.765625
232		-13.671875
233		-11.718750
234		-13.671875
235		-7.812500
236		-13.671875
237		-7.812500
238		-11.718750
239		-5.859375
240		-11.718750
241		-5.859375
242		-9.765625
243		-3.906250
244		-9.765625
245		-1.953125
246		-7.812500
247		-1.953125
248		-5.859375
249		-1.953125
250		-3.906250
251		-1.953125
252		-5.859375
253		1.953125
254		-3.906250
255		1.953125
256		-3.906250
257		3.906250
258		-1.953125
259		5.859375
260		0.000000
261		5.859375
262		0.000000
263		7.812500
264		1.953125
265		7.812500
266		5.859375
267		7.812500
268		3.906250
269		11.718750
270		3.906250
271		11.718750
272		5.859375
273		13.671875
274		7.812500
275		13.671875
276		7.812500
277		15.625000
278		9.765625
279		15.625000
280		9.765625
281		17.578125
282		13.671875
283		17.578125
284		13.671875
285		19.531250
286		13.671875
287		21.484375
288		15.625000
289		21.484375
290		15.625000
291		23.437500
292		17.578125
293		25.390625
294		17.578125
295		25.390625
296		19.531250
297		25.390625
298		23.437500
299		25.390625
300		23.437500
301		27.343750
302		23.437500
303		29.296875
304		23.437500
305		31.250000
306		25.390625
307		31.250000
308		25.390625
309		33.203125
310		27.343750
311		33.203125
312		29.296875
313		35.156250
314		29.296875
315		35.156250
316		31.250000
317		35.156250
318		31.250000
319		37.109375
320		31.250000
321		39.062500
322		31.250000
323		39.062500
324		33.203125
325		41.015625
326		35.156250
327		41.015625
328		35.156250
329		42.968750
330		35.156250
331		42.968750
332		39.062500
333		41.015625
334		39.062500
335		42.968750
336		39.062500
337		46.875000
338		39.062500
339		44.921875
340		39.062500
341		46.875000
342		41.015625
343		48.828125
344		41.015625
345		48.828125
346		41.015625
347		48.828125
348		42.968750
349		48.828125
350		44.921875
351		48.828125
352		44.921875
353		50.781250
354		44.921875
355		50.781250
356		44.921875
357		50.781250
358		44.921875
359		52.734375
360		46.875000
361		52.734375
362		46.875000
363		52.734375
364		46.875000
365		52.734375
366		48.828125
367		52.734375
368		48.828125
369		54.687500
370		48.828125
371		54.687500
372		48.828125
373		54.687500
374		48.828125
375		54.687500
376		48.828125
377		56.640625
378		48.828125
379		56.640625
380		50.781250
381		56.640625
382		50.781250
383		56.640625
384		52.734375
385		54.687500
386		50.781250
387		56.640625
388		50.781250
389		56.640625
390		50.781250
391		56.640625
392		50.781250
393		56.640625
394		50.781250
395		56.640625
396		50.781250
397		56.640625
398		50.781250
399		56.640625
400		52.734375
401		54.687500
402		50.781250
403		56.640625
404		50.781250
405		56.640625
406		50.781250
407		56.640625
408		50.781250
409		56.640625
410		50.781250
411		56.640625
412		50.781250
413		56.640625
414		48.828125
415		56.640625
416		50.781250
417		54.687500
418		50.781250
419		52.734375
420		48.828125
421		54.687500
422		46.875000
423		54.687500
424		48.828125
425		54.687500
426		46.875000
427		54.687500
428		46.875000
429		52.734375
430		46.875000
431		52.734375
432		46.875000
433		52.734375
434		46.875000
435		50.781250
436		44.921875
437		50.781250
438		44.921875
439		50.781250
440		42.968750
441		50.781250
442		42.968750
443		50.781250
444		42.968750
445		50.781250
446		42.968750
447		48.828125
448		41.015625
449		48.828125
450		42.968750
451		44.921875
452		41.015625
453		44.921875
454		39.062500
455		46.875000
456		39.062500
457		44.921875
458		37.109375
459		44.921875
460		37.109375
461		42.968750
462		35.156250
463		42.968750
464		35.156250
465		41.015625
466		37.109375
467		39.062500
468		35.156250
469		37.109375
470		33.203125
471		39.062500
472		31.250000
473		37.109375
474		29.296875
475		37.109375
476		29.296875
477		37.109375
478		29.296875
479		35.156250
480		27.343750
481		33.203125
482		27.343750
483		33.203125
484		27.343750
485		29.296875
486		23.437500
487		31.250000
488		23.437500
489		29.296875
490		21.484375
491		29.296875
492		21.484375
493		27.343750
494		19.531250
495		27.343750
496		17.578125
497		25.390625
498		17.578125
499		25.390625
500		17.578125
501		21.484375
502		17.578125
503		19.531250
504		13.671875
505		21.484375
506		13.671875
507		19.531250
508		11.718750
509		19.531250
510		9.765625
511		17.578125
512		9.765625
513		15.625000
514		7.812500
515		15.625000
516		7.812500
517		13.671875
518		7.812500
519		9.765625
520		3.906250
521		9.765625
522		3.906250
523		9.765625
524		1.953125
525		9.765625
526		1.953125
527		7.812500
528		0.000000
529		5.859375
530		-1.953125
531		5.859375
532		-1.953125
533		3.906250
534		-1.953125
535		1.953125
536		-1.953125
537		0.000000
538		-5.859375
539		0.000000
540		-7.812500
541		0.000000
542		-7.812500
543		-1.953125
544		-9.765625
545		-1.953125
546		-9.765625
547		-3.906250
548		-11.718750
549		-3.906250
550		-9.765625
551		-7.812500
552		-11.718750
553		-7.812500
554		-13.671875
555		-7.812500
556		-15.625000
557		-7.812500
558		-17.578125
559		-9.765625
560		-17.578125
561		-9.765625
562		-17.578125
563		-11.718750
564		-19.531250
565		-11.718750
566		-19.531250
567		-13.671875
568		-19.531250
569		-17.578125
570		-21.484375
571		-15.625000
572		-23.437500
573		-15.625000
574		-23.437500
575		-17.578125
576		-25.390625
577		-17.578125
578		-25.390625
579		-19.531250
580		-27.343750
581		-19.531250
582		-27.343750
583		-19.531250
584		-25.390625
585		-23.437500
586		-27.343750
587		-23.437500
588		-29.296875
589		-21.484375
590		-29.296875
591		-23.437500
592		-31.250000
593		-23.437500
594		-31.250000
595		-25.390625
596		-31.250000
597		-25.390625
598		-31.250000
599		-25.390625
600		-31.250000
601		-25.390625
602		-31.250000
603		-29.296875
604		-33.203125
605		-27.343750
606		-33.203125
607		-27.343750
608		-33.203125
609		-27.343750
610		-35.156250
611		-27.343750
612		-35.156250
613		-27.343750
614		-35.156250
615		-27.343750
616		-35.156250
617		-29.296875
618		-33.203125
619		-31.250000
620		-33.203125
621		-31.250000
622		-35.156250
623		-29.296875
624		-35.156250
625		-29.296875
626		-37.109375
627		-29.296875
628		-35.156250
629		-29.296875
630		-35.156250
631		-29.296875
632		-37.109375
633		-29.296875
634		-33.203125
635		-31.250000
636		-33.203125
637		-31.250000
638		-35.156250
639		-29.296875
640		-35.156250
641		-29.296875
642		-35.156250
643		-29.296875
644		-35.156250
645		-29.296875
646		-35.156250
647		-29.296875
648		-35.156250
649		-29.296875
650		-35.156250
651		-27.343750
652		-31.250000
653		-29.296875
654		-31.250000
655		-27.343750
656		-33.203125
657		-27.343750
658		-33.203125
659		-25.390625
660		-31.250000
661		-25.390625
662		-31.250000
663		-25.390625
664		-31.250000
665		-25.390625
666		-31.250000
667		-23.437500
668		-27.343750
669		-25.390625
670		-27.343750
671		-25.390625
672		-29.296875
673		-21.484375
674		-27.343750
675		-21.484375
676		-27.343750
677		-21.484375
678		-27.343750
679		-19.531250
680		-27.343750
681		-19.531250
682		-25.390625
683		-19.531250
684		-23.437500
685		-19.531250
686		-21.484375
687		-19.531250
688		-21.484375
689		-15.625000
690		-21.484375
691		-15.625000
692		-21.484375
693		-13.671875
694		-19.531250
695		-13.671875
696		-19.531250
697		-11.718750
698		-17.578125
699		-11.718750
700		-17.578125
701		-11.718750
702		-13.671875
703		-11.718750
704		-13.671875
705		-9.765625
706		-13.671875
707		-7.812500
708		-13.671875
709		-5.859375
710		-11.718750
711		-5.859375
712		-11.718750
713		-3.906250
714		-9.765625
715		-3.906250
716		-9.765625
717		-1.953125
718		-5.859375
719		-3.906250
720		-3.906250
721		-1.953125
722		-5.859375
723		0.000000
724		-3.906250
725		1.953125
726		-3.906250
727		3.906250
728		-1.953125
729		3.906250
730		-1.953125
731		5.859375
732		0.000000
733		5.859375
734		0.000000
735		7.812500
736		3.906250
737		5.859375
738		5.859375
739		9.765625
740		3.906250
741		11.718750
742		5.859375
743		11.718750
744		5.859375
745		13.671875
746		7.812500
747		15.625000
748		7.812500
749		15.625000
750		9.765625
751		15.625000
752		13.671875
753		15.625000
754		13.671875
755		17.578125
756		13.671875
757		19.531250
758		13.671875
759		21.484375
760		15.625000
761		21.484375
762		15.625000
763		23.437500
764		17.578125
765		25.390625
766		19.531250
767		25.390625
768		19.531250
769		25.390625
770		23.437500
771		25.390625
772		21.484375
773		29.296875
774		23.437500
775		31.250000
776		23.437500
777		31.250000
778		25.390625
779		31.250000
780		27.343750
781		33.203125
782		27.343750
783		33.203125
784		29.296875
785		35.156250
786		31.250000
787		33.203125
788		33.203125
789		35.156250
790		31.250000
791		39.062500
792		31.250000
793		39.062500
794		33.203125
795		41.015625
796		35.156250
797		41.015625
798		35.156250
799		41.015625
800		35.156250
801		42.968750
802		37.109375
803		41.015625
804		39.062500
805		42.968750
806		39.062500
807		44.921875
808		39.062500
809		46.875000
810		39.062500
811		46.875000
812		41.015625
813		46.875000
814		41.015625
815		46.875000
816		41.015625
817		48.828125
818		42.968750
819		48.828125
820		44.921875
821		48.828125
822		44.921875
823		48.828125
824		44.921875
825		50.781250
826		44.921875
827		50.781250
828		44.921875
829		52.734375
830		44.921875
831		52.734375
832		46.875000
833		52.734375
834		46.875000
835		52.734375
836		50.781250
837		52.734375
838		50.781250
839		52.734375
840		48.828125
841		54.687500
842		48.828125
843		54.687500
844		48.828125
845		54.687500
846		48.828125
847		56.640625
848		48.828125
849		56.640625
850		50.781250
851		56.640625
852		50.781250
853		56.640625
854		52.734375
855		54.687500
856		50.781250
857		56.640625
858		50.781250
859		56.640625
860		50.781250
861		56.640625
862		50.781250
863		56.640625
864		50.781250
865		56.640625
866		50.781250
867		56.640625
868		50.781250
869		56.640625
870		52.734375
871		54.687500
872		52.734375
873		54.687500
874		50.781250
875		56.640625
876		50.781250
877		56.640625
878		50.781250
879		56.640625
880		50.781250
881		56.640625
882		50.781250
883		56.640625
884		50.781250
885		56.640625
886		50.781250
887		54.687500
888		50.781250
889		54.687500
890		48.828125
891		54.687500
892		48.828125
893		54.687500
894		48.828125
895		54.687500
896		48.828125
897		54.687500
898		46.875000
899		54.687500
900		46.875000
901		52.734375
902		46.875000
903		52.734375
904		48.828125
905		50.781250
906		46.875000
907		50.781250
908		44.921875
909		50.781250
910		44.921875
911		50.781250
912		44.921875
913		50.781250
914		42.968750
915		48.828125
916		41.015625
917		48.828125
918		41.015625
919		48.828125
920		42.968750
921		46.875000
922		42.968750
923		44.921875
924		39.062500
925		44.921875
926		39.062500
927		44.921875
928		39.062500
929		44.921875
930		37.109375
931		44.921875
932		37.109375
933		42.968750
934		35.156250
935		42.968750
936		35.156250
937		42.968750
938		35.156250
939		39.062500
940		33.203125
941		39.062500
942		33.203125
943		39.062500
944		31.250000
945		37.109375
946		29.296875
947		37.109375
948		29.296875
949		35.156250
950		27.343750
951		35.156250
952		27.343750
953		33.203125
954		27.343750
955		31.250000
956		27.343750
957		29.296875
958		23.437500
959		29.296875
960		23.437500
961		29.296875
962		21.484375
963		27.343750
964		21.484375
965		27.343750
966		19.531250
967		27.343750
968		17.578125
969		25.390625
970		19.531250
971		23.437500
972		17.578125
973		21.484375
974		13.671875
975		21.484375
976		13.671875
977		19.531250
978		11.718750
979		19.531250
980		11.718750
981		17.578125
982		9.765625
983		17.578125
984		7.812500
985		15.625000
986		7.812500
987		13.671875
988		7.812500
989		11.718750
990		5.859375
991		9.765625
992		3.906250
993		11.718750
994		1.953125
995		9.765625
996		1.953125
997		9.765625
998		0.000000
999		7.812500
1000		0.000000
1001		5.859375
1002		-1.953125
1003		3.906250
1004		0.000000
1005		1.953125
1006		-1.953125
1007		0.000000
1008		-3.906250
1009		0.000000
1010		-7.812500
1011		0.000000
1012		-7.812500
1013		0.000000
1014		-7.812500
1015		-1.953125
1016		-9.765625
1017		-1.953125
1018		-9.765625
1019		-3.906250
1020		-11.718750
1021		-5.859375
1022		-9.765625
1023		-7.812500
1024		-11.718750
1025		-7.812500
1026		-15.625000
1027		-7.812500
1028		-15.625000
1029		-9.765625
1030		-17.578125
1031		-11.718750
1032		-17.578125
1033		-11.718750
1034		-19.531250
1035		-11.718750
1036		-19.531250
1037		-13.671875
1038		-19.531250
1039		-15.625000
1040		-19.531250
1041		-17.578125
1042		-23.437500
1043		-15.625000
1044		-23.437500
1045		-15.625000
1046		-25.390625
1047		-17.578125
1048		-25.390625
1049		-17.578125
1050		-25.390625
1051		-19.531250
1052		-27.343750
1053		-19.531250
1054		-25.390625
1055		-21.484375
1056		-25.390625
1057		-23.437500
1058		-29.296875
1059		-23.437500
1060		-29.296875
1061		-23.437500
1062		-29.296875
1063		-23.437500
1064		-31.250000
1065		-23.437500
1066		-31.250000
1067		-23.437500
1068		-31.250000
1069		-25.390625
1070		-31.250000
1071		-25.390625
1072		-31.250000
1073		-27.343750
1074		-31.250000
1075		-27.343750
1076		-33.203125
1077		-27.343750
1078		-33.203125
1079		-27.343750
1080		-35.156250
1081		-27.343750
1082		-35.156250
1083		-27.343750
1084		-35.156250
1085		-29.296875
1086		-35.156250
1087		-27.343750
1088		-33.203125
1089		-31.250000
1090		-33.203125
1091		-31.250000
1092		-35.156250
1093		-29.296875
1094		-35.156250
1095		-29.296875
1096		-35.156250
1097		-29.296875
1098		-35.156250
1099		-29.296875
1100		-35.156250
1101		-29.296875
1102		-37.109375
1103		-29.296875
1104		-35.156250
1105		-29.296875
1106		-33.203125
1107		-31.250000
1108		-35.156250
1109		-29.296875
1110		-35.156250
1111		-29.296875
1112		-35.156250
1113		-29.296875
1114		-35.156250
1115		-29.296875
1116		-35.156250
1117		-29.296875
1118		-35.156250
1119		-29.296875
1120		-33.203125
1121		-27.343750
1122		-31.250000
1123		-29.296875
1124		-31.250000
1125		-29.296875
1126		-33.203125
1127		-27.343750
1128		-33.203125
1129		-25.390625
1130		-33.203125
1131		-25.390625
1132		-31.250000
1133		-25.390625
1134		-31.250000
1135		-25.390625
1136		-31.250000
1137		-25.390625
1138		-29.296875
1139		-23.437500
1140		-27.343750
1141		-25.390625
1142		-27.343750
1143		-23.437500
1144		-29.296875
1145		-21.484375
1146		-27.343750
1147		-21.484375
1148		-27.343750
1149		-19.531250
1150		-25.390625
1151		-19.531250
1152		-25.390625
1153		-19.531250
1154		-25.390625
1155		-19.531250
1156		-21.484375
1157		-19.531250
1158		-21.484375
1159		-17.578125
1160		-21.484375
1161		-15.625000
1162		-21.484375
1163		-15.625000
1164		-21.484375
1165		-13.671875
1166		-19.531250
1167		-13.671875
1168		-19.531250
1169		-11.718750
1170		-17.578125
1171		-11.718750
1172		-15.625000
1173		-11.718750
1174		-13.671875
1175		-11.718750
1176		-13.671875
1177		-7.812500
1178		-13.671875
1179		-7.812500
1180		-13.671875
1181		-5.859375
1182		-11.718750
1183		-3.906250
1184		-11.718750
1185		-3.906250
1186		-9.765625
1187		-3.906250
1188		-9.765625
1189		-1.953125
1190		-5.859375
1191		-1.953125
1192		-3.906250
1193		0.000000
1194		-5.859375
1195		1.953125
1196		-3.906250
1197		1.953125
1198		-1.953125
1199		3.906250
1200		-1.953125
1201		3.906250
1202		-1.953125
1203		5.859375
1204		0.000000
1205		7.812500
1206		3.906250
1207		5.859375
1208		3.906250
1209		7.812500
1210		3.906250
1211		9.765625
1212		3.906250
1213		11.718750
1214		5.859375
1215		13.671875
1216		7.812500
1217		13.671875
1218		7.812500
1219		15.625000
1220		9.765625
1221		15.625000
1222		11.718750
1223		15.625000
1224		13.671875
1225		15.625000
1226		13.671875
1227		19.531250
1228		13.671875
1229		21.484375
1230		15.625000
1231		21.484375
1232		15.625000
1233		23.437500
1234		17.578125
1235		23.437500
1236		17.578125
1237		25.390625
1238		19.531250
1239		25.390625
1240		23.437500
1241		25.390625
1242		23.437500
1243		27.343750
1244		23.437500
1245		29.296875
1246		23.437500
1247		31.250000
1248		25.390625
1249		31.250000
1250		25.390625
1251		33.203125
1252		27.343750
1253		33.203125
1254		27.343750
1255		35.156250
1256		31.250000
1257		33.203125
1258		31.250000
1259		35.156250
1260		31.250000
1261		37.109375
1262		31.250000
1263		39.062500
1264		33.203125
1265		39.062500
1266		33.203125
1267		41.015625
1268		33.203125
1269		41.015625
1270		35.156250
1271		42.968750
1272		37.109375
1273		42.968750
1274		39.062500
1275		41.015625
1276		39.062500
1277		42.968750
1278		37.109375
1279		44.921875
1280		39.062500
1281		46.875000
1282		41.015625
