Old_data/metingen laweit/1000Hz, 35.3cm/data_81_m16.txt

Channel              :		CH1
Frequency            :		1.061kHz
Period               :		0.942ms
PK-PK                :		304.7mV
Probe attenuation    :		1X
Voltage per ADC value:		0.122070mV
Time interval        :		2.00000us

index		CH1_Voltage(mV)
1		97.656250
2		97.656250
3		87.890625
4		95.703125
5		85.937500
6		93.750000
7		82.031250
8		91.796875
9		80.078125
10		89.843750
11		78.125000
12		85.937500
13		74.218750
14		82.031250
15		72.265625
16		78.125000
17		68.359375
18		74.218750
19		64.453125
20		70.312500
21		60.546875
22		68.359375
23		58.593750
24		64.453125
25		52.734375
26		62.500000
27		50.781250
28		58.593750
29		46.875000
30		56.640625
31		42.968750
32		50.781250
33		41.015625
34		46.875000
35		37.109375
36		42.968750
37		31.250000
38		39.062500
39		29.296875
40		35.156250
41		25.390625
42		33.203125
43		21.484375
44		29.296875
45		15.625000
46		25.390625
47		13.671875
48		21.484375
49		9.765625
50		17.578125
51		5.859375
52		11.718750
53		0.000000
54		7.812500
55		-1.953125
56		5.859375
57		-7.812500
58		1.953125
59		-9.765625
60		-1.953125
61		-15.625000
62		-5.859375
63		-19.531250
64		-9.765625
65		-21.484375
66		-13.671875
67		-25.390625
68		-19.531250
69		-29.296875
70		-23.437500
71		-35.156250
72		-25.390625
73		-39.062500
74		-29.296875
75		-42.968750
76		-33.203125
77		-46.875000
78		-37.109375
79		-48.828125
80		-41.015625
81		-52.734375
82		-44.921875
83		-56.640625
84		-48.828125
85		-58.593750
86		-54.687500
87		-64.453125
88		-58.593750
89		-68.359375
90		-58.593750
91		-72.265625
92		-64.453125
93		-76.171875
94		-66.406250
95		-80.078125
96		-70.312500
97		-82.031250
98		-76.171875
99		-83.984375
100		-78.125000
101		-87.890625
102		-83.984375
103		-91.796875
104		-85.937500
105		-95.703125
106		-87.890625
107		-99.609375
108		-91.796875
109		-101.562500
110		-93.750000
111		-105.468750
112		-97.656250
113		-107.421875
114		-101.562500
115		-111.328125
116		-103.515625
117		-111.328125
118		-107.421875
119		-115.234375
120		-109.375000
121		-119.140625
122		-113.281250
123		-121.093750
124		-115.234375
125		-123.046875
126		-117.187500
127		-126.953125
128		-117.187500
129		-128.906250
130		-121.093750
131		-130.859375
132		-123.046875
133		-132.812500
134		-126.953125
135		-132.812500
136		-128.906250
137		-136.718750
138		-130.859375
139		-138.671875
140		-130.859375
141		-138.671875
142		-132.812500
143		-142.578125
144		-134.765625
145		-144.531250
146		-136.718750
147		-144.531250
148		-138.671875
149		-146.484375
150		-138.671875
151		-144.531250
152		-142.578125
153		-146.484375
154		-142.578125
155		-148.437500
156		-142.578125
157		-150.390625
158		-142.578125
159		-150.390625
160		-142.578125
161		-152.343750
162		-144.531250
163		-150.390625
164		-144.531250
165		-152.343750
166		-144.531250
167		-150.390625
168		-146.484375
169		-150.390625
170		-146.484375
171		-152.343750
172		-144.531250
173		-152.343750
174		-144.531250
175		-152.343750
176		-144.531250
177		-150.390625
178		-144.531250
179		-150.390625
180		-144.531250
181		-150.390625
182		-144.531250
183		-148.437500
184		-142.578125
185		-146.484375
186		-142.578125
187		-146.484375
188		-142.578125
189		-146.484375
190		-138.671875
191		-144.531250
192		-138.671875
193		-144.531250
194		-136.718750
195		-142.578125
196		-134.765625
197		-140.625000
198		-132.812500
199		-138.671875
200		-130.859375
201		-136.718750
202		-130.859375
203		-132.812500
204		-128.906250
205		-132.812500
206		-126.953125
207		-130.859375
208		-123.046875
209		-128.906250
210		-121.093750
211		-126.953125
212		-117.187500
213		-123.046875
214		-115.234375
215		-121.093750
216		-113.281250
217		-119.140625
218		-111.328125
219		-113.281250
220		-109.375000
221		-111.328125
222		-105.468750
223		-109.375000
224		-101.562500
225		-107.421875
226		-99.609375
227		-103.515625
228		-95.703125
229		-101.562500
230		-91.796875
231		-97.656250
232		-87.890625
233		-93.750000
234		-85.937500
235		-87.890625
236		-83.984375
237		-85.937500
238		-80.078125
239		-82.031250
240		-76.171875
241		-80.078125
242		-72.265625
243		-76.171875
244		-68.359375
245		-72.265625
246		-64.453125
247		-70.312500
248		-60.546875
249		-66.406250
250		-56.640625
251		-60.546875
252		-54.687500
253		-56.640625
254		-50.781250
255		-52.734375
256		-44.921875
257		-50.781250
258		-41.015625
259		-44.921875
260		-37.109375
261		-41.015625
262		-33.203125
263		-37.109375
264		-29.296875
265		-35.156250
266		-25.390625
267		-29.296875
268		-21.484375
269		-25.390625
270		-19.531250
271		-19.531250
272		-15.625000
273		-17.578125
274		-7.812500
275		-13.671875
276		-3.906250
277		-9.765625
278		0.000000
279		-3.906250
280		3.906250
281		-1.953125
282		5.859375
283		1.953125
284		11.718750
285		5.859375
286		13.671875
287		11.718750
288		17.578125
289		15.625000
290		23.437500
291		17.578125
292		27.343750
293		21.484375
294		31.250000
295		25.390625
296		35.156250
297		29.296875
298		39.062500
299		33.203125
300		41.015625
301		37.109375
302		44.921875
303		42.968750
304		46.875000
305		46.875000
306		52.734375
307		48.828125
308		56.640625
309		50.781250
310		60.546875
311		56.640625
312		62.500000
313		58.593750
314		66.406250
315		62.500000
316		70.312500
317		64.453125
318		72.265625
319		70.312500
320		76.171875
321		74.218750
322		78.125000
323		76.171875
324		83.984375
325		78.125000
326		85.937500
327		80.078125
328		87.890625
329		83.984375
330		91.796875
331		85.937500
332		95.703125
333		89.843750
334		97.656250
335		93.750000
336		97.656250
337		95.703125
338		101.562500
339		99.609375
340		105.468750
341		101.562500
342		107.421875
343		103.515625
344		109.375000
345		105.468750
346		111.328125
347		107.421875
348		115.234375
349		109.375000
350		117.187500
351		111.328125
352		119.140625
353		115.234375
354		119.140625
355		117.187500
356		123.046875
357		117.187500
358		125.000000
359		119.140625
360		126.953125
361		121.093750
362		128.906250
363		121.093750
364		130.859375
365		123.046875
366		132.812500
367		125.000000
368		132.812500
369		126.953125
370		132.812500
371		130.859375
372		134.765625
373		130.859375
374		136.718750
375		130.859375
376		136.718750
377		132.812500
378		138.671875
379		132.812500
380		138.671875
381		134.765625
382		140.625000
383		134.765625
384		142.578125
385		134.765625
386		142.578125
387		138.671875
388		140.625000
389		136.718750
390		142.578125
391		138.671875
392		144.531250
393		138.671875
394		144.531250
395		138.671875
396		144.531250
397		138.671875
398		146.484375
399		138.671875
400		146.484375
401		138.671875
402		146.484375
403		142.578125
404		144.531250
405		142.578125
406		144.531250
407		138.671875
408		146.484375
409		138.671875
410		146.484375
411		138.671875
412		146.484375
413		138.671875
414		144.531250
415		138.671875
416		144.531250
417		138.671875
418		144.531250
419		136.718750
420		144.531250
421		138.671875
422		140.625000
423		136.718750
424		142.578125
425		134.765625
426		140.625000
427		134.765625
428		140.625000
429		132.812500
430		140.625000
431		132.812500
432		138.671875
433		130.859375
434		138.671875
435		130.859375
436		136.718750
437		130.859375
438		134.765625
439		128.906250
440		132.812500
441		125.000000
442		132.812500
443		125.000000
444		132.812500
445		123.046875
446		130.859375
447		121.093750
448		128.906250
449		119.140625
450		126.953125
451		117.187500
452		125.000000
453		117.187500
454		123.046875
455		115.234375
456		119.140625
457		111.328125
458		117.187500
459		109.375000
460		117.187500
461		107.421875
462		115.234375
463		105.468750
464		111.328125
465		101.562500
466		109.375000
467		99.609375
468		107.421875
469		97.656250
470		105.468750
471		95.703125
472		99.609375
473		91.796875
474		97.656250
475		87.890625
476		95.703125
477		85.937500
478		93.750000
479		83.984375
480		89.843750
481		80.078125
482		87.890625
483		76.171875
484		83.984375
485		72.265625
486		82.031250
487		72.265625
488		76.171875
489		68.359375
490		74.218750
491		62.500000
492		72.265625
493		60.546875
494		68.359375
495		56.640625
496		66.406250
497		54.687500
498		62.500000
499		50.781250
500		58.593750
501		44.921875
502		54.687500
503		44.921875
504		50.781250
505		41.015625
506		46.875000
507		37.109375
508		42.968750
509		31.250000
510		41.015625
511		27.343750
512		37.109375
513		23.437500
514		33.203125
515		21.484375
516		29.296875
517		17.578125
518		25.390625
519		13.671875
520		21.484375
521		9.765625
522		15.625000
523		5.859375
524		11.718750
525		1.953125
526		9.765625
527		-1.953125
528		5.859375
529		-7.812500
530		1.953125
531		-11.718750
532		-1.953125
533		-15.625000
534		-5.859375
535		-17.578125
536		-11.718750
537		-21.484375
538		-13.671875
539		-25.390625
540		-19.531250
541		-31.250000
542		-23.437500
543		-35.156250
544		-27.343750
545		-37.109375
546		-29.296875
547		-41.015625
548		-33.203125
549		-44.921875
550		-37.109375
551		-50.781250
552		-41.015625
553		-52.734375
554		-44.921875
555		-56.640625
556		-50.781250
557		-60.546875
558		-54.687500
559		-64.453125
560		-56.640625
561		-68.359375
562		-60.546875
563		-72.265625
564		-62.500000
565		-76.171875
566		-68.359375
567		-80.078125
568		-70.312500
569		-83.984375
570		-74.218750
571		-83.984375
572		-80.078125
573		-87.890625
574		-83.984375
575		-91.796875
576		-85.937500
577		-95.703125
578		-87.890625
579		-97.656250
580		-89.843750
581		-101.562500
582		-95.703125
583		-105.468750
584		-97.656250
585		-109.375000
586		-99.609375
587		-109.375000
588		-103.515625
589		-111.328125
590		-107.421875
591		-117.187500
592		-111.328125
593		-119.140625
594		-111.328125
595		-121.093750
596		-113.281250
597		-123.046875
598		-117.187500
599		-126.953125
600		-119.140625
601		-128.906250
602		-121.093750
603		-130.859375
604		-123.046875
605		-130.859375
606		-126.953125
607		-132.812500
608		-128.906250
609		-136.718750
610		-128.906250
611		-138.671875
612		-130.859375
613		-140.625000
614		-132.812500
615		-142.578125
616		-134.765625
617		-142.578125
618		-136.718750
619		-144.531250
620		-136.718750
621		-144.531250
622		-138.671875
623		-144.531250
624		-140.625000
625		-146.484375
626		-140.625000
627		-148.437500
628		-140.625000
629		-148.437500
630		-142.578125
631		-150.390625
632		-142.578125
633		-150.390625
634		-144.531250
635		-150.390625
636		-144.531250
637		-150.390625
638		-144.531250
639		-148.437500
640		-146.484375
641		-148.437500
642		-146.484375
643		-150.390625
644		-144.531250
645		-150.390625
646		-144.531250
647		-150.390625
648		-144.531250
649		-150.390625
650		-144.531250
651		-150.390625
652		-142.578125
653		-148.437500
654		-142.578125
655		-146.484375
656		-142.578125
657		-144.531250
658		-142.578125
659		-146.484375
660		-138.671875
661		-144.531250
662		-138.671875
663		-142.578125
664		-136.718750
665		-142.578125
666		-134.765625
667		-142.578125
668		-134.765625
669		-140.625000
670		-132.812500
671		-136.718750
672		-130.859375
673		-134.765625
674		-130.859375
675		-132.812500
676		-126.953125
677		-132.812500
678		-123.046875
679		-128.906250
680		-123.046875
681		-126.953125
682		-119.140625
683		-125.000000
684		-117.187500
685		-123.046875
686		-115.234375
687		-121.093750
688		-113.281250
689		-115.234375
690		-111.328125
691		-113.281250
692		-109.375000
693		-111.328125
694		-103.515625
695		-109.375000
696		-101.562500
697		-105.468750
698		-97.656250
699		-103.515625
700		-93.750000
701		-99.609375
702		-91.796875
703		-95.703125
704		-87.890625
705		-93.750000
706		-85.937500
707		-87.890625
708		-83.984375
709		-83.984375
710		-78.125000
711		-83.984375
712		-74.218750
713		-80.078125
714		-70.312500
715		-76.171875
716		-66.406250
717		-70.312500
718		-62.500000
719		-68.359375
720		-60.546875
721		-64.453125
722		-56.640625
723		-58.593750
724		-54.687500
725		-54.687500
726		-48.828125
727		-52.734375
728		-42.968750
729		-48.828125
730		-39.062500
731		-44.921875
732		-35.156250
733		-41.015625
734		-33.203125
735		-37.109375
736		-29.296875
737		-31.250000
738		-23.437500
739		-27.343750
740		-21.484375
741		-23.437500
742		-17.578125
743		-19.531250
744		-11.718750
745		-15.625000
746		-7.812500
747		-13.671875
748		-3.906250
749		-7.812500
750		0.000000
751		-3.906250
752		3.906250
753		0.000000
754		7.812500
755		3.906250
756		9.765625
757		9.765625
758		13.671875
759		13.671875
760		19.531250
761		15.625000
762		25.390625
763		19.531250
764		27.343750
765		23.437500
766		31.250000
767		25.390625
768		35.156250
769		31.250000
770		39.062500
771		33.203125
772		42.968750
773		39.062500
774		44.921875
775		42.968750
776		48.828125
777		44.921875
778		54.687500
779		48.828125
780		56.640625
781		52.734375
782		60.546875
783		56.640625
784		64.453125
785		58.593750
786		68.359375
787		60.546875
788		70.312500
789		66.406250
790		72.265625
791		70.312500
792		76.171875
793		74.218750
794		80.078125
795		74.218750
796		83.984375
797		78.125000
798		85.937500
799		82.031250
800		89.843750
801		83.984375
802		91.796875
803		85.937500
804		93.750000
805		89.843750
806		97.656250
807		93.750000
808		99.609375
809		97.656250
810		101.562500
811		97.656250
812		105.468750
813		99.609375
814		109.375000
815		103.515625
816		111.328125
817		105.468750
818		113.281250
819		107.421875
820		115.234375
821		109.375000
822		117.187500
823		113.281250
824		117.187500
825		115.234375
826		119.140625
827		117.187500
828		123.046875
829		117.187500
830		125.000000
831		119.140625
832		126.953125
833		121.093750
834		128.906250
835		123.046875
836		130.859375
837		125.000000
838		132.812500
839		126.953125
840		132.812500
841		128.906250
842		132.812500
843		130.859375
844		134.765625
845		130.859375
846		138.671875
847		130.859375
848		138.671875
849		132.812500
850		138.671875
851		134.765625
852		140.625000
853		134.765625
854		142.578125
855		136.718750
856		142.578125
857		138.671875
858		140.625000
859		138.671875
860		142.578125
861		138.671875
862		144.531250
863		138.671875
864		144.531250
865		138.671875
866		144.531250
867		138.671875
868		146.484375
869		138.671875
870		146.484375
871		140.625000
872		146.484375
873		140.625000
874		146.484375
875		142.578125
876		144.531250
877		140.625000
878		146.484375
879		140.625000
880		146.484375
881		140.625000
882		146.484375
883		140.625000
884		146.484375
885		138.671875
886		146.484375
887		138.671875
888		146.484375
889		138.671875
890		144.531250
891		138.671875
892		142.578125
893		138.671875
894		142.578125
895		136.718750
896		142.578125
897		134.765625
898		142.578125
899		134.765625
900		140.625000
901		132.812500
902		140.625000
903		132.812500
904		138.671875
905		130.859375
906		138.671875
907		132.812500
908		136.718750
909		130.859375
910		134.765625
911		128.906250
912		132.812500
913		125.000000
914		132.812500
915		125.000000
916		130.859375
917		123.046875
918		128.906250
919		121.093750
920		128.906250
921		119.140625
922		126.953125
923		117.187500
924		125.000000
925		117.187500
926		121.093750
927		113.281250
928		119.140625
929		111.328125
930		119.140625
931		109.375000
932		117.187500
933		105.468750
934		115.234375
935		105.468750
936		111.328125
937		101.562500
938		109.375000
939		99.609375
940		107.421875
941		97.656250
942		101.562500
943		95.703125
944		99.609375
945		91.796875
946		97.656250
947		89.843750
948		95.703125
949		85.937500
950		93.750000
951		82.031250
952		91.796875
953		80.078125
954		87.890625
955		76.171875
956		83.984375
957		76.171875
958		80.078125
959		72.265625
960		76.171875
961		66.406250
962		74.218750
963		62.500000
964		72.265625
965		60.546875
966		68.359375
967		56.640625
968		64.453125
969		52.734375
970		62.500000
971		48.828125
972		58.593750
973		46.875000
974		54.687500
975		44.921875
976		48.828125
977		41.015625
978		44.921875
979		35.156250
980		42.968750
981		31.250000
982		41.015625
983		29.296875
984		35.156250
985		23.437500
986		31.250000
987		19.531250
988		29.296875
989		15.625000
990		25.390625
991		13.671875
992		21.484375
993		9.765625
994		15.625000
995		5.859375
996		11.718750
997		0.000000
998		9.765625
999		-3.906250
1000		5.859375
1001		-7.812500
1002		0.000000
1003		-9.765625
1004		-3.906250
1005		-15.625000
1006		-7.812500
1007		-17.578125
1008		-11.718750
1009		-21.484375
1010		-15.625000
1011		-27.343750
1012		-19.531250
1013		-31.250000
1014		-23.437500
1015		-35.156250
1016		-27.343750
1017		-39.062500
1018		-31.250000
1019		-42.968750
1020		-33.203125
1021		-46.875000
1022		-39.062500
1023		-48.828125
1024		-42.968750
1025		-52.734375
1026		-46.875000
1027		-56.640625
1028		-50.781250
1029		-60.546875
1030		-54.687500
1031		-64.453125
1032		-56.640625
1033		-68.359375
1034		-60.546875
1035		-74.218750
1036		-64.453125
1037		-76.171875
1038		-66.406250
1039		-80.078125
1040		-72.265625
1041		-82.031250
1042		-76.171875
1043		-83.984375
1044		-80.078125
1045		-89.843750
1046		-83.984375
1047		-91.796875
1048		-85.937500
1049		-95.703125
1050		-87.890625
1051		-99.609375
1052		-91.796875
1053		-103.515625
1054		-93.750000
1055		-105.468750
1056		-97.656250
1057		-107.421875
1058		-101.562500
1059		-109.375000
1060		-105.468750
1061		-113.281250
1062		-107.421875
1063		-117.187500
1064		-109.375000
1065		-119.140625
1066		-111.328125
1067		-121.093750
1068		-113.281250
1069		-123.046875
1070		-117.187500
1071		-126.953125
1072		-119.140625
1073		-128.906250
1074		-121.093750
1075		-128.906250
1076		-123.046875
1077		-130.859375
1078		-126.953125
1079		-134.765625
1080		-126.953125
1081		-136.718750
1082		-128.906250
1083		-138.671875
1084		-130.859375
1085		-138.671875
1086		-132.812500
1087		-140.625000
1088		-134.765625
1089		-142.578125
1090		-134.765625
1091		-142.578125
1092		-136.718750
1093		-142.578125
1094		-140.625000
1095		-144.531250
1096		-140.625000
1097		-146.484375
1098		-140.625000
1099		-146.484375
1100		-140.625000
1101		-148.437500
1102		-140.625000
1103		-148.437500
1104		-142.578125
1105		-150.390625
1106		-142.578125
1107		-148.437500
1108		-142.578125
1109		-148.437500
1110		-144.531250
1111		-148.437500
1112		-144.531250
1113		-150.390625
1114		-142.578125
1115		-148.437500
1116		-142.578125
1117		-148.437500
1118		-142.578125
1119		-148.437500
1120		-142.578125
1121		-148.437500
1122		-142.578125
1123		-148.437500
1124		-140.625000
1125		-148.437500
1126		-140.625000
1127		-144.531250
1128		-142.578125
1129		-144.531250
1130		-138.671875
1131		-144.531250
1132		-136.718750
1133		-144.531250
1134		-136.718750
1135		-142.578125
1136		-134.765625
1137		-140.625000
1138		-132.812500
1139		-138.671875
1140		-130.859375
1141		-138.671875
1142		-130.859375
1143		-132.812500
1144		-130.859375
1145		-132.812500
1146		-128.906250
1147		-132.812500
1148		-125.000000
1149		-130.859375
1150		-123.046875
1151		-126.953125
1152		-119.140625
1153		-125.000000
1154		-119.140625
1155		-123.046875
1156		-115.234375
1157		-119.140625
1158		-113.281250
1159		-117.187500
1160		-111.328125
1161		-113.281250
1162		-109.375000
1163		-111.328125
1164		-103.515625
1165		-109.375000
1166		-101.562500
1167		-107.421875
1168		-99.609375
1169		-103.515625
1170		-97.656250
1171		-101.562500
1172		-91.796875
1173		-97.656250
1174		-89.843750
1175		-93.750000
1176		-87.890625
1177		-89.843750
1178		-83.984375
1179		-85.937500
1180		-80.078125
1181		-83.984375
1182		-76.171875
1183		-80.078125
1184		-72.265625
1185		-76.171875
1186		-68.359375
1187		-74.218750
1188		-64.453125
1189		-70.312500
1190		-60.546875
1191		-66.406250
1192		-58.593750
1193		-60.546875
1194		-54.687500
1195		-56.640625
1196		-50.781250
1197		-54.687500
1198		-44.921875
1199		-50.781250
1200		-42.968750
1201		-46.875000
1202		-37.109375
1203		-42.968750
1204		-33.203125
1205		-39.062500
1206		-31.250000
1207		-35.156250
1208		-25.390625
1209		-31.250000
1210		-23.437500
1211		-25.390625
1212		-19.531250
1213		-21.484375
1214		-13.671875
1215		-19.531250
1216		-9.765625
1217		-13.671875
1218		-5.859375
1219		-11.718750
1220		-1.953125
1221		-5.859375
1222		1.953125
1223		-3.906250
1224		5.859375
1225		1.953125
1226		9.765625
1227		7.812500
1228		11.718750
